%!PS-Adobe-2.0 EPSF-2.0
%%Title: flux_imag_ssbc.eps
%%Creator: gnuplot 4.0 patchlevel 0
%%CreationDate: Fri Nov 17 17:01:12 2006
%%DocumentFonts: (atend)
%%BoundingBox: 50 50 410 302
%%Orientation: Portrait
%%EndComments
/gnudict 256 dict def
gnudict begin
/Color false def
/Solid false def
/gnulinewidth 5.000 def
/userlinewidth gnulinewidth def
/vshift -73 def
/dl {10.0 mul} def
/hpt_ 31.5 def
/vpt_ 31.5 def
/hpt hpt_ def
/vpt vpt_ def
/Rounded false def
/M {moveto} bind def
/L {lineto} bind def
/R {rmoveto} bind def
/V {rlineto} bind def
/N {newpath moveto} bind def
/C {setrgbcolor} bind def
/f {rlineto fill} bind def
/vpt2 vpt 2 mul def
/hpt2 hpt 2 mul def
/Lshow { currentpoint stroke M
  0 vshift R show } def
/Rshow { currentpoint stroke M
  dup stringwidth pop neg vshift R show } def
/Cshow { currentpoint stroke M
  dup stringwidth pop -2 div vshift R show } def
/UP { dup vpt_ mul /vpt exch def hpt_ mul /hpt exch def
  /hpt2 hpt 2 mul def /vpt2 vpt 2 mul def } def
/DL { Color {setrgbcolor Solid {pop []} if 0 setdash }
 {pop pop pop 0 setgray Solid {pop []} if 0 setdash} ifelse } def
/BL { stroke userlinewidth 2 mul setlinewidth
      Rounded { 1 setlinejoin 1 setlinecap } if } def
/AL { stroke userlinewidth 2 div setlinewidth
      Rounded { 1 setlinejoin 1 setlinecap } if } def
/UL { dup gnulinewidth mul /userlinewidth exch def
      dup 1 lt {pop 1} if 10 mul /udl exch def } def
/PL { stroke userlinewidth setlinewidth
      Rounded { 1 setlinejoin 1 setlinecap } if } def
/LTw { PL [] 1 setgray } def
/LTb { BL [] 0 0 0 DL } def
/LTa { AL [1 udl mul 2 udl mul] 0 setdash 0 0 0 setrgbcolor } def
/LT0 { PL [] 1 0 0 DL } def
/LT1 { PL [4 dl 2 dl] 0 1 0 DL } def
/LT2 { PL [2 dl 3 dl] 0 0 1 DL } def
/LT3 { PL [1 dl 1.5 dl] 1 0 1 DL } def
/LT4 { PL [5 dl 2 dl 1 dl 2 dl] 0 1 1 DL } def
/LT5 { PL [4 dl 3 dl 1 dl 3 dl] 1 1 0 DL } def
/LT6 { PL [2 dl 2 dl 2 dl 4 dl] 0 0 0 DL } def
/LT7 { PL [2 dl 2 dl 2 dl 2 dl 2 dl 4 dl] 1 0.3 0 DL } def
/LT8 { PL [2 dl 2 dl 2 dl 2 dl 2 dl 2 dl 2 dl 4 dl] 0.5 0.5 0.5 DL } def
/Pnt { stroke [] 0 setdash
   gsave 1 setlinecap M 0 0 V stroke grestore } def
/Dia { stroke [] 0 setdash 2 copy vpt add M
  hpt neg vpt neg V hpt vpt neg V
  hpt vpt V hpt neg vpt V closepath stroke
  Pnt } def
/Pls { stroke [] 0 setdash vpt sub M 0 vpt2 V
  currentpoint stroke M
  hpt neg vpt neg R hpt2 0 V stroke
  } def
/Box { stroke [] 0 setdash 2 copy exch hpt sub exch vpt add M
  0 vpt2 neg V hpt2 0 V 0 vpt2 V
  hpt2 neg 0 V closepath stroke
  Pnt } def
/Crs { stroke [] 0 setdash exch hpt sub exch vpt add M
  hpt2 vpt2 neg V currentpoint stroke M
  hpt2 neg 0 R hpt2 vpt2 V stroke } def
/TriU { stroke [] 0 setdash 2 copy vpt 1.12 mul add M
  hpt neg vpt -1.62 mul V
  hpt 2 mul 0 V
  hpt neg vpt 1.62 mul V closepath stroke
  Pnt  } def
/Star { 2 copy Pls Crs } def
/BoxF { stroke [] 0 setdash exch hpt sub exch vpt add M
  0 vpt2 neg V  hpt2 0 V  0 vpt2 V
  hpt2 neg 0 V  closepath fill } def
/TriUF { stroke [] 0 setdash vpt 1.12 mul add M
  hpt neg vpt -1.62 mul V
  hpt 2 mul 0 V
  hpt neg vpt 1.62 mul V closepath fill } def
/TriD { stroke [] 0 setdash 2 copy vpt 1.12 mul sub M
  hpt neg vpt 1.62 mul V
  hpt 2 mul 0 V
  hpt neg vpt -1.62 mul V closepath stroke
  Pnt  } def
/TriDF { stroke [] 0 setdash vpt 1.12 mul sub M
  hpt neg vpt 1.62 mul V
  hpt 2 mul 0 V
  hpt neg vpt -1.62 mul V closepath fill} def
/DiaF { stroke [] 0 setdash vpt add M
  hpt neg vpt neg V hpt vpt neg V
  hpt vpt V hpt neg vpt V closepath fill } def
/Pent { stroke [] 0 setdash 2 copy gsave
  translate 0 hpt M 4 {72 rotate 0 hpt L} repeat
  closepath stroke grestore Pnt } def
/PentF { stroke [] 0 setdash gsave
  translate 0 hpt M 4 {72 rotate 0 hpt L} repeat
  closepath fill grestore } def
/Circle { stroke [] 0 setdash 2 copy
  hpt 0 360 arc stroke Pnt } def
/CircleF { stroke [] 0 setdash hpt 0 360 arc fill } def
/C0 { BL [] 0 setdash 2 copy moveto vpt 90 450  arc } bind def
/C1 { BL [] 0 setdash 2 copy        moveto
       2 copy  vpt 0 90 arc closepath fill
               vpt 0 360 arc closepath } bind def
/C2 { BL [] 0 setdash 2 copy moveto
       2 copy  vpt 90 180 arc closepath fill
               vpt 0 360 arc closepath } bind def
/C3 { BL [] 0 setdash 2 copy moveto
       2 copy  vpt 0 180 arc closepath fill
               vpt 0 360 arc closepath } bind def
/C4 { BL [] 0 setdash 2 copy moveto
       2 copy  vpt 180 270 arc closepath fill
               vpt 0 360 arc closepath } bind def
/C5 { BL [] 0 setdash 2 copy moveto
       2 copy  vpt 0 90 arc
       2 copy moveto
       2 copy  vpt 180 270 arc closepath fill
               vpt 0 360 arc } bind def
/C6 { BL [] 0 setdash 2 copy moveto
      2 copy  vpt 90 270 arc closepath fill
              vpt 0 360 arc closepath } bind def
/C7 { BL [] 0 setdash 2 copy moveto
      2 copy  vpt 0 270 arc closepath fill
              vpt 0 360 arc closepath } bind def
/C8 { BL [] 0 setdash 2 copy moveto
      2 copy vpt 270 360 arc closepath fill
              vpt 0 360 arc closepath } bind def
/C9 { BL [] 0 setdash 2 copy moveto
      2 copy  vpt 270 450 arc closepath fill
              vpt 0 360 arc closepath } bind def
/C10 { BL [] 0 setdash 2 copy 2 copy moveto vpt 270 360 arc closepath fill
       2 copy moveto
       2 copy vpt 90 180 arc closepath fill
               vpt 0 360 arc closepath } bind def
/C11 { BL [] 0 setdash 2 copy moveto
       2 copy  vpt 0 180 arc closepath fill
       2 copy moveto
       2 copy  vpt 270 360 arc closepath fill
               vpt 0 360 arc closepath } bind def
/C12 { BL [] 0 setdash 2 copy moveto
       2 copy  vpt 180 360 arc closepath fill
               vpt 0 360 arc closepath } bind def
/C13 { BL [] 0 setdash  2 copy moveto
       2 copy  vpt 0 90 arc closepath fill
       2 copy moveto
       2 copy  vpt 180 360 arc closepath fill
               vpt 0 360 arc closepath } bind def
/C14 { BL [] 0 setdash 2 copy moveto
       2 copy  vpt 90 360 arc closepath fill
               vpt 0 360 arc } bind def
/C15 { BL [] 0 setdash 2 copy vpt 0 360 arc closepath fill
               vpt 0 360 arc closepath } bind def
/Rec   { newpath 4 2 roll moveto 1 index 0 rlineto 0 exch rlineto
       neg 0 rlineto closepath } bind def
/Square { dup Rec } bind def
/Bsquare { vpt sub exch vpt sub exch vpt2 Square } bind def
/S0 { BL [] 0 setdash 2 copy moveto 0 vpt rlineto BL Bsquare } bind def
/S1 { BL [] 0 setdash 2 copy vpt Square fill Bsquare } bind def
/S2 { BL [] 0 setdash 2 copy exch vpt sub exch vpt Square fill Bsquare } bind def
/S3 { BL [] 0 setdash 2 copy exch vpt sub exch vpt2 vpt Rec fill Bsquare } bind def
/S4 { BL [] 0 setdash 2 copy exch vpt sub exch vpt sub vpt Square fill Bsquare } bind def
/S5 { BL [] 0 setdash 2 copy 2 copy vpt Square fill
       exch vpt sub exch vpt sub vpt Square fill Bsquare } bind def
/S6 { BL [] 0 setdash 2 copy exch vpt sub exch vpt sub vpt vpt2 Rec fill Bsquare } bind def
/S7 { BL [] 0 setdash 2 copy exch vpt sub exch vpt sub vpt vpt2 Rec fill
       2 copy vpt Square fill
       Bsquare } bind def
/S8 { BL [] 0 setdash 2 copy vpt sub vpt Square fill Bsquare } bind def
/S9 { BL [] 0 setdash 2 copy vpt sub vpt vpt2 Rec fill Bsquare } bind def
/S10 { BL [] 0 setdash 2 copy vpt sub vpt Square fill 2 copy exch vpt sub exch vpt Square fill
       Bsquare } bind def
/S11 { BL [] 0 setdash 2 copy vpt sub vpt Square fill 2 copy exch vpt sub exch vpt2 vpt Rec fill
       Bsquare } bind def
/S12 { BL [] 0 setdash 2 copy exch vpt sub exch vpt sub vpt2 vpt Rec fill Bsquare } bind def
/S13 { BL [] 0 setdash 2 copy exch vpt sub exch vpt sub vpt2 vpt Rec fill
       2 copy vpt Square fill Bsquare } bind def
/S14 { BL [] 0 setdash 2 copy exch vpt sub exch vpt sub vpt2 vpt Rec fill
       2 copy exch vpt sub exch vpt Square fill Bsquare } bind def
/S15 { BL [] 0 setdash 2 copy Bsquare fill Bsquare } bind def
/D0 { gsave translate 45 rotate 0 0 S0 stroke grestore } bind def
/D1 { gsave translate 45 rotate 0 0 S1 stroke grestore } bind def
/D2 { gsave translate 45 rotate 0 0 S2 stroke grestore } bind def
/D3 { gsave translate 45 rotate 0 0 S3 stroke grestore } bind def
/D4 { gsave translate 45 rotate 0 0 S4 stroke grestore } bind def
/D5 { gsave translate 45 rotate 0 0 S5 stroke grestore } bind def
/D6 { gsave translate 45 rotate 0 0 S6 stroke grestore } bind def
/D7 { gsave translate 45 rotate 0 0 S7 stroke grestore } bind def
/D8 { gsave translate 45 rotate 0 0 S8 stroke grestore } bind def
/D9 { gsave translate 45 rotate 0 0 S9 stroke grestore } bind def
/D10 { gsave translate 45 rotate 0 0 S10 stroke grestore } bind def
/D11 { gsave translate 45 rotate 0 0 S11 stroke grestore } bind def
/D12 { gsave translate 45 rotate 0 0 S12 stroke grestore } bind def
/D13 { gsave translate 45 rotate 0 0 S13 stroke grestore } bind def
/D14 { gsave translate 45 rotate 0 0 S14 stroke grestore } bind def
/D15 { gsave translate 45 rotate 0 0 S15 stroke grestore } bind def
/DiaE { stroke [] 0 setdash vpt add M
  hpt neg vpt neg V hpt vpt neg V
  hpt vpt V hpt neg vpt V closepath stroke } def
/BoxE { stroke [] 0 setdash exch hpt sub exch vpt add M
  0 vpt2 neg V hpt2 0 V 0 vpt2 V
  hpt2 neg 0 V closepath stroke } def
/TriUE { stroke [] 0 setdash vpt 1.12 mul add M
  hpt neg vpt -1.62 mul V
  hpt 2 mul 0 V
  hpt neg vpt 1.62 mul V closepath stroke } def
/TriDE { stroke [] 0 setdash vpt 1.12 mul sub M
  hpt neg vpt 1.62 mul V
  hpt 2 mul 0 V
  hpt neg vpt -1.62 mul V closepath stroke } def
/PentE { stroke [] 0 setdash gsave
  translate 0 hpt M 4 {72 rotate 0 hpt L} repeat
  closepath stroke grestore } def
/CircE { stroke [] 0 setdash 
  hpt 0 360 arc stroke } def
/Opaque { gsave closepath 1 setgray fill grestore 0 setgray closepath } def
/DiaW { stroke [] 0 setdash vpt add M
  hpt neg vpt neg V hpt vpt neg V
  hpt vpt V hpt neg vpt V Opaque stroke } def
/BoxW { stroke [] 0 setdash exch hpt sub exch vpt add M
  0 vpt2 neg V hpt2 0 V 0 vpt2 V
  hpt2 neg 0 V Opaque stroke } def
/TriUW { stroke [] 0 setdash vpt 1.12 mul add M
  hpt neg vpt -1.62 mul V
  hpt 2 mul 0 V
  hpt neg vpt 1.62 mul V Opaque stroke } def
/TriDW { stroke [] 0 setdash vpt 1.12 mul sub M
  hpt neg vpt 1.62 mul V
  hpt 2 mul 0 V
  hpt neg vpt -1.62 mul V Opaque stroke } def
/PentW { stroke [] 0 setdash gsave
  translate 0 hpt M 4 {72 rotate 0 hpt L} repeat
  Opaque stroke grestore } def
/CircW { stroke [] 0 setdash 
  hpt 0 360 arc Opaque stroke } def
/BoxFill { gsave Rec 1 setgray fill grestore } def
/BoxColFill {
  gsave Rec
  /Fillden exch def
  currentrgbcolor
  /ColB exch def /ColG exch def /ColR exch def
  /ColR ColR Fillden mul Fillden sub 1 add def
  /ColG ColG Fillden mul Fillden sub 1 add def
  /ColB ColB Fillden mul Fillden sub 1 add def
  ColR ColG ColB setrgbcolor
  fill grestore } def
%
% PostScript Level 1 Pattern Fill routine
% Usage: x y w h s a XX PatternFill
%	x,y = lower left corner of box to be filled
%	w,h = width and height of box
%	  a = angle in degrees between lines and x-axis
%	 XX = 0/1 for no/yes cross-hatch
%
/PatternFill { gsave /PFa [ 9 2 roll ] def
    PFa 0 get PFa 2 get 2 div add PFa 1 get PFa 3 get 2 div add translate
    PFa 2 get -2 div PFa 3 get -2 div PFa 2 get PFa 3 get Rec
    gsave 1 setgray fill grestore clip
    currentlinewidth 0.5 mul setlinewidth
    /PFs PFa 2 get dup mul PFa 3 get dup mul add sqrt def
    0 0 M PFa 5 get rotate PFs -2 div dup translate
	0 1 PFs PFa 4 get div 1 add floor cvi
	{ PFa 4 get mul 0 M 0 PFs V } for
    0 PFa 6 get ne {
	0 1 PFs PFa 4 get div 1 add floor cvi
	{ PFa 4 get mul 0 2 1 roll M PFs 0 V } for
    } if
    stroke grestore } def
%
/Symbol-Oblique /Symbol findfont [1 0 .167 1 0 0] makefont
dup length dict begin {1 index /FID eq {pop pop} {def} ifelse} forall
currentdict end definefont pop
/MFshow {
   { dup 5 get 3 ge
     { 5 get 3 eq {gsave} {grestore} ifelse }
     {dup dup 0 get findfont exch 1 get scalefont setfont
     [ currentpoint ] exch dup 2 get 0 exch R dup 5 get 2 ne {dup dup 6
     get exch 4 get {show} {stringwidth pop 0 R} ifelse }if dup 5 get 0 eq
     {dup 3 get {2 get neg 0 exch R pop} {pop aload pop M} ifelse} {dup 5
     get 1 eq {dup 2 get exch dup 3 get exch 6 get stringwidth pop -2 div
     dup 0 R} {dup 6 get stringwidth pop -2 div 0 R 6 get
     show 2 index {aload pop M neg 3 -1 roll neg R pop pop} {pop pop pop
     pop aload pop M} ifelse }ifelse }ifelse }
     ifelse }
   forall} bind def
/MFwidth {0 exch {dup 3 get{dup dup 0 get findfont exch 1 get scalefont
     setfont 6 get stringwidth pop add} {pop} ifelse} forall} bind def
/MLshow { currentpoint stroke M
  0 exch R MFshow } bind def
/MRshow { currentpoint stroke M
  exch dup MFwidth neg 3 -1 roll R MFshow } def
/MCshow { currentpoint stroke M
  exch dup MFwidth -2 div 3 -1 roll R MFshow } def
end
%%EndProlog
gnudict begin
gsave
50 50 translate
0.050 0.050 scale
0 setgray
newpath
(Times) findfont 220 scalefont setfont
1.000 UL
LTb
LTb
3600 4621 M
gsave 0 setgray
[ [(Times) 220.0 0.0 true true 0 (Im\(LT-BEM x-flux\))]
] -73.3 MCshow
grestore
3600 4401 M
gsave 0 setgray
[ [(Times) 220.0 0.0 true true 0 (steady \(1/p\) boundary condition)]
] -73.3 MCshow
grestore
1.000 UP
1.000 UL
LT0
2996 3510 M
83 42 V
1.000 UL
LT0
3223 3526 M
-144 26 V
1.000 UL
LT0
3140 3484 M
83 42 V
1.000 UL
LT0
3367 3501 M
-144 25 V
1.000 UL
LT0
2913 3468 M
83 42 V
1.000 UL
LT0
3140 3484 M
-144 26 V
1.000 UL
LT0
3284 3459 M
83 42 V
1.000 UL
LT0
3511 3475 M
-144 26 V
1.000 UL
LT0
3057 3442 M
83 42 V
1.000 UL
LT0
3284 3459 M
-144 25 V
1.000 UL
LT0
3428 3433 M
83 42 V
1.000 UL
LT0
3654 3450 M
-143 25 V
1.000 UL
LT0
2830 3426 M
83 42 V
1.000 UL
LT0
3057 3442 M
-144 26 V
1.000 UL
LT0
3201 3417 M
83 42 V
1.000 UL
LT0
3428 3433 M
-144 26 V
1.000 UL
LT0
3572 3408 M
82 42 V
1.000 UL
LT0
3798 3424 M
-144 26 V
1.000 UL
LT0
2974 3400 M
83 42 V
1.000 UL
LT0
3201 3417 M
-144 25 V
1.000 UL
LT0
3345 3391 M
83 42 V
1.000 UL
LT0
3572 3408 M
-144 25 V
1.000 UL
LT0
3715 3382 M
83 42 V
1.000 UL
LT0
3942 3399 M
-144 25 V
1.000 UL
LT0
2747 3384 M
83 42 V
1.000 UL
LT0
2974 3400 M
-144 26 V
1.000 UL
LT0
3118 3375 M
83 42 V
1.000 UL
LT0
3345 3391 M
-144 26 V
1.000 UL
LT0
3489 3366 M
83 42 V
1.000 UL
LT0
3715 3382 M
-143 26 V
1.000 UL
LT0
3859 3357 M
83 42 V
1.000 UL
LT0
4086 3373 M
-144 26 V
1.000 UL
LT0
2891 3358 M
83 42 V
1.000 UL
LT0
3118 3375 M
-144 25 V
1.000 UL
LT0
3262 3349 M
83 42 V
1.000 UL
LT0
3489 3366 M
-144 25 V
1.000 UL
LT0
3632 3341 M
83 41 V
1.000 UL
LT0
3859 3357 M
-144 25 V
1.000 UL
LT0
4003 3331 M
83 42 V
1.000 UL
LT0
4230 3347 M
-144 26 V
1.000 UL
LT0
2664 3342 M
83 42 V
1.000 UL
LT0
2891 3358 M
-144 26 V
1.000 UL
LT0
3035 3333 M
83 42 V
1.000 UL
LT0
3262 3349 M
-144 26 V
1.000 UL
LT0
3406 3324 M
83 42 V
1.000 UL
LT0
3632 3341 M
-143 25 V
1.000 UL
LT0
3776 3315 M
83 42 V
1.000 UL
LT0
4003 3331 M
-144 26 V
1.000 UL
LT0
4147 3306 M
83 41 V
1.000 UL
LT0
4374 3322 M
-144 25 V
1.000 UL
LT0
2808 3316 M
83 42 V
1.000 UL
LT0
3035 3333 M
-144 25 V
1.000 UL
LT0
3179 3307 M
83 42 V
1.000 UL
LT0
3406 3324 M
-144 25 V
1.000 UL
LT0
3550 3299 M
82 42 V
1.000 UL
LT0
3776 3315 M
-144 26 V
1.000 UL
LT0
3920 3290 M
83 41 V
1.000 UL
LT0
4147 3306 M
-144 25 V
1.000 UL
LT0
2581 3299 M
83 43 V
1.000 UL
LT0
2808 3316 M
-144 26 V
1.000 UL
LT0
4291 3280 M
83 42 V
1.000 UL
LT0
4518 3296 M
-144 26 V
1.000 UL
LT0
2952 3290 M
83 43 V
1.000 UL
LT0
3179 3307 M
-144 26 V
1.000 UL
LT0
3323 3282 M
83 42 V
1.000 UL
LT0
3550 3299 M
-144 25 V
1.000 UL
LT0
3693 3273 M
83 42 V
1.000 UL
LT0
3920 3290 M
-144 25 V
1.000 UL
LT0
4064 3264 M
83 42 V
1.000 UL
LT0
4291 3280 M
-144 26 V
1.000 UL
LT0
2725 3273 M
83 43 V
1.000 UL
LT0
2952 3290 M
-144 26 V
1.000 UL
LT0
4435 3254 M
83 42 V
1.000 UL
LT0
4662 3270 M
-144 26 V
1.000 UL
LT0
3096 3265 M
83 42 V
1.000 UL
LT0
3323 3282 M
-144 25 V
1.000 UL
LT0
3467 3257 M
83 42 V
1.000 UL
LT0
3693 3273 M
-143 26 V
1.000 UL
LT0
3837 3248 M
83 42 V
1.000 UL
LT0
4064 3264 M
-144 26 V
1.000 UL
LT0
2497 3256 M
84 43 V
1.000 UL
LT0
2725 3273 M
-144 26 V
1.000 UL
LT0
4208 3238 M
83 42 V
1.000 UL
LT0
4435 3254 M
-144 26 V
1.000 UL
LT0
2869 3248 M
83 42 V
1.000 UL
LT0
3096 3265 M
-144 25 V
1.000 UL
LT0
4579 3228 M
83 42 V
1.000 UL
LT0
4806 3244 M
-144 26 V
1.000 UL
LT0
3240 3240 M
83 42 V
1.000 UL
LT0
3467 3257 M
-144 25 V
1.000 UL
LT0
3610 3232 M
83 41 V
1.000 UL
LT0
3837 3248 M
-144 25 V
1.000 UL
LT0
3981 3222 M
83 42 V
1.000 UL
LT0
4208 3238 M
-144 26 V
1.000 UL
LT0
2641 3230 M
84 43 V
1.000 UL
LT0
2869 3248 M
-144 25 V
1.000 UL
LT0
4352 3212 M
83 42 V
1.000 UL
LT0
4579 3228 M
-144 26 V
1.000 UL
LT0
3012 3223 M
84 42 V
1.000 UL
LT0
3240 3240 M
-144 25 V
1.000 UL
LT0
4723 3202 M
83 42 V
1.000 UL
LT0
4950 3218 M
-144 26 V
1.000 UL
LT0
3383 3215 M
84 42 V
1.000 UL
LT0
3610 3232 M
-143 25 V
1.000 UL
LT0
3753 3206 M
84 42 V
1.000 UL
LT0
3981 3222 M
-144 26 V
1.000 UL
LT0
2414 3213 M
83 43 V
1.000 UL
LT0
2641 3230 M
-144 26 V
1.000 UL
LT0
4125 3197 M
83 41 V
1.000 UL
LT0
4352 3212 M
-144 26 V
1.000 UL
LT0
2785 3205 M
84 43 V
1.000 UL
LT0
3012 3223 M
-143 25 V
1.000 UL
LT0
4496 3186 M
83 42 V
1.000 UL
LT0
4723 3202 M
-144 26 V
1.000 UL
LT0
3156 3198 M
84 42 V
1.000 UL
LT0
3383 3215 M
-143 25 V
1.000 UL
LT0
4867 3176 M
83 42 V
1.000 UL
LT0
5094 3191 M
-144 27 V
1.000 UL
LT0
3527 3190 M
83 42 V
1.000 UL
LT0
3753 3206 M
-143 26 V
1.000 UL
LT0
3897 3181 M
84 41 V
1.000 UL
LT0
4125 3197 M
-144 25 V
1.000 UL
LT0
2558 3187 M
83 43 V
1.000 UL
LT0
2785 3205 M
-144 25 V
1.000 UL
LT0
4268 3171 M
84 41 V
1.000 UL
LT0
4496 3186 M
-144 26 V
1.000 UL
LT0
2929 3180 M
83 43 V
1.000 UL
LT0
3156 3198 M
-144 25 V
1.000 UL
LT0
4639 3160 M
84 42 V
1.000 UL
LT0
4867 3176 M
-144 26 V
1.000 UL
LT0
3300 3173 M
83 42 V
1.000 UL
LT0
3527 3190 M
-144 25 V
1.000 UL
LT0
5010 3149 M
84 42 V
1.000 UL
LT0
5238 3165 M
-144 26 V
1.000 UL
LT0
2331 3169 M
83 44 V
1.000 UL
LT0
2558 3187 M
-144 26 V
1.000 UL
LT0
3670 3165 M
83 41 V
1.000 UL
LT0
3897 3181 M
-144 25 V
1.000 UL
LT0
4041 3155 M
84 42 V
1.000 UL
LT0
4268 3171 M
-143 26 V
1.000 UL
LT0
2702 3162 M
83 43 V
1.000 UL
LT0
2929 3180 M
-144 25 V
1.000 UL
LT0
4412 3145 M
84 41 V
1.000 UL
LT0
4639 3160 M
-143 26 V
1.000 UL
LT0
3073 3156 M
83 42 V
1.000 UL
LT0
3300 3173 M
-144 25 V
1.000 UL
LT0
4783 3134 M
84 42 V
1.000 UL
LT0
5010 3149 M
-143 27 V
1.000 UL
LT0
3444 3148 M
83 42 V
1.000 UL
LT0
3670 3165 M
-143 25 V
1.000 UL
LT0
5154 3123 M
84 42 V
1.000 UL
LT0
5382 3138 M
-144 27 V
1.000 UL
LT0
2475 3143 M
83 44 V
1.000 UL
LT0
2702 3162 M
-144 25 V
1.000 UL
LT0
3814 3140 M
83 41 V
1.000 UL
LT0
4041 3155 M
-144 26 V
1.000 UL
LT0
4185 3130 M
83 41 V
1.000 UL
LT0
4412 3145 M
-144 26 V
1.000 UL
LT0
2846 3137 M
83 43 V
1.000 UL
LT0
3073 3156 M
-144 24 V
1.000 UL
LT0
4556 3118 M
83 42 V
1.000 UL
LT0
4783 3134 M
-144 26 V
1.000 UL
LT0
3217 3131 M
83 42 V
1.000 UL
LT0
3444 3148 M
-144 25 V
1.000 UL
LT0
4927 3107 M
83 42 V
1.000 UL
LT0
5154 3123 M
-144 26 V
1.000 UL
LT0
2248 3124 M
83 45 V
1.000 UL
LT0
2475 3143 M
-144 26 V
1.000 UL
LT0
3588 3124 M
82 41 V
1.000 UL
LT0
3814 3140 M
-144 25 V
1.000 UL
LT0
5298 3096 M
84 42 V
1.000 UL
LT0
5525 3112 M
-143 26 V
1.000 UL
LT0
2619 3118 M
83 44 V
1.000 UL
LT0
2846 3137 M
-144 25 V
1.000 UL
LT0
3958 3114 M
83 41 V
1.000 UL
LT0
4185 3130 M
-144 25 V
1.000 UL
LT0
4329 3103 M
83 42 V
1.000 UL
LT0
4556 3118 M
-144 27 V
1.000 UL
LT0
2990 3113 M
83 43 V
1.000 UL
LT0
3217 3131 M
-144 25 V
1.000 UL
LT0
4700 3092 M
83 42 V
1.000 UL
LT0
4927 3107 M
-144 27 V
1.000 UL
LT0
3361 3107 M
83 41 V
1.000 UL
LT0
3588 3124 M
-144 24 V
1.000 UL
LT0
5071 3081 M
83 42 V
1.000 UL
LT0
5298 3096 M
-144 27 V
1.000 UL
LT0
2392 3099 M
83 44 V
1.000 UL
LT0
2619 3118 M
-144 25 V
1.000 UL
LT0
3731 3099 M
83 41 V
1.000 UL
LT0
3958 3114 M
-144 26 V
1.000 UL
LT0
5442 3069 M
83 43 V
1.000 UL
LT0
5669 3085 M
-144 27 V
1.000 UL
LT0
4102 3088 M
83 42 V
1.000 UL
LT0
4329 3103 M
-144 27 V
1.000 UL
LT0
2763 3094 M
83 43 V
1.000 UL
LT0
2990 3113 M
-144 24 V
1.000 UL
LT0
4473 3077 M
83 41 V
1.000 UL
LT0
4700 3092 M
-144 26 V
1.000 UL
LT0
3134 3089 M
83 42 V
1.000 UL
LT0
3361 3107 M
-144 24 V
1.000 UL
LT0
4844 3065 M
83 42 V
1.000 UL
LT0
5071 3081 M
-144 26 V
1.000 UL
LT0
2165 3079 M
83 45 V
1.000 UL
LT0
2392 3099 M
-144 25 V
1.000 UL
LT0
3505 3083 M
83 41 V
1.000 UL
LT0
3731 3099 M
-143 25 V
1.000 UL
LT0
5215 3054 M
83 42 V
1.000 UL
LT0
5442 3069 M
-144 27 V
1.000 UL
LT0
2536 3074 M
83 44 V
1.000 UL
LT0
2763 3094 M
-144 24 V
1.000 UL
LT0
3875 3073 M
83 41 V
1.000 UL
LT0
4102 3088 M
-144 26 V
1.000 UL
LT0
5586 3043 M
83 42 V
1.000 UL
LT0
5813 3059 M
-144 26 V
1.000 UL
LT0
4246 3062 M
83 41 V
1.000 UL
LT0
4473 3077 M
-144 26 V
1.000 UL
LT0
2907 3071 M
83 42 V
1.000 UL
LT0
3134 3089 M
-144 24 V
1.000 UL
LT0
4617 3050 M
83 42 V
1.000 UL
LT0
4844 3065 M
-144 27 V
1.000 UL
LT0
3278 3066 M
83 41 V
1.000 UL
LT0
3505 3083 M
-144 24 V
1.000 UL
LT0
4988 3039 M
83 42 V
1.000 UL
LT0
5215 3054 M
-144 27 V
1.000 UL
LT0
2309 3053 M
83 46 V
1.000 UL
LT0
2536 3074 M
-144 25 V
1.000 UL
LT0
3648 3058 M
83 41 V
1.000 UL
LT0
3875 3073 M
-144 26 V
1.000 UL
LT0
5359 3027 M
83 42 V
1.000 UL
LT0
5586 3043 M
-144 26 V
1.000 UL
LT0
2680 3050 M
83 44 V
1.000 UL
LT0
2907 3071 M
-144 23 V
1.000 UL
LT0
4019 3048 M
83 40 V
1.000 UL
LT0
4246 3062 M
-144 26 V
1.000 UL
LT0
5730 3016 M
83 43 V
1.000 UL
LT0
4390 3036 M
83 41 V
1.000 UL
LT0
4617 3050 M
-144 27 V
1.000 UL
LT0
3051 3047 M
83 42 V
1.000 UL
LT0
3278 3066 M
-144 23 V
1.000 UL
LT0
2082 3032 M
83 47 V
1.000 UL
LT0
2309 3053 M
-144 26 V
1.000 UL
LT0
4761 3024 M
83 41 V
1.000 UL
LT0
4988 3039 M
-144 26 V
1.000 UL
LT0
3422 3042 M
83 41 V
1.000 UL
LT0
3648 3058 M
-143 25 V
1.000 UL
LT0
5132 3012 M
83 42 V
1.000 UL
LT0
5359 3027 M
-144 27 V
1.000 UL
LT0
2453 3029 M
83 45 V
1.000 UL
LT0
2680 3050 M
-144 24 V
1.000 UL
LT0
3792 3033 M
83 40 V
1.000 UL
LT0
4019 3048 M
-144 25 V
1.000 UL
LT0
5503 3000 M
83 43 V
1.000 UL
LT0
5730 3016 M
-144 27 V
1.000 UL
LT0
4163 3022 M
83 40 V
1.000 UL
LT0
4390 3036 M
-144 26 V
1.000 UL
LT0
2824 3027 M
83 44 V
1.000 UL
LT0
3051 3047 M
-144 24 V
1.000 UL
LT0
4534 3009 M
83 41 V
1.000 UL
LT0
4761 3024 M
-144 26 V
1.000 UL
LT0
3195 3024 M
83 42 V
1.000 UL
LT0
3422 3042 M
-144 24 V
1.000 UL
LT0
4905 2997 M
83 42 V
1.000 UL
LT0
5132 3012 M
-144 27 V
1.000 UL
LT0
2226 3007 M
83 46 V
1.000 UL
LT0
2453 3029 M
-144 24 V
1.000 UL
LT0
3566 3018 M
82 40 V
1.000 UL
LT0
3792 3033 M
-144 25 V
1.000 UL
LT0
5276 2985 M
83 42 V
1.000 UL
LT0
5503 3000 M
-144 27 V
1.000 UL
LT0
2597 3006 M
83 44 V
1.000 UL
LT0
2824 3027 M
-144 23 V
1.000 UL
LT0
3936 3007 M
83 41 V
1.000 UL
LT0
4163 3022 M
-144 26 V
1.000 UL
LT0
5647 2973 M
83 43 V
1.000 UL
LT0
4307 2995 M
83 41 V
1.000 UL
LT0
4534 3009 M
-144 27 V
1.000 UL
LT0
2968 3005 M
83 42 V
1.000 UL
LT0
3195 3024 M
-144 23 V
1.000 UL
LT0
1999 2984 M
83 48 V
1.000 UL
LT0
2226 3007 M
-144 25 V
1.000 UL
LT0
4678 2982 M
83 42 V
1.000 UL
LT0
4905 2997 M
-144 27 V
1.000 UL
LT0
3339 3001 M
83 41 V
1.000 UL
LT0
3566 3018 M
-144 24 V
1.000 UL
LT0
5049 2969 M
83 43 V
1.000 UL
LT0
5276 2985 M
-144 27 V
1.000 UL
LT0
2370 2983 M
83 46 V
1.000 UL
LT0
2597 3006 M
-144 23 V
1.000 UL
LT0
3709 2993 M
83 40 V
1.000 UL
LT0
3936 3007 M
-144 26 V
1.000 UL
LT0
5420 2958 M
83 42 V
1.000 UL
LT0
5647 2973 M
-144 27 V
1.000 UL
LT0
2741 2983 M
83 44 V
1.000 UL
LT0
2968 3005 M
-144 22 V
1.000 UL
LT0
4080 2981 M
83 41 V
1.000 UL
LT0
4307 2995 M
-144 27 V
1.000 UL
LT0
4451 2968 M
83 41 V
1.000 UL
LT0
4678 2982 M
-144 27 V
1.000 UL
LT0
3130 2992 M
65 32 V
1.000 UL
LT0
3339 3001 M
-144 23 V
1.000 UL
LT0
2143 2959 M
83 48 V
1.000 UL
LT0
2370 2983 M
-144 24 V
1.000 UL
LT0
4822 2955 M
83 42 V
1.000 UL
LT0
5049 2969 M
-144 28 V
1.000 UL
LT0
3483 2978 M
83 40 V
1.000 UL
LT0
3709 2993 M
-143 25 V
1.000 UL
LT0
5193 2942 M
83 43 V
1.000 UL
LT0
5420 2958 M
-144 27 V
1.000 UL
LT0
2514 2960 M
83 46 V
1.000 UL
LT0
2741 2983 M
-144 23 V
1.000 UL
LT0
5564 2930 M
83 43 V
1.000 UL
LT0
3853 2968 M
83 39 V
1.000 UL
LT0
4080 2981 M
-144 26 V
1.000 UL
LT0
4224 2955 M
83 40 V
1.000 UL
LT0
4451 2968 M
-144 27 V
1.000 UL
LT0
1916 2935 M
83 49 V
1.000 UL
LT0
2143 2959 M
-144 25 V
1.000 UL
LT0
2885 2962 M
83 43 V
1.000 UL
LT0
3018 2997 M
-50 8 V
1.000 UL
LT0
4595 2941 M
83 41 V
1.000 UL
LT0
4822 2955 M
-144 27 V
1.000 UL
LT0
3256 2961 M
83 40 V
1.000 UL
LT0
3483 2978 M
-144 23 V
1.000 UL
LT0
2287 2935 M
83 48 V
1.000 UL
LT0
2514 2960 M
-144 23 V
1.000 UL
LT0
4966 2927 M
83 42 V
1.000 UL
LT0
5193 2942 M
-144 27 V
1.000 UL
LT0
5337 2915 M
83 43 V
1.000 UL
LT0
5564 2930 M
-144 28 V
1.000 UL
LT0
3626 2954 M
83 39 V
1.000 UL
LT0
3853 2968 M
-144 25 V
1.000 UL
LT0
2658 2939 M
83 44 V
1.000 UL
LT0
2885 2962 M
-144 21 V
1.000 UL
LT0
3997 2942 M
83 39 V
1.000 UL
LT0
4224 2955 M
-144 26 V
1.000 UL
LT0
4368 2927 M
83 41 V
1.000 UL
LT0
4595 2941 M
-144 27 V
1.000 UL
LT0
2060 2910 M
83 49 V
1.000 UL
LT0
2287 2935 M
-144 24 V
1.000 UL
LT0
3256 2961 M
-84 13 V
1.000 UL
LT0
4739 2913 M
83 42 V
1.000 UL
LT0
4966 2927 M
-144 28 V
1.000 UL
LT0
5110 2900 M
83 42 V
1.000 UL
LT0
5337 2915 M
-144 27 V
1.000 UL
LT0
3400 2939 M
83 39 V
1.000 UL
LT0
3626 2954 M
-143 24 V
1.000 UL
LT0
2431 2913 M
83 47 V
1.000 UL
LT0
2658 2939 M
-144 21 V
1.000 UL
LT0
5481 2888 M
83 42 V
1.000 UL
LT0
3770 2929 M
83 39 V
1.000 UL
LT0
3997 2942 M
-144 26 V
1.000 UL
LT0
1833 2884 M
83 51 V
1.000 UL
LT0
2060 2910 M
-144 25 V
1.000 UL
LT0
4141 2915 M
83 40 V
1.000 UL
LT0
4368 2927 M
-144 28 V
1.000 UL
LT0
2802 2919 M
83 43 V
1.000 UL
LT0
3000 2946 M
-115 16 V
1.000 UL
LT0
4512 2900 M
83 41 V
1.000 UL
LT0
4739 2913 M
-144 28 V
1.000 UL
LT0
2204 2886 M
83 49 V
1.000 UL
LT0
2431 2913 M
-144 22 V
1.000 UL
LT0
3193 2931 M
63 30 V
1.000 UL
LT0
3400 2939 M
-144 22 V
1.000 UL
LT0
4883 2885 M
83 42 V
1.000 UL
LT0
5110 2900 M
-144 27 V
1.000 UL
LT0
5254 2872 M
83 43 V
1.000 UL
LT0
5481 2888 M
-144 27 V
1.000 UL
LT0
3544 2916 M
82 38 V
1.000 UL
LT0
3770 2929 M
-144 25 V
1.000 UL
LT0
2575 2893 M
83 46 V
1.000 UL
LT0
2802 2919 M
-144 20 V
1.000 UL
LT0
3914 2903 M
83 39 V
1.000 UL
LT0
4141 2915 M
-144 27 V
1.000 UL
LT0
1977 2859 M
83 51 V
1.000 UL
LT0
2204 2886 M
-144 24 V
1.000 UL
LT0
4285 2887 M
83 40 V
1.000 UL
LT0
4512 2900 M
-144 27 V
1.000 UL
LT0
2946 2900 M
46 23 V
1.000 UL
LT0
4656 2872 M
83 41 V
1.000 UL
LT0
4883 2885 M
-144 28 V
1.000 UL
LT0
2348 2865 M
83 48 V
1.000 UL
LT0
2575 2893 M
-144 20 V
1.000 UL
LT0
5027 2858 M
83 42 V
1.000 UL
LT0
5254 2872 M
-144 28 V
1.000 UL
LT0
3317 2901 M
83 38 V
1.000 UL
LT0
3544 2916 M
-144 23 V
1.000 UL
LT0
5398 2845 M
83 43 V
1.000 UL
LT0
1749 2832 M
84 52 V
1.000 UL
LT0
1977 2859 M
-144 25 V
1.000 UL
LT0
3687 2891 M
83 38 V
1.000 UL
LT0
3914 2903 M
-144 26 V
1.000 UL
LT0
2719 2874 M
83 45 V
1.000 UL
LT0
2946 2900 M
-144 19 V
1.000 UL
LT0
4058 2876 M
83 39 V
1.000 UL
LT0
4285 2887 M
-144 28 V
1.000 UL
LT0
2121 2836 M
83 50 V
1.000 UL
LT0
2348 2865 M
-144 21 V
1.000 UL
LT0
4429 2859 M
83 41 V
1.000 UL
LT0
4656 2872 M
-144 28 V
1.000 UL
LT0
4800 2844 M
83 41 V
1.000 UL
LT0
5027 2858 M
-144 27 V
1.000 UL
LT0
3317 2901 M
-117 16 V
1.000 UL
LT0
5171 2830 M
83 42 V
1.000 UL
LT0
5398 2845 M
-144 27 V
1.000 UL
LT0
2492 2845 M
83 48 V
1.000 UL
LT0
2719 2874 M
-144 19 V
1.000 UL
LT0
3461 2879 M
83 37 V
1.000 UL
LT0
3687 2891 M
-143 25 V
1.000 UL
LT0
1893 2807 M
84 52 V
1.000 UL
LT0
2121 2836 M
-144 23 V
1.000 UL
LT0
3831 2865 M
83 38 V
1.000 UL
LT0
4058 2876 M
-144 27 V
1.000 UL
LT0
4202 2848 M
83 39 V
1.000 UL
LT0
4429 2859 M
-144 28 V
1.000 UL
LT0
2863 2857 M
83 43 V
1.000 UL
LT0
2982 2895 M
-36 5 V
1.000 UL
LT0
4573 2830 M
83 42 V
1.000 UL
LT0
4800 2844 M
-144 28 V
1.000 UL
LT0
2264 2814 M
84 51 V
1.000 UL
LT0
2492 2845 M
-144 20 V
1.000 UL
LT0
4944 2815 M
83 43 V
1.000 UL
LT0
5171 2830 M
-144 28 V
1.000 UL
LT0
1666 2778 M
83 54 V
1.000 UL
LT0
1893 2807 M
-144 25 V
1.000 UL
LT0
3234 2863 M
83 38 V
1.000 UL
LT0
3461 2879 M
-144 22 V
1.000 UL
LT0
5315 2802 M
83 43 V
1.000 UL
LT0
3604 2855 M
83 36 V
1.000 UL
LT0
3831 2865 M
-144 26 V
1.000 UL
LT0
2635 2827 M
84 47 V
1.000 UL
LT0
2863 2857 M
-144 17 V
1.000 UL
LT0
2037 2783 M
84 53 V
1.000 UL
LT0
2264 2814 M
-143 22 V
1.000 UL
LT0
3975 2838 M
83 38 V
1.000 UL
LT0
4202 2848 M
-144 28 V
1.000 UL
LT0
4346 2819 M
83 40 V
1.000 UL
LT0
4573 2830 M
-144 29 V
1.000 UL
LT0
4717 2802 M
83 42 V
1.000 UL
LT0
4944 2815 M
-144 29 V
1.000 UL
LT0
3234 2863 M
-9 1 V
1.000 UL
LT0
5088 2787 M
83 43 V
1.000 UL
LT0
5315 2802 M
-144 28 V
1.000 UL
LT0
2408 2794 M
84 51 V
1.000 UL
LT0
2635 2827 M
-143 18 V
1.000 UL
LT0
1810 2753 M
83 54 V
1.000 UL
LT0
2037 2783 M
-144 24 V
1.000 UL
LT0
3378 2844 M
83 35 V
1.000 UL
LT0
3604 2855 M
-143 24 V
1.000 UL
LT0
3748 2829 M
83 36 V
1.000 UL
LT0
3975 2838 M
-144 27 V
1.000 UL
LT0
4119 2809 M
83 39 V
1.000 UL
LT0
4346 2819 M
-144 29 V
1.000 UL
LT0
2779 2813 M
84 44 V
1.000 UL
LT0
2965 2846 M
-102 11 V
1.000 UL
LT0
2181 2761 M
83 53 V
1.000 UL
LT0
2408 2794 M
-144 20 V
1.000 UL
LT0
4490 2789 M
83 41 V
1.000 UL
LT0
4717 2802 M
-144 28 V
1.000 UL
LT0
1583 2724 M
83 54 V
1.000 UL
LT0
1810 2753 M
-144 25 V
1.000 UL
LT0
4861 2773 M
83 42 V
1.000 UL
LT0
5088 2787 M
-144 28 V
1.000 UL
LT0
5232 2759 M
83 43 V
1.000 UL
LT0
3227 2861 M
7 2 V
1.000 UL
LT0
3378 2844 M
-144 19 V
1.000 UL
LT0
2552 2778 M
83 49 V
1.000 UL
LT0
2779 2813 M
-144 14 V
1.000 UL
LT0
1954 2729 M
83 54 V
1.000 UL
LT0
2181 2761 M
-144 22 V
1.000 UL
LT0
3521 2821 M
83 34 V
1.000 UL
LT0
3748 2829 M
-144 26 V
1.000 UL
LT0
3891 2801 M
84 37 V
1.000 UL
LT0
4119 2809 M
-144 29 V
1.000 UL
LT0
4262 2779 M
84 40 V
1.000 UL
LT0
4490 2789 M
-144 30 V
1.000 UL
LT0
4634 2760 M
83 42 V
1.000 UL
LT0
4861 2773 M
-144 29 V
1.000 UL
LT0
2325 2741 M
83 53 V
1.000 UL
LT0
2552 2778 M
-144 16 V
1.000 UL
LT0
2923 2802 M
31 15 V
1.000 UL
LT0
1727 2699 M
83 54 V
1.000 UL
LT0
1954 2729 M
-144 24 V
1.000 UL
LT0
5005 2744 M
83 43 V
1.000 UL
LT0
5232 2759 M
-144 28 V
1.000 UL
LT0
3294 2811 M
84 33 V
1.000 UL
LT0
3521 2821 M
-143 23 V
1.000 UL
LT0
2098 2706 M
83 55 V
1.000 UL
LT0
2325 2741 M
-144 20 V
1.000 UL
LT0
3664 2796 M
84 33 V
1.000 UL
LT0
3891 2801 M
-143 28 V
1.000 UL
LT0
2696 2766 M
83 47 V
1.000 UL
LT0
2923 2802 M
-144 11 V
1.000 UL
LT0
4035 2771 M
84 38 V
1.000 UL
LT0
4262 2779 M
-143 30 V
1.000 UL
LT0
1500 2669 M
83 55 V
1.000 UL
LT0
1727 2699 M
-144 25 V
1.000 UL
LT0
4406 2748 M
84 41 V
1.000 UL
LT0
4634 2760 M
-144 29 V
1.000 UL
LT0
4777 2730 M
84 43 V
1.000 UL
LT0
5005 2744 M
-144 29 V
1.000 UL
LT0
5148 2716 M
84 43 V
1.000 UL
LT0
1871 2674 M
83 55 V
1.000 UL
LT0
2098 2706 M
-144 23 V
1.000 UL
LT0
2469 2724 M
83 54 V
1.000 UL
LT0
2696 2766 M
-144 12 V
1.000 UL
LT0
3294 2811 M
-45 6 V
1.000 UL
LT0
3438 2792 M
83 29 V
1.000 UL
LT0
3664 2796 M
-143 25 V
1.000 UL
LT0
3808 2766 M
83 35 V
1.000 UL
LT0
4035 2771 M
-144 30 V
1.000 UL
LT0
4179 2739 M
83 40 V
1.000 UL
LT0
4406 2748 M
-144 31 V
1.000 UL
LT0
2242 2685 M
83 56 V
1.000 UL
LT0
2469 2724 M
-144 17 V
1.000 UL
LT0
1644 2644 M
83 55 V
1.000 UL
LT0
1871 2674 M
-144 25 V
1.000 UL
LT0
4550 2718 M
84 42 V
1.000 UL
LT0
4777 2730 M
-143 30 V
1.000 UL
LT0
2840 2759 M
83 43 V
1.000 UL
LT0
2949 2800 M
-26 2 V
1.000 UL
LT0
4921 2701 M
84 43 V
1.000 UL
LT0
5148 2716 M
-143 28 V
1.000 UL
LT0
2015 2650 M
83 56 V
1.000 UL
LT0
2242 2685 M
-144 21 V
1.000 UL
LT0
1644 2644 M
-144 25 V
1.000 UL
LT0
3264 2801 M
30 10 V
1.000 UL
LT0
3438 2792 M
-144 19 V
1.000 UL
LT0
2613 2713 M
83 53 V
1.000 UL
LT0
2840 2759 M
-144 7 V
1.000 UL
LT0
3582 2766 M
82 30 V
1.000 UL
LT0
3808 2766 M
-144 30 V
1.000 UL
LT0
3952 2734 M
83 37 V
1.000 UL
LT0
4179 2739 M
-144 32 V
1.000 UL
LT0
4323 2708 M
83 40 V
1.000 UL
LT0
4550 2718 M
-144 30 V
1.000 UL
LT0
4694 2688 M
83 42 V
1.000 UL
LT0
4921 2701 M
-144 29 V
1.000 UL
LT0
1788 2619 M
83 55 V
1.000 UL
LT0
2015 2650 M
-144 24 V
1.000 UL
LT0
2386 2666 M
83 58 V
1.000 UL
LT0
2613 2713 M
-144 11 V
1.000 UL
LT0
5065 2672 M
83 44 V
1.000 UL
LT0
2159 2626 M
83 59 V
1.000 UL
LT0
2386 2666 M
-144 19 V
1.000 UL
LT0
1788 2619 M
-144 25 V
1.000 UL
LT0
3355 2768 M
83 24 V
1.000 UL
LT0
3582 2766 M
-144 26 V
1.000 UL
LT0
4096 2700 M
83 39 V
1.000 UL
LT0
4323 2708 M
-144 31 V
1.000 UL
LT0
3725 2734 M
83 32 V
1.000 UL
LT0
3952 2734 M
-144 32 V
1.000 UL
LT0
4467 2676 M
83 42 V
1.000 UL
LT0
4694 2688 M
-144 30 V
1.000 UL
LT0
2757 2709 M
83 50 V
1.000 UL
LT0
2934 2758 M
-94 1 V
1.000 UL
LT0
4838 2658 M
83 43 V
1.000 UL
LT0
5065 2672 M
-144 29 V
1.000 UL
LT0
1932 2593 M
83 57 V
1.000 UL
LT0
2159 2626 M
-144 24 V
1.000 UL
LT0
2530 2652 M
83 61 V
1.000 UL
LT0
2757 2709 M
-144 4 V
1.000 UL
LT0
3355 2768 M
-59 6 V
1.000 UL
LT0
1932 2593 M
-144 26 V
1.000 UL
LT0
2303 2604 M
83 62 V
1.000 UL
LT0
2530 2652 M
-144 14 V
1.000 UL
LT0
3869 2699 M
83 35 V
1.000 UL
LT0
4096 2700 M
-144 34 V
1.000 UL
LT0
4240 2667 M
83 41 V
1.000 UL
LT0
4467 2676 M
-144 32 V
1.000 UL
LT0
3499 2742 M
83 24 V
1.000 UL
LT0
3725 2734 M
-143 32 V
1.000 UL
LT0
4611 2645 M
83 43 V
1.000 UL
LT0
4838 2658 M
-144 30 V
1.000 UL
LT0
4982 2628 M
83 44 V
1.000 UL
LT0
2076 2567 M
83 59 V
1.000 UL
LT0
2303 2604 M
-144 22 V
1.000 UL
LT0
2901 2718 M
23 11 V
1.000 UL
LT0
3084 1859 M
-144 25 V
1.000 UL
LT0
3023 3010 M
2940 1884 L
1.000 UL
LT0
2796 2342 M
144 -458 V
1.000 UL
LT0
4013 2661 M
83 39 V
1.000 UL
LT0
4240 2667 M
-144 33 V
1.000 UL
LT0
2674 2646 M
83 63 V
1.000 UL
LT0
2901 2718 M
-144 -9 V
1.000 UL
LT0
4384 2633 M
83 43 V
1.000 UL
LT0
4611 2645 M
-144 31 V
1.000 UL
LT0
2076 2567 M
-144 26 V
1.000 UL
LT0
3642 2706 M
83 28 V
1.000 UL
LT0
3869 2699 M
-144 35 V
1.000 UL
LT0
4755 2614 M
83 44 V
1.000 UL
LT0
4982 2628 M
-144 30 V
1.000 UL
LT0
3311 2761 M
44 7 V
1.000 UL
LT0
3499 2742 M
-144 26 V
1.000 UL
LT0
2447 2583 M
83 69 V
1.000 UL
LT0
2674 2646 M
-144 6 V
1.000 UL
LT0
2220 2540 M
83 64 V
1.000 UL
LT0
2447 2583 M
-144 21 V
1.000 UL
LT0
4157 2625 M
83 42 V
1.000 UL
LT0
4384 2633 M
-144 34 V
1.000 UL
LT0
3228 2267 M
3084 1859 L
1.000 UL
LT0
3167 2985 M
3084 1859 L
1.000 UL
LT0
4528 2601 M
83 44 V
1.000 UL
LT0
4755 2614 M
-144 31 V
1.000 UL
LT0
3786 2664 M
83 35 V
1.000 UL
LT0
4013 2661 M
-144 38 V
1.000 UL
LT0
2220 2540 M
-144 27 V
1.000 UL
LT0
4899 2584 M
83 44 V
1.000 UL
LT0
3416 2730 M
83 12 V
1.000 UL
LT0
3642 2706 M
-143 36 V
1.000 UL
LT0
2818 2660 M
83 58 V
1.000 UL
LT0
2921 2722 M
-20 -4 V
1.000 UL
LT0
2591 2566 M
83 80 V
1.000 UL
LT0
2818 2660 M
-144 -14 V
1.000 UL
LT0
2364 2511 M
83 72 V
1.000 UL
LT0
2591 2566 M
-144 17 V
1.000 UL
LT0
4301 2590 M
83 43 V
1.000 UL
LT0
4528 2601 M
-144 32 V
1.000 UL
LT0
3930 2622 M
83 39 V
1.000 UL
LT0
4157 2625 M
-144 36 V
1.000 UL
LT0
4672 2570 M
83 44 V
1.000 UL
LT0
4899 2584 M
-144 30 V
1.000 UL
LT0
2364 2511 M
-144 29 V
1.000 UL
LT0
3560 2684 M
82 22 V
1.000 UL
LT0
3786 2664 M
-144 42 V
1.000 UL
LT0
3416 2730 M
-87 16 V
1.000 UL
LT0
4074 2582 M
83 43 V
1.000 UL
LT0
4301 2590 M
-144 35 V
1.000 UL
LT0
4445 2556 M
83 45 V
1.000 UL
LT0
4672 2570 M
-144 31 V
1.000 UL
LT0
2508 2478 M
83 88 V
1.000 UL
LT0
2735 2561 M
-144 5 V
1.000 UL
LT0
3703 2630 M
83 34 V
1.000 UL
LT0
3930 2622 M
-144 42 V
1.000 UL
LT0
4816 2539 M
83 45 V
1.000 UL
LT0
2508 2478 M
-144 33 V
1.000 UL
LT0
2735 2561 M
83 99 V
1.000 UL
LT0
2913 2700 M
-95 -40 V
1.000 UL
LT0
3333 2742 M
83 -12 V
1.000 UL
LT0
3560 2684 M
-144 46 V
1.000 UL
LT0
4218 2544 M
83 46 V
1.000 UL
LT0
4445 2556 M
-144 34 V
1.000 UL
LT0
3847 2580 M
83 42 V
1.000 UL
LT0
4074 2582 M
-144 40 V
1.000 UL
LT0
4589 2524 M
83 46 V
1.000 UL
LT0
4816 2539 M
-144 31 V
1.000 UL
LT0
2652 2433 M
-144 45 V
1.000 UL
LT0
2652 2433 M
83 128 V
1.000 UL
LT0
2879 2603 M
-144 -42 V
1.000 UL
LT0
3477 2668 M
83 16 V
1.000 UL
LT0
3703 2630 M
-143 54 V
1.000 UL
LT0
3991 2536 M
83 46 V
1.000 UL
LT0
4218 2544 M
-144 38 V
1.000 UL
LT0
4362 2511 M
83 45 V
1.000 UL
LT0
4589 2524 M
-144 32 V
1.000 UL
LT0
4733 2495 M
83 44 V
1.000 UL
LT0
2796 2342 M
-144 91 V
1.000 UL
LT0
3620 2592 M
83 38 V
1.000 UL
LT0
3847 2580 M
-144 50 V
1.000 UL
LT0
2879 2603 M
-83 -261 V
1.000 UL
LT0
4135 2497 M
83 47 V
1.000 UL
LT0
4362 2511 M
-144 33 V
1.000 UL
LT0
4506 2478 M
83 46 V
1.000 UL
LT0
4733 2495 M
-144 29 V
1.000 UL
LT0
3764 2531 M
83 49 V
1.000 UL
LT0
3991 2536 M
-144 44 V
1.000 UL
LT0
3250 2814 M
83 -72 V
1.000 UL
LT0
3477 2668 M
-144 74 V
1.000 UL
LT0
3023 3010 M
2879 2603 L
1.000 UL
LT0
3908 2485 M
83 51 V
1.000 UL
LT0
4135 2497 M
-144 39 V
1.000 UL
LT0
4279 2462 M
83 49 V
1.000 UL
LT0
4506 2478 M
-144 33 V
1.000 UL
LT0
3394 2644 M
83 24 V
1.000 UL
LT0
3620 2592 M
-143 76 V
1.000 UL
LT0
4650 2448 M
83 47 V
1.000 UL
LT0
3538 2534 M
82 58 V
1.000 UL
LT0
3764 2531 M
-144 61 V
1.000 UL
LT0
4052 2446 M
83 51 V
1.000 UL
LT0
4279 2462 M
-144 35 V
1.000 UL
LT0
4423 2430 M
83 48 V
1.000 UL
LT0
4650 2448 M
-144 30 V
1.000 UL
LT0
3681 2470 M
83 61 V
1.000 UL
LT0
3908 2485 M
-144 46 V
1.000 UL
LT0
3825 2425 M
83 60 V
1.000 UL
LT0
4052 2446 M
-144 39 V
1.000 UL
LT0
3372 2309 M
-144 -42 V
1.000 UL
LT0
3311 2527 M
-83 -260 V
1.000 UL
LT0
4196 2411 M
83 51 V
1.000 UL
LT0
4423 2430 M
-144 32 V
1.000 UL
LT0
4567 2400 M
83 48 V
1.000 UL
LT0
3455 2437 M
83 97 V
1.000 UL
LT0
3681 2470 M
-143 64 V
1.000 UL
LT0
3394 2644 M
144 -110 V
1.000 UL
LT0
3311 2527 M
83 117 V
1.000 UL
LT0
3250 2814 M
144 -170 V
1.000 UL
LT0
3599 2392 M
82 78 V
1.000 UL
LT0
3825 2425 M
-144 45 V
1.000 UL
LT0
3969 2389 M
83 57 V
1.000 UL
LT0
4196 2411 M
-144 35 V
1.000 UL
LT0
4340 2380 M
83 50 V
1.000 UL
LT0
4567 2400 M
-144 30 V
1.000 UL
LT0
3455 2437 M
-144 90 V
1.000 UL
LT0
3167 2985 M
144 -458 V
1.000 UL
LT0
3372 2309 M
83 128 V
1.000 UL
LT0
3599 2392 M
-144 45 V
1.000 UL
LT0
3167 2985 M
83 -171 V
1.000 UL
LT0
3742 2358 M
83 67 V
1.000 UL
LT0
3969 2389 M
-144 36 V
1.000 UL
LT0
4113 2357 M
83 54 V
1.000 UL
LT0
4340 2380 M
-144 31 V
1.000 UL
LT0
4484 2350 M
83 50 V
1.000 UL
LT0
3515 2304 M
-143 5 V
1.000 UL
LT0
3515 2304 M
84 88 V
1.000 UL
LT0
3742 2358 M
-143 34 V
1.000 UL
LT0
3886 2329 M
83 60 V
1.000 UL
LT0
4113 2357 M
-144 32 V
1.000 UL
LT0
4257 2328 M
83 52 V
1.000 UL
LT0
4484 2350 M
-144 30 V
1.000 UL
LT0
3658 2287 M
84 71 V
1.000 UL
LT0
3886 2329 M
-144 29 V
1.000 UL
LT0
3658 2287 M
-143 17 V
1.000 UL
LT0
4029 2301 M
84 56 V
1.000 UL
LT0
4257 2328 M
-144 29 V
1.000 UL
LT0
4400 2300 M
84 50 V
1.000 UL
LT0
3802 2267 M
84 62 V
1.000 UL
LT0
4029 2301 M
-143 28 V
1.000 UL
LT0
4173 2275 M
84 53 V
1.000 UL
LT0
4400 2300 M
-143 28 V
1.000 UL
LT0
3802 2267 M
-144 20 V
1.000 UL
LT0
3946 2244 M
83 57 V
1.000 UL
LT0
4173 2275 M
-144 26 V
1.000 UL
LT0
3167 2985 M
-144 25 V
1.000 UL
LT0
4317 2248 M
83 52 V
1.000 UL
LT0
3946 2244 M
-144 23 V
1.000 UL
LT0
4090 2221 M
83 54 V
1.000 UL
LT0
4317 2248 M
-144 27 V
1.000 UL
LT0
4090 2221 M
-144 23 V
1.000 UL
LT0
4234 2197 M
83 51 V
1.000 UL
LT0
4234 2197 M
-144 24 V
1.000 UL
LT0
1.000 UL
LT1
LT2
1.000 UL
LT2
3185 1142 M
-22 1 V
1.000 UL
LT2
3163 1143 M
-144 25 V
1.000 UL
LT2
3019 1168 M
-14 5 V
1.000 UL
LT2
3005 1173 M
39 8 V
1.000 UL
LT2
3188 1156 M
-144 25 V
1.000 UL
LT2
3185 1142 M
3 14 V
LT3
1.000 UL
LT3
3212 1137 M
-56 3 V
1.000 UL
LT3
3156 1140 M
-144 25 V
1.000 UL
LT3
3012 1165 M
-34 13 V
1.000 UL
LT3
2978 1178 M
98 20 V
1.000 UL
LT3
3219 1173 M
-143 25 V
1.000 UL
LT3
3212 1137 M
7 36 V
LT4
1.000 UL
LT4
3239 1133 M
-89 4 V
1.000 UL
LT4
3150 1137 M
-144 25 V
1.000 UL
LT4
3006 1162 M
-55 21 V
1.000 UL
LT4
2951 1183 M
152 31 V
1.000 UL
LT4
3103 1214 M
5 1 V
1.000 UL
LT4
3252 1189 M
-144 26 V
1.000 UL
LT4
3252 1188 M
0 1 V
1.000 UL
LT4
3239 1133 M
13 55 V
LT5
1.000 UL
LT5
3266 1128 M
-122 5 V
1.000 UL
LT5
3144 1133 M
-144 25 V
1.000 UL
LT5
3000 1158 M
-76 29 V
1.000 UL
LT5
2924 1187 M
98 41 V
1.000 UL
LT5
3022 1228 M
145 17 V
1.000 UL
LT5
3310 1220 M
-143 25 V
1.000 UL
LT5
3333 1174 M
-23 46 V
1.000 UL
LT5
3266 1128 M
67 46 V
LT6
1.000 UL
LT6
3371 1152 M
57 6 V
1.000 UL
LT6
3293 1123 M
78 29 V
1.000 UL
LT6
3293 1123 M
-155 7 V
1.000 UL
LT6
3138 1130 M
-144 25 V
1.000 UL
LT6
2994 1155 M
-97 37 V
1.000 UL
LT6
2897 1192 M
41 34 V
1.000 UL
LT6
2938 1226 M
-12 19 V
1.000 UL
LT6
2926 1245 M
114 38 V
1.000 UL
LT6
3040 1283 M
10 2 V
1.000 UL
LT6
3050 1285 M
215 11 V
1.000 UL
LT6
3408 1271 M
-143 25 V
1.000 UL
LT6
3478 1208 M
-70 63 V
1.000 UL
LT6
3478 1207 M
0 1 V
1.000 UL
LT6
3428 1158 M
50 49 V
LT7
1.000 UL
LT7
3839 1196 M
12 4 V
1.000 UL
LT7
3744 1160 M
95 36 V
1.000 UL
LT7
3597 1128 M
147 32 V
1.000 UL
LT7
3513 1126 M
84 2 V
1.000 UL
LT7
3371 1110 M
142 16 V
1.000 UL
LT7
3371 1110 M
-71 5 V
1.000 UL
LT7
3300 1115 M
-169 12 V
1.000 UL
LT7
3131 1127 M
-144 25 V
1.000 UL
LT7
2987 1152 M
-119 38 V
1.000 UL
LT7
2868 1190 M
-50 16 V
1.000 UL
LT7
2818 1206 M
-26 44 V
1.000 UL
LT7
2792 1250 M
-39 25 V
1.000 UL
LT7
2753 1275 M
13 55 V
1.000 UL
LT7
2766 1330 M
18 16 V
1.000 UL
LT7
2784 1346 M
22 35 V
1.000 UL
LT7
2806 1381 M
75 45 V
1.000 UL
LT7
2881 1426 M
110 38 V
1.000 UL
LT7
2991 1464 M
39 10 V
1.000 UL
LT7
3030 1474 M
117 21 V
1.000 UL
LT7
3147 1495 M
142 14 V
1.000 UL
LT7
3408 1508 M
-119 1 V
1.000 UL
LT7
3476 1506 M
-68 2 V
1.000 UL
LT7
3633 1489 M
-157 17 V
1.000 UL
LT7
3766 1458 M
-133 31 V
1.000 UL
LT7
3820 1436 M
-54 22 V
1.000 UL
LT7
3875 1415 M
-55 21 V
1.000 UL
LT7
3946 1356 M
-71 59 V
1.000 UL
LT7
3949 1353 M
-3 3 V
1.000 UL
LT7
3960 1296 M
-11 57 V
1.000 UL
LT7
3924 1244 M
36 52 V
1.000 UL
LT7
3880 1218 M
44 26 V
1.000 UL
LT7
3851 1200 M
29 18 V
LT8
1.000 UL
LT8
4276 924 M
-144 25 V
1.000 UL
LT8
4132 949 M
-144 25 V
1.000 UL
LT8
3988 974 M
-144 25 V
1.000 UL
LT8
3844 999 M
-144 25 V
1.000 UL
LT8
3700 1024 M
-143 25 V
1.000 UL
LT8
3557 1049 M
-144 25 V
1.000 UL
LT8
3413 1074 M
-144 25 V
1.000 UL
LT8
3269 1099 M
-144 25 V
1.000 UL
LT8
3125 1124 M
-144 25 V
1.000 UL
LT8
2981 1149 M
-144 25 V
1.000 UL
LT8
2837 1174 M
-144 25 V
1.000 UL
LT8
2693 1199 M
-144 25 V
1.000 UL
LT8
2549 1224 M
-144 25 V
1.000 UL
LT8
2405 1249 M
-144 25 V
1.000 UL
LT8
2261 1274 M
-143 25 V
1.000 UL
LT8
2118 1299 M
-144 25 V
1.000 UL
LT8
1974 1324 M
-144 25 V
1.000 UL
LT8
1830 1349 M
-144 25 V
1.000 UL
LT8
1686 1374 M
-144 25 V
LT0
1.000 UL
LT0
3288 1067 M
-50 15 V
1.000 UL
LT0
3238 1082 M
-119 38 V
1.000 UL
LT0
3119 1120 M
-144 25 V
1.000 UL
LT0
2975 1145 M
-169 12 V
1.000 UL
LT0
2806 1157 M
-71 5 V
LT1
1.000 UL
LT1
3210 1080 M
-97 37 V
1.000 UL
LT1
3113 1117 M
-144 25 V
1.000 UL
LT1
2969 1142 M
-156 7 V
LT2
1.000 UL
LT2
3183 1085 M
-76 29 V
1.000 UL
LT2
3107 1114 M
-144 25 V
1.000 UL
LT2
2963 1139 M
-123 5 V
LT3
1.000 UL
LT3
3156 1089 M
-56 22 V
1.000 UL
LT3
3100 1111 M
-144 25 V
1.000 UL
LT3
2956 1136 M
-89 3 V
LT4
1.000 UL
LT4
3129 1094 M
-35 13 V
1.000 UL
LT4
3094 1107 M
-144 25 V
1.000 UL
LT4
2950 1132 M
-56 3 V
LT5
1.000 UL
LT5
3102 1099 M
-14 5 V
1.000 UL
LT5
3088 1104 M
-144 25 V
1.000 UL
LT5
2944 1129 M
-23 1 V
1.000 UL
LTb
4284 778 M
1870 974 V
1.000 UL
LTb
4284 778 M
1046 1340 L
1.000 UL
LTb
1046 1340 M
1774 925 V
1.000 UL
LTb
6154 1752 M
3225 2261 L
1.000 UL
LTb
1046 3288 M
0 -1948 V
1.000 UL
LTb
1046 1340 M
52 28 V
1.000 UL
LTb
936 1245 M
gsave 0 setgray
[ [(Times) 220.0 0.0 true true 0 (-2.5)]
] -73.3 MCshow
grestore
1.000 UL
LTb
1.000 UL
LTb
1406 1278 M
52 27 V
1.000 UL
LTb
1296 1183 M
gsave 0 setgray
[ [(Times) 220.0 0.0 true true 0 (-2)]
] -73.3 MCshow
grestore
1.000 UL
LTb
1.000 UL
LTb
3224 2225 M
52 27 V
1.000 UL
LTb
1766 1215 M
52 28 V
1.000 UL
LTb
1656 1120 M
gsave 0 setgray
[ [(Times) 220.0 0.0 true true 0 (-1.5)]
] -73.3 MCshow
grestore
1.000 UL
LTb
1.000 UL
LTb
3583 2162 M
52 28 V
1.000 UL
LTb
2126 1153 M
52 27 V
1.000 UL
LTb
2016 1058 M
gsave 0 setgray
[ [(Times) 220.0 0.0 true true 0 (-1)]
] -73.3 MCshow
grestore
1.000 UL
LTb
1.000 UL
LTb
3942 2100 M
53 27 V
1.000 UL
LTb
2486 1090 M
52 28 V
1.000 UL
LTb
2376 995 M
gsave 0 setgray
[ [(Times) 220.0 0.0 true true 0 (-0.5)]
] -73.3 MCshow
grestore
1.000 UL
LTb
1.000 UL
LTb
4302 2037 M
53 28 V
1.000 UL
LTb
2845 1028 M
53 27 V
1.000 UL
LTb
2736 933 M
gsave 0 setgray
[ [(Times) 220.0 0.0 true true 0 ( 0)]
] -73.3 MCshow
grestore
1.000 UL
LTb
1.000 UL
LTb
4662 1975 M
52 27 V
1.000 UL
LTb
3205 965 M
53 28 V
1.000 UL
LTb
3096 870 M
gsave 0 setgray
[ [(Times) 220.0 0.0 true true 0 ( 0.5)]
] -73.3 MCshow
grestore
1.000 UL
LTb
1.000 UL
LTb
5022 1912 M
52 28 V
1.000 UL
LTb
3565 903 M
52 27 V
1.000 UL
LTb
3455 808 M
gsave 0 setgray
[ [(Times) 220.0 0.0 true true 0 ( 1)]
] -73.3 MCshow
grestore
1.000 UL
LTb
1.000 UL
LTb
5382 1850 M
52 27 V
1.000 UL
LTb
3924 840 M
52 28 V
1.000 UL
LTb
3814 745 M
gsave 0 setgray
[ [(Times) 220.0 0.0 true true 0 ( 1.5)]
] -73.3 MCshow
grestore
1.000 UL
LTb
1.000 UL
LTb
5742 1787 M
52 28 V
1.000 UL
LTb
4284 778 M
52 27 V
1.000 UL
LTb
4174 683 M
gsave 0 setgray
[ [(Times) 220.0 0.0 true true 0 ( 2)]
] -73.3 MCshow
grestore
1.000 UL
LTb
1.000 UL
LTb
6102 1725 M
52 27 V
LTb
2198 816 M
gsave 0 setgray
[ [(Times) 220.0 0.0 true true 0 (Re\(p\))]
] -73.3 MCshow
grestore
1.000 UL
LTb
4284 778 M
-55 9 V
stroke
4398 745 M
gsave 0 setgray
[ [(Times) 220.0 0.0 true true 0 (-0.5)]
] -73.3 MCshow
grestore
1.000 UL
LTb
1.000 UL
LTb
1101 1331 M
-55 9 V
1.000 UL
LTb
4492 886 M
-55 10 V
stroke
4606 853 M
gsave 0 setgray
[ [(Times) 220.0 0.0 true true 0 ( 0)]
] -73.3 MCshow
grestore
1.000 UL
LTb
1.000 UL
LTb
1308 1439 M
-54 10 V
1.000 UL
LTb
4700 994 M
-55 10 V
stroke
4814 961 M
gsave 0 setgray
[ [(Times) 220.0 0.0 true true 0 ( 0.5)]
] -73.3 MCshow
grestore
1.000 UL
LTb
1.000 UL
LTb
1516 1547 M
-54 10 V
1.000 UL
LTb
4907 1103 M
-54 9 V
stroke
5022 1070 M
gsave 0 setgray
[ [(Times) 220.0 0.0 true true 0 ( 1)]
] -73.3 MCshow
grestore
1.000 UL
LTb
1.000 UL
LTb
1724 1656 M
-55 9 V
1.000 UL
LTb
5115 1211 M
-54 9 V
stroke
5229 1178 M
gsave 0 setgray
[ [(Times) 220.0 0.0 true true 0 ( 1.5)]
] -73.3 MCshow
grestore
1.000 UL
LTb
1.000 UL
LTb
1932 1764 M
-55 9 V
1.000 UL
LTb
5323 1319 M
-55 10 V
stroke
5437 1286 M
gsave 0 setgray
[ [(Times) 220.0 0.0 true true 0 ( 2)]
] -73.3 MCshow
grestore
1.000 UL
LTb
1.000 UL
LTb
2139 1872 M
-54 10 V
1.000 UL
LTb
5531 1427 M
-55 10 V
stroke
5645 1394 M
gsave 0 setgray
[ [(Times) 220.0 0.0 true true 0 ( 2.5)]
] -73.3 MCshow
grestore
1.000 UL
LTb
1.000 UL
LTb
2347 1980 M
-54 10 V
1.000 UL
LTb
5738 1536 M
-54 9 V
stroke
5853 1503 M
gsave 0 setgray
[ [(Times) 220.0 0.0 true true 0 ( 3)]
] -73.3 MCshow
grestore
1.000 UL
LTb
1.000 UL
LTb
2555 2089 M
-55 9 V
1.000 UL
LTb
5946 1644 M
-54 9 V
stroke
6061 1611 M
gsave 0 setgray
[ [(Times) 220.0 0.0 true true 0 ( 3.5)]
] -73.3 MCshow
grestore
1.000 UL
LTb
1.000 UL
LTb
2763 2197 M
-55 9 V
1.000 UL
LTb
6154 1752 M
-55 10 V
stroke
6268 1719 M
gsave 0 setgray
[ [(Times) 220.0 0.0 true true 0 ( 4)]
] -73.3 MCshow
grestore
1.000 UL
LTb
LTb
6029 1124 M
gsave 0 setgray
[ [(Times) 220.0 0.0 true true 0 (Im\(p\))]
] -73.3 MCshow
grestore
1.000 UL
LTb
1109 1990 M
-63 0 V
stroke
920 1990 M
gsave 0 setgray
[ [(Times) 220.0 0.0 true true 0 (-8)]
] -73.3 MRshow
grestore
1.000 UL
LTb
1.000 UL
LTb
1109 2152 M
-63 0 V
stroke
920 2152 M
gsave 0 setgray
[ [(Times) 220.0 0.0 true true 0 (-6)]
] -73.3 MRshow
grestore
1.000 UL
LTb
1.000 UL
LTb
1109 2315 M
-63 0 V
stroke
920 2315 M
gsave 0 setgray
[ [(Times) 220.0 0.0 true true 0 (-4)]
] -73.3 MRshow
grestore
1.000 UL
LTb
1.000 UL
LTb
1109 2477 M
-63 0 V
stroke
920 2477 M
gsave 0 setgray
[ [(Times) 220.0 0.0 true true 0 (-2)]
] -73.3 MRshow
grestore
1.000 UL
LTb
1.000 UL
LTb
1109 2638 M
-63 0 V
stroke
920 2638 M
gsave 0 setgray
[ [(Times) 220.0 0.0 true true 0 ( 0)]
] -73.3 MRshow
grestore
1.000 UL
LTb
1.000 UL
LTb
1109 2801 M
-63 0 V
stroke
920 2801 M
gsave 0 setgray
[ [(Times) 220.0 0.0 true true 0 ( 2)]
] -73.3 MRshow
grestore
1.000 UL
LTb
1.000 UL
LTb
1109 2963 M
-63 0 V
stroke
920 2963 M
gsave 0 setgray
[ [(Times) 220.0 0.0 true true 0 ( 4)]
] -73.3 MRshow
grestore
1.000 UL
LTb
1.000 UL
LTb
1109 3126 M
-63 0 V
stroke
920 3126 M
gsave 0 setgray
[ [(Times) 220.0 0.0 true true 0 ( 6)]
] -73.3 MRshow
grestore
1.000 UL
LTb
1.000 UL
LTb
1109 3288 M
-63 0 V
stroke
920 3288 M
gsave 0 setgray
[ [(Times) 220.0 0.0 true true 0 ( 8)]
] -73.3 MRshow
grestore
1.000 UL
LTb
1.000 UP
stroke
grestore
end
showpage
%%Trailer
%%DocumentFonts: Times
