%!PS-Adobe-2.0 EPSF-2.0
%%Title: flux_real_ssbc.eps
%%Creator: gnuplot 4.0 patchlevel 0
%%CreationDate: Fri Nov 17 17:01:12 2006
%%DocumentFonts: (atend)
%%BoundingBox: 50 50 410 302
%%Orientation: Portrait
%%EndComments
/gnudict 256 dict def
gnudict begin
/Color false def
/Solid false def
/gnulinewidth 5.000 def
/userlinewidth gnulinewidth def
/vshift -73 def
/dl {10.0 mul} def
/hpt_ 31.5 def
/vpt_ 31.5 def
/hpt hpt_ def
/vpt vpt_ def
/Rounded false def
/M {moveto} bind def
/L {lineto} bind def
/R {rmoveto} bind def
/V {rlineto} bind def
/N {newpath moveto} bind def
/C {setrgbcolor} bind def
/f {rlineto fill} bind def
/vpt2 vpt 2 mul def
/hpt2 hpt 2 mul def
/Lshow { currentpoint stroke M
  0 vshift R show } def
/Rshow { currentpoint stroke M
  dup stringwidth pop neg vshift R show } def
/Cshow { currentpoint stroke M
  dup stringwidth pop -2 div vshift R show } def
/UP { dup vpt_ mul /vpt exch def hpt_ mul /hpt exch def
  /hpt2 hpt 2 mul def /vpt2 vpt 2 mul def } def
/DL { Color {setrgbcolor Solid {pop []} if 0 setdash }
 {pop pop pop 0 setgray Solid {pop []} if 0 setdash} ifelse } def
/BL { stroke userlinewidth 2 mul setlinewidth
      Rounded { 1 setlinejoin 1 setlinecap } if } def
/AL { stroke userlinewidth 2 div setlinewidth
      Rounded { 1 setlinejoin 1 setlinecap } if } def
/UL { dup gnulinewidth mul /userlinewidth exch def
      dup 1 lt {pop 1} if 10 mul /udl exch def } def
/PL { stroke userlinewidth setlinewidth
      Rounded { 1 setlinejoin 1 setlinecap } if } def
/LTw { PL [] 1 setgray } def
/LTb { BL [] 0 0 0 DL } def
/LTa { AL [1 udl mul 2 udl mul] 0 setdash 0 0 0 setrgbcolor } def
/LT0 { PL [] 1 0 0 DL } def
/LT1 { PL [4 dl 2 dl] 0 1 0 DL } def
/LT2 { PL [2 dl 3 dl] 0 0 1 DL } def
/LT3 { PL [1 dl 1.5 dl] 1 0 1 DL } def
/LT4 { PL [5 dl 2 dl 1 dl 2 dl] 0 1 1 DL } def
/LT5 { PL [4 dl 3 dl 1 dl 3 dl] 1 1 0 DL } def
/LT6 { PL [2 dl 2 dl 2 dl 4 dl] 0 0 0 DL } def
/LT7 { PL [2 dl 2 dl 2 dl 2 dl 2 dl 4 dl] 1 0.3 0 DL } def
/LT8 { PL [2 dl 2 dl 2 dl 2 dl 2 dl 2 dl 2 dl 4 dl] 0.5 0.5 0.5 DL } def
/Pnt { stroke [] 0 setdash
   gsave 1 setlinecap M 0 0 V stroke grestore } def
/Dia { stroke [] 0 setdash 2 copy vpt add M
  hpt neg vpt neg V hpt vpt neg V
  hpt vpt V hpt neg vpt V closepath stroke
  Pnt } def
/Pls { stroke [] 0 setdash vpt sub M 0 vpt2 V
  currentpoint stroke M
  hpt neg vpt neg R hpt2 0 V stroke
  } def
/Box { stroke [] 0 setdash 2 copy exch hpt sub exch vpt add M
  0 vpt2 neg V hpt2 0 V 0 vpt2 V
  hpt2 neg 0 V closepath stroke
  Pnt } def
/Crs { stroke [] 0 setdash exch hpt sub exch vpt add M
  hpt2 vpt2 neg V currentpoint stroke M
  hpt2 neg 0 R hpt2 vpt2 V stroke } def
/TriU { stroke [] 0 setdash 2 copy vpt 1.12 mul add M
  hpt neg vpt -1.62 mul V
  hpt 2 mul 0 V
  hpt neg vpt 1.62 mul V closepath stroke
  Pnt  } def
/Star { 2 copy Pls Crs } def
/BoxF { stroke [] 0 setdash exch hpt sub exch vpt add M
  0 vpt2 neg V  hpt2 0 V  0 vpt2 V
  hpt2 neg 0 V  closepath fill } def
/TriUF { stroke [] 0 setdash vpt 1.12 mul add M
  hpt neg vpt -1.62 mul V
  hpt 2 mul 0 V
  hpt neg vpt 1.62 mul V closepath fill } def
/TriD { stroke [] 0 setdash 2 copy vpt 1.12 mul sub M
  hpt neg vpt 1.62 mul V
  hpt 2 mul 0 V
  hpt neg vpt -1.62 mul V closepath stroke
  Pnt  } def
/TriDF { stroke [] 0 setdash vpt 1.12 mul sub M
  hpt neg vpt 1.62 mul V
  hpt 2 mul 0 V
  hpt neg vpt -1.62 mul V closepath fill} def
/DiaF { stroke [] 0 setdash vpt add M
  hpt neg vpt neg V hpt vpt neg V
  hpt vpt V hpt neg vpt V closepath fill } def
/Pent { stroke [] 0 setdash 2 copy gsave
  translate 0 hpt M 4 {72 rotate 0 hpt L} repeat
  closepath stroke grestore Pnt } def
/PentF { stroke [] 0 setdash gsave
  translate 0 hpt M 4 {72 rotate 0 hpt L} repeat
  closepath fill grestore } def
/Circle { stroke [] 0 setdash 2 copy
  hpt 0 360 arc stroke Pnt } def
/CircleF { stroke [] 0 setdash hpt 0 360 arc fill } def
/C0 { BL [] 0 setdash 2 copy moveto vpt 90 450  arc } bind def
/C1 { BL [] 0 setdash 2 copy        moveto
       2 copy  vpt 0 90 arc closepath fill
               vpt 0 360 arc closepath } bind def
/C2 { BL [] 0 setdash 2 copy moveto
       2 copy  vpt 90 180 arc closepath fill
               vpt 0 360 arc closepath } bind def
/C3 { BL [] 0 setdash 2 copy moveto
       2 copy  vpt 0 180 arc closepath fill
               vpt 0 360 arc closepath } bind def
/C4 { BL [] 0 setdash 2 copy moveto
       2 copy  vpt 180 270 arc closepath fill
               vpt 0 360 arc closepath } bind def
/C5 { BL [] 0 setdash 2 copy moveto
       2 copy  vpt 0 90 arc
       2 copy moveto
       2 copy  vpt 180 270 arc closepath fill
               vpt 0 360 arc } bind def
/C6 { BL [] 0 setdash 2 copy moveto
      2 copy  vpt 90 270 arc closepath fill
              vpt 0 360 arc closepath } bind def
/C7 { BL [] 0 setdash 2 copy moveto
      2 copy  vpt 0 270 arc closepath fill
              vpt 0 360 arc closepath } bind def
/C8 { BL [] 0 setdash 2 copy moveto
      2 copy vpt 270 360 arc closepath fill
              vpt 0 360 arc closepath } bind def
/C9 { BL [] 0 setdash 2 copy moveto
      2 copy  vpt 270 450 arc closepath fill
              vpt 0 360 arc closepath } bind def
/C10 { BL [] 0 setdash 2 copy 2 copy moveto vpt 270 360 arc closepath fill
       2 copy moveto
       2 copy vpt 90 180 arc closepath fill
               vpt 0 360 arc closepath } bind def
/C11 { BL [] 0 setdash 2 copy moveto
       2 copy  vpt 0 180 arc closepath fill
       2 copy moveto
       2 copy  vpt 270 360 arc closepath fill
               vpt 0 360 arc closepath } bind def
/C12 { BL [] 0 setdash 2 copy moveto
       2 copy  vpt 180 360 arc closepath fill
               vpt 0 360 arc closepath } bind def
/C13 { BL [] 0 setdash  2 copy moveto
       2 copy  vpt 0 90 arc closepath fill
       2 copy moveto
       2 copy  vpt 180 360 arc closepath fill
               vpt 0 360 arc closepath } bind def
/C14 { BL [] 0 setdash 2 copy moveto
       2 copy  vpt 90 360 arc closepath fill
               vpt 0 360 arc } bind def
/C15 { BL [] 0 setdash 2 copy vpt 0 360 arc closepath fill
               vpt 0 360 arc closepath } bind def
/Rec   { newpath 4 2 roll moveto 1 index 0 rlineto 0 exch rlineto
       neg 0 rlineto closepath } bind def
/Square { dup Rec } bind def
/Bsquare { vpt sub exch vpt sub exch vpt2 Square } bind def
/S0 { BL [] 0 setdash 2 copy moveto 0 vpt rlineto BL Bsquare } bind def
/S1 { BL [] 0 setdash 2 copy vpt Square fill Bsquare } bind def
/S2 { BL [] 0 setdash 2 copy exch vpt sub exch vpt Square fill Bsquare } bind def
/S3 { BL [] 0 setdash 2 copy exch vpt sub exch vpt2 vpt Rec fill Bsquare } bind def
/S4 { BL [] 0 setdash 2 copy exch vpt sub exch vpt sub vpt Square fill Bsquare } bind def
/S5 { BL [] 0 setdash 2 copy 2 copy vpt Square fill
       exch vpt sub exch vpt sub vpt Square fill Bsquare } bind def
/S6 { BL [] 0 setdash 2 copy exch vpt sub exch vpt sub vpt vpt2 Rec fill Bsquare } bind def
/S7 { BL [] 0 setdash 2 copy exch vpt sub exch vpt sub vpt vpt2 Rec fill
       2 copy vpt Square fill
       Bsquare } bind def
/S8 { BL [] 0 setdash 2 copy vpt sub vpt Square fill Bsquare } bind def
/S9 { BL [] 0 setdash 2 copy vpt sub vpt vpt2 Rec fill Bsquare } bind def
/S10 { BL [] 0 setdash 2 copy vpt sub vpt Square fill 2 copy exch vpt sub exch vpt Square fill
       Bsquare } bind def
/S11 { BL [] 0 setdash 2 copy vpt sub vpt Square fill 2 copy exch vpt sub exch vpt2 vpt Rec fill
       Bsquare } bind def
/S12 { BL [] 0 setdash 2 copy exch vpt sub exch vpt sub vpt2 vpt Rec fill Bsquare } bind def
/S13 { BL [] 0 setdash 2 copy exch vpt sub exch vpt sub vpt2 vpt Rec fill
       2 copy vpt Square fill Bsquare } bind def
/S14 { BL [] 0 setdash 2 copy exch vpt sub exch vpt sub vpt2 vpt Rec fill
       2 copy exch vpt sub exch vpt Square fill Bsquare } bind def
/S15 { BL [] 0 setdash 2 copy Bsquare fill Bsquare } bind def
/D0 { gsave translate 45 rotate 0 0 S0 stroke grestore } bind def
/D1 { gsave translate 45 rotate 0 0 S1 stroke grestore } bind def
/D2 { gsave translate 45 rotate 0 0 S2 stroke grestore } bind def
/D3 { gsave translate 45 rotate 0 0 S3 stroke grestore } bind def
/D4 { gsave translate 45 rotate 0 0 S4 stroke grestore } bind def
/D5 { gsave translate 45 rotate 0 0 S5 stroke grestore } bind def
/D6 { gsave translate 45 rotate 0 0 S6 stroke grestore } bind def
/D7 { gsave translate 45 rotate 0 0 S7 stroke grestore } bind def
/D8 { gsave translate 45 rotate 0 0 S8 stroke grestore } bind def
/D9 { gsave translate 45 rotate 0 0 S9 stroke grestore } bind def
/D10 { gsave translate 45 rotate 0 0 S10 stroke grestore } bind def
/D11 { gsave translate 45 rotate 0 0 S11 stroke grestore } bind def
/D12 { gsave translate 45 rotate 0 0 S12 stroke grestore } bind def
/D13 { gsave translate 45 rotate 0 0 S13 stroke grestore } bind def
/D14 { gsave translate 45 rotate 0 0 S14 stroke grestore } bind def
/D15 { gsave translate 45 rotate 0 0 S15 stroke grestore } bind def
/DiaE { stroke [] 0 setdash vpt add M
  hpt neg vpt neg V hpt vpt neg V
  hpt vpt V hpt neg vpt V closepath stroke } def
/BoxE { stroke [] 0 setdash exch hpt sub exch vpt add M
  0 vpt2 neg V hpt2 0 V 0 vpt2 V
  hpt2 neg 0 V closepath stroke } def
/TriUE { stroke [] 0 setdash vpt 1.12 mul add M
  hpt neg vpt -1.62 mul V
  hpt 2 mul 0 V
  hpt neg vpt 1.62 mul V closepath stroke } def
/TriDE { stroke [] 0 setdash vpt 1.12 mul sub M
  hpt neg vpt 1.62 mul V
  hpt 2 mul 0 V
  hpt neg vpt -1.62 mul V closepath stroke } def
/PentE { stroke [] 0 setdash gsave
  translate 0 hpt M 4 {72 rotate 0 hpt L} repeat
  closepath stroke grestore } def
/CircE { stroke [] 0 setdash 
  hpt 0 360 arc stroke } def
/Opaque { gsave closepath 1 setgray fill grestore 0 setgray closepath } def
/DiaW { stroke [] 0 setdash vpt add M
  hpt neg vpt neg V hpt vpt neg V
  hpt vpt V hpt neg vpt V Opaque stroke } def
/BoxW { stroke [] 0 setdash exch hpt sub exch vpt add M
  0 vpt2 neg V hpt2 0 V 0 vpt2 V
  hpt2 neg 0 V Opaque stroke } def
/TriUW { stroke [] 0 setdash vpt 1.12 mul add M
  hpt neg vpt -1.62 mul V
  hpt 2 mul 0 V
  hpt neg vpt 1.62 mul V Opaque stroke } def
/TriDW { stroke [] 0 setdash vpt 1.12 mul sub M
  hpt neg vpt 1.62 mul V
  hpt 2 mul 0 V
  hpt neg vpt -1.62 mul V Opaque stroke } def
/PentW { stroke [] 0 setdash gsave
  translate 0 hpt M 4 {72 rotate 0 hpt L} repeat
  Opaque stroke grestore } def
/CircW { stroke [] 0 setdash 
  hpt 0 360 arc Opaque stroke } def
/BoxFill { gsave Rec 1 setgray fill grestore } def
/BoxColFill {
  gsave Rec
  /Fillden exch def
  currentrgbcolor
  /ColB exch def /ColG exch def /ColR exch def
  /ColR ColR Fillden mul Fillden sub 1 add def
  /ColG ColG Fillden mul Fillden sub 1 add def
  /ColB ColB Fillden mul Fillden sub 1 add def
  ColR ColG ColB setrgbcolor
  fill grestore } def
%
% PostScript Level 1 Pattern Fill routine
% Usage: x y w h s a XX PatternFill
%	x,y = lower left corner of box to be filled
%	w,h = width and height of box
%	  a = angle in degrees between lines and x-axis
%	 XX = 0/1 for no/yes cross-hatch
%
/PatternFill { gsave /PFa [ 9 2 roll ] def
    PFa 0 get PFa 2 get 2 div add PFa 1 get PFa 3 get 2 div add translate
    PFa 2 get -2 div PFa 3 get -2 div PFa 2 get PFa 3 get Rec
    gsave 1 setgray fill grestore clip
    currentlinewidth 0.5 mul setlinewidth
    /PFs PFa 2 get dup mul PFa 3 get dup mul add sqrt def
    0 0 M PFa 5 get rotate PFs -2 div dup translate
	0 1 PFs PFa 4 get div 1 add floor cvi
	{ PFa 4 get mul 0 M 0 PFs V } for
    0 PFa 6 get ne {
	0 1 PFs PFa 4 get div 1 add floor cvi
	{ PFa 4 get mul 0 2 1 roll M PFs 0 V } for
    } if
    stroke grestore } def
%
/Symbol-Oblique /Symbol findfont [1 0 .167 1 0 0] makefont
dup length dict begin {1 index /FID eq {pop pop} {def} ifelse} forall
currentdict end definefont pop
/MFshow {
   { dup 5 get 3 ge
     { 5 get 3 eq {gsave} {grestore} ifelse }
     {dup dup 0 get findfont exch 1 get scalefont setfont
     [ currentpoint ] exch dup 2 get 0 exch R dup 5 get 2 ne {dup dup 6
     get exch 4 get {show} {stringwidth pop 0 R} ifelse }if dup 5 get 0 eq
     {dup 3 get {2 get neg 0 exch R pop} {pop aload pop M} ifelse} {dup 5
     get 1 eq {dup 2 get exch dup 3 get exch 6 get stringwidth pop -2 div
     dup 0 R} {dup 6 get stringwidth pop -2 div 0 R 6 get
     show 2 index {aload pop M neg 3 -1 roll neg R pop pop} {pop pop pop
     pop aload pop M} ifelse }ifelse }ifelse }
     ifelse }
   forall} bind def
/MFwidth {0 exch {dup 3 get{dup dup 0 get findfont exch 1 get scalefont
     setfont 6 get stringwidth pop add} {pop} ifelse} forall} bind def
/MLshow { currentpoint stroke M
  0 exch R MFshow } bind def
/MRshow { currentpoint stroke M
  exch dup MFwidth neg 3 -1 roll R MFshow } def
/MCshow { currentpoint stroke M
  exch dup MFwidth -2 div 3 -1 roll R MFshow } def
end
%%EndProlog
gnudict begin
gsave
50 50 translate
0.050 0.050 scale
0 setgray
newpath
(Times) findfont 220 scalefont setfont
1.000 UL
LTb
LTb
3600 4621 M
gsave 0 setgray
[ [(Times) 220.0 0.0 true true 0 (Re\(LT-BEM x-flux\))]
] -73.3 MCshow
grestore
3600 4401 M
gsave 0 setgray
[ [(Times) 220.0 0.0 true true 0 (steady \(1/p\) boundary condition)]
] -73.3 MCshow
grestore
1.000 UP
1.000 UL
LT0
2996 3451 M
83 44 V
1.000 UL
LT0
3223 3469 M
-144 26 V
1.000 UL
LT0
3140 3425 M
83 44 V
1.000 UL
LT0
3367 3442 M
-144 27 V
1.000 UL
LT0
2913 3407 M
83 44 V
1.000 UL
LT0
3140 3425 M
-144 26 V
1.000 UL
LT0
3284 3398 M
83 44 V
1.000 UL
LT0
3511 3416 M
-144 26 V
1.000 UL
LT0
3057 3381 M
83 44 V
1.000 UL
LT0
3284 3398 M
-144 27 V
1.000 UL
LT0
3428 3372 M
83 44 V
1.000 UL
LT0
3654 3390 M
-143 26 V
1.000 UL
LT0
2830 3363 M
83 44 V
1.000 UL
LT0
3057 3381 M
-144 26 V
1.000 UL
LT0
3201 3355 M
83 43 V
1.000 UL
LT0
3428 3372 M
-144 26 V
1.000 UL
LT0
3572 3346 M
82 44 V
1.000 UL
LT0
3798 3363 M
-144 27 V
1.000 UL
LT0
2974 3337 M
83 44 V
1.000 UL
LT0
3201 3355 M
-144 26 V
1.000 UL
LT0
3345 3328 M
83 44 V
1.000 UL
LT0
3572 3346 M
-144 26 V
1.000 UL
LT0
3715 3319 M
83 44 V
1.000 UL
LT0
3942 3337 M
-144 26 V
1.000 UL
LT0
2747 3319 M
83 44 V
1.000 UL
LT0
2974 3337 M
-144 26 V
1.000 UL
LT0
3118 3311 M
83 44 V
1.000 UL
LT0
3345 3328 M
-144 27 V
1.000 UL
LT0
3489 3302 M
83 44 V
1.000 UL
LT0
3715 3319 M
-143 27 V
1.000 UL
LT0
3859 3293 M
83 44 V
1.000 UL
LT0
4086 3310 M
-144 27 V
1.000 UL
LT0
2891 3293 M
83 44 V
1.000 UL
LT0
3118 3311 M
-144 26 V
1.000 UL
LT0
3262 3285 M
83 43 V
1.000 UL
LT0
3489 3302 M
-144 26 V
1.000 UL
LT0
3632 3276 M
83 43 V
1.000 UL
LT0
3859 3293 M
-144 26 V
1.000 UL
LT0
4003 3266 M
83 44 V
1.000 UL
LT0
4230 3284 M
-144 26 V
1.000 UL
LT0
2664 3275 M
83 44 V
1.000 UL
LT0
2891 3293 M
-144 26 V
1.000 UL
LT0
3035 3267 M
83 44 V
1.000 UL
LT0
3262 3285 M
-144 26 V
1.000 UL
LT0
3406 3258 M
83 44 V
1.000 UL
LT0
3632 3276 M
-143 26 V
1.000 UL
LT0
3776 3249 M
83 44 V
1.000 UL
LT0
4003 3266 M
-144 27 V
1.000 UL
LT0
4147 3240 M
83 44 V
1.000 UL
LT0
4374 3258 M
-144 26 V
1.000 UL
LT0
2808 3249 M
83 44 V
1.000 UL
LT0
3035 3267 M
-144 26 V
1.000 UL
LT0
3179 3241 M
83 44 V
1.000 UL
LT0
3406 3258 M
-144 27 V
1.000 UL
LT0
3550 3232 M
82 44 V
1.000 UL
LT0
3776 3249 M
-144 27 V
1.000 UL
LT0
3920 3223 M
83 43 V
1.000 UL
LT0
4147 3240 M
-144 26 V
1.000 UL
LT0
2581 3231 M
83 44 V
1.000 UL
LT0
2808 3249 M
-144 26 V
1.000 UL
LT0
4291 3213 M
83 45 V
1.000 UL
LT0
4518 3231 M
-144 27 V
1.000 UL
LT0
2952 3223 M
83 44 V
1.000 UL
LT0
3179 3241 M
-144 26 V
1.000 UL
LT0
3323 3215 M
83 43 V
1.000 UL
LT0
3550 3232 M
-144 26 V
1.000 UL
LT0
3693 3205 M
83 44 V
1.000 UL
LT0
3920 3223 M
-144 26 V
1.000 UL
LT0
4064 3196 M
83 44 V
1.000 UL
LT0
4291 3213 M
-144 27 V
1.000 UL
LT0
2725 3205 M
83 44 V
1.000 UL
LT0
2952 3223 M
-144 26 V
1.000 UL
LT0
4435 3187 M
83 44 V
1.000 UL
LT0
4662 3205 M
-144 26 V
1.000 UL
LT0
3096 3197 M
83 44 V
1.000 UL
LT0
3323 3215 M
-144 26 V
1.000 UL
LT0
3467 3188 M
83 44 V
1.000 UL
LT0
3693 3205 M
-143 27 V
1.000 UL
LT0
3837 3179 M
83 44 V
1.000 UL
LT0
4064 3196 M
-144 27 V
1.000 UL
LT0
2497 3187 M
84 44 V
1.000 UL
LT0
2725 3205 M
-144 26 V
1.000 UL
LT0
4208 3169 M
83 44 V
1.000 UL
LT0
4435 3187 M
-144 26 V
1.000 UL
LT0
2869 3180 M
83 43 V
1.000 UL
LT0
3096 3197 M
-144 26 V
1.000 UL
LT0
4579 3160 M
83 45 V
1.000 UL
LT0
4806 3178 M
-144 27 V
1.000 UL
LT0
3240 3171 M
83 44 V
1.000 UL
LT0
3467 3188 M
-144 27 V
1.000 UL
LT0
3610 3162 M
83 43 V
1.000 UL
LT0
3837 3179 M
-144 26 V
1.000 UL
LT0
3981 3152 M
83 44 V
1.000 UL
LT0
4208 3169 M
-144 27 V
1.000 UL
LT0
2641 3162 M
84 43 V
1.000 UL
LT0
2869 3180 M
-144 25 V
1.000 UL
LT0
4352 3143 M
83 44 V
1.000 UL
LT0
4579 3160 M
-144 27 V
1.000 UL
LT0
3012 3154 M
84 43 V
1.000 UL
LT0
3240 3171 M
-144 26 V
1.000 UL
LT0
4723 3134 M
83 44 V
1.000 UL
LT0
4950 3152 M
-144 26 V
1.000 UL
LT0
3383 3145 M
84 43 V
1.000 UL
LT0
3610 3162 M
-143 26 V
1.000 UL
LT0
3753 3135 M
84 44 V
1.000 UL
LT0
3981 3152 M
-144 27 V
1.000 UL
LT0
2414 3143 M
83 44 V
1.000 UL
LT0
2641 3162 M
-144 25 V
1.000 UL
LT0
4125 3125 M
83 44 V
1.000 UL
LT0
4352 3143 M
-144 26 V
1.000 UL
LT0
2785 3136 M
84 44 V
1.000 UL
LT0
3012 3154 M
-143 26 V
1.000 UL
LT0
4496 3116 M
83 44 V
1.000 UL
LT0
4723 3134 M
-144 26 V
1.000 UL
LT0
3156 3128 M
84 43 V
1.000 UL
LT0
3383 3145 M
-143 26 V
1.000 UL
LT0
4867 3107 M
83 45 V
1.000 UL
LT0
5094 3126 M
-144 26 V
1.000 UL
LT0
3527 3118 M
83 44 V
1.000 UL
LT0
3753 3135 M
-143 27 V
1.000 UL
LT0
3897 3108 M
84 44 V
1.000 UL
LT0
4125 3125 M
-144 27 V
1.000 UL
LT0
2558 3118 M
83 44 V
1.000 UL
LT0
2785 3136 M
-144 26 V
1.000 UL
LT0
4268 3098 M
84 45 V
1.000 UL
LT0
4496 3116 M
-144 27 V
1.000 UL
LT0
2929 3111 M
83 43 V
1.000 UL
LT0
3156 3128 M
-144 26 V
1.000 UL
LT0
4639 3089 M
84 45 V
1.000 UL
LT0
4867 3107 M
-144 27 V
1.000 UL
LT0
3300 3102 M
83 43 V
1.000 UL
LT0
3527 3118 M
-144 27 V
1.000 UL
LT0
5010 3081 M
84 45 V
1.000 UL
LT0
5238 3100 M
-144 26 V
1.000 UL
LT0
3670 3092 M
83 43 V
1.000 UL
LT0
3897 3108 M
-144 27 V
1.000 UL
LT0
2331 3098 M
83 45 V
1.000 UL
LT0
2558 3118 M
-144 25 V
1.000 UL
LT0
4041 3081 M
84 44 V
1.000 UL
LT0
4268 3098 M
-143 27 V
1.000 UL
LT0
2702 3093 M
83 43 V
1.000 UL
LT0
2929 3111 M
-144 25 V
1.000 UL
LT0
4412 3071 M
84 45 V
1.000 UL
LT0
4639 3089 M
-143 27 V
1.000 UL
LT0
3073 3085 M
83 43 V
1.000 UL
LT0
3300 3102 M
-144 26 V
1.000 UL
LT0
4783 3063 M
84 44 V
1.000 UL
LT0
5010 3081 M
-143 26 V
1.000 UL
LT0
3444 3075 M
83 43 V
1.000 UL
LT0
3670 3092 M
-143 26 V
1.000 UL
LT0
5154 3055 M
84 45 V
1.000 UL
LT0
5382 3074 M
-144 26 V
1.000 UL
LT0
3814 3064 M
83 44 V
1.000 UL
LT0
4041 3081 M
-144 27 V
1.000 UL
LT0
2475 3074 M
83 44 V
1.000 UL
LT0
2702 3093 M
-144 25 V
1.000 UL
LT0
4185 3054 M
83 44 V
1.000 UL
LT0
4412 3071 M
-144 27 V
1.000 UL
LT0
2846 3068 M
83 43 V
1.000 UL
LT0
3073 3085 M
-144 26 V
1.000 UL
LT0
4556 3045 M
83 44 V
1.000 UL
LT0
4783 3063 M
-144 26 V
1.000 UL
LT0
3217 3059 M
83 43 V
1.000 UL
LT0
3444 3075 M
-144 27 V
1.000 UL
LT0
4927 3036 M
83 45 V
1.000 UL
LT0
5154 3055 M
-144 26 V
1.000 UL
LT0
2248 3054 M
83 44 V
1.000 UL
LT0
2475 3074 M
-144 24 V
1.000 UL
LT0
3588 3048 M
82 44 V
1.000 UL
LT0
3814 3064 M
-144 28 V
1.000 UL
LT0
5298 3029 M
84 45 V
1.000 UL
LT0
5525 3048 M
-143 26 V
1.000 UL
LT0
3958 3037 M
83 44 V
1.000 UL
LT0
4185 3054 M
-144 27 V
1.000 UL
LT0
2619 3050 M
83 43 V
1.000 UL
LT0
2846 3068 M
-144 25 V
1.000 UL
LT0
4329 3027 M
83 44 V
1.000 UL
LT0
4556 3045 M
-144 26 V
1.000 UL
LT0
2990 3043 M
83 42 V
1.000 UL
LT0
3217 3059 M
-144 26 V
1.000 UL
LT0
4700 3018 M
83 45 V
1.000 UL
LT0
4927 3036 M
-144 27 V
1.000 UL
LT0
3361 3032 M
83 43 V
1.000 UL
LT0
3588 3048 M
-144 27 V
1.000 UL
LT0
5071 3010 M
83 45 V
1.000 UL
LT0
5298 3029 M
-144 26 V
1.000 UL
LT0
3731 3021 M
83 43 V
1.000 UL
LT0
3958 3037 M
-144 27 V
1.000 UL
LT0
2392 3031 M
83 43 V
1.000 UL
LT0
2619 3050 M
-144 24 V
1.000 UL
LT0
4102 3010 M
83 44 V
1.000 UL
LT0
4329 3027 M
-144 27 V
1.000 UL
LT0
5442 3003 M
83 45 V
1.000 UL
LT0
5669 3022 M
-144 26 V
1.000 UL
LT0
2763 3026 M
83 42 V
1.000 UL
LT0
2990 3043 M
-144 25 V
1.000 UL
LT0
4473 3000 M
83 45 V
1.000 UL
LT0
4700 3018 M
-144 27 V
1.000 UL
LT0
3134 3017 M
83 42 V
1.000 UL
LT0
3361 3032 M
-144 27 V
1.000 UL
LT0
4844 2991 M
83 45 V
1.000 UL
LT0
5071 3010 M
-144 26 V
1.000 UL
LT0
2165 3010 M
83 44 V
1.000 UL
LT0
2392 3031 M
-144 23 V
1.000 UL
LT0
3505 3005 M
83 43 V
1.000 UL
LT0
3731 3021 M
-143 27 V
1.000 UL
LT0
5215 2984 M
83 45 V
1.000 UL
LT0
5442 3003 M
-144 26 V
1.000 UL
LT0
3875 2993 M
83 44 V
1.000 UL
LT0
4102 3010 M
-144 27 V
1.000 UL
LT0
2536 3007 M
83 43 V
1.000 UL
LT0
2763 3026 M
-144 24 V
1.000 UL
LT0
4246 2982 M
83 45 V
1.000 UL
LT0
4473 3000 M
-144 27 V
1.000 UL
LT0
5586 2977 M
83 45 V
1.000 UL
LT0
5813 2996 M
-144 26 V
1.000 UL
LT0
2907 3001 M
83 42 V
1.000 UL
LT0
3134 3017 M
-144 26 V
1.000 UL
LT0
4617 2973 M
83 45 V
1.000 UL
LT0
4844 2991 M
-144 27 V
1.000 UL
LT0
3278 2990 M
83 42 V
1.000 UL
LT0
3505 3005 M
-144 27 V
1.000 UL
LT0
4988 2965 M
83 45 V
1.000 UL
LT0
5215 2984 M
-144 26 V
1.000 UL
LT0
3648 2978 M
83 43 V
1.000 UL
LT0
3875 2993 M
-144 28 V
1.000 UL
LT0
2309 2988 M
83 43 V
1.000 UL
LT0
2536 3007 M
-144 24 V
1.000 UL
LT0
4019 2966 M
83 44 V
1.000 UL
LT0
4246 2982 M
-144 28 V
1.000 UL
LT0
5359 2958 M
83 45 V
1.000 UL
LT0
5586 2977 M
-144 26 V
1.000 UL
LT0
2680 2984 M
83 42 V
1.000 UL
LT0
2907 3001 M
-144 25 V
1.000 UL
LT0
4390 2955 M
83 45 V
1.000 UL
LT0
4617 2973 M
-144 27 V
1.000 UL
LT0
5730 2952 M
83 44 V
1.000 UL
LT0
3051 2975 M
83 42 V
1.000 UL
LT0
3278 2990 M
-144 27 V
1.000 UL
LT0
4761 2946 M
83 45 V
1.000 UL
LT0
4988 2965 M
-144 26 V
1.000 UL
LT0
2082 2966 M
83 44 V
1.000 UL
LT0
2309 2988 M
-144 22 V
1.000 UL
LT0
3422 2963 M
83 42 V
1.000 UL
LT0
3648 2978 M
-143 27 V
1.000 UL
LT0
5132 2939 M
83 45 V
1.000 UL
LT0
5359 2958 M
-144 26 V
1.000 UL
LT0
3792 2950 M
83 43 V
1.000 UL
LT0
4019 2966 M
-144 27 V
1.000 UL
LT0
2453 2965 M
83 42 V
1.000 UL
LT0
2680 2984 M
-144 23 V
1.000 UL
LT0
4163 2938 M
83 44 V
1.000 UL
LT0
4390 2955 M
-144 27 V
1.000 UL
LT0
5503 2932 M
83 45 V
1.000 UL
LT0
5730 2952 M
-144 25 V
1.000 UL
LT0
2824 2959 M
83 42 V
1.000 UL
LT0
3051 2975 M
-144 26 V
1.000 UL
LT0
4534 2928 M
83 45 V
1.000 UL
LT0
4761 2946 M
-144 27 V
1.000 UL
LT0
3195 2948 M
83 42 V
1.000 UL
LT0
3422 2963 M
-144 27 V
1.000 UL
LT0
4905 2920 M
83 45 V
1.000 UL
LT0
5132 2939 M
-144 26 V
1.000 UL
LT0
3566 2935 M
82 43 V
1.000 UL
LT0
3792 2950 M
-144 28 V
1.000 UL
LT0
2226 2945 M
83 43 V
1.000 UL
LT0
2453 2965 M
-144 23 V
1.000 UL
LT0
5276 2913 M
83 45 V
1.000 UL
LT0
5503 2932 M
-144 26 V
1.000 UL
LT0
3936 2921 M
83 45 V
1.000 UL
LT0
4163 2938 M
-144 28 V
1.000 UL
LT0
2597 2942 M
83 42 V
1.000 UL
LT0
2824 2959 M
-144 25 V
1.000 UL
LT0
4307 2910 M
83 45 V
1.000 UL
LT0
4534 2928 M
-144 27 V
1.000 UL
LT0
5647 2906 M
83 46 V
1.000 UL
LT0
3026 2962 M
25 13 V
1.000 UL
LT0
3195 2948 M
-144 27 V
1.000 UL
LT0
4678 2901 M
83 45 V
1.000 UL
LT0
4905 2920 M
-144 26 V
1.000 UL
LT0
1999 2922 M
83 44 V
1.000 UL
LT0
2226 2945 M
-144 21 V
1.000 UL
LT0
3339 2921 M
83 42 V
1.000 UL
LT0
3566 2935 M
-144 28 V
1.000 UL
LT0
5049 2893 M
83 46 V
1.000 UL
LT0
5276 2913 M
-144 26 V
1.000 UL
LT0
3709 2906 M
83 44 V
1.000 UL
LT0
3936 2921 M
-144 29 V
1.000 UL
LT0
2370 2923 M
83 42 V
1.000 UL
LT0
2597 2942 M
-144 23 V
1.000 UL
LT0
4080 2893 M
83 45 V
1.000 UL
LT0
4307 2910 M
-144 28 V
1.000 UL
LT0
5420 2887 M
83 45 V
1.000 UL
LT0
5647 2906 M
-144 26 V
1.000 UL
LT0
2741 2919 M
83 40 V
1.000 UL
LT0
2949 2937 M
-125 22 V
1.000 UL
LT0
4451 2882 M
83 46 V
1.000 UL
LT0
4678 2901 M
-144 27 V
1.000 UL
LT0
3112 2908 M
83 40 V
1.000 UL
LT0
3339 2921 M
-144 27 V
1.000 UL
LT0
4822 2874 M
83 46 V
1.000 UL
LT0
5049 2893 M
-144 27 V
1.000 UL
LT0
3483 2892 M
83 43 V
1.000 UL
LT0
3709 2906 M
-143 29 V
1.000 UL
LT0
2143 2902 M
83 43 V
1.000 UL
LT0
2370 2923 M
-144 22 V
1.000 UL
LT0
5193 2867 M
83 46 V
1.000 UL
LT0
5420 2887 M
-144 26 V
1.000 UL
LT0
3853 2877 M
83 44 V
1.000 UL
LT0
4080 2893 M
-144 28 V
1.000 UL
LT0
2514 2902 M
83 40 V
1.000 UL
LT0
2741 2919 M
-144 23 V
1.000 UL
LT0
4224 2865 M
83 45 V
1.000 UL
LT0
4451 2882 M
-144 28 V
1.000 UL
LT0
5564 2861 M
83 45 V
1.000 UL
LT0
2885 2894 M
41 20 V
1.000 UL
LT0
3112 2908 M
-78 14 V
1.000 UL
LT0
4595 2855 M
83 46 V
1.000 UL
LT0
4822 2874 M
-144 27 V
1.000 UL
LT0
1916 2878 M
83 44 V
1.000 UL
LT0
2143 2902 M
-144 20 V
1.000 UL
LT0
3256 2880 M
83 41 V
1.000 UL
LT0
3483 2892 M
-144 29 V
1.000 UL
LT0
4966 2848 M
83 45 V
1.000 UL
LT0
5193 2867 M
-144 26 V
1.000 UL
LT0
3626 2863 M
83 43 V
1.000 UL
LT0
3853 2877 M
-144 29 V
1.000 UL
LT0
2287 2882 M
83 41 V
1.000 UL
LT0
2514 2902 M
-144 21 V
1.000 UL
LT0
3997 2848 M
83 45 V
1.000 UL
LT0
4224 2865 M
-144 28 V
1.000 UL
LT0
5337 2841 M
83 46 V
1.000 UL
LT0
5564 2861 M
-144 26 V
1.000 UL
LT0
4368 2837 M
83 45 V
1.000 UL
LT0
4595 2855 M
-144 27 V
1.000 UL
LT0
2658 2879 M
83 40 V
1.000 UL
LT0
2885 2894 M
-144 25 V
1.000 UL
LT0
3044 2875 M
68 33 V
1.000 UL
LT0
3256 2880 M
-144 28 V
1.000 UL
LT0
4739 2828 M
83 46 V
1.000 UL
LT0
4966 2848 M
-144 26 V
1.000 UL
LT0
3400 2851 M
83 41 V
1.000 UL
LT0
3626 2863 M
-143 29 V
1.000 UL
LT0
2060 2859 M
83 43 V
1.000 UL
LT0
2287 2882 M
-144 20 V
1.000 UL
LT0
5110 2821 M
83 46 V
1.000 UL
LT0
5337 2841 M
-144 26 V
1.000 UL
LT0
3770 2834 M
83 43 V
1.000 UL
LT0
3997 2848 M
-144 29 V
1.000 UL
LT0
4141 2819 M
83 46 V
1.000 UL
LT0
4368 2837 M
-144 28 V
1.000 UL
LT0
2431 2862 M
83 40 V
1.000 UL
LT0
2658 2879 M
-144 23 V
1.000 UL
LT0
5481 2816 M
83 45 V
1.000 UL
LT0
4512 2809 M
83 46 V
1.000 UL
LT0
4739 2828 M
-144 27 V
1.000 UL
LT0
2802 2856 M
83 38 V
1.000 UL
LT0
2908 2890 M
-23 4 V
1.000 UL
LT0
1833 2834 M
83 44 V
1.000 UL
LT0
2060 2859 M
-144 19 V
1.000 UL
LT0
3173 2840 M
83 40 V
1.000 UL
LT0
3400 2851 M
-144 29 V
1.000 UL
LT0
4883 2802 M
83 46 V
1.000 UL
LT0
5110 2821 M
-144 27 V
1.000 UL
LT0
3544 2821 M
82 42 V
1.000 UL
LT0
3770 2834 M
-144 29 V
1.000 UL
LT0
2204 2841 M
83 41 V
1.000 UL
LT0
2431 2862 M
-144 20 V
1.000 UL
LT0
3914 2804 M
83 44 V
1.000 UL
LT0
4141 2819 M
-144 29 V
1.000 UL
LT0
5254 2796 M
83 45 V
1.000 UL
LT0
5481 2816 M
-144 25 V
1.000 UL
LT0
4285 2791 M
83 46 V
1.000 UL
LT0
4512 2809 M
-144 28 V
1.000 UL
LT0
2575 2841 M
83 38 V
1.000 UL
LT0
2802 2856 M
-144 23 V
1.000 UL
LT0
4656 2782 M
83 46 V
1.000 UL
LT0
4883 2802 M
-144 26 V
1.000 UL
LT0
3173 2840 M
-126 25 V
1.000 UL
LT0
3317 2811 M
83 40 V
1.000 UL
LT0
3544 2821 M
-144 30 V
1.000 UL
LT0
1977 2817 M
83 42 V
1.000 UL
LT0
2204 2841 M
-144 18 V
1.000 UL
LT0
5027 2776 M
83 45 V
1.000 UL
LT0
5254 2796 M
-144 25 V
1.000 UL
LT0
3687 2790 M
83 44 V
1.000 UL
LT0
3914 2804 M
-144 30 V
1.000 UL
LT0
4058 2774 M
83 45 V
1.000 UL
LT0
4285 2791 M
-144 28 V
1.000 UL
LT0
5398 2770 M
83 46 V
1.000 UL
LT0
2348 2822 M
83 40 V
1.000 UL
LT0
2575 2841 M
-144 21 V
1.000 UL
LT0
4429 2763 M
83 46 V
1.000 UL
LT0
4656 2782 M
-144 27 V
1.000 UL
LT0
1749 2790 M
84 44 V
1.000 UL
LT0
1977 2817 M
-144 17 V
1.000 UL
LT0
2719 2819 M
83 37 V
1.000 UL
LT0
2873 2843 M
-71 13 V
1.000 UL
LT0
4800 2755 M
83 47 V
1.000 UL
LT0
5027 2776 M
-144 26 V
1.000 UL
LT0
3090 2803 M
83 37 V
1.000 UL
LT0
3317 2811 M
-144 29 V
1.000 UL
LT0
3461 2779 M
83 42 V
1.000 UL
LT0
3687 2790 M
-143 31 V
1.000 UL
LT0
5171 2750 M
83 46 V
1.000 UL
LT0
5398 2770 M
-144 26 V
1.000 UL
LT0
3831 2758 M
83 46 V
1.000 UL
LT0
4058 2774 M
-144 30 V
1.000 UL
LT0
2121 2800 M
83 41 V
1.000 UL
LT0
2348 2822 M
-144 19 V
1.000 UL
LT0
4202 2744 M
83 47 V
1.000 UL
LT0
4429 2763 M
-144 28 V
1.000 UL
LT0
2492 2803 M
83 38 V
1.000 UL
LT0
2719 2819 M
-144 22 V
1.000 UL
LT0
4573 2735 M
83 47 V
1.000 UL
LT0
4800 2755 M
-144 27 V
1.000 UL
LT0
3090 2803 M
-32 6 V
1.000 UL
LT0
4944 2729 M
83 47 V
1.000 UL
LT0
5171 2750 M
-144 26 V
1.000 UL
LT0
1893 2774 M
84 43 V
1.000 UL
LT0
2121 2800 M
-144 17 V
1.000 UL
LT0
3234 2773 M
83 38 V
1.000 UL
LT0
3461 2779 M
-144 32 V
1.000 UL
LT0
3604 2747 M
83 43 V
1.000 UL
LT0
3831 2758 M
-144 32 V
1.000 UL
LT0
3975 2727 M
83 47 V
1.000 UL
LT0
4202 2744 M
-144 30 V
1.000 UL
LT0
5315 2724 M
83 46 V
1.000 UL
LT0
2264 2783 M
84 39 V
1.000 UL
LT0
2492 2803 M
-144 19 V
1.000 UL
LT0
4346 2716 M
83 47 V
1.000 UL
LT0
4573 2735 M
-144 28 V
1.000 UL
LT0
1666 2746 M
83 44 V
1.000 UL
LT0
1893 2774 M
-144 16 V
1.000 UL
LT0
4717 2709 M
83 46 V
1.000 UL
LT0
4944 2729 M
-144 26 V
1.000 UL
LT0
2635 2784 M
84 35 V
1.000 UL
LT0
2840 2798 M
-121 21 V
1.000 UL
LT0
3062 2791 M
28 12 V
1.000 UL
LT0
3234 2773 M
-144 30 V
1.000 UL
LT0
3378 2739 M
83 40 V
1.000 UL
LT0
3604 2747 M
-143 32 V
1.000 UL
LT0
5088 2703 M
83 47 V
1.000 UL
LT0
5315 2724 M
-144 26 V
1.000 UL
LT0
3748 2713 M
83 45 V
1.000 UL
LT0
3975 2727 M
-144 31 V
1.000 UL
LT0
2037 2759 M
84 41 V
1.000 UL
LT0
2264 2783 M
-143 17 V
1.000 UL
LT0
4119 2697 M
83 47 V
1.000 UL
LT0
4346 2716 M
-144 28 V
1.000 UL
LT0
4490 2688 M
83 47 V
1.000 UL
LT0
4717 2709 M
-144 26 V
1.000 UL
LT0
2408 2767 M
84 36 V
1.000 UL
LT0
2635 2784 M
-143 19 V
1.000 UL
LT0
4861 2682 M
83 47 V
1.000 UL
LT0
5088 2703 M
-144 26 V
1.000 UL
LT0
1810 2732 M
83 42 V
1.000 UL
LT0
2037 2759 M
-144 15 V
1.000 UL
LT0
2779 2762 M
48 19 V
1.000 UL
LT0
3150 2737 M
84 36 V
1.000 UL
LT0
3378 2739 M
-144 34 V
1.000 UL
LT0
3521 2704 M
83 43 V
1.000 UL
LT0
3748 2713 M
-144 34 V
1.000 UL
LT0
3891 2680 M
84 47 V
1.000 UL
LT0
4119 2697 M
-144 30 V
1.000 UL
LT0
5232 2678 M
83 46 V
1.000 UL
LT0
4262 2668 M
84 48 V
1.000 UL
LT0
4490 2688 M
-144 28 V
1.000 UL
LT0
2181 2744 M
83 39 V
1.000 UL
LT0
2408 2767 M
-144 16 V
1.000 UL
LT0
1583 2703 M
83 43 V
1.000 UL
LT0
1810 2732 M
-144 14 V
1.000 UL
LT0
4634 2661 M
83 48 V
1.000 UL
LT0
4861 2682 M
-144 27 V
1.000 UL
LT0
2552 2750 M
83 34 V
1.000 UL
LT0
2779 2762 M
-144 22 V
1.000 UL
LT0
5005 2657 M
83 46 V
1.000 UL
LT0
5232 2678 M
-144 25 V
1.000 UL
LT0
3294 2702 M
84 37 V
1.000 UL
LT0
3521 2704 M
-143 35 V
1.000 UL
LT0
3664 2667 M
84 46 V
1.000 UL
LT0
3891 2680 M
-143 33 V
1.000 UL
LT0
3150 2737 M
-80 17 V
1.000 UL
LT0
4035 2649 M
84 48 V
1.000 UL
LT0
4262 2668 M
-143 29 V
1.000 UL
LT0
1954 2718 M
83 41 V
1.000 UL
LT0
2181 2744 M
-144 15 V
1.000 UL
LT0
4406 2640 M
84 48 V
1.000 UL
LT0
4634 2661 M
-144 27 V
1.000 UL
LT0
2325 2730 M
83 37 V
1.000 UL
LT0
2552 2750 M
-144 17 V
1.000 UL
LT0
4777 2635 M
84 47 V
1.000 UL
LT0
5005 2657 M
-144 25 V
1.000 UL
LT0
1727 2689 M
83 43 V
1.000 UL
LT0
1954 2718 M
-144 14 V
1.000 UL
LT0
3438 2662 M
83 42 V
1.000 UL
LT0
3664 2667 M
-143 37 V
1.000 UL
LT0
3808 2632 M
83 48 V
1.000 UL
LT0
4035 2649 M
-144 31 V
1.000 UL
LT0
2696 2732 M
83 30 V
1.000 UL
LT0
2809 2757 M
-30 5 V
1.000 UL
LT0
3079 2711 M
71 26 V
1.000 UL
LT0
3294 2702 M
-144 35 V
1.000 UL
LT0
5148 2631 M
84 47 V
1.000 UL
LT0
4179 2619 M
83 49 V
1.000 UL
LT0
4406 2640 M
-144 28 V
1.000 UL
LT0
2098 2704 M
83 40 V
1.000 UL
LT0
2325 2730 M
-144 14 V
1.000 UL
LT0
4550 2613 M
84 48 V
1.000 UL
LT0
4777 2635 M
-143 26 V
1.000 UL
LT0
1500 2659 M
83 44 V
1.000 UL
LT0
1727 2689 M
-144 14 V
1.000 UL
LT0
4921 2610 M
84 47 V
1.000 UL
LT0
5148 2631 M
-143 26 V
1.000 UL
LT0
3582 2621 M
82 46 V
1.000 UL
LT0
3808 2632 M
-144 35 V
1.000 UL
LT0
2469 2717 M
83 33 V
1.000 UL
LT0
2696 2732 M
-144 18 V
1.000 UL
LT0
3211 2669 M
83 33 V
1.000 UL
LT0
3438 2662 M
-144 40 V
1.000 UL
LT0
3952 2598 M
83 51 V
1.000 UL
LT0
4179 2619 M
-144 30 V
1.000 UL
LT0
1871 2675 M
83 43 V
1.000 UL
LT0
2098 2704 M
-144 14 V
1.000 UL
LT0
4323 2590 M
83 50 V
1.000 UL
LT0
4550 2613 M
-144 27 V
1.000 UL
LT0
4694 2587 M
83 48 V
1.000 UL
LT0
4921 2610 M
-144 25 V
1.000 UL
LT0
2242 2692 M
83 38 V
1.000 UL
LT0
2469 2717 M
-144 13 V
1.000 UL
LT0
1644 2645 M
83 44 V
1.000 UL
LT0
1871 2675 M
-144 14 V
1.000 UL
LT0
3725 2581 M
83 51 V
1.000 UL
LT0
3952 2598 M
-144 34 V
1.000 UL
LT0
3355 2623 M
83 39 V
1.000 UL
LT0
3582 2621 M
-144 41 V
1.000 UL
LT0
5065 2585 M
83 46 V
1.000 UL
LT0
4096 2568 M
83 51 V
1.000 UL
LT0
4323 2590 M
-144 29 V
1.000 UL
LT0
2613 2705 M
83 27 V
1.000 UL
LT0
2770 2722 M
-74 10 V
1.000 UL
LT0
3211 2669 M
-130 34 V
1.000 UL
LT0
4467 2564 M
83 49 V
1.000 UL
LT0
4694 2587 M
-144 26 V
1.000 UL
LT0
2015 2663 M
83 41 V
1.000 UL
LT0
2242 2692 M
-144 12 V
1.000 UL
LT0
1644 2645 M
-144 14 V
1.000 UL
LT0
4838 2562 M
83 48 V
1.000 UL
LT0
5065 2585 M
-144 25 V
1.000 UL
LT0
3499 2573 M
83 48 V
1.000 UL
LT0
3725 2581 M
-143 40 V
1.000 UL
LT0
3869 2545 M
83 53 V
1.000 UL
LT0
4096 2568 M
-144 30 V
1.000 UL
LT0
2386 2683 M
83 34 V
1.000 UL
LT0
2613 2705 M
-144 12 V
1.000 UL
LT0
1788 2632 M
83 43 V
1.000 UL
LT0
2015 2663 M
-144 12 V
1.000 UL
LT0
3128 2645 M
83 24 V
1.000 UL
LT0
3355 2623 M
-144 46 V
1.000 UL
LT0
4240 2539 M
83 51 V
1.000 UL
LT0
4467 2564 M
-144 26 V
1.000 UL
LT0
4611 2538 M
83 49 V
1.000 UL
LT0
4838 2562 M
-144 25 V
1.000 UL
LT0
3642 2526 M
83 55 V
1.000 UL
LT0
3869 2545 M
-144 36 V
1.000 UL
LT0
1788 2632 M
-144 13 V
1.000 UL
LT0
2159 2652 M
83 40 V
1.000 UL
LT0
2386 2683 M
-144 9 V
1.000 UL
LT0
4982 2537 M
83 48 V
1.000 UL
LT0
4013 2515 M
83 53 V
1.000 UL
LT0
4240 2539 M
-144 29 V
1.000 UL
LT0
3272 2587 M
83 36 V
1.000 UL
LT0
3499 2573 M
-144 50 V
1.000 UL
LT0
4384 2514 M
83 50 V
1.000 UL
LT0
4611 2538 M
-144 26 V
1.000 UL
LT0
2530 2678 M
83 27 V
1.000 UL
LT0
2729 2695 M
-116 10 V
1.000 UL
LT0
1932 2620 M
83 43 V
1.000 UL
LT0
2159 2652 M
-144 11 V
1.000 UL
LT0
3128 2645 M
-37 10 V
1.000 UL
LT0
LT1
3084 1828 M
83 43 V
1.000 UL
LT0
LT1
3311 2064 M
3167 1871 L
1.000 UL
LT0
3250 2347 M
-68 -387 V
1.000 UL
LT0
3023 2976 M
3159 1929 L
1.000 UL
LT0
4755 2515 M
83 47 V
1.000 UL
LT0
4982 2537 M
-144 25 V
1.000 UL
LT0
3786 2488 M
83 57 V
1.000 UL
LT0
4013 2515 M
-144 30 V
1.000 UL
LT0
3416 2520 M
83 53 V
1.000 UL
LT0
3642 2526 M
-143 47 V
1.000 UL
LT0
4157 2487 M
83 52 V
1.000 UL
LT0
4384 2514 M
-144 25 V
1.000 UL
LT0
1932 2620 M
-144 12 V
1.000 UL
LT0
2303 2645 M
83 38 V
1.000 UL
LT0
2530 2678 M
-144 5 V
1.000 UL
LT0
3094 2643 M
34 2 V
1.000 UL
LT0
3272 2587 M
-144 58 V
1.000 UL
LT0
4528 2490 M
83 48 V
1.000 UL
LT0
4755 2515 M
-144 23 V
1.000 UL
LT0
3560 2463 M
82 63 V
1.000 UL
LT0
3786 2488 M
-144 38 V
1.000 UL
LT0
2674 2678 M
38 7 V
1.000 UL
LT0
3930 2457 M
83 58 V
1.000 UL
LT0
4157 2487 M
-144 28 V
1.000 UL
LT0
4899 2491 M
83 46 V
1.000 UL
LT0
2076 2609 M
83 43 V
1.000 UL
LT0
2303 2645 M
-144 7 V
1.000 UL
LT0
3189 2563 M
83 24 V
1.000 UL
LT0
3416 2520 M
-144 67 V
1.000 UL
LT0
4301 2462 M
83 52 V
1.000 UL
LT0
4528 2490 M
-144 24 V
1.000 UL
LT0
2076 2609 M
-144 11 V
1.000 UL
LT0
3703 2423 M
83 65 V
1.000 UL
LT0
3930 2457 M
-144 31 V
1.000 UL
LT0
LT1
3228 2021 M
3084 1828 L
1.000 UL
LT0
2940 2932 M
3084 1828 L
1.000 UL
LT0
3333 2458 M
83 62 V
1.000 UL
LT0
3560 2463 M
-144 57 V
1.000 UL
LT0
4672 2466 M
83 49 V
1.000 UL
LT0
4899 2491 M
-144 24 V
1.000 UL
LT0
2447 2645 M
83 33 V
1.000 UL
LT0
2674 2678 M
-144 0 V
1.000 UL
LT0
4074 2432 M
83 55 V
1.000 UL
LT0
4301 2462 M
-144 25 V
1.000 UL
LT0
LT1
2818 2683 M
83 -7 V
1.000 UL
LT0
LT1
2975 2658 M
-74 18 V
1.000 UL
LT0
3477 2380 M
83 83 V
1.000 UL
LT0
3703 2423 M
-143 40 V
1.000 UL
LT0
2220 2602 M
83 43 V
1.000 UL
LT0
2447 2645 M
-144 0 V
1.000 UL
LT0
4445 2439 M
83 51 V
1.000 UL
LT0
4672 2466 M
-144 24 V
1.000 UL
LT0
3847 2395 M
83 62 V
1.000 UL
LT0
4074 2432 M
-144 25 V
1.000 UL
LT0
4816 2443 M
83 48 V
1.000 UL
LT0
2220 2602 M
-144 7 V
1.000 UL
LT0
3189 2563 M
-88 48 V
1.000 UL
LT0
4218 2409 M
83 53 V
1.000 UL
LT0
4445 2439 M
-144 23 V
1.000 UL
LT0
3620 2344 M
83 79 V
1.000 UL
LT0
3847 2395 M
-144 28 V
1.000 UL
LT0
2591 2655 M
83 23 V
1.000 UL
LT0
LT1
2818 2683 M
-101 -4 V
1.000 UL
LT0
2712 2684 M
-38 -6 V
1.000 UL
LT0
3250 2347 M
83 111 V
1.000 UL
LT0
3477 2380 M
-144 78 V
1.000 UL
LT0
3189 2563 M
144 -105 V
1.000 UL
LT0
3106 2586 M
83 -23 V
1.000 UL
LT0
4589 2416 M
83 50 V
1.000 UL
LT0
4816 2443 M
-144 23 V
1.000 UL
LT0
3394 2252 M
83 128 V
1.000 UL
LT0
3620 2344 M
-143 36 V
1.000 UL
LT0
3991 2373 M
83 59 V
1.000 UL
LT0
4218 2409 M
-144 23 V
1.000 UL
LT0
2364 2601 M
83 44 V
1.000 UL
LT0
2591 2655 M
-144 -10 V
1.000 UL
LT0
LT1
3228 2021 M
83 43 V
1.000 UL
LT0
LT1
3396 2119 M
-85 -55 V
1.000 UL
LT0
3394 2252 M
-77 -173 V
1.000 UL
LT0
4362 2388 M
83 51 V
1.000 UL
LT0
4589 2416 M
-144 23 V
1.000 UL
LT0
3394 2252 M
-144 95 V
1.000 UL
LT0
3106 2586 M
144 -239 V
1.000 UL
LT0
3764 2326 M
83 69 V
1.000 UL
LT0
3991 2373 M
-144 22 V
1.000 UL
LT0
2364 2601 M
-144 1 V
1.000 UL
LT0
3538 2249 M
-144 3 V
1.000 UL
LT0
3538 2249 M
82 95 V
1.000 UL
LT0
3764 2326 M
-144 18 V
1.000 UL
LT0
4733 2394 M
83 49 V
1.000 UL
LT0
LT1
2735 2689 M
83 -6 V
1.000 UL
LT0
LT1
2962 2682 M
-144 1 V
1.000 UL
LT0
4135 2354 M
83 55 V
1.000 UL
LT0
4362 2388 M
-144 21 V
1.000 UL
LT0
4506 2367 M
83 49 V
1.000 UL
LT0
4733 2394 M
-144 22 V
1.000 UL
LT0
3908 2313 M
83 60 V
1.000 UL
LT0
4135 2354 M
-144 19 V
1.000 UL
LT0
2508 2612 M
83 43 V
1.000 UL
LT0
2709 2683 M
-118 -28 V
1.000 UL
LT0
2508 2612 M
-144 -11 V
1.000 UL
LT0
3455 2157 M
83 92 V
1.000 UL
LT0
3681 2254 M
-143 -5 V
1.000 UL
LT0
3681 2254 M
83 72 V
1.000 UL
LT0
3908 2313 M
-144 13 V
1.000 UL
LT0
LT1
3372 2114 M
-144 -93 V
1.000 UL
LT0
4279 2336 M
83 52 V
1.000 UL
LT0
4506 2367 M
-144 21 V
1.000 UL
LT0
LT1
2879 2782 M
83 -100 V
1.000 UL
LT0
LT1
2973 2674 M
-11 8 V
1.000 UL
LT0
3023 2976 M
83 -390 V
1.000 UL
LT0
4650 2346 M
83 48 V
1.000 UL
LT0
4052 2299 M
83 55 V
1.000 UL
LT0
4279 2336 M
-144 18 V
1.000 UL
LT0
3372 2114 M
83 43 V
1.000 UL
LT0
3599 2190 M
-144 -33 V
1.000 UL
LT0
3825 2253 M
83 60 V
1.000 UL
LT0
4052 2299 M
-144 14 V
1.000 UL
LT0
4423 2317 M
83 50 V
1.000 UL
LT0
4650 2346 M
-144 21 V
1.000 UL
LT0
3599 2190 M
82 64 V
1.000 UL
LT0
3825 2253 M
-144 1 V
1.000 UL
LT0
2652 2645 M
-144 -33 V
1.000 UL
LT0
LT1
2652 2645 M
83 44 V
1.000 UL
LT0
LT1
2879 2782 M
-144 -93 V
1.000 UL
LT0
4196 2284 M
83 52 V
1.000 UL
LT0
4423 2317 M
-144 19 V
1.000 UL
LT0
3969 2246 M
83 53 V
1.000 UL
LT0
4196 2284 M
-144 15 V
1.000 UL
LT0
4567 2298 M
83 48 V
1.000 UL
LT0
3742 2199 M
83 54 V
1.000 UL
LT0
3969 2246 M
-144 7 V
1.000 UL
LT0
3515 2147 M
-143 -33 V
1.000 UL
LT0
3515 2147 M
84 43 V
1.000 UL
LT0
3742 2199 M
-143 -9 V
1.000 UL
LT0
4340 2268 M
83 49 V
1.000 UL
LT0
4567 2298 M
-144 19 V
1.000 UL
LT0
LT1
2796 2739 M
-144 -94 V
1.000 UL
LT0
4113 2234 M
83 50 V
1.000 UL
LT0
4340 2268 M
-144 16 V
1.000 UL
LT0
3886 2196 M
83 50 V
1.000 UL
LT0
4113 2234 M
-144 12 V
1.000 UL
LT0
4484 2250 M
83 48 V
1.000 UL
LT0
LT1
2796 2739 M
83 43 V
1.000 UL
LT0
LT1
2947 2874 M
-68 -92 V
1.000 UL
LT0
3658 2156 M
84 43 V
1.000 UL
LT0
3886 2196 M
-144 3 V
1.000 UL
LT0
3658 2156 M
-143 -9 V
1.000 UL
LT0
4257 2220 M
83 48 V
1.000 UL
LT0
4484 2250 M
-144 18 V
1.000 UL
LT0
4029 2187 M
84 47 V
1.000 UL
LT0
4257 2220 M
-144 14 V
1.000 UL
LT0
3802 2153 M
84 43 V
1.000 UL
LT0
4029 2187 M
-143 9 V
1.000 UL
LT0
4400 2203 M
84 47 V
1.000 UL
LT0
LT1
2940 2932 M
2796 2739 L
1.000 UL
LT0
3802 2153 M
-144 3 V
1.000 UL
LT0
4173 2174 M
84 46 V
1.000 UL
LT0
4400 2203 M
-143 17 V
1.000 UL
LT0
3946 2144 M
83 43 V
1.000 UL
LT0
4173 2174 M
-144 13 V
1.000 UL
LT0
3946 2144 M
-144 9 V
1.000 UL
LT0
4317 2158 M
83 45 V
1.000 UL
LT0
4090 2131 M
83 43 V
1.000 UL
LT0
4317 2158 M
-144 16 V
1.000 UL
LT0
2940 2932 M
83 44 V
1.000 UL
LT0
4090 2131 M
-144 13 V
1.000 UL
LT0
4234 2115 M
83 43 V
1.000 UL
LT0
4234 2115 M
-144 16 V
1.000 UL
LT0
1.000 UL
LT1
LT2
1.000 UL
LT2
2942 1126 M
84 44 V
1.000 UL
LT2
3026 1170 M
1 2 V
1.000 UL
LT2
3027 1172 M
-18 1 V
1.000 UL
LT2
2926 1129 M
83 44 V
LT3
1.000 UL
LT3
2953 1125 M
83 43 V
1.000 UL
LT3
3036 1168 M
6 12 V
1.000 UL
LT3
3042 1180 M
-86 2 V
1.000 UL
LT3
2873 1139 M
83 43 V
LT4
1.000 UL
LT4
2964 1123 M
83 43 V
1.000 UL
LT4
3047 1166 M
11 23 V
1.000 UL
LT4
3058 1189 M
-156 2 V
1.000 UL
LT4
2819 1148 M
83 43 V
LT5
1.000 UL
LT5
2975 1121 M
83 43 V
1.000 UL
LT5
3058 1164 M
15 33 V
1.000 UL
LT5
3073 1197 M
-168 12 V
1.000 UL
LT5
2824 1205 M
81 4 V
1.000 UL
LT5
2740 1162 M
84 43 V
LT6
1.000 UL
LT6
2986 1119 M
83 43 V
1.000 UL
LT6
3069 1162 M
20 43 V
1.000 UL
LT6
3089 1205 M
-137 28 V
1.000 UL
LT6
2749 1227 M
203 6 V
1.000 UL
LT6
2715 1224 M
34 3 V
1.000 UL
LT6
2632 1180 M
83 44 V
LT7
1.000 UL
LT7
2996 1117 M
84 43 V
1.000 UL
LT7
3080 1160 M
25 53 V
1.000 UL
LT7
3105 1213 M
-12 3 V
1.000 UL
LT7
3093 1216 M
-68 55 V
1.000 UL
LT7
3025 1271 M
-140 27 V
1.000 UL
LT7
2885 1298 M
-182 6 V
1.000 UL
LT7
2618 1298 M
85 6 V
1.000 UL
LT7
2467 1267 M
151 31 V
1.000 UL
LT7
2384 1223 M
83 44 V
LT8
1.000 UL
LT8
3007 1115 M
83 43 V
1.000 UL
LT8
3090 1158 M
66 47 V
1.000 UL
LT8
3156 1205 M
48 49 V
1.000 UL
LT8
3204 1254 M
21 21 V
1.000 UL
LT8
3225 1275 M
-2 34 V
1.000 UL
LT8
3223 1309 M
4 57 V
1.000 UL
LT8
3227 1366 M
3 12 V
1.000 UL
LT8
3230 1378 M
-45 53 V
1.000 UL
LT8
3185 1431 M
-9 19 V
1.000 UL
LT8
3176 1450 M
-89 54 V
1.000 UL
LT8
3087 1504 M
-14 4 V
1.000 UL
LT8
3073 1508 M
-94 39 V
1.000 UL
LT8
2979 1547 M
-135 30 V
1.000 UL
LT8
2844 1577 M
-163 15 V
1.000 UL
LT8
2598 1590 M
83 2 V
1.000 UL
LT8
2477 1586 M
121 4 V
1.000 UL
LT8
2373 1572 M
104 14 V
1.000 UL
LT8
2217 1541 M
156 31 V
1.000 UL
LT8
2184 1533 M
33 8 V
1.000 UL
LT8
2088 1506 M
96 27 V
1.000 UL
LT8
1976 1468 M
112 38 V
1.000 UL
LT8
1875 1427 M
101 41 V
1.000 UL
LT8
1784 1385 M
91 42 V
1.000 UL
LT8
1701 1342 M
83 43 V
LT0
1.000 UL
LT0
4476 1028 M
2 5 V
1.000 UL
LT0
4478 1033 M
-28 62 V
1.000 UL
LT0
4450 1095 M
-14 12 V
1.000 UL
LT0
4436 1107 M
-86 55 V
1.000 UL
LT0
4350 1162 M
-38 15 V
1.000 UL
LT0
4312 1177 M
-75 27 V
1.000 UL
LT0
4237 1204 M
-132 31 V
1.000 UL
LT0
4105 1235 M
-152 20 V
1.000 UL
LT0
3953 1255 M
-115 4 V
1.000 UL
LT0
3838 1259 M
-60 5 V
1.000 UL
LT0
3579 1260 M
199 4 V
1.000 UL
LT0
3540 1254 M
39 6 V
1.000 UL
LT0
3355 1228 M
185 26 V
1.000 UL
LT0
3323 1227 M
32 1 V
1.000 UL
LT0
3210 1195 M
113 32 V
1.000 UL
LT0
3101 1157 M
109 38 V
1.000 UL
LT0
3018 1113 M
83 44 V
LT1
1.000 UL
LT1
3587 1014 M
82 44 V
1.000 UL
LT1
3669 1058 M
-4 47 V
1.000 UL
LT1
3665 1105 M
-4 12 V
1.000 UL
LT1
3661 1117 M
-81 43 V
1.000 UL
LT1
3580 1160 M
-139 28 V
1.000 UL
LT1
3295 1181 M
146 7 V
1.000 UL
LT1
3295 1181 M
-49 5 V
1.000 UL
LT1
3112 1155 M
134 31 V
1.000 UL
LT1
3029 1111 M
83 44 V
LT2
1.000 UL
LT2
3364 1053 M
83 44 V
1.000 UL
LT2
3447 1097 M
-72 57 V
1.000 UL
LT2
3375 1154 M
-145 24 V
1.000 UL
LT2
3123 1153 M
107 25 V
1.000 UL
LT2
3040 1110 M
83 43 V
LT3
1.000 UL
LT3
3265 1070 M
83 44 V
1.000 UL
LT3
3348 1114 M
-20 15 V
1.000 UL
LT3
3328 1129 M
-114 41 V
1.000 UL
LT3
3134 1151 M
80 19 V
1.000 UL
LT3
3051 1108 M
83 43 V
LT4
1.000 UL
LT4
3194 1083 M
83 43 V
1.000 UL
LT4
3277 1126 M
-78 36 V
1.000 UL
LT4
3144 1149 M
55 13 V
1.000 UL
LT4
3061 1106 M
83 43 V
LT5
1.000 UL
LT5
3141 1092 M
83 43 V
1.000 UL
LT5
3224 1135 M
-41 19 V
1.000 UL
LT5
3155 1147 M
28 7 V
1.000 UL
LT5
3072 1104 M
83 43 V
LT6
1.000 UL
LT6
3087 1101 M
83 44 V
1.000 UL
LT6
3170 1145 M
-2 1 V
1.000 UL
LT6
3166 1145 M
2 1 V
1.000 UL
LT6
3083 1102 M
83 43 V
1.000 UL
LTb
4284 778 M
1870 974 V
1.000 UL
LTb
4284 778 M
1046 1340 L
1.000 UL
LTb
1046 1340 M
1870 975 V
1.000 UL
LTb
6154 1752 M
3871 2149 L
1.000 UL
LTb
3023 2296 M
-107 19 V
1.000 UL
LTb
1046 3288 M
0 -1948 V
1.000 UL
LTb
1046 1340 M
52 28 V
1.000 UL
LTb
936 1245 M
gsave 0 setgray
[ [(Times) 220.0 0.0 true true 0 (-2.5)]
] -73.3 MCshow
grestore
1.000 UL
LTb
1.000 UL
LTb
2864 2287 M
52 28 V
1.000 UL
LTb
1406 1278 M
52 27 V
1.000 UL
LTb
1296 1183 M
gsave 0 setgray
[ [(Times) 220.0 0.0 true true 0 (-2)]
] -73.3 MCshow
grestore
1.000 UL
LTb
1.000 UL
LTb
1766 1215 M
52 28 V
1.000 UL
LTb
1656 1120 M
gsave 0 setgray
[ [(Times) 220.0 0.0 true true 0 (-1.5)]
] -73.3 MCshow
grestore
1.000 UL
LTb
1.000 UL
LTb
2126 1153 M
52 27 V
1.000 UL
LTb
2016 1058 M
gsave 0 setgray
[ [(Times) 220.0 0.0 true true 0 (-1)]
] -73.3 MCshow
grestore
1.000 UL
LTb
1.000 UL
LTb
3942 2100 M
53 27 V
1.000 UL
LTb
2486 1090 M
52 28 V
1.000 UL
LTb
2376 995 M
gsave 0 setgray
[ [(Times) 220.0 0.0 true true 0 (-0.5)]
] -73.3 MCshow
grestore
1.000 UL
LTb
1.000 UL
LTb
4302 2037 M
53 28 V
1.000 UL
LTb
2845 1028 M
53 27 V
1.000 UL
LTb
2736 933 M
gsave 0 setgray
[ [(Times) 220.0 0.0 true true 0 ( 0)]
] -73.3 MCshow
grestore
1.000 UL
LTb
1.000 UL
LTb
4662 1975 M
52 27 V
1.000 UL
LTb
3205 965 M
53 28 V
1.000 UL
LTb
3096 870 M
gsave 0 setgray
[ [(Times) 220.0 0.0 true true 0 ( 0.5)]
] -73.3 MCshow
grestore
1.000 UL
LTb
1.000 UL
LTb
5022 1912 M
52 28 V
1.000 UL
LTb
3565 903 M
52 27 V
1.000 UL
LTb
3455 808 M
gsave 0 setgray
[ [(Times) 220.0 0.0 true true 0 ( 1)]
] -73.3 MCshow
grestore
1.000 UL
LTb
1.000 UL
LTb
5382 1850 M
52 27 V
1.000 UL
LTb
3924 840 M
52 28 V
1.000 UL
LTb
3814 745 M
gsave 0 setgray
[ [(Times) 220.0 0.0 true true 0 ( 1.5)]
] -73.3 MCshow
grestore
1.000 UL
LTb
1.000 UL
LTb
5742 1787 M
52 28 V
1.000 UL
LTb
4284 778 M
52 27 V
1.000 UL
LTb
4174 683 M
gsave 0 setgray
[ [(Times) 220.0 0.0 true true 0 ( 2)]
] -73.3 MCshow
grestore
1.000 UL
LTb
1.000 UL
LTb
6102 1725 M
52 27 V
LTb
2198 816 M
gsave 0 setgray
[ [(Times) 220.0 0.0 true true 0 (Re\(p\))]
] -73.3 MCshow
grestore
1.000 UL
LTb
4284 778 M
-55 9 V
stroke
4398 745 M
gsave 0 setgray
[ [(Times) 220.0 0.0 true true 0 (-0.5)]
] -73.3 MCshow
grestore
1.000 UL
LTb
1.000 UL
LTb
1101 1331 M
-55 9 V
1.000 UL
LTb
4492 886 M
-55 10 V
stroke
4606 853 M
gsave 0 setgray
[ [(Times) 220.0 0.0 true true 0 ( 0)]
] -73.3 MCshow
grestore
1.000 UL
LTb
1.000 UL
LTb
1308 1439 M
-54 10 V
1.000 UL
LTb
4700 994 M
-55 10 V
stroke
4814 961 M
gsave 0 setgray
[ [(Times) 220.0 0.0 true true 0 ( 0.5)]
] -73.3 MCshow
grestore
1.000 UL
LTb
1.000 UL
LTb
1516 1547 M
-54 10 V
1.000 UL
LTb
4907 1103 M
-54 9 V
stroke
5022 1070 M
gsave 0 setgray
[ [(Times) 220.0 0.0 true true 0 ( 1)]
] -73.3 MCshow
grestore
1.000 UL
LTb
1.000 UL
LTb
1724 1656 M
-55 9 V
1.000 UL
LTb
5115 1211 M
-54 9 V
stroke
5229 1178 M
gsave 0 setgray
[ [(Times) 220.0 0.0 true true 0 ( 1.5)]
] -73.3 MCshow
grestore
1.000 UL
LTb
1.000 UL
LTb
1932 1764 M
-55 9 V
1.000 UL
LTb
5323 1319 M
-55 10 V
stroke
5437 1286 M
gsave 0 setgray
[ [(Times) 220.0 0.0 true true 0 ( 2)]
] -73.3 MCshow
grestore
1.000 UL
LTb
1.000 UL
LTb
2139 1872 M
-54 10 V
1.000 UL
LTb
5531 1427 M
-55 10 V
stroke
5645 1394 M
gsave 0 setgray
[ [(Times) 220.0 0.0 true true 0 ( 2.5)]
] -73.3 MCshow
grestore
1.000 UL
LTb
1.000 UL
LTb
2347 1980 M
-54 10 V
1.000 UL
LTb
5738 1536 M
-54 9 V
stroke
5853 1503 M
gsave 0 setgray
[ [(Times) 220.0 0.0 true true 0 ( 3)]
] -73.3 MCshow
grestore
1.000 UL
LTb
1.000 UL
LTb
2555 2089 M
-55 9 V
1.000 UL
LTb
5946 1644 M
-54 9 V
stroke
6061 1611 M
gsave 0 setgray
[ [(Times) 220.0 0.0 true true 0 ( 3.5)]
] -73.3 MCshow
grestore
1.000 UL
LTb
1.000 UL
LTb
2763 2197 M
-55 9 V
1.000 UL
LTb
6154 1752 M
-55 10 V
stroke
6268 1719 M
gsave 0 setgray
[ [(Times) 220.0 0.0 true true 0 ( 4)]
] -73.3 MCshow
grestore
1.000 UL
LTb
1.000 UL
LTb
2971 2305 M
-55 10 V
LTb
6029 1124 M
gsave 0 setgray
[ [(Times) 220.0 0.0 true true 0 (Im\(p\))]
] -73.3 MCshow
grestore
1.000 UL
LTb
1109 1990 M
-63 0 V
stroke
920 1990 M
gsave 0 setgray
[ [(Times) 220.0 0.0 true true 0 (-8)]
] -73.3 MRshow
grestore
1.000 UL
LTb
1.000 UL
LTb
1109 2152 M
-63 0 V
stroke
920 2152 M
gsave 0 setgray
[ [(Times) 220.0 0.0 true true 0 (-6)]
] -73.3 MRshow
grestore
1.000 UL
LTb
1.000 UL
LTb
1109 2315 M
-63 0 V
stroke
920 2315 M
gsave 0 setgray
[ [(Times) 220.0 0.0 true true 0 (-4)]
] -73.3 MRshow
grestore
1.000 UL
LTb
1.000 UL
LTb
1109 2477 M
-63 0 V
stroke
920 2477 M
gsave 0 setgray
[ [(Times) 220.0 0.0 true true 0 (-2)]
] -73.3 MRshow
grestore
1.000 UL
LTb
1.000 UL
LTb
1109 2638 M
-63 0 V
stroke
920 2638 M
gsave 0 setgray
[ [(Times) 220.0 0.0 true true 0 ( 0)]
] -73.3 MRshow
grestore
1.000 UL
LTb
1.000 UL
LTb
1109 2801 M
-63 0 V
stroke
920 2801 M
gsave 0 setgray
[ [(Times) 220.0 0.0 true true 0 ( 2)]
] -73.3 MRshow
grestore
1.000 UL
LTb
1.000 UL
LTb
1109 2963 M
-63 0 V
stroke
920 2963 M
gsave 0 setgray
[ [(Times) 220.0 0.0 true true 0 ( 4)]
] -73.3 MRshow
grestore
1.000 UL
LTb
1.000 UL
LTb
1109 3126 M
-63 0 V
stroke
920 3126 M
gsave 0 setgray
[ [(Times) 220.0 0.0 true true 0 ( 6)]
] -73.3 MRshow
grestore
1.000 UL
LTb
1.000 UL
LTb
1109 3288 M
-63 0 V
stroke
920 3288 M
gsave 0 setgray
[ [(Times) 220.0 0.0 true true 0 ( 8)]
] -73.3 MRshow
grestore
1.000 UL
LTb
1.000 UP
stroke
grestore
end
showpage
%%Trailer
%%DocumentFonts: Times
