%!PS-Adobe-2.0 EPSF-2.0
%%Title: potential_real_ssbc.eps
%%Creator: gnuplot 4.0 patchlevel 0
%%CreationDate: Fri Nov 17 17:01:12 2006
%%DocumentFonts: (atend)
%%BoundingBox: 50 50 410 302
%%Orientation: Portrait
%%EndComments
/gnudict 256 dict def
gnudict begin
/Color false def
/Solid false def
/gnulinewidth 5.000 def
/userlinewidth gnulinewidth def
/vshift -73 def
/dl {10.0 mul} def
/hpt_ 31.5 def
/vpt_ 31.5 def
/hpt hpt_ def
/vpt vpt_ def
/Rounded false def
/M {moveto} bind def
/L {lineto} bind def
/R {rmoveto} bind def
/V {rlineto} bind def
/N {newpath moveto} bind def
/C {setrgbcolor} bind def
/f {rlineto fill} bind def
/vpt2 vpt 2 mul def
/hpt2 hpt 2 mul def
/Lshow { currentpoint stroke M
  0 vshift R show } def
/Rshow { currentpoint stroke M
  dup stringwidth pop neg vshift R show } def
/Cshow { currentpoint stroke M
  dup stringwidth pop -2 div vshift R show } def
/UP { dup vpt_ mul /vpt exch def hpt_ mul /hpt exch def
  /hpt2 hpt 2 mul def /vpt2 vpt 2 mul def } def
/DL { Color {setrgbcolor Solid {pop []} if 0 setdash }
 {pop pop pop 0 setgray Solid {pop []} if 0 setdash} ifelse } def
/BL { stroke userlinewidth 2 mul setlinewidth
      Rounded { 1 setlinejoin 1 setlinecap } if } def
/AL { stroke userlinewidth 2 div setlinewidth
      Rounded { 1 setlinejoin 1 setlinecap } if } def
/UL { dup gnulinewidth mul /userlinewidth exch def
      dup 1 lt {pop 1} if 10 mul /udl exch def } def
/PL { stroke userlinewidth setlinewidth
      Rounded { 1 setlinejoin 1 setlinecap } if } def
/LTw { PL [] 1 setgray } def
/LTb { BL [] 0 0 0 DL } def
/LTa { AL [1 udl mul 2 udl mul] 0 setdash 0 0 0 setrgbcolor } def
/LT0 { PL [] 1 0 0 DL } def
/LT1 { PL [4 dl 2 dl] 0 1 0 DL } def
/LT2 { PL [2 dl 3 dl] 0 0 1 DL } def
/LT3 { PL [1 dl 1.5 dl] 1 0 1 DL } def
/LT4 { PL [5 dl 2 dl 1 dl 2 dl] 0 1 1 DL } def
/LT5 { PL [4 dl 3 dl 1 dl 3 dl] 1 1 0 DL } def
/LT6 { PL [2 dl 2 dl 2 dl 4 dl] 0 0 0 DL } def
/LT7 { PL [2 dl 2 dl 2 dl 2 dl 2 dl 4 dl] 1 0.3 0 DL } def
/LT8 { PL [2 dl 2 dl 2 dl 2 dl 2 dl 2 dl 2 dl 4 dl] 0.5 0.5 0.5 DL } def
/Pnt { stroke [] 0 setdash
   gsave 1 setlinecap M 0 0 V stroke grestore } def
/Dia { stroke [] 0 setdash 2 copy vpt add M
  hpt neg vpt neg V hpt vpt neg V
  hpt vpt V hpt neg vpt V closepath stroke
  Pnt } def
/Pls { stroke [] 0 setdash vpt sub M 0 vpt2 V
  currentpoint stroke M
  hpt neg vpt neg R hpt2 0 V stroke
  } def
/Box { stroke [] 0 setdash 2 copy exch hpt sub exch vpt add M
  0 vpt2 neg V hpt2 0 V 0 vpt2 V
  hpt2 neg 0 V closepath stroke
  Pnt } def
/Crs { stroke [] 0 setdash exch hpt sub exch vpt add M
  hpt2 vpt2 neg V currentpoint stroke M
  hpt2 neg 0 R hpt2 vpt2 V stroke } def
/TriU { stroke [] 0 setdash 2 copy vpt 1.12 mul add M
  hpt neg vpt -1.62 mul V
  hpt 2 mul 0 V
  hpt neg vpt 1.62 mul V closepath stroke
  Pnt  } def
/Star { 2 copy Pls Crs } def
/BoxF { stroke [] 0 setdash exch hpt sub exch vpt add M
  0 vpt2 neg V  hpt2 0 V  0 vpt2 V
  hpt2 neg 0 V  closepath fill } def
/TriUF { stroke [] 0 setdash vpt 1.12 mul add M
  hpt neg vpt -1.62 mul V
  hpt 2 mul 0 V
  hpt neg vpt 1.62 mul V closepath fill } def
/TriD { stroke [] 0 setdash 2 copy vpt 1.12 mul sub M
  hpt neg vpt 1.62 mul V
  hpt 2 mul 0 V
  hpt neg vpt -1.62 mul V closepath stroke
  Pnt  } def
/TriDF { stroke [] 0 setdash vpt 1.12 mul sub M
  hpt neg vpt 1.62 mul V
  hpt 2 mul 0 V
  hpt neg vpt -1.62 mul V closepath fill} def
/DiaF { stroke [] 0 setdash vpt add M
  hpt neg vpt neg V hpt vpt neg V
  hpt vpt V hpt neg vpt V closepath fill } def
/Pent { stroke [] 0 setdash 2 copy gsave
  translate 0 hpt M 4 {72 rotate 0 hpt L} repeat
  closepath stroke grestore Pnt } def
/PentF { stroke [] 0 setdash gsave
  translate 0 hpt M 4 {72 rotate 0 hpt L} repeat
  closepath fill grestore } def
/Circle { stroke [] 0 setdash 2 copy
  hpt 0 360 arc stroke Pnt } def
/CircleF { stroke [] 0 setdash hpt 0 360 arc fill } def
/C0 { BL [] 0 setdash 2 copy moveto vpt 90 450  arc } bind def
/C1 { BL [] 0 setdash 2 copy        moveto
       2 copy  vpt 0 90 arc closepath fill
               vpt 0 360 arc closepath } bind def
/C2 { BL [] 0 setdash 2 copy moveto
       2 copy  vpt 90 180 arc closepath fill
               vpt 0 360 arc closepath } bind def
/C3 { BL [] 0 setdash 2 copy moveto
       2 copy  vpt 0 180 arc closepath fill
               vpt 0 360 arc closepath } bind def
/C4 { BL [] 0 setdash 2 copy moveto
       2 copy  vpt 180 270 arc closepath fill
               vpt 0 360 arc closepath } bind def
/C5 { BL [] 0 setdash 2 copy moveto
       2 copy  vpt 0 90 arc
       2 copy moveto
       2 copy  vpt 180 270 arc closepath fill
               vpt 0 360 arc } bind def
/C6 { BL [] 0 setdash 2 copy moveto
      2 copy  vpt 90 270 arc closepath fill
              vpt 0 360 arc closepath } bind def
/C7 { BL [] 0 setdash 2 copy moveto
      2 copy  vpt 0 270 arc closepath fill
              vpt 0 360 arc closepath } bind def
/C8 { BL [] 0 setdash 2 copy moveto
      2 copy vpt 270 360 arc closepath fill
              vpt 0 360 arc closepath } bind def
/C9 { BL [] 0 setdash 2 copy moveto
      2 copy  vpt 270 450 arc closepath fill
              vpt 0 360 arc closepath } bind def
/C10 { BL [] 0 setdash 2 copy 2 copy moveto vpt 270 360 arc closepath fill
       2 copy moveto
       2 copy vpt 90 180 arc closepath fill
               vpt 0 360 arc closepath } bind def
/C11 { BL [] 0 setdash 2 copy moveto
       2 copy  vpt 0 180 arc closepath fill
       2 copy moveto
       2 copy  vpt 270 360 arc closepath fill
               vpt 0 360 arc closepath } bind def
/C12 { BL [] 0 setdash 2 copy moveto
       2 copy  vpt 180 360 arc closepath fill
               vpt 0 360 arc closepath } bind def
/C13 { BL [] 0 setdash  2 copy moveto
       2 copy  vpt 0 90 arc closepath fill
       2 copy moveto
       2 copy  vpt 180 360 arc closepath fill
               vpt 0 360 arc closepath } bind def
/C14 { BL [] 0 setdash 2 copy moveto
       2 copy  vpt 90 360 arc closepath fill
               vpt 0 360 arc } bind def
/C15 { BL [] 0 setdash 2 copy vpt 0 360 arc closepath fill
               vpt 0 360 arc closepath } bind def
/Rec   { newpath 4 2 roll moveto 1 index 0 rlineto 0 exch rlineto
       neg 0 rlineto closepath } bind def
/Square { dup Rec } bind def
/Bsquare { vpt sub exch vpt sub exch vpt2 Square } bind def
/S0 { BL [] 0 setdash 2 copy moveto 0 vpt rlineto BL Bsquare } bind def
/S1 { BL [] 0 setdash 2 copy vpt Square fill Bsquare } bind def
/S2 { BL [] 0 setdash 2 copy exch vpt sub exch vpt Square fill Bsquare } bind def
/S3 { BL [] 0 setdash 2 copy exch vpt sub exch vpt2 vpt Rec fill Bsquare } bind def
/S4 { BL [] 0 setdash 2 copy exch vpt sub exch vpt sub vpt Square fill Bsquare } bind def
/S5 { BL [] 0 setdash 2 copy 2 copy vpt Square fill
       exch vpt sub exch vpt sub vpt Square fill Bsquare } bind def
/S6 { BL [] 0 setdash 2 copy exch vpt sub exch vpt sub vpt vpt2 Rec fill Bsquare } bind def
/S7 { BL [] 0 setdash 2 copy exch vpt sub exch vpt sub vpt vpt2 Rec fill
       2 copy vpt Square fill
       Bsquare } bind def
/S8 { BL [] 0 setdash 2 copy vpt sub vpt Square fill Bsquare } bind def
/S9 { BL [] 0 setdash 2 copy vpt sub vpt vpt2 Rec fill Bsquare } bind def
/S10 { BL [] 0 setdash 2 copy vpt sub vpt Square fill 2 copy exch vpt sub exch vpt Square fill
       Bsquare } bind def
/S11 { BL [] 0 setdash 2 copy vpt sub vpt Square fill 2 copy exch vpt sub exch vpt2 vpt Rec fill
       Bsquare } bind def
/S12 { BL [] 0 setdash 2 copy exch vpt sub exch vpt sub vpt2 vpt Rec fill Bsquare } bind def
/S13 { BL [] 0 setdash 2 copy exch vpt sub exch vpt sub vpt2 vpt Rec fill
       2 copy vpt Square fill Bsquare } bind def
/S14 { BL [] 0 setdash 2 copy exch vpt sub exch vpt sub vpt2 vpt Rec fill
       2 copy exch vpt sub exch vpt Square fill Bsquare } bind def
/S15 { BL [] 0 setdash 2 copy Bsquare fill Bsquare } bind def
/D0 { gsave translate 45 rotate 0 0 S0 stroke grestore } bind def
/D1 { gsave translate 45 rotate 0 0 S1 stroke grestore } bind def
/D2 { gsave translate 45 rotate 0 0 S2 stroke grestore } bind def
/D3 { gsave translate 45 rotate 0 0 S3 stroke grestore } bind def
/D4 { gsave translate 45 rotate 0 0 S4 stroke grestore } bind def
/D5 { gsave translate 45 rotate 0 0 S5 stroke grestore } bind def
/D6 { gsave translate 45 rotate 0 0 S6 stroke grestore } bind def
/D7 { gsave translate 45 rotate 0 0 S7 stroke grestore } bind def
/D8 { gsave translate 45 rotate 0 0 S8 stroke grestore } bind def
/D9 { gsave translate 45 rotate 0 0 S9 stroke grestore } bind def
/D10 { gsave translate 45 rotate 0 0 S10 stroke grestore } bind def
/D11 { gsave translate 45 rotate 0 0 S11 stroke grestore } bind def
/D12 { gsave translate 45 rotate 0 0 S12 stroke grestore } bind def
/D13 { gsave translate 45 rotate 0 0 S13 stroke grestore } bind def
/D14 { gsave translate 45 rotate 0 0 S14 stroke grestore } bind def
/D15 { gsave translate 45 rotate 0 0 S15 stroke grestore } bind def
/DiaE { stroke [] 0 setdash vpt add M
  hpt neg vpt neg V hpt vpt neg V
  hpt vpt V hpt neg vpt V closepath stroke } def
/BoxE { stroke [] 0 setdash exch hpt sub exch vpt add M
  0 vpt2 neg V hpt2 0 V 0 vpt2 V
  hpt2 neg 0 V closepath stroke } def
/TriUE { stroke [] 0 setdash vpt 1.12 mul add M
  hpt neg vpt -1.62 mul V
  hpt 2 mul 0 V
  hpt neg vpt 1.62 mul V closepath stroke } def
/TriDE { stroke [] 0 setdash vpt 1.12 mul sub M
  hpt neg vpt 1.62 mul V
  hpt 2 mul 0 V
  hpt neg vpt -1.62 mul V closepath stroke } def
/PentE { stroke [] 0 setdash gsave
  translate 0 hpt M 4 {72 rotate 0 hpt L} repeat
  closepath stroke grestore } def
/CircE { stroke [] 0 setdash 
  hpt 0 360 arc stroke } def
/Opaque { gsave closepath 1 setgray fill grestore 0 setgray closepath } def
/DiaW { stroke [] 0 setdash vpt add M
  hpt neg vpt neg V hpt vpt neg V
  hpt vpt V hpt neg vpt V Opaque stroke } def
/BoxW { stroke [] 0 setdash exch hpt sub exch vpt add M
  0 vpt2 neg V hpt2 0 V 0 vpt2 V
  hpt2 neg 0 V Opaque stroke } def
/TriUW { stroke [] 0 setdash vpt 1.12 mul add M
  hpt neg vpt -1.62 mul V
  hpt 2 mul 0 V
  hpt neg vpt 1.62 mul V Opaque stroke } def
/TriDW { stroke [] 0 setdash vpt 1.12 mul sub M
  hpt neg vpt 1.62 mul V
  hpt 2 mul 0 V
  hpt neg vpt -1.62 mul V Opaque stroke } def
/PentW { stroke [] 0 setdash gsave
  translate 0 hpt M 4 {72 rotate 0 hpt L} repeat
  Opaque stroke grestore } def
/CircW { stroke [] 0 setdash 
  hpt 0 360 arc Opaque stroke } def
/BoxFill { gsave Rec 1 setgray fill grestore } def
/BoxColFill {
  gsave Rec
  /Fillden exch def
  currentrgbcolor
  /ColB exch def /ColG exch def /ColR exch def
  /ColR ColR Fillden mul Fillden sub 1 add def
  /ColG ColG Fillden mul Fillden sub 1 add def
  /ColB ColB Fillden mul Fillden sub 1 add def
  ColR ColG ColB setrgbcolor
  fill grestore } def
%
% PostScript Level 1 Pattern Fill routine
% Usage: x y w h s a XX PatternFill
%	x,y = lower left corner of box to be filled
%	w,h = width and height of box
%	  a = angle in degrees between lines and x-axis
%	 XX = 0/1 for no/yes cross-hatch
%
/PatternFill { gsave /PFa [ 9 2 roll ] def
    PFa 0 get PFa 2 get 2 div add PFa 1 get PFa 3 get 2 div add translate
    PFa 2 get -2 div PFa 3 get -2 div PFa 2 get PFa 3 get Rec
    gsave 1 setgray fill grestore clip
    currentlinewidth 0.5 mul setlinewidth
    /PFs PFa 2 get dup mul PFa 3 get dup mul add sqrt def
    0 0 M PFa 5 get rotate PFs -2 div dup translate
	0 1 PFs PFa 4 get div 1 add floor cvi
	{ PFa 4 get mul 0 M 0 PFs V } for
    0 PFa 6 get ne {
	0 1 PFs PFa 4 get div 1 add floor cvi
	{ PFa 4 get mul 0 2 1 roll M PFs 0 V } for
    } if
    stroke grestore } def
%
/Symbol-Oblique /Symbol findfont [1 0 .167 1 0 0] makefont
dup length dict begin {1 index /FID eq {pop pop} {def} ifelse} forall
currentdict end definefont pop
/MFshow {
   { dup 5 get 3 ge
     { 5 get 3 eq {gsave} {grestore} ifelse }
     {dup dup 0 get findfont exch 1 get scalefont setfont
     [ currentpoint ] exch dup 2 get 0 exch R dup 5 get 2 ne {dup dup 6
     get exch 4 get {show} {stringwidth pop 0 R} ifelse }if dup 5 get 0 eq
     {dup 3 get {2 get neg 0 exch R pop} {pop aload pop M} ifelse} {dup 5
     get 1 eq {dup 2 get exch dup 3 get exch 6 get stringwidth pop -2 div
     dup 0 R} {dup 6 get stringwidth pop -2 div 0 R 6 get
     show 2 index {aload pop M neg 3 -1 roll neg R pop pop} {pop pop pop
     pop aload pop M} ifelse }ifelse }ifelse }
     ifelse }
   forall} bind def
/MFwidth {0 exch {dup 3 get{dup dup 0 get findfont exch 1 get scalefont
     setfont 6 get stringwidth pop add} {pop} ifelse} forall} bind def
/MLshow { currentpoint stroke M
  0 exch R MFshow } bind def
/MRshow { currentpoint stroke M
  exch dup MFwidth neg 3 -1 roll R MFshow } def
/MCshow { currentpoint stroke M
  exch dup MFwidth -2 div 3 -1 roll R MFshow } def
end
%%EndProlog
gnudict begin
gsave
50 50 translate
0.050 0.050 scale
0 setgray
newpath
(Times) findfont 220 scalefont setfont
1.000 UL
LTb
LTb
3600 4621 M
gsave 0 setgray
[ [(Times) 220.0 0.0 true true 0 (Re\(LT-BEM potential\))]
] -73.3 MCshow
grestore
3600 4401 M
gsave 0 setgray
[ [(Times) 220.0 0.0 true true 0 (steady \(1/p\) boundary condition)]
] -73.3 MCshow
grestore
1.000 UP
1.000 UL
LT0
2996 3407 M
83 42 V
1.000 UL
LT0
3223 3423 M
-144 26 V
1.000 UL
LT0
3140 3382 M
83 41 V
1.000 UL
LT0
3367 3398 M
-144 25 V
1.000 UL
LT0
2913 3366 M
83 41 V
1.000 UL
LT0
3140 3382 M
-144 25 V
1.000 UL
LT0
3284 3356 M
83 42 V
1.000 UL
LT0
3511 3372 M
-144 26 V
1.000 UL
LT0
3057 3340 M
83 42 V
1.000 UL
LT0
3284 3356 M
-144 26 V
1.000 UL
LT0
3428 3330 M
83 42 V
1.000 UL
LT0
3654 3346 M
-143 26 V
1.000 UL
LT0
2830 3325 M
83 41 V
1.000 UL
LT0
3057 3340 M
-144 26 V
1.000 UL
LT0
3201 3315 M
83 41 V
1.000 UL
LT0
3428 3330 M
-144 26 V
1.000 UL
LT0
3572 3304 M
82 42 V
1.000 UL
LT0
3798 3320 M
-144 26 V
1.000 UL
LT0
2974 3299 M
83 41 V
1.000 UL
LT0
3201 3315 M
-144 25 V
1.000 UL
LT0
3345 3289 M
83 41 V
1.000 UL
LT0
3572 3304 M
-144 26 V
1.000 UL
LT0
3715 3278 M
83 42 V
1.000 UL
LT0
3942 3294 M
-144 26 V
1.000 UL
LT0
2747 3284 M
83 41 V
1.000 UL
LT0
2974 3299 M
-144 26 V
1.000 UL
LT0
3118 3274 M
83 41 V
1.000 UL
LT0
3345 3289 M
-144 26 V
1.000 UL
LT0
3489 3263 M
83 41 V
1.000 UL
LT0
3715 3278 M
-143 26 V
1.000 UL
LT0
3859 3251 M
83 43 V
1.000 UL
LT0
4086 3267 M
-144 27 V
1.000 UL
LT0
2891 3258 M
83 41 V
1.000 UL
LT0
3118 3274 M
-144 25 V
1.000 UL
LT0
3262 3247 M
83 42 V
1.000 UL
LT0
3489 3263 M
-144 26 V
1.000 UL
LT0
3632 3236 M
83 42 V
1.000 UL
LT0
3859 3251 M
-144 27 V
1.000 UL
LT0
4003 3225 M
83 42 V
1.000 UL
LT0
4230 3241 M
-144 26 V
1.000 UL
LT0
2664 3243 M
83 41 V
1.000 UL
LT0
2891 3258 M
-144 26 V
1.000 UL
LT0
3035 3233 M
83 41 V
1.000 UL
LT0
3262 3247 M
-144 27 V
1.000 UL
LT0
3406 3221 M
83 42 V
1.000 UL
LT0
3632 3236 M
-143 27 V
1.000 UL
LT0
3776 3210 M
83 41 V
1.000 UL
LT0
4003 3225 M
-144 26 V
1.000 UL
LT0
4147 3198 M
83 43 V
1.000 UL
LT0
4374 3214 M
-144 27 V
1.000 UL
LT0
2808 3218 M
83 40 V
1.000 UL
LT0
3035 3233 M
-144 25 V
1.000 UL
LT0
3179 3206 M
83 41 V
1.000 UL
LT0
3406 3221 M
-144 26 V
1.000 UL
LT0
3550 3195 M
82 41 V
1.000 UL
LT0
3776 3210 M
-144 26 V
1.000 UL
LT0
3920 3183 M
83 42 V
1.000 UL
LT0
4147 3198 M
-144 27 V
1.000 UL
LT0
2581 3203 M
83 40 V
1.000 UL
LT0
2808 3218 M
-144 25 V
1.000 UL
LT0
4291 3171 M
83 43 V
1.000 UL
LT0
4518 3187 M
-144 27 V
1.000 UL
LT0
2952 3192 M
83 41 V
1.000 UL
LT0
3179 3206 M
-144 27 V
1.000 UL
LT0
3323 3180 M
83 41 V
1.000 UL
LT0
3550 3195 M
-144 26 V
1.000 UL
LT0
3693 3168 M
83 42 V
1.000 UL
LT0
3920 3183 M
-144 27 V
1.000 UL
LT0
4064 3156 M
83 42 V
1.000 UL
LT0
4291 3171 M
-144 27 V
1.000 UL
LT0
2725 3177 M
83 41 V
1.000 UL
LT0
2952 3192 M
-144 26 V
1.000 UL
LT0
4435 3144 M
83 43 V
1.000 UL
LT0
4662 3160 M
-144 27 V
1.000 UL
LT0
3096 3166 M
83 40 V
1.000 UL
LT0
3323 3180 M
-144 26 V
1.000 UL
LT0
3467 3153 M
83 42 V
1.000 UL
LT0
3693 3168 M
-143 27 V
1.000 UL
LT0
3837 3141 M
83 42 V
1.000 UL
LT0
4064 3156 M
-144 27 V
1.000 UL
LT0
2497 3163 M
84 40 V
1.000 UL
LT0
2725 3177 M
-144 26 V
1.000 UL
LT0
4208 3129 M
83 42 V
1.000 UL
LT0
4435 3144 M
-144 27 V
1.000 UL
LT0
2869 3152 M
83 40 V
1.000 UL
LT0
3096 3166 M
-144 26 V
1.000 UL
LT0
4579 3117 M
83 43 V
1.000 UL
LT0
4806 3134 M
-144 26 V
1.000 UL
LT0
3240 3139 M
83 41 V
1.000 UL
LT0
3467 3153 M
-144 27 V
1.000 UL
LT0
3610 3126 M
83 42 V
1.000 UL
LT0
3837 3141 M
-144 27 V
1.000 UL
LT0
3981 3114 M
83 42 V
1.000 UL
LT0
4208 3129 M
-144 27 V
1.000 UL
LT0
2641 3137 M
84 40 V
1.000 UL
LT0
2869 3152 M
-144 25 V
1.000 UL
LT0
4352 3102 M
83 42 V
1.000 UL
LT0
4579 3117 M
-144 27 V
1.000 UL
LT0
3012 3125 M
84 41 V
1.000 UL
LT0
3240 3139 M
-144 27 V
1.000 UL
LT0
4723 3090 M
83 44 V
1.000 UL
LT0
4950 3107 M
-144 27 V
1.000 UL
LT0
3383 3112 M
84 41 V
1.000 UL
LT0
3610 3126 M
-143 27 V
1.000 UL
LT0
3753 3099 M
84 42 V
1.000 UL
LT0
3981 3114 M
-144 27 V
1.000 UL
LT0
4125 3086 M
83 43 V
1.000 UL
LT0
4352 3102 M
-144 27 V
1.000 UL
LT0
2414 3123 M
83 40 V
1.000 UL
LT0
2641 3137 M
-144 26 V
1.000 UL
LT0
4496 3074 M
83 43 V
1.000 UL
LT0
4723 3090 M
-144 27 V
1.000 UL
LT0
2785 3112 M
84 40 V
1.000 UL
LT0
3012 3125 M
-143 27 V
1.000 UL
LT0
3156 3099 M
84 40 V
1.000 UL
LT0
3383 3112 M
-143 27 V
1.000 UL
LT0
4867 3064 M
83 43 V
1.000 UL
LT0
5094 3080 M
-144 27 V
1.000 UL
LT0
3527 3085 M
83 41 V
1.000 UL
LT0
3753 3099 M
-143 27 V
1.000 UL
LT0
3897 3072 M
84 42 V
1.000 UL
LT0
4125 3086 M
-144 28 V
1.000 UL
LT0
4268 3059 M
84 43 V
1.000 UL
LT0
4496 3074 M
-144 28 V
1.000 UL
LT0
2558 3098 M
83 39 V
1.000 UL
LT0
2785 3112 M
-144 25 V
1.000 UL
LT0
4639 3047 M
84 43 V
1.000 UL
LT0
4867 3064 M
-144 26 V
1.000 UL
LT0
2929 3085 M
83 40 V
1.000 UL
LT0
3156 3099 M
-144 26 V
1.000 UL
LT0
3300 3072 M
83 40 V
1.000 UL
LT0
3527 3085 M
-144 27 V
1.000 UL
LT0
5010 3037 M
84 43 V
1.000 UL
LT0
5238 3054 M
-144 26 V
1.000 UL
LT0
3670 3058 M
83 41 V
1.000 UL
LT0
3897 3072 M
-144 27 V
1.000 UL
LT0
4041 3044 M
84 42 V
1.000 UL
LT0
4268 3059 M
-143 27 V
1.000 UL
LT0
2331 3084 M
83 39 V
1.000 UL
LT0
2558 3098 M
-144 25 V
1.000 UL
LT0
4412 3031 M
84 43 V
1.000 UL
LT0
4639 3047 M
-143 27 V
1.000 UL
LT0
2702 3072 M
83 40 V
1.000 UL
LT0
2929 3085 M
-144 27 V
1.000 UL
LT0
4783 3020 M
84 44 V
1.000 UL
LT0
5010 3037 M
-143 27 V
1.000 UL
LT0
3073 3059 M
83 40 V
1.000 UL
LT0
3300 3072 M
-144 27 V
1.000 UL
LT0
3444 3044 M
83 41 V
1.000 UL
LT0
3670 3058 M
-143 27 V
1.000 UL
LT0
5154 3010 M
84 44 V
1.000 UL
LT0
5382 3027 M
-144 27 V
1.000 UL
LT0
3814 3030 M
83 42 V
1.000 UL
LT0
4041 3044 M
-144 28 V
1.000 UL
LT0
4185 3016 M
83 43 V
1.000 UL
LT0
4412 3031 M
-144 28 V
1.000 UL
LT0
2475 3059 M
83 39 V
1.000 UL
LT0
2702 3072 M
-144 26 V
1.000 UL
LT0
4556 3004 M
83 43 V
1.000 UL
LT0
4783 3020 M
-144 27 V
1.000 UL
LT0
2846 3046 M
83 39 V
1.000 UL
LT0
3073 3059 M
-144 26 V
1.000 UL
LT0
4927 2993 M
83 44 V
1.000 UL
LT0
5154 3010 M
-144 27 V
1.000 UL
LT0
3217 3032 M
83 40 V
1.000 UL
LT0
3444 3044 M
-144 28 V
1.000 UL
LT0
3588 3016 M
82 42 V
1.000 UL
LT0
3814 3030 M
-144 28 V
1.000 UL
LT0
5298 2983 M
84 44 V
1.000 UL
LT0
5525 3001 M
-143 26 V
1.000 UL
LT0
3958 3002 M
83 42 V
1.000 UL
LT0
4185 3016 M
-144 28 V
1.000 UL
LT0
2248 3045 M
83 39 V
1.000 UL
LT0
2475 3059 M
-144 25 V
1.000 UL
LT0
4329 2988 M
83 43 V
1.000 UL
LT0
4556 3004 M
-144 27 V
1.000 UL
LT0
2619 3033 M
83 39 V
1.000 UL
LT0
2846 3046 M
-144 26 V
1.000 UL
LT0
4700 2976 M
83 44 V
1.000 UL
LT0
4927 2993 M
-144 27 V
1.000 UL
LT0
2990 3019 M
83 40 V
1.000 UL
LT0
3217 3032 M
-144 27 V
1.000 UL
LT0
5071 2966 M
83 44 V
1.000 UL
LT0
5298 2983 M
-144 27 V
1.000 UL
LT0
3361 3004 M
83 40 V
1.000 UL
LT0
3588 3016 M
-144 28 V
1.000 UL
LT0
3731 2988 M
83 42 V
1.000 UL
LT0
3958 3002 M
-144 28 V
1.000 UL
LT0
5442 2957 M
83 44 V
1.000 UL
LT0
5669 2975 M
-144 26 V
1.000 UL
LT0
4102 2973 M
83 43 V
1.000 UL
LT0
4329 2988 M
-144 28 V
1.000 UL
LT0
2392 3020 M
83 39 V
1.000 UL
LT0
2619 3033 M
-144 26 V
1.000 UL
LT0
4473 2960 M
83 44 V
1.000 UL
LT0
4700 2976 M
-144 28 V
1.000 UL
LT0
2763 3007 M
83 39 V
1.000 UL
LT0
2990 3019 M
-144 27 V
1.000 UL
LT0
4844 2949 M
83 44 V
1.000 UL
LT0
5071 2966 M
-144 27 V
1.000 UL
LT0
3134 2992 M
83 40 V
1.000 UL
LT0
3361 3004 M
-144 28 V
1.000 UL
LT0
3505 2976 M
83 40 V
1.000 UL
LT0
3731 2988 M
-143 28 V
1.000 UL
LT0
5215 2939 M
83 44 V
1.000 UL
LT0
5442 2957 M
-144 26 V
1.000 UL
LT0
3875 2960 M
83 42 V
1.000 UL
LT0
4102 2973 M
-144 29 V
1.000 UL
LT0
5586 2931 M
83 44 V
1.000 UL
LT0
5813 2949 M
-144 26 V
1.000 UL
LT0
2165 3006 M
83 39 V
1.000 UL
LT0
2392 3020 M
-144 25 V
1.000 UL
LT0
4246 2945 M
83 43 V
1.000 UL
LT0
4473 2960 M
-144 28 V
1.000 UL
LT0
2536 2994 M
83 39 V
1.000 UL
LT0
2763 3007 M
-144 26 V
1.000 UL
LT0
4617 2933 M
83 43 V
1.000 UL
LT0
4844 2949 M
-144 27 V
1.000 UL
LT0
2907 2980 M
83 39 V
1.000 UL
LT0
3134 2992 M
-144 27 V
1.000 UL
LT0
4988 2922 M
83 44 V
1.000 UL
LT0
5215 2939 M
-144 27 V
1.000 UL
LT0
3278 2964 M
83 40 V
1.000 UL
LT0
3505 2976 M
-144 28 V
1.000 UL
LT0
3648 2947 M
83 41 V
1.000 UL
LT0
3875 2960 M
-144 28 V
1.000 UL
LT0
5359 2913 M
83 44 V
1.000 UL
LT0
5586 2931 M
-144 26 V
1.000 UL
LT0
4019 2931 M
83 42 V
1.000 UL
LT0
4246 2945 M
-144 28 V
1.000 UL
LT0
5730 2905 M
83 44 V
1.000 UL
LT0
2309 2981 M
83 39 V
1.000 UL
LT0
2536 2994 M
-144 26 V
1.000 UL
LT0
4390 2917 M
83 43 V
1.000 UL
LT0
4617 2933 M
-144 27 V
1.000 UL
LT0
2680 2969 M
83 38 V
1.000 UL
LT0
2907 2980 M
-144 27 V
1.000 UL
LT0
4761 2905 M
83 44 V
1.000 UL
LT0
4988 2922 M
-144 27 V
1.000 UL
LT0
3051 2953 M
83 39 V
1.000 UL
LT0
3278 2964 M
-144 28 V
1.000 UL
LT0
5132 2895 M
83 44 V
1.000 UL
LT0
5359 2913 M
-144 26 V
1.000 UL
LT0
3422 2935 M
83 41 V
1.000 UL
LT0
3648 2947 M
-143 29 V
1.000 UL
LT0
3792 2918 M
83 42 V
1.000 UL
LT0
4019 2931 M
-144 29 V
1.000 UL
LT0
5503 2886 M
83 45 V
1.000 UL
LT0
5730 2905 M
-144 26 V
1.000 UL
LT0
4163 2902 M
83 43 V
1.000 UL
LT0
4390 2917 M
-144 28 V
1.000 UL
LT0
2082 2967 M
83 39 V
1.000 UL
LT0
2309 2981 M
-144 25 V
1.000 UL
LT0
4534 2889 M
83 44 V
1.000 UL
LT0
4761 2905 M
-144 28 V
1.000 UL
LT0
2453 2956 M
83 38 V
1.000 UL
LT0
2680 2969 M
-144 25 V
1.000 UL
LT0
2824 2942 M
83 38 V
1.000 UL
LT0
3051 2953 M
-25 5 V
1.000 UL
LT0
3001 2963 M
-94 17 V
1.000 UL
LT0
4905 2878 M
83 44 V
1.000 UL
LT0
5132 2895 M
-144 27 V
1.000 UL
LT0
3195 2925 M
83 39 V
1.000 UL
LT0
3422 2935 M
-144 29 V
1.000 UL
LT0
5276 2868 M
83 45 V
1.000 UL
LT0
5503 2886 M
-144 27 V
1.000 UL
LT0
3566 2906 M
82 41 V
1.000 UL
LT0
3792 2918 M
-144 29 V
1.000 UL
LT0
3936 2888 M
83 43 V
1.000 UL
LT0
4163 2902 M
-144 29 V
1.000 UL
LT0
5647 2860 M
83 45 V
1.000 UL
LT0
4307 2873 M
83 44 V
1.000 UL
LT0
4534 2889 M
-144 28 V
1.000 UL
LT0
2226 2943 M
83 38 V
1.000 UL
LT0
2453 2956 M
-144 25 V
1.000 UL
LT0
4678 2861 M
83 44 V
1.000 UL
LT0
4905 2878 M
-144 27 V
1.000 UL
LT0
2597 2931 M
83 38 V
1.000 UL
LT0
2824 2942 M
-144 27 V
1.000 UL
LT0
3029 2943 M
22 10 V
1.000 UL
LT0
3195 2925 M
-144 28 V
1.000 UL
LT0
5049 2851 M
83 44 V
1.000 UL
LT0
5276 2868 M
-144 27 V
1.000 UL
LT0
3339 2896 M
83 39 V
1.000 UL
LT0
3566 2906 M
-144 29 V
1.000 UL
LT0
3709 2876 M
83 42 V
1.000 UL
LT0
3936 2888 M
-144 30 V
1.000 UL
LT0
5420 2842 M
83 44 V
1.000 UL
LT0
5647 2860 M
-144 26 V
1.000 UL
LT0
4080 2859 M
83 43 V
1.000 UL
LT0
4307 2873 M
-144 29 V
1.000 UL
LT0
1999 2929 M
83 38 V
1.000 UL
LT0
2226 2943 M
-144 24 V
1.000 UL
LT0
4451 2845 M
83 44 V
1.000 UL
LT0
4678 2861 M
-144 28 V
1.000 UL
LT0
2370 2919 M
83 37 V
1.000 UL
LT0
2597 2931 M
-144 25 V
1.000 UL
LT0
4822 2833 M
83 45 V
1.000 UL
LT0
5049 2851 M
-144 27 V
1.000 UL
LT0
2741 2905 M
83 37 V
1.000 UL
LT0
2933 2922 M
-109 20 V
1.000 UL
LT0
3112 2887 M
83 38 V
1.000 UL
LT0
3339 2896 M
-144 29 V
1.000 UL
LT0
5193 2824 M
83 44 V
1.000 UL
LT0
5420 2842 M
-144 26 V
1.000 UL
LT0
3483 2866 M
83 40 V
1.000 UL
LT0
3709 2876 M
-143 30 V
1.000 UL
LT0
3853 2846 M
83 42 V
1.000 UL
LT0
4080 2859 M
-144 29 V
1.000 UL
LT0
5564 2816 M
83 44 V
1.000 UL
LT0
4224 2829 M
83 44 V
1.000 UL
LT0
4451 2845 M
-144 28 V
1.000 UL
LT0
2143 2905 M
83 38 V
1.000 UL
LT0
2370 2919 M
-144 24 V
1.000 UL
LT0
4595 2816 M
83 45 V
1.000 UL
LT0
4822 2833 M
-144 28 V
1.000 UL
LT0
2514 2894 M
83 37 V
1.000 UL
LT0
2741 2905 M
-144 26 V
1.000 UL
LT0
4966 2806 M
83 45 V
1.000 UL
LT0
5193 2824 M
-144 27 V
1.000 UL
LT0
2885 2878 M
24 11 V
1.000 UL
LT0
3112 2887 M
-74 14 V
1.000 UL
LT0
3256 2857 M
83 39 V
1.000 UL
LT0
3483 2866 M
-144 30 V
1.000 UL
LT0
5337 2797 M
83 45 V
1.000 UL
LT0
5564 2816 M
-144 26 V
1.000 UL
LT0
3626 2835 M
83 41 V
1.000 UL
LT0
3853 2846 M
-144 30 V
1.000 UL
LT0
3997 2815 M
83 44 V
1.000 UL
LT0
4224 2829 M
-144 30 V
1.000 UL
LT0
1916 2890 M
83 39 V
1.000 UL
LT0
2143 2905 M
-144 24 V
1.000 UL
LT0
4368 2800 M
83 45 V
1.000 UL
LT0
4595 2816 M
-144 29 V
1.000 UL
LT0
2287 2881 M
83 38 V
1.000 UL
LT0
2514 2894 M
-144 25 V
1.000 UL
LT0
4739 2788 M
83 45 V
1.000 UL
LT0
4966 2806 M
-144 27 V
1.000 UL
LT0
2658 2868 M
83 37 V
1.000 UL
LT0
2885 2878 M
-144 27 V
1.000 UL
LT0
5110 2779 M
83 45 V
1.000 UL
LT0
5337 2797 M
-144 27 V
1.000 UL
LT0
3047 2858 M
65 29 V
1.000 UL
LT0
3256 2857 M
-144 30 V
1.000 UL
LT0
3400 2826 M
83 40 V
1.000 UL
LT0
3626 2835 M
-143 31 V
1.000 UL
LT0
3770 2803 M
83 43 V
1.000 UL
LT0
3997 2815 M
-144 31 V
1.000 UL
LT0
5481 2771 M
83 45 V
1.000 UL
LT0
4141 2785 M
83 44 V
1.000 UL
LT0
4368 2800 M
-144 29 V
1.000 UL
LT0
4512 2771 M
83 45 V
1.000 UL
LT0
4739 2788 M
-144 28 V
1.000 UL
LT0
2060 2867 M
83 38 V
1.000 UL
LT0
2287 2881 M
-144 24 V
1.000 UL
LT0
4883 2761 M
83 45 V
1.000 UL
LT0
5110 2779 M
-144 27 V
1.000 UL
LT0
2431 2857 M
83 37 V
1.000 UL
LT0
2658 2868 M
-144 26 V
1.000 UL
LT0
2802 2842 M
83 36 V
1.000 UL
LT0
2899 2875 M
-14 3 V
1.000 UL
LT0
3173 2820 M
83 37 V
1.000 UL
LT0
3400 2826 M
-144 31 V
1.000 UL
LT0
5254 2752 M
83 45 V
1.000 UL
LT0
5481 2771 M
-144 26 V
1.000 UL
LT0
3544 2794 M
82 41 V
1.000 UL
LT0
3770 2803 M
-144 32 V
1.000 UL
LT0
3914 2772 M
83 43 V
1.000 UL
LT0
4141 2785 M
-144 30 V
1.000 UL
LT0
4285 2755 M
83 45 V
1.000 UL
LT0
4512 2771 M
-144 29 V
1.000 UL
LT0
1833 2851 M
83 39 V
1.000 UL
LT0
2060 2867 M
-144 23 V
1.000 UL
LT0
4656 2743 M
83 45 V
1.000 UL
LT0
4883 2761 M
-144 27 V
1.000 UL
LT0
2204 2844 M
83 37 V
1.000 UL
LT0
2431 2857 M
-144 24 V
1.000 UL
LT0
5027 2734 M
83 45 V
1.000 UL
LT0
5254 2752 M
-144 27 V
1.000 UL
LT0
2575 2833 M
83 35 V
1.000 UL
LT0
2802 2842 M
-144 26 V
1.000 UL
LT0
3173 2820 M
-124 25 V
1.000 UL
LT0
3317 2788 M
83 38 V
1.000 UL
LT0
3544 2794 M
-144 32 V
1.000 UL
LT0
3687 2761 M
83 42 V
1.000 UL
LT0
3914 2772 M
-144 31 V
1.000 UL
LT0
5398 2726 M
83 45 V
1.000 UL
LT0
4058 2740 M
83 45 V
1.000 UL
LT0
4285 2755 M
-144 30 V
1.000 UL
LT0
4429 2726 M
83 45 V
1.000 UL
LT0
4656 2743 M
-144 28 V
1.000 UL
LT0
1977 2828 M
83 39 V
1.000 UL
LT0
2204 2844 M
-144 23 V
1.000 UL
LT0
4800 2715 M
83 46 V
1.000 UL
LT0
5027 2734 M
-144 27 V
1.000 UL
LT0
2348 2821 M
83 36 V
1.000 UL
LT0
2575 2833 M
-144 24 V
1.000 UL
LT0
5171 2707 M
83 45 V
1.000 UL
LT0
5398 2726 M
-144 26 V
1.000 UL
LT0
2719 2808 M
83 34 V
1.000 UL
LT0
2866 2830 M
-64 12 V
1.000 UL
LT0
3090 2784 M
83 36 V
1.000 UL
LT0
3317 2788 M
-144 32 V
1.000 UL
LT0
3461 2754 M
83 40 V
1.000 UL
LT0
3687 2761 M
-143 33 V
1.000 UL
LT0
3831 2728 M
83 44 V
1.000 UL
LT0
4058 2740 M
-144 32 V
1.000 UL
LT0
4202 2710 M
83 45 V
1.000 UL
LT0
4429 2726 M
-144 29 V
1.000 UL
LT0
1749 2811 M
84 40 V
1.000 UL
LT0
1977 2828 M
-144 23 V
1.000 UL
LT0
4573 2697 M
83 46 V
1.000 UL
LT0
4800 2715 M
-144 28 V
1.000 UL
LT0
2121 2806 M
83 38 V
1.000 UL
LT0
2348 2821 M
-144 23 V
1.000 UL
LT0
4944 2688 M
83 46 V
1.000 UL
LT0
5171 2707 M
-144 27 V
1.000 UL
LT0
2492 2798 M
83 35 V
1.000 UL
LT0
2719 2808 M
-144 25 V
1.000 UL
LT0
5315 2681 M
83 45 V
1.000 UL
LT0
3090 2784 M
-30 6 V
1.000 UL
LT0
3234 2752 M
83 36 V
1.000 UL
LT0
3461 2754 M
-144 34 V
1.000 UL
LT0
3604 2719 M
83 42 V
1.000 UL
LT0
3831 2728 M
-144 33 V
1.000 UL
LT0
3975 2695 M
83 45 V
1.000 UL
LT0
4202 2710 M
-144 30 V
1.000 UL
LT0
4346 2680 M
83 46 V
1.000 UL
LT0
4573 2697 M
-144 29 V
1.000 UL
LT0
1893 2789 M
84 39 V
1.000 UL
LT0
2121 2806 M
-144 22 V
1.000 UL
LT0
4717 2669 M
83 46 V
1.000 UL
LT0
4944 2688 M
-144 27 V
1.000 UL
LT0
2264 2785 M
84 36 V
1.000 UL
LT0
2492 2798 M
-144 23 V
1.000 UL
LT0
5088 2662 M
83 45 V
1.000 UL
LT0
5315 2681 M
-144 26 V
1.000 UL
LT0
3378 2716 M
83 38 V
1.000 UL
LT0
3604 2719 M
-143 35 V
1.000 UL
LT0
2635 2775 M
84 33 V
1.000 UL
LT0
2835 2786 M
-116 22 V
1.000 UL
LT0
3748 2684 M
83 44 V
1.000 UL
LT0
3975 2695 M
-144 33 V
1.000 UL
LT0
3064 2774 M
26 10 V
1.000 UL
LT0
3234 2752 M
-144 32 V
1.000 UL
LT0
4119 2663 M
83 47 V
1.000 UL
LT0
4346 2680 M
-144 30 V
1.000 UL
LT0
1666 2770 M
83 41 V
1.000 UL
LT0
1893 2789 M
-144 22 V
1.000 UL
LT0
4490 2651 M
83 46 V
1.000 UL
LT0
4717 2669 M
-144 28 V
1.000 UL
LT0
4861 2642 M
83 46 V
1.000 UL
LT0
5088 2662 M
-144 26 V
1.000 UL
LT0
2037 2768 M
84 38 V
1.000 UL
LT0
2264 2785 M
-143 21 V
1.000 UL
LT0
5232 2635 M
83 46 V
1.000 UL
LT0
2408 2764 M
84 34 V
1.000 UL
LT0
2635 2775 M
-143 23 V
1.000 UL
LT0
3521 2678 M
83 41 V
1.000 UL
LT0
3748 2684 M
-144 35 V
1.000 UL
LT0
3891 2649 M
84 46 V
1.000 UL
LT0
4119 2663 M
-144 32 V
1.000 UL
LT0
3150 2718 M
84 34 V
1.000 UL
LT0
3378 2716 M
-144 36 V
1.000 UL
LT0
2779 2751 M
41 14 V
1.000 UL
LT0
4262 2633 M
84 47 V
1.000 UL
LT0
4490 2651 M
-144 29 V
1.000 UL
LT0
4634 2623 M
83 46 V
1.000 UL
LT0
4861 2642 M
-144 27 V
1.000 UL
LT0
1810 2749 M
83 40 V
1.000 UL
LT0
2037 2768 M
-144 21 V
1.000 UL
LT0
5005 2616 M
83 46 V
1.000 UL
LT0
5232 2635 M
-144 27 V
1.000 UL
LT0
2181 2748 M
83 37 V
1.000 UL
LT0
2408 2764 M
-144 21 V
1.000 UL
LT0
3664 2639 M
84 45 V
1.000 UL
LT0
3891 2649 M
-143 35 V
1.000 UL
LT0
3294 2680 M
84 36 V
1.000 UL
LT0
3521 2678 M
-143 38 V
1.000 UL
LT0
4035 2616 M
84 47 V
1.000 UL
LT0
4262 2633 M
-143 30 V
1.000 UL
LT0
2552 2744 M
83 31 V
1.000 UL
LT0
2779 2751 M
-144 24 V
1.000 UL
LT0
3150 2718 M
-79 19 V
1.000 UL
LT0
4406 2603 M
84 48 V
1.000 UL
LT0
4634 2623 M
-144 28 V
1.000 UL
LT0
1583 2728 M
83 42 V
1.000 UL
LT0
1810 2749 M
-144 21 V
1.000 UL
LT0
4777 2595 M
84 47 V
1.000 UL
LT0
5005 2616 M
-144 26 V
1.000 UL
LT0
1954 2728 M
83 40 V
1.000 UL
LT0
2181 2748 M
-144 20 V
1.000 UL
LT0
5148 2589 M
84 46 V
1.000 UL
LT0
3808 2602 M
83 47 V
1.000 UL
LT0
4035 2616 M
-144 33 V
1.000 UL
LT0
3438 2638 M
83 40 V
1.000 UL
LT0
3664 2639 M
-143 39 V
1.000 UL
LT0
2325 2730 M
83 34 V
1.000 UL
LT0
2552 2744 M
-144 20 V
1.000 UL
LT0
4179 2584 M
83 49 V
1.000 UL
LT0
4406 2603 M
-144 30 V
1.000 UL
LT0
3080 2694 M
70 24 V
1.000 UL
LT0
3294 2680 M
-144 38 V
1.000 UL
LT0
2696 2723 M
83 28 V
1.000 UL
LT0
2806 2746 M
-27 5 V
1.000 UL
LT0
4550 2575 M
84 48 V
1.000 UL
LT0
4777 2595 M
-143 28 V
1.000 UL
LT0
1727 2707 M
83 42 V
1.000 UL
LT0
1954 2728 M
-144 21 V
1.000 UL
LT0
4921 2569 M
84 47 V
1.000 UL
LT0
5148 2589 M
-143 27 V
1.000 UL
LT0
3582 2594 M
82 45 V
1.000 UL
LT0
3808 2602 M
-144 37 V
1.000 UL
LT0
2098 2710 M
83 38 V
1.000 UL
LT0
2325 2730 M
-144 18 V
1.000 UL
LT0
3952 2566 M
83 50 V
1.000 UL
LT0
4179 2584 M
-144 32 V
1.000 UL
LT0
3211 2649 M
83 31 V
1.000 UL
LT0
3438 2638 M
-144 42 V
1.000 UL
LT0
4323 2554 M
83 49 V
1.000 UL
LT0
4550 2575 M
-144 28 V
1.000 UL
LT0
2469 2713 M
83 31 V
1.000 UL
LT0
2696 2723 M
-144 21 V
1.000 UL
LT0
1500 2685 M
83 43 V
1.000 UL
LT0
1727 2707 M
-144 21 V
1.000 UL
LT0
4694 2548 M
83 47 V
1.000 UL
LT0
4921 2569 M
-144 26 V
1.000 UL
LT0
1871 2687 M
83 41 V
1.000 UL
LT0
2098 2710 M
-144 18 V
1.000 UL
LT0
5065 2543 M
83 46 V
1.000 UL
LT0
3725 2552 M
83 50 V
1.000 UL
LT0
3952 2566 M
-144 36 V
1.000 UL
LT0
4096 2534 M
83 50 V
1.000 UL
LT0
4323 2554 M
-144 30 V
1.000 UL
LT0
3355 2599 M
83 39 V
1.000 UL
LT0
3582 2594 M
-144 44 V
1.000 UL
LT0
2242 2693 M
83 37 V
1.000 UL
LT0
2469 2713 M
-144 17 V
1.000 UL
LT0
4467 2526 M
83 49 V
1.000 UL
LT0
4694 2548 M
-144 27 V
1.000 UL
LT0
3211 2649 M
-129 37 V
1.000 UL
LT0
2613 2698 M
83 25 V
1.000 UL
LT0
2765 2712 M
-69 11 V
1.000 UL
LT0
1644 2664 M
83 43 V
1.000 UL
LT0
1871 2687 M
-144 20 V
1.000 UL
LT0
4838 2522 M
83 47 V
1.000 UL
LT0
5065 2543 M
-144 26 V
1.000 UL
LT0
3869 2515 M
83 51 V
1.000 UL
LT0
4096 2534 M
-144 32 V
1.000 UL
LT0
3499 2546 M
83 48 V
1.000 UL
LT0
3725 2552 M
-143 42 V
1.000 UL
LT0
2015 2669 M
83 41 V
1.000 UL
LT0
2242 2693 M
-144 17 V
1.000 UL
LT0
4240 2505 M
83 49 V
1.000 UL
LT0
4467 2526 M
-144 28 V
1.000 UL
LT0
3128 2626 M
83 23 V
1.000 UL
LT0
3355 2599 M
-144 50 V
1.000 UL
LT0
1644 2664 M
-144 21 V
1.000 UL
LT0
4611 2501 M
83 47 V
1.000 UL
LT0
4838 2522 M
-144 26 V
1.000 UL
LT0
2386 2680 M
83 33 V
1.000 UL
LT0
2613 2698 M
-144 15 V
1.000 UL
LT0
4982 2497 M
83 46 V
1.000 UL
LT0
3642 2498 M
83 54 V
1.000 UL
LT0
3869 2515 M
-144 37 V
1.000 UL
LT0
1788 2644 M
83 43 V
1.000 UL
LT0
2015 2669 M
-144 18 V
1.000 UL
LT0
4013 2481 M
83 53 V
1.000 UL
LT0
4240 2505 M
-144 29 V
1.000 UL
LT0
3272 2565 M
83 34 V
1.000 UL
LT0
3499 2546 M
-144 53 V
1.000 UL
LT0
4384 2477 M
83 49 V
1.000 UL
LT0
4611 2501 M
-144 25 V
1.000 UL
LT0
2159 2654 M
83 39 V
1.000 UL
LT0
2386 2680 M
-144 13 V
1.000 UL
LT0
LT1
3084 1784 M
83 43 V
1.000 UL
LT0
LT1
3311 2026 M
3167 1827 L
1.000 UL
LT0
3250 2319 M
-67 -399 V
1.000 UL
LT0
3023 2974 M
3159 1888 L
1.000 UL
LT0
4755 2475 M
83 47 V
1.000 UL
LT0
4982 2497 M
-144 25 V
1.000 UL
LT0
1788 2644 M
-144 20 V
1.000 UL
LT0
3786 2457 M
83 58 V
1.000 UL
LT0
4013 2481 M
-144 34 V
1.000 UL
LT0
3128 2626 M
-36 11 V
1.000 UL
LT0
2530 2672 M
83 26 V
1.000 UL
LT0
2726 2686 M
-113 12 V
1.000 UL
LT0
3416 2495 M
83 51 V
1.000 UL
LT0
3642 2498 M
-143 48 V
1.000 UL
LT0
4157 2452 M
83 53 V
1.000 UL
LT0
4384 2477 M
-144 28 V
1.000 UL
LT0
1932 2626 M
83 43 V
1.000 UL
LT0
2159 2654 M
-144 15 V
1.000 UL
LT0
4528 2451 M
83 50 V
1.000 UL
LT0
4755 2475 M
-144 26 V
1.000 UL
LT0
3560 2434 M
82 64 V
1.000 UL
LT0
3786 2457 M
-144 41 V
1.000 UL
LT0
3094 2625 M
34 1 V
1.000 UL
LT0
3272 2565 M
-144 61 V
1.000 UL
LT0
2303 2643 M
83 37 V
1.000 UL
LT0
2530 2672 M
-144 8 V
1.000 UL
LT0
4899 2450 M
83 47 V
1.000 UL
LT0
3930 2424 M
83 57 V
1.000 UL
LT0
4157 2452 M
-144 29 V
1.000 UL
LT0
1932 2626 M
-144 18 V
1.000 UL
LT0
4301 2426 M
83 51 V
1.000 UL
LT0
4528 2451 M
-144 26 V
1.000 UL
LT0
3189 2542 M
83 23 V
1.000 UL
LT0
3416 2495 M
-144 70 V
1.000 UL
LT0
2076 2611 M
83 43 V
1.000 UL
LT0
2303 2643 M
-144 11 V
1.000 UL
LT0
LT1
3228 1983 M
3084 1784 L
1.000 UL
LT0
2940 2931 M
3084 1784 L
1.000 UL
LT0
4672 2427 M
83 48 V
1.000 UL
LT0
4899 2450 M
-144 25 V
1.000 UL
LT0
3703 2391 M
83 66 V
1.000 UL
LT0
3930 2424 M
-144 33 V
1.000 UL
LT0
3333 2431 M
83 64 V
1.000 UL
LT0
3560 2434 M
-144 61 V
1.000 UL
LT0
4074 2397 M
83 55 V
1.000 UL
LT0
4301 2426 M
-144 26 V
1.000 UL
LT0
2447 2639 M
83 33 V
1.000 UL
LT0
2674 2669 M
-144 3 V
1.000 UL
LT0
2076 2611 M
-144 15 V
1.000 UL
LT0
4445 2401 M
83 50 V
1.000 UL
LT0
4672 2427 M
-144 24 V
1.000 UL
LT0
3477 2350 M
83 84 V
1.000 UL
LT0
3703 2391 M
-143 43 V
1.000 UL
LT0
LT1
2818 2673 M
83 -10 V
1.000 UL
LT0
LT1
2976 2643 M
-75 20 V
1.000 UL
LT0
3847 2361 M
83 63 V
1.000 UL
LT0
4074 2397 M
-144 27 V
1.000 UL
LT0
4816 2402 M
83 48 V
1.000 UL
LT0
2220 2600 M
83 43 V
1.000 UL
LT0
2447 2639 M
-144 4 V
1.000 UL
LT0
4218 2372 M
83 54 V
1.000 UL
LT0
4445 2401 M
-144 25 V
1.000 UL
LT0
3620 2311 M
83 80 V
1.000 UL
LT0
3847 2361 M
-144 30 V
1.000 UL
LT0
3189 2542 M
-88 50 V
1.000 UL
LT0
3250 2319 M
83 112 V
1.000 UL
LT0
3477 2350 M
-144 81 V
1.000 UL
LT0
3189 2542 M
144 -111 V
1.000 UL
LT0
2220 2600 M
-144 11 V
1.000 UL
LT0
4589 2377 M
83 50 V
1.000 UL
LT0
4816 2402 M
-144 25 V
1.000 UL
LT0
2591 2647 M
83 22 V
1.000 UL
LT0
LT1
2818 2673 M
-103 -3 V
1.000 UL
LT0
2710 2676 M
-36 -7 V
1.000 UL
LT0
3106 2568 M
83 -26 V
1.000 UL
LT0
3394 2219 M
83 131 V
1.000 UL
LT0
3620 2311 M
-143 39 V
1.000 UL
LT0
3991 2338 M
83 59 V
1.000 UL
LT0
4218 2372 M
-144 25 V
1.000 UL
LT0
LT1
3228 1983 M
83 43 V
1.000 UL
LT0
LT1
3399 2084 M
-88 -58 V
1.000 UL
LT0
3394 2219 M
-76 -177 V
1.000 UL
LT0
4362 2350 M
83 51 V
1.000 UL
LT0
4589 2377 M
-144 24 V
1.000 UL
LT0
2364 2596 M
83 43 V
1.000 UL
LT0
2591 2647 M
-144 -8 V
1.000 UL
LT0
3764 2292 M
83 69 V
1.000 UL
LT0
3991 2338 M
-144 23 V
1.000 UL
LT0
3538 2215 M
-144 4 V
1.000 UL
LT0
3250 2319 M
144 -100 V
1.000 UL
LT0
3106 2568 M
144 -249 V
1.000 UL
LT0
4733 2354 M
83 48 V
1.000 UL
LT0
3538 2215 M
82 96 V
1.000 UL
LT0
3764 2292 M
-144 19 V
1.000 UL
LT0
2364 2596 M
-144 4 V
1.000 UL
LT0
4135 2318 M
83 54 V
1.000 UL
LT0
4362 2350 M
-144 22 V
1.000 UL
LT0
LT1
2735 2680 M
83 -7 V
1.000 UL
LT0
LT1
2962 2669 M
-144 4 V
1.000 UL
LT0
4506 2328 M
83 49 V
1.000 UL
LT0
4733 2354 M
-144 23 V
1.000 UL
LT0
3908 2277 M
83 61 V
1.000 UL
LT0
4135 2318 M
-144 20 V
1.000 UL
LT0
3455 2121 M
83 94 V
1.000 UL
LT0
3681 2219 M
-143 -4 V
1.000 UL
LT0
3681 2219 M
83 73 V
1.000 UL
LT0
3908 2277 M
-144 15 V
1.000 UL
LT0
2508 2604 M
83 43 V
1.000 UL
LT0
2708 2674 M
-117 -27 V
1.000 UL
LT0
LT1
3372 2078 M
-144 -95 V
1.000 UL
LT0
4279 2298 M
83 52 V
1.000 UL
LT0
4506 2328 M
-144 22 V
1.000 UL
LT0
2508 2604 M
-144 -8 V
1.000 UL
LT0
4650 2306 M
83 48 V
1.000 UL
LT0
3023 2974 M
83 -406 V
1.000 UL
LT0
LT1
2962 2669 M
12 -8 V
1.000 UL
LT0
LT1
2879 2775 M
83 -106 V
1.000 UL
LT0
4052 2263 M
83 55 V
1.000 UL
LT0
4279 2298 M
-144 20 V
1.000 UL
LT0
3372 2078 M
83 43 V
1.000 UL
LT0
3599 2154 M
-144 -33 V
1.000 UL
LT0
3825 2217 M
83 60 V
1.000 UL
LT0
4052 2263 M
-144 14 V
1.000 UL
LT0
4423 2278 M
83 50 V
1.000 UL
LT0
4650 2306 M
-144 22 V
1.000 UL
LT0
3599 2154 M
82 65 V
1.000 UL
LT0
3825 2217 M
-144 2 V
1.000 UL
LT0
2652 2637 M
-144 -33 V
1.000 UL
LT0
4196 2247 M
83 51 V
1.000 UL
LT0
4423 2278 M
-144 20 V
1.000 UL
LT0
LT1
2652 2637 M
83 43 V
1.000 UL
LT0
LT1
2879 2775 M
-144 -95 V
1.000 UL
LT0
4567 2258 M
83 48 V
1.000 UL
LT0
3969 2209 M
83 54 V
1.000 UL
LT0
4196 2247 M
-144 16 V
1.000 UL
LT0
3742 2163 M
83 54 V
1.000 UL
LT0
3969 2209 M
-144 8 V
1.000 UL
LT0
3515 2111 M
-143 -33 V
1.000 UL
LT0
3515 2111 M
84 43 V
1.000 UL
LT0
3742 2163 M
-143 -9 V
1.000 UL
LT0
4340 2229 M
83 49 V
1.000 UL
LT0
4567 2258 M
-144 20 V
1.000 UL
LT0
4113 2197 M
83 50 V
1.000 UL
LT0
4340 2229 M
-144 18 V
1.000 UL
LT0
LT1
2796 2732 M
-144 -95 V
1.000 UL
LT0
3886 2159 M
83 50 V
1.000 UL
LT0
4113 2197 M
-144 12 V
1.000 UL
LT0
4484 2210 M
83 48 V
1.000 UL
LT0
3658 2120 M
84 43 V
1.000 UL
LT0
3886 2159 M
-144 4 V
1.000 UL
LT0
LT1
2796 2732 M
83 43 V
1.000 UL
LT0
LT1
2947 2870 M
-68 -95 V
1.000 UL
LT0
4257 2181 M
83 48 V
1.000 UL
LT0
4484 2210 M
-144 19 V
1.000 UL
LT0
3658 2120 M
-143 -9 V
1.000 UL
LT0
4029 2149 M
84 48 V
1.000 UL
LT0
4257 2181 M
-144 16 V
1.000 UL
LT0
3802 2116 M
84 43 V
1.000 UL
LT0
4029 2149 M
-143 10 V
1.000 UL
LT0
4400 2164 M
84 46 V
1.000 UL
LT0
3802 2116 M
-144 4 V
1.000 UL
LT0
LT1
2940 2931 M
2796 2732 L
1.000 UL
LT0
4173 2135 M
84 46 V
1.000 UL
LT0
4400 2164 M
-143 17 V
1.000 UL
LT0
3946 2106 M
83 43 V
1.000 UL
LT0
4173 2135 M
-144 14 V
1.000 UL
LT0
3946 2106 M
-144 10 V
1.000 UL
LT0
4317 2119 M
83 45 V
1.000 UL
LT0
4090 2092 M
83 43 V
1.000 UL
LT0
4317 2119 M
-144 16 V
1.000 UL
LT0
2940 2931 M
83 43 V
1.000 UL
LT0
4090 2092 M
-144 14 V
1.000 UL
LT0
4234 2075 M
83 44 V
1.000 UL
LT0
4234 2075 M
-144 17 V
1.000 UL
LT0
1.000 UL
LT1
LT2
1.000 UL
LT2
2940 1127 M
83 43 V
1.000 UL
LT2
3023 1170 M
1.000 UL
LT2
3023 1170 M
-1 0 V
1.000 UL
LT2
2939 1127 M
83 43 V
LT3
1.000 UL
LT3
2949 1125 M
83 44 V
1.000 UL
LT3
3032 1169 M
4 8 V
1.000 UL
LT3
3036 1177 M
-60 1 V
1.000 UL
LT3
2893 1135 M
83 43 V
LT4
1.000 UL
LT4
2958 1124 M
83 43 V
1.000 UL
LT4
3041 1167 M
9 17 V
1.000 UL
LT4
3050 1184 M
-120 2 V
1.000 UL
LT4
2846 1143 M
84 43 V
LT5
1.000 UL
LT5
2968 1122 M
83 43 V
1.000 UL
LT5
3051 1165 M
12 26 V
1.000 UL
LT5
3063 1191 M
-180 3 V
1.000 UL
LT5
2800 1151 M
83 43 V
LT6
1.000 UL
LT6
2977 1120 M
83 44 V
1.000 UL
LT6
3060 1164 M
16 34 V
1.000 UL
LT6
3076 1198 M
-161 16 V
1.000 UL
LT6
2800 1209 M
115 5 V
1.000 UL
LT6
2717 1166 M
83 43 V
LT7
1.000 UL
LT7
2986 1119 M
83 43 V
1.000 UL
LT7
3069 1162 M
21 43 V
1.000 UL
LT7
3090 1205 M
-135 30 V
1.000 UL
LT7
2955 1235 M
-191 0 V
1.000 UL
LT7
2691 1228 M
73 7 V
1.000 UL
LT7
2608 1185 M
83 43 V
LT8
1.000 UL
LT8
2995 1117 M
83 44 V
1.000 UL
LT8
3078 1161 M
25 51 V
1.000 UL
LT8
3103 1212 M
-26 7 V
1.000 UL
LT8
3077 1219 M
-58 49 V
1.000 UL
LT8
3019 1268 M
-140 27 V
1.000 UL
LT8
2879 1295 M
-176 8 V
1.000 UL
LT8
2609 1300 M
94 3 V
1.000 UL
LT8
2452 1269 M
157 31 V
1.000 UL
LT8
2369 1226 M
83 43 V
LT0
1.000 UL
LT0
3005 1116 M
83 43 V
1.000 UL
LT0
3088 1159 M
54 48 V
1.000 UL
LT0
3142 1207 M
32 42 V
1.000 UL
LT0
3174 1249 M
-17 13 V
1.000 UL
LT0
3157 1262 M
-17 61 V
1.000 UL
LT0
3140 1323 M
0 8 V
1.000 UL
LT0
3140 1331 M
-79 59 V
1.000 UL
LT0
3061 1390 M
-25 9 V
1.000 UL
LT0
3036 1399 M
-76 39 V
1.000 UL
LT0
2960 1438 M
-121 36 V
1.000 UL
LT0
2839 1474 M
-135 30 V
1.000 UL
LT0
2704 1504 M
-146 24 V
1.000 UL
LT0
2558 1528 M
-156 19 V
1.000 UL
LT0
2402 1547 M
-166 13 V
1.000 UL
LT0
2236 1560 M
-172 11 V
1.000 UL
LT0
2064 1571 M
-26 1 V
1.000 UL
LT0
2038 1572 M
-151 6 V
LT1
1.000 UL
LT1
5462 1742 M
131 21 V
1.000 UL
LT1
5425 1734 M
37 8 V
1.000 UL
LT1
5261 1705 M
164 29 V
1.000 UL
LT1
5172 1691 M
89 14 V
1.000 UL
LT1
5098 1676 M
74 15 V
1.000 UL
LT1
4937 1646 M
161 30 V
1.000 UL
LT1
4874 1635 M
63 11 V
1.000 UL
LT1
4779 1616 M
95 19 V
1.000 UL
LT1
4623 1585 M
156 31 V
1.000 UL
LT1
4567 1575 M
56 10 V
1.000 UL
LT1
4470 1554 M
97 21 V
1.000 UL
LT1
4320 1522 M
150 32 V
1.000 UL
LT1
4245 1508 M
75 14 V
1.000 UL
LT1
4173 1490 M
72 18 V
1.000 UL
LT1
4032 1457 M
141 33 V
1.000 UL
LT1
3892 1424 M
140 33 V
1.000 UL
LT1
3891 1423 M
1 1 V
1.000 UL
LT1
3760 1388 M
131 35 V
1.000 UL
LT1
3633 1353 M
127 35 V
1.000 UL
LT1
3511 1316 M
122 37 V
1.000 UL
LT1
3481 1309 M
30 7 V
1.000 UL
LT1
3395 1279 M
86 30 V
1.000 UL
LT1
3288 1240 M
107 39 V
1.000 UL
LT1
3188 1199 M
100 41 V
1.000 UL
LT1
3097 1157 M
91 42 V
1.000 UL
LT1
3014 1114 M
83 43 V
LT2
1.000 UL
LT2
3953 951 M
83 43 V
1.000 UL
LT2
4036 994 M
4 7 V
1.000 UL
LT2
4040 1001 M
34 44 V
1.000 UL
LT2
4074 1045 M
-31 57 V
1.000 UL
LT2
4043 1102 M
-7 8 V
1.000 UL
LT2
4036 1110 M
-84 45 V
1.000 UL
LT2
3952 1155 M
-125 35 V
1.000 UL
LT2
3827 1190 M
-149 22 V
1.000 UL
LT2
3678 1212 M
-178 7 V
1.000 UL
LT2
3448 1212 M
52 7 V
1.000 UL
LT2
3279 1204 M
169 8 V
1.000 UL
LT2
3235 1191 M
44 13 V
1.000 UL
LT2
3106 1156 M
129 35 V
1.000 UL
LT2
3023 1112 M
83 44 V
LT3
1.000 UL
LT3
3511 1028 M
83 43 V
1.000 UL
LT3
3594 1071 M
-28 63 V
1.000 UL
LT3
3566 1134 M
-19 9 V
1.000 UL
LT3
3547 1143 M
-127 34 V
1.000 UL
LT3
3342 1173 M
78 4 V
1.000 UL
LT3
3342 1173 M
-101 11 V
1.000 UL
LT3
3115 1154 M
126 30 V
1.000 UL
LT3
3032 1111 M
83 43 V
LT4
1.000 UL
LT4
3353 1055 M
83 43 V
1.000 UL
LT4
3436 1098 M
-67 53 V
1.000 UL
LT4
3369 1151 M
-141 26 V
1.000 UL
LT4
3125 1153 M
103 24 V
1.000 UL
LT4
3042 1109 M
83 44 V
LT5
1.000 UL
LT5
3267 1070 M
83 43 V
1.000 UL
LT5
3350 1113 M
-21 17 V
1.000 UL
LT5
3329 1130 M
-115 40 V
1.000 UL
LT5
3134 1151 M
80 19 V
1.000 UL
LT5
3051 1108 M
83 43 V
LT6
1.000 UL
LT6
3202 1081 M
83 44 V
1.000 UL
LT6
3285 1125 M
-84 38 V
1.000 UL
LT6
3143 1149 M
58 14 V
1.000 UL
LT6
3060 1106 M
83 43 V
LT7
1.000 UL
LT7
3156 1089 M
83 44 V
1.000 UL
LT7
3239 1133 M
-51 23 V
1.000 UL
LT7
3152 1148 M
36 8 V
1.000 UL
LT7
3069 1104 M
83 44 V
LT8
1.000 UL
LT8
3109 1097 M
83 44 V
1.000 UL
LT8
3192 1141 M
-18 8 V
1.000 UL
LT8
3162 1146 M
12 3 V
1.000 UL
LT8
3079 1103 M
83 43 V
1.000 UL
LTb
4284 778 M
1870 974 V
1.000 UL
LTb
4284 778 M
1046 1340 L
1.000 UL
LTb
1046 1340 M
1870 975 V
1.000 UL
LTb
6154 1752 M
4249 2083 L
1.000 UL
LTb
3019 2297 M
-103 18 V
1.000 UL
LTb
1046 3288 M
0 -1948 V
1.000 UL
LTb
1046 1340 M
52 28 V
1.000 UL
LTb
936 1245 M
gsave 0 setgray
[ [(Times) 220.0 0.0 true true 0 (-2.5)]
] -73.3 MCshow
grestore
1.000 UL
LTb
1.000 UL
LTb
2864 2287 M
52 28 V
1.000 UL
LTb
1406 1278 M
52 27 V
1.000 UL
LTb
1296 1183 M
gsave 0 setgray
[ [(Times) 220.0 0.0 true true 0 (-2)]
] -73.3 MCshow
grestore
1.000 UL
LTb
1.000 UL
LTb
1766 1215 M
52 28 V
1.000 UL
LTb
1656 1120 M
gsave 0 setgray
[ [(Times) 220.0 0.0 true true 0 (-1.5)]
] -73.3 MCshow
grestore
1.000 UL
LTb
1.000 UL
LTb
2126 1153 M
52 27 V
1.000 UL
LTb
2016 1058 M
gsave 0 setgray
[ [(Times) 220.0 0.0 true true 0 (-1)]
] -73.3 MCshow
grestore
1.000 UL
LTb
1.000 UL
LTb
3942 2100 M
11 5 V
1.000 UL
LTb
2486 1090 M
52 28 V
1.000 UL
LTb
2376 995 M
gsave 0 setgray
[ [(Times) 220.0 0.0 true true 0 (-0.5)]
] -73.3 MCshow
grestore
1.000 UL
LTb
1.000 UL
LTb
4302 2037 M
53 28 V
1.000 UL
LTb
2845 1028 M
53 27 V
1.000 UL
LTb
2736 933 M
gsave 0 setgray
[ [(Times) 220.0 0.0 true true 0 ( 0)]
] -73.3 MCshow
grestore
1.000 UL
LTb
1.000 UL
LTb
4662 1975 M
52 27 V
1.000 UL
LTb
3205 965 M
53 28 V
1.000 UL
LTb
3096 870 M
gsave 0 setgray
[ [(Times) 220.0 0.0 true true 0 ( 0.5)]
] -73.3 MCshow
grestore
1.000 UL
LTb
1.000 UL
LTb
5022 1912 M
52 28 V
1.000 UL
LTb
3565 903 M
52 27 V
1.000 UL
LTb
3455 808 M
gsave 0 setgray
[ [(Times) 220.0 0.0 true true 0 ( 1)]
] -73.3 MCshow
grestore
1.000 UL
LTb
1.000 UL
LTb
5382 1850 M
52 27 V
1.000 UL
LTb
3924 840 M
52 28 V
1.000 UL
LTb
3814 745 M
gsave 0 setgray
[ [(Times) 220.0 0.0 true true 0 ( 1.5)]
] -73.3 MCshow
grestore
1.000 UL
LTb
1.000 UL
LTb
5742 1787 M
52 28 V
1.000 UL
LTb
4284 778 M
52 27 V
1.000 UL
LTb
4174 683 M
gsave 0 setgray
[ [(Times) 220.0 0.0 true true 0 ( 2)]
] -73.3 MCshow
grestore
1.000 UL
LTb
1.000 UL
LTb
6102 1725 M
52 27 V
LTb
2198 816 M
gsave 0 setgray
[ [(Times) 220.0 0.0 true true 0 (Re\(p\))]
] -73.3 MCshow
grestore
1.000 UL
LTb
4284 778 M
-55 9 V
stroke
4398 745 M
gsave 0 setgray
[ [(Times) 220.0 0.0 true true 0 (-0.5)]
] -73.3 MCshow
grestore
1.000 UL
LTb
1.000 UL
LTb
1101 1331 M
-55 9 V
1.000 UL
LTb
4492 886 M
-55 10 V
stroke
4606 853 M
gsave 0 setgray
[ [(Times) 220.0 0.0 true true 0 ( 0)]
] -73.3 MCshow
grestore
1.000 UL
LTb
1.000 UL
LTb
1308 1439 M
-54 10 V
1.000 UL
LTb
4700 994 M
-55 10 V
stroke
4814 961 M
gsave 0 setgray
[ [(Times) 220.0 0.0 true true 0 ( 0.5)]
] -73.3 MCshow
grestore
1.000 UL
LTb
1.000 UL
LTb
1516 1547 M
-54 10 V
1.000 UL
LTb
4907 1103 M
-54 9 V
stroke
5022 1070 M
gsave 0 setgray
[ [(Times) 220.0 0.0 true true 0 ( 1)]
] -73.3 MCshow
grestore
1.000 UL
LTb
1.000 UL
LTb
1724 1656 M
-55 9 V
1.000 UL
LTb
5115 1211 M
-54 9 V
stroke
5229 1178 M
gsave 0 setgray
[ [(Times) 220.0 0.0 true true 0 ( 1.5)]
] -73.3 MCshow
grestore
1.000 UL
LTb
1.000 UL
LTb
1932 1764 M
-55 9 V
1.000 UL
LTb
5323 1319 M
-55 10 V
stroke
5437 1286 M
gsave 0 setgray
[ [(Times) 220.0 0.0 true true 0 ( 2)]
] -73.3 MCshow
grestore
1.000 UL
LTb
1.000 UL
LTb
2139 1872 M
-54 10 V
1.000 UL
LTb
5531 1427 M
-55 10 V
stroke
5645 1394 M
gsave 0 setgray
[ [(Times) 220.0 0.0 true true 0 ( 2.5)]
] -73.3 MCshow
grestore
1.000 UL
LTb
1.000 UL
LTb
2347 1980 M
-54 10 V
1.000 UL
LTb
5738 1536 M
-54 9 V
stroke
5853 1503 M
gsave 0 setgray
[ [(Times) 220.0 0.0 true true 0 ( 3)]
] -73.3 MCshow
grestore
1.000 UL
LTb
1.000 UL
LTb
2555 2089 M
-55 9 V
1.000 UL
LTb
5946 1644 M
-54 9 V
stroke
6061 1611 M
gsave 0 setgray
[ [(Times) 220.0 0.0 true true 0 ( 3.5)]
] -73.3 MCshow
grestore
1.000 UL
LTb
1.000 UL
LTb
2763 2197 M
-55 9 V
1.000 UL
LTb
6154 1752 M
-55 10 V
stroke
6268 1719 M
gsave 0 setgray
[ [(Times) 220.0 0.0 true true 0 ( 4)]
] -73.3 MCshow
grestore
1.000 UL
LTb
1.000 UL
LTb
2971 2305 M
-55 10 V
LTb
6029 1124 M
gsave 0 setgray
[ [(Times) 220.0 0.0 true true 0 (Im\(p\))]
] -73.3 MCshow
grestore
1.000 UL
LTb
1109 1990 M
-63 0 V
stroke
920 1990 M
gsave 0 setgray
[ [(Times) 220.0 0.0 true true 0 (-8)]
] -73.3 MRshow
grestore
1.000 UL
LTb
1.000 UL
LTb
1109 2134 M
-63 0 V
stroke
920 2134 M
gsave 0 setgray
[ [(Times) 220.0 0.0 true true 0 (-6)]
] -73.3 MRshow
grestore
1.000 UL
LTb
1.000 UL
LTb
1109 2279 M
-63 0 V
stroke
920 2279 M
gsave 0 setgray
[ [(Times) 220.0 0.0 true true 0 (-4)]
] -73.3 MRshow
grestore
1.000 UL
LTb
1.000 UL
LTb
1109 2423 M
-63 0 V
stroke
920 2423 M
gsave 0 setgray
[ [(Times) 220.0 0.0 true true 0 (-2)]
] -73.3 MRshow
grestore
1.000 UL
LTb
1.000 UL
LTb
1109 2566 M
-63 0 V
stroke
920 2566 M
gsave 0 setgray
[ [(Times) 220.0 0.0 true true 0 ( 0)]
] -73.3 MRshow
grestore
1.000 UL
LTb
1.000 UL
LTb
1109 2711 M
-63 0 V
stroke
920 2711 M
gsave 0 setgray
[ [(Times) 220.0 0.0 true true 0 ( 2)]
] -73.3 MRshow
grestore
1.000 UL
LTb
1.000 UL
LTb
1109 2855 M
-63 0 V
stroke
920 2855 M
gsave 0 setgray
[ [(Times) 220.0 0.0 true true 0 ( 4)]
] -73.3 MRshow
grestore
1.000 UL
LTb
1.000 UL
LTb
1109 2999 M
-63 0 V
stroke
920 2999 M
gsave 0 setgray
[ [(Times) 220.0 0.0 true true 0 ( 6)]
] -73.3 MRshow
grestore
1.000 UL
LTb
1.000 UL
LTb
1109 3144 M
-63 0 V
stroke
920 3144 M
gsave 0 setgray
[ [(Times) 220.0 0.0 true true 0 ( 8)]
] -73.3 MRshow
grestore
1.000 UL
LTb
1.000 UL
LTb
1109 3288 M
-63 0 V
stroke
920 3288 M
gsave 0 setgray
[ [(Times) 220.0 0.0 true true 0 ( 10)]
] -73.3 MRshow
grestore
1.000 UL
LTb
1.000 UP
stroke
grestore
end
showpage
%%Trailer
%%DocumentFonts: Times
