%!PS-Adobe-2.0 EPSF-2.0
%%Title: potential_imag_ssbc.eps
%%Creator: gnuplot 4.0 patchlevel 0
%%CreationDate: Fri Nov 17 17:01:12 2006
%%DocumentFonts: (atend)
%%BoundingBox: 50 50 410 302
%%Orientation: Portrait
%%EndComments
/gnudict 256 dict def
gnudict begin
/Color false def
/Solid false def
/gnulinewidth 5.000 def
/userlinewidth gnulinewidth def
/vshift -73 def
/dl {10.0 mul} def
/hpt_ 31.5 def
/vpt_ 31.5 def
/hpt hpt_ def
/vpt vpt_ def
/Rounded false def
/M {moveto} bind def
/L {lineto} bind def
/R {rmoveto} bind def
/V {rlineto} bind def
/N {newpath moveto} bind def
/C {setrgbcolor} bind def
/f {rlineto fill} bind def
/vpt2 vpt 2 mul def
/hpt2 hpt 2 mul def
/Lshow { currentpoint stroke M
  0 vshift R show } def
/Rshow { currentpoint stroke M
  dup stringwidth pop neg vshift R show } def
/Cshow { currentpoint stroke M
  dup stringwidth pop -2 div vshift R show } def
/UP { dup vpt_ mul /vpt exch def hpt_ mul /hpt exch def
  /hpt2 hpt 2 mul def /vpt2 vpt 2 mul def } def
/DL { Color {setrgbcolor Solid {pop []} if 0 setdash }
 {pop pop pop 0 setgray Solid {pop []} if 0 setdash} ifelse } def
/BL { stroke userlinewidth 2 mul setlinewidth
      Rounded { 1 setlinejoin 1 setlinecap } if } def
/AL { stroke userlinewidth 2 div setlinewidth
      Rounded { 1 setlinejoin 1 setlinecap } if } def
/UL { dup gnulinewidth mul /userlinewidth exch def
      dup 1 lt {pop 1} if 10 mul /udl exch def } def
/PL { stroke userlinewidth setlinewidth
      Rounded { 1 setlinejoin 1 setlinecap } if } def
/LTw { PL [] 1 setgray } def
/LTb { BL [] 0 0 0 DL } def
/LTa { AL [1 udl mul 2 udl mul] 0 setdash 0 0 0 setrgbcolor } def
/LT0 { PL [] 1 0 0 DL } def
/LT1 { PL [4 dl 2 dl] 0 1 0 DL } def
/LT2 { PL [2 dl 3 dl] 0 0 1 DL } def
/LT3 { PL [1 dl 1.5 dl] 1 0 1 DL } def
/LT4 { PL [5 dl 2 dl 1 dl 2 dl] 0 1 1 DL } def
/LT5 { PL [4 dl 3 dl 1 dl 3 dl] 1 1 0 DL } def
/LT6 { PL [2 dl 2 dl 2 dl 4 dl] 0 0 0 DL } def
/LT7 { PL [2 dl 2 dl 2 dl 2 dl 2 dl 4 dl] 1 0.3 0 DL } def
/LT8 { PL [2 dl 2 dl 2 dl 2 dl 2 dl 2 dl 2 dl 4 dl] 0.5 0.5 0.5 DL } def
/Pnt { stroke [] 0 setdash
   gsave 1 setlinecap M 0 0 V stroke grestore } def
/Dia { stroke [] 0 setdash 2 copy vpt add M
  hpt neg vpt neg V hpt vpt neg V
  hpt vpt V hpt neg vpt V closepath stroke
  Pnt } def
/Pls { stroke [] 0 setdash vpt sub M 0 vpt2 V
  currentpoint stroke M
  hpt neg vpt neg R hpt2 0 V stroke
  } def
/Box { stroke [] 0 setdash 2 copy exch hpt sub exch vpt add M
  0 vpt2 neg V hpt2 0 V 0 vpt2 V
  hpt2 neg 0 V closepath stroke
  Pnt } def
/Crs { stroke [] 0 setdash exch hpt sub exch vpt add M
  hpt2 vpt2 neg V currentpoint stroke M
  hpt2 neg 0 R hpt2 vpt2 V stroke } def
/TriU { stroke [] 0 setdash 2 copy vpt 1.12 mul add M
  hpt neg vpt -1.62 mul V
  hpt 2 mul 0 V
  hpt neg vpt 1.62 mul V closepath stroke
  Pnt  } def
/Star { 2 copy Pls Crs } def
/BoxF { stroke [] 0 setdash exch hpt sub exch vpt add M
  0 vpt2 neg V  hpt2 0 V  0 vpt2 V
  hpt2 neg 0 V  closepath fill } def
/TriUF { stroke [] 0 setdash vpt 1.12 mul add M
  hpt neg vpt -1.62 mul V
  hpt 2 mul 0 V
  hpt neg vpt 1.62 mul V closepath fill } def
/TriD { stroke [] 0 setdash 2 copy vpt 1.12 mul sub M
  hpt neg vpt 1.62 mul V
  hpt 2 mul 0 V
  hpt neg vpt -1.62 mul V closepath stroke
  Pnt  } def
/TriDF { stroke [] 0 setdash vpt 1.12 mul sub M
  hpt neg vpt 1.62 mul V
  hpt 2 mul 0 V
  hpt neg vpt -1.62 mul V closepath fill} def
/DiaF { stroke [] 0 setdash vpt add M
  hpt neg vpt neg V hpt vpt neg V
  hpt vpt V hpt neg vpt V closepath fill } def
/Pent { stroke [] 0 setdash 2 copy gsave
  translate 0 hpt M 4 {72 rotate 0 hpt L} repeat
  closepath stroke grestore Pnt } def
/PentF { stroke [] 0 setdash gsave
  translate 0 hpt M 4 {72 rotate 0 hpt L} repeat
  closepath fill grestore } def
/Circle { stroke [] 0 setdash 2 copy
  hpt 0 360 arc stroke Pnt } def
/CircleF { stroke [] 0 setdash hpt 0 360 arc fill } def
/C0 { BL [] 0 setdash 2 copy moveto vpt 90 450  arc } bind def
/C1 { BL [] 0 setdash 2 copy        moveto
       2 copy  vpt 0 90 arc closepath fill
               vpt 0 360 arc closepath } bind def
/C2 { BL [] 0 setdash 2 copy moveto
       2 copy  vpt 90 180 arc closepath fill
               vpt 0 360 arc closepath } bind def
/C3 { BL [] 0 setdash 2 copy moveto
       2 copy  vpt 0 180 arc closepath fill
               vpt 0 360 arc closepath } bind def
/C4 { BL [] 0 setdash 2 copy moveto
       2 copy  vpt 180 270 arc closepath fill
               vpt 0 360 arc closepath } bind def
/C5 { BL [] 0 setdash 2 copy moveto
       2 copy  vpt 0 90 arc
       2 copy moveto
       2 copy  vpt 180 270 arc closepath fill
               vpt 0 360 arc } bind def
/C6 { BL [] 0 setdash 2 copy moveto
      2 copy  vpt 90 270 arc closepath fill
              vpt 0 360 arc closepath } bind def
/C7 { BL [] 0 setdash 2 copy moveto
      2 copy  vpt 0 270 arc closepath fill
              vpt 0 360 arc closepath } bind def
/C8 { BL [] 0 setdash 2 copy moveto
      2 copy vpt 270 360 arc closepath fill
              vpt 0 360 arc closepath } bind def
/C9 { BL [] 0 setdash 2 copy moveto
      2 copy  vpt 270 450 arc closepath fill
              vpt 0 360 arc closepath } bind def
/C10 { BL [] 0 setdash 2 copy 2 copy moveto vpt 270 360 arc closepath fill
       2 copy moveto
       2 copy vpt 90 180 arc closepath fill
               vpt 0 360 arc closepath } bind def
/C11 { BL [] 0 setdash 2 copy moveto
       2 copy  vpt 0 180 arc closepath fill
       2 copy moveto
       2 copy  vpt 270 360 arc closepath fill
               vpt 0 360 arc closepath } bind def
/C12 { BL [] 0 setdash 2 copy moveto
       2 copy  vpt 180 360 arc closepath fill
               vpt 0 360 arc closepath } bind def
/C13 { BL [] 0 setdash  2 copy moveto
       2 copy  vpt 0 90 arc closepath fill
       2 copy moveto
       2 copy  vpt 180 360 arc closepath fill
               vpt 0 360 arc closepath } bind def
/C14 { BL [] 0 setdash 2 copy moveto
       2 copy  vpt 90 360 arc closepath fill
               vpt 0 360 arc } bind def
/C15 { BL [] 0 setdash 2 copy vpt 0 360 arc closepath fill
               vpt 0 360 arc closepath } bind def
/Rec   { newpath 4 2 roll moveto 1 index 0 rlineto 0 exch rlineto
       neg 0 rlineto closepath } bind def
/Square { dup Rec } bind def
/Bsquare { vpt sub exch vpt sub exch vpt2 Square } bind def
/S0 { BL [] 0 setdash 2 copy moveto 0 vpt rlineto BL Bsquare } bind def
/S1 { BL [] 0 setdash 2 copy vpt Square fill Bsquare } bind def
/S2 { BL [] 0 setdash 2 copy exch vpt sub exch vpt Square fill Bsquare } bind def
/S3 { BL [] 0 setdash 2 copy exch vpt sub exch vpt2 vpt Rec fill Bsquare } bind def
/S4 { BL [] 0 setdash 2 copy exch vpt sub exch vpt sub vpt Square fill Bsquare } bind def
/S5 { BL [] 0 setdash 2 copy 2 copy vpt Square fill
       exch vpt sub exch vpt sub vpt Square fill Bsquare } bind def
/S6 { BL [] 0 setdash 2 copy exch vpt sub exch vpt sub vpt vpt2 Rec fill Bsquare } bind def
/S7 { BL [] 0 setdash 2 copy exch vpt sub exch vpt sub vpt vpt2 Rec fill
       2 copy vpt Square fill
       Bsquare } bind def
/S8 { BL [] 0 setdash 2 copy vpt sub vpt Square fill Bsquare } bind def
/S9 { BL [] 0 setdash 2 copy vpt sub vpt vpt2 Rec fill Bsquare } bind def
/S10 { BL [] 0 setdash 2 copy vpt sub vpt Square fill 2 copy exch vpt sub exch vpt Square fill
       Bsquare } bind def
/S11 { BL [] 0 setdash 2 copy vpt sub vpt Square fill 2 copy exch vpt sub exch vpt2 vpt Rec fill
       Bsquare } bind def
/S12 { BL [] 0 setdash 2 copy exch vpt sub exch vpt sub vpt2 vpt Rec fill Bsquare } bind def
/S13 { BL [] 0 setdash 2 copy exch vpt sub exch vpt sub vpt2 vpt Rec fill
       2 copy vpt Square fill Bsquare } bind def
/S14 { BL [] 0 setdash 2 copy exch vpt sub exch vpt sub vpt2 vpt Rec fill
       2 copy exch vpt sub exch vpt Square fill Bsquare } bind def
/S15 { BL [] 0 setdash 2 copy Bsquare fill Bsquare } bind def
/D0 { gsave translate 45 rotate 0 0 S0 stroke grestore } bind def
/D1 { gsave translate 45 rotate 0 0 S1 stroke grestore } bind def
/D2 { gsave translate 45 rotate 0 0 S2 stroke grestore } bind def
/D3 { gsave translate 45 rotate 0 0 S3 stroke grestore } bind def
/D4 { gsave translate 45 rotate 0 0 S4 stroke grestore } bind def
/D5 { gsave translate 45 rotate 0 0 S5 stroke grestore } bind def
/D6 { gsave translate 45 rotate 0 0 S6 stroke grestore } bind def
/D7 { gsave translate 45 rotate 0 0 S7 stroke grestore } bind def
/D8 { gsave translate 45 rotate 0 0 S8 stroke grestore } bind def
/D9 { gsave translate 45 rotate 0 0 S9 stroke grestore } bind def
/D10 { gsave translate 45 rotate 0 0 S10 stroke grestore } bind def
/D11 { gsave translate 45 rotate 0 0 S11 stroke grestore } bind def
/D12 { gsave translate 45 rotate 0 0 S12 stroke grestore } bind def
/D13 { gsave translate 45 rotate 0 0 S13 stroke grestore } bind def
/D14 { gsave translate 45 rotate 0 0 S14 stroke grestore } bind def
/D15 { gsave translate 45 rotate 0 0 S15 stroke grestore } bind def
/DiaE { stroke [] 0 setdash vpt add M
  hpt neg vpt neg V hpt vpt neg V
  hpt vpt V hpt neg vpt V closepath stroke } def
/BoxE { stroke [] 0 setdash exch hpt sub exch vpt add M
  0 vpt2 neg V hpt2 0 V 0 vpt2 V
  hpt2 neg 0 V closepath stroke } def
/TriUE { stroke [] 0 setdash vpt 1.12 mul add M
  hpt neg vpt -1.62 mul V
  hpt 2 mul 0 V
  hpt neg vpt 1.62 mul V closepath stroke } def
/TriDE { stroke [] 0 setdash vpt 1.12 mul sub M
  hpt neg vpt 1.62 mul V
  hpt 2 mul 0 V
  hpt neg vpt -1.62 mul V closepath stroke } def
/PentE { stroke [] 0 setdash gsave
  translate 0 hpt M 4 {72 rotate 0 hpt L} repeat
  closepath stroke grestore } def
/CircE { stroke [] 0 setdash 
  hpt 0 360 arc stroke } def
/Opaque { gsave closepath 1 setgray fill grestore 0 setgray closepath } def
/DiaW { stroke [] 0 setdash vpt add M
  hpt neg vpt neg V hpt vpt neg V
  hpt vpt V hpt neg vpt V Opaque stroke } def
/BoxW { stroke [] 0 setdash exch hpt sub exch vpt add M
  0 vpt2 neg V hpt2 0 V 0 vpt2 V
  hpt2 neg 0 V Opaque stroke } def
/TriUW { stroke [] 0 setdash vpt 1.12 mul add M
  hpt neg vpt -1.62 mul V
  hpt 2 mul 0 V
  hpt neg vpt 1.62 mul V Opaque stroke } def
/TriDW { stroke [] 0 setdash vpt 1.12 mul sub M
  hpt neg vpt 1.62 mul V
  hpt 2 mul 0 V
  hpt neg vpt -1.62 mul V Opaque stroke } def
/PentW { stroke [] 0 setdash gsave
  translate 0 hpt M 4 {72 rotate 0 hpt L} repeat
  Opaque stroke grestore } def
/CircW { stroke [] 0 setdash 
  hpt 0 360 arc Opaque stroke } def
/BoxFill { gsave Rec 1 setgray fill grestore } def
/BoxColFill {
  gsave Rec
  /Fillden exch def
  currentrgbcolor
  /ColB exch def /ColG exch def /ColR exch def
  /ColR ColR Fillden mul Fillden sub 1 add def
  /ColG ColG Fillden mul Fillden sub 1 add def
  /ColB ColB Fillden mul Fillden sub 1 add def
  ColR ColG ColB setrgbcolor
  fill grestore } def
%
% PostScript Level 1 Pattern Fill routine
% Usage: x y w h s a XX PatternFill
%	x,y = lower left corner of box to be filled
%	w,h = width and height of box
%	  a = angle in degrees between lines and x-axis
%	 XX = 0/1 for no/yes cross-hatch
%
/PatternFill { gsave /PFa [ 9 2 roll ] def
    PFa 0 get PFa 2 get 2 div add PFa 1 get PFa 3 get 2 div add translate
    PFa 2 get -2 div PFa 3 get -2 div PFa 2 get PFa 3 get Rec
    gsave 1 setgray fill grestore clip
    currentlinewidth 0.5 mul setlinewidth
    /PFs PFa 2 get dup mul PFa 3 get dup mul add sqrt def
    0 0 M PFa 5 get rotate PFs -2 div dup translate
	0 1 PFs PFa 4 get div 1 add floor cvi
	{ PFa 4 get mul 0 M 0 PFs V } for
    0 PFa 6 get ne {
	0 1 PFs PFa 4 get div 1 add floor cvi
	{ PFa 4 get mul 0 2 1 roll M PFs 0 V } for
    } if
    stroke grestore } def
%
/Symbol-Oblique /Symbol findfont [1 0 .167 1 0 0] makefont
dup length dict begin {1 index /FID eq {pop pop} {def} ifelse} forall
currentdict end definefont pop
/MFshow {
   { dup 5 get 3 ge
     { 5 get 3 eq {gsave} {grestore} ifelse }
     {dup dup 0 get findfont exch 1 get scalefont setfont
     [ currentpoint ] exch dup 2 get 0 exch R dup 5 get 2 ne {dup dup 6
     get exch 4 get {show} {stringwidth pop 0 R} ifelse }if dup 5 get 0 eq
     {dup 3 get {2 get neg 0 exch R pop} {pop aload pop M} ifelse} {dup 5
     get 1 eq {dup 2 get exch dup 3 get exch 6 get stringwidth pop -2 div
     dup 0 R} {dup 6 get stringwidth pop -2 div 0 R 6 get
     show 2 index {aload pop M neg 3 -1 roll neg R pop pop} {pop pop pop
     pop aload pop M} ifelse }ifelse }ifelse }
     ifelse }
   forall} bind def
/MFwidth {0 exch {dup 3 get{dup dup 0 get findfont exch 1 get scalefont
     setfont 6 get stringwidth pop add} {pop} ifelse} forall} bind def
/MLshow { currentpoint stroke M
  0 exch R MFshow } bind def
/MRshow { currentpoint stroke M
  exch dup MFwidth neg 3 -1 roll R MFshow } def
/MCshow { currentpoint stroke M
  exch dup MFwidth -2 div 3 -1 roll R MFshow } def
end
%%EndProlog
gnudict begin
gsave
50 50 translate
0.050 0.050 scale
0 setgray
newpath
(Times) findfont 220 scalefont setfont
1.000 UL
LTb
LTb
3600 4621 M
gsave 0 setgray
[ [(Times) 220.0 0.0 true true 0 (Im\(LT-BEM potential\))]
] -73.3 MCshow
grestore
3600 4401 M
gsave 0 setgray
[ [(Times) 220.0 0.0 true true 0 (steady \(1/p\) boundary condition)]
] -73.3 MCshow
grestore
1.000 UP
1.000 UL
LT0
2996 3467 M
83 43 V
1.000 UL
LT0
3223 3487 M
-144 23 V
1.000 UL
LT0
3140 3444 M
83 43 V
1.000 UL
LT0
3367 3464 M
-144 23 V
1.000 UL
LT0
2913 3424 M
83 43 V
1.000 UL
LT0
3140 3444 M
-144 23 V
1.000 UL
LT0
3284 3421 M
83 43 V
1.000 UL
LT0
3511 3440 M
-144 24 V
1.000 UL
LT0
3057 3401 M
83 43 V
1.000 UL
LT0
3284 3421 M
-144 23 V
1.000 UL
LT0
3428 3398 M
83 42 V
1.000 UL
LT0
3654 3417 M
-143 23 V
1.000 UL
LT0
2830 3381 M
83 43 V
1.000 UL
LT0
3057 3401 M
-144 23 V
1.000 UL
LT0
3201 3379 M
83 42 V
1.000 UL
LT0
3428 3398 M
-144 23 V
1.000 UL
LT0
3572 3375 M
82 42 V
1.000 UL
LT0
3798 3393 M
-144 24 V
1.000 UL
LT0
2974 3359 M
83 42 V
1.000 UL
LT0
3201 3379 M
-144 22 V
1.000 UL
LT0
3345 3356 M
83 42 V
1.000 UL
LT0
3572 3375 M
-144 23 V
1.000 UL
LT0
3715 3352 M
83 41 V
1.000 UL
LT0
3942 3370 M
-144 23 V
1.000 UL
LT0
2747 3338 M
83 43 V
1.000 UL
LT0
2974 3359 M
-144 22 V
1.000 UL
LT0
3118 3336 M
83 43 V
1.000 UL
LT0
3345 3356 M
-144 23 V
1.000 UL
LT0
3489 3333 M
83 42 V
1.000 UL
LT0
3715 3352 M
-143 23 V
1.000 UL
LT0
3859 3328 M
83 42 V
1.000 UL
LT0
4086 3346 M
-144 24 V
1.000 UL
LT0
2891 3316 M
83 43 V
1.000 UL
LT0
3118 3336 M
-144 23 V
1.000 UL
LT0
3262 3314 M
83 42 V
1.000 UL
LT0
3489 3333 M
-144 23 V
1.000 UL
LT0
3632 3310 M
83 42 V
1.000 UL
LT0
3859 3328 M
-144 24 V
1.000 UL
LT0
2664 3296 M
83 42 V
1.000 UL
LT0
2891 3316 M
-144 22 V
1.000 UL
LT0
4003 3305 M
83 41 V
1.000 UL
LT0
4230 3322 M
-144 24 V
1.000 UL
LT0
3035 3294 M
83 42 V
1.000 UL
LT0
3262 3314 M
-144 22 V
1.000 UL
LT0
3406 3291 M
83 42 V
1.000 UL
LT0
3632 3310 M
-143 23 V
1.000 UL
LT0
3776 3287 M
83 41 V
1.000 UL
LT0
4003 3305 M
-144 23 V
1.000 UL
LT0
2808 3274 M
83 42 V
1.000 UL
LT0
3035 3294 M
-144 22 V
1.000 UL
LT0
4147 3281 M
83 41 V
1.000 UL
LT0
4374 3298 M
-144 24 V
1.000 UL
LT0
3179 3272 M
83 42 V
1.000 UL
LT0
3406 3291 M
-144 23 V
1.000 UL
LT0
3550 3268 M
82 42 V
1.000 UL
LT0
3776 3287 M
-144 23 V
1.000 UL
LT0
2581 3253 M
83 43 V
1.000 UL
LT0
2808 3274 M
-144 22 V
1.000 UL
LT0
3920 3263 M
83 42 V
1.000 UL
LT0
4147 3281 M
-144 24 V
1.000 UL
LT0
2952 3252 M
83 42 V
1.000 UL
LT0
3179 3272 M
-144 22 V
1.000 UL
LT0
4291 3257 M
83 41 V
1.000 UL
LT0
4518 3274 M
-144 24 V
1.000 UL
LT0
3323 3250 M
83 41 V
1.000 UL
LT0
3550 3268 M
-144 23 V
1.000 UL
LT0
3693 3245 M
83 42 V
1.000 UL
LT0
3920 3263 M
-144 24 V
1.000 UL
LT0
2725 3231 M
83 43 V
1.000 UL
LT0
2952 3252 M
-144 22 V
1.000 UL
LT0
4064 3240 M
83 41 V
1.000 UL
LT0
4291 3257 M
-144 24 V
1.000 UL
LT0
3096 3230 M
83 42 V
1.000 UL
LT0
3323 3250 M
-144 22 V
1.000 UL
LT0
4435 3232 M
83 42 V
1.000 UL
LT0
4662 3249 M
-144 25 V
1.000 UL
LT0
3467 3227 M
83 41 V
1.000 UL
LT0
3693 3245 M
-143 23 V
1.000 UL
LT0
2497 3210 M
84 43 V
1.000 UL
LT0
2725 3231 M
-144 22 V
1.000 UL
LT0
3837 3222 M
83 41 V
1.000 UL
LT0
4064 3240 M
-144 23 V
1.000 UL
LT0
2869 3210 M
83 42 V
1.000 UL
LT0
3096 3230 M
-144 22 V
1.000 UL
LT0
4208 3216 M
83 41 V
1.000 UL
LT0
4435 3232 M
-144 25 V
1.000 UL
LT0
3240 3208 M
83 42 V
1.000 UL
LT0
3467 3227 M
-144 23 V
1.000 UL
LT0
4579 3208 M
83 41 V
1.000 UL
LT0
4806 3224 M
-144 25 V
1.000 UL
LT0
3610 3204 M
83 41 V
1.000 UL
LT0
3837 3222 M
-144 23 V
1.000 UL
LT0
2641 3189 M
84 42 V
1.000 UL
LT0
2869 3210 M
-144 21 V
1.000 UL
LT0
3981 3199 M
83 41 V
1.000 UL
LT0
4208 3216 M
-144 24 V
1.000 UL
LT0
3012 3188 M
84 42 V
1.000 UL
LT0
3240 3208 M
-144 22 V
1.000 UL
LT0
4352 3191 M
83 41 V
1.000 UL
LT0
4579 3208 M
-144 24 V
1.000 UL
LT0
3383 3186 M
84 41 V
1.000 UL
LT0
3610 3204 M
-143 23 V
1.000 UL
LT0
2414 3167 M
83 43 V
1.000 UL
LT0
2641 3189 M
-144 21 V
1.000 UL
LT0
4723 3183 M
83 41 V
1.000 UL
LT0
4950 3199 M
-144 25 V
1.000 UL
LT0
3753 3181 M
84 41 V
1.000 UL
LT0
3981 3199 M
-144 23 V
1.000 UL
LT0
2785 3168 M
84 42 V
1.000 UL
LT0
3012 3188 M
-143 22 V
1.000 UL
LT0
4125 3175 M
83 41 V
1.000 UL
LT0
4352 3191 M
-144 25 V
1.000 UL
LT0
3156 3167 M
84 41 V
1.000 UL
LT0
3383 3186 M
-143 22 V
1.000 UL
LT0
4496 3167 M
83 41 V
1.000 UL
LT0
4723 3183 M
-144 25 V
1.000 UL
LT0
3527 3164 M
83 40 V
1.000 UL
LT0
3753 3181 M
-143 23 V
1.000 UL
LT0
4867 3158 M
83 41 V
1.000 UL
LT0
5094 3174 M
-144 25 V
1.000 UL
LT0
2558 3146 M
83 43 V
1.000 UL
LT0
2785 3168 M
-144 21 V
1.000 UL
LT0
3897 3158 M
84 41 V
1.000 UL
LT0
4125 3175 M
-144 24 V
1.000 UL
LT0
2929 3147 M
83 41 V
1.000 UL
LT0
3156 3167 M
-144 21 V
1.000 UL
LT0
4268 3151 M
84 40 V
1.000 UL
LT0
4496 3167 M
-144 24 V
1.000 UL
LT0
3300 3145 M
83 41 V
1.000 UL
LT0
3527 3164 M
-144 22 V
1.000 UL
LT0
2331 3123 M
83 44 V
1.000 UL
LT0
2558 3146 M
-144 21 V
1.000 UL
LT0
4639 3142 M
84 41 V
1.000 UL
LT0
4867 3158 M
-144 25 V
1.000 UL
LT0
5010 3132 M
84 42 V
1.000 UL
LT0
5238 3149 M
-144 25 V
1.000 UL
LT0
3670 3141 M
83 40 V
1.000 UL
LT0
3897 3158 M
-144 23 V
1.000 UL
LT0
2702 3125 M
83 43 V
1.000 UL
LT0
2929 3147 M
-144 21 V
1.000 UL
LT0
4041 3134 M
84 41 V
1.000 UL
LT0
4268 3151 M
-143 24 V
1.000 UL
LT0
3073 3126 M
83 41 V
1.000 UL
LT0
3300 3145 M
-144 22 V
1.000 UL
LT0
4412 3126 M
84 41 V
1.000 UL
LT0
4639 3142 M
-143 25 V
1.000 UL
LT0
3444 3123 M
83 41 V
1.000 UL
LT0
3670 3141 M
-143 23 V
1.000 UL
LT0
4783 3117 M
84 41 V
1.000 UL
LT0
5010 3132 M
-143 26 V
1.000 UL
LT0
2475 3103 M
83 43 V
1.000 UL
LT0
2702 3125 M
-144 21 V
1.000 UL
LT0
5154 3107 M
84 42 V
1.000 UL
LT0
5382 3123 M
-144 26 V
1.000 UL
LT0
3814 3118 M
83 40 V
1.000 UL
LT0
4041 3134 M
-144 24 V
1.000 UL
LT0
2846 3105 M
83 42 V
1.000 UL
LT0
3073 3126 M
-144 21 V
1.000 UL
LT0
4185 3110 M
83 41 V
1.000 UL
LT0
4412 3126 M
-144 25 V
1.000 UL
LT0
2248 3080 M
83 43 V
1.000 UL
LT0
2475 3103 M
-144 20 V
1.000 UL
LT0
3217 3104 M
83 41 V
1.000 UL
LT0
3444 3123 M
-144 22 V
1.000 UL
LT0
4556 3101 M
83 41 V
1.000 UL
LT0
4783 3117 M
-144 25 V
1.000 UL
LT0
4927 3091 M
83 41 V
1.000 UL
LT0
5154 3107 M
-144 25 V
1.000 UL
LT0
3588 3101 M
82 40 V
1.000 UL
LT0
3814 3118 M
-144 23 V
1.000 UL
LT0
2619 3083 M
83 42 V
1.000 UL
LT0
2846 3105 M
-144 20 V
1.000 UL
LT0
5298 3081 M
84 42 V
1.000 UL
LT0
5525 3097 M
-143 26 V
1.000 UL
LT0
3958 3095 M
83 39 V
1.000 UL
LT0
4185 3110 M
-144 24 V
1.000 UL
LT0
2990 3084 M
83 42 V
1.000 UL
LT0
3217 3104 M
-144 22 V
1.000 UL
LT0
4329 3086 M
83 40 V
1.000 UL
LT0
4556 3101 M
-144 25 V
1.000 UL
LT0
2392 3060 M
83 43 V
1.000 UL
LT0
2619 3083 M
-144 20 V
1.000 UL
LT0
3361 3083 M
83 40 V
1.000 UL
LT0
3588 3101 M
-144 22 V
1.000 UL
LT0
4700 3076 M
83 41 V
1.000 UL
LT0
4927 3091 M
-144 26 V
1.000 UL
LT0
5071 3066 M
83 41 V
1.000 UL
LT0
5298 3081 M
-144 26 V
1.000 UL
LT0
3731 3078 M
83 40 V
1.000 UL
LT0
3958 3095 M
-144 23 V
1.000 UL
LT0
2763 3063 M
83 42 V
1.000 UL
LT0
2990 3084 M
-144 21 V
1.000 UL
LT0
5442 3055 M
83 42 V
1.000 UL
LT0
5669 3071 M
-144 26 V
1.000 UL
LT0
4102 3071 M
83 39 V
1.000 UL
LT0
4329 3086 M
-144 24 V
1.000 UL
LT0
2165 3036 M
83 44 V
1.000 UL
LT0
2392 3060 M
-144 20 V
1.000 UL
LT0
3158 3076 M
59 28 V
1.000 UL
LT0
3361 3083 M
-144 21 V
1.000 UL
LT0
4473 3061 M
83 40 V
1.000 UL
LT0
4700 3076 M
-144 25 V
1.000 UL
LT0
4844 3050 M
83 41 V
1.000 UL
LT0
5071 3066 M
-144 25 V
1.000 UL
LT0
3505 3061 M
83 40 V
1.000 UL
LT0
3731 3078 M
-143 23 V
1.000 UL
LT0
2536 3040 M
83 43 V
1.000 UL
LT0
2763 3063 M
-144 20 V
1.000 UL
LT0
5215 3040 M
83 41 V
1.000 UL
LT0
5442 3055 M
-144 26 V
1.000 UL
LT0
3875 3055 M
83 40 V
1.000 UL
LT0
4102 3071 M
-144 24 V
1.000 UL
LT0
2907 3043 M
83 41 V
1.000 UL
LT0
3017 3081 M
-27 3 V
1.000 UL
LT0
5586 3029 M
83 42 V
1.000 UL
LT0
5813 3046 M
-144 25 V
1.000 UL
LT0
4246 3046 M
83 40 V
1.000 UL
LT0
4473 3061 M
-144 25 V
1.000 UL
LT0
2309 3017 M
83 43 V
1.000 UL
LT0
2536 3040 M
-144 20 V
1.000 UL
LT0
4617 3035 M
83 41 V
1.000 UL
LT0
4844 3050 M
-144 26 V
1.000 UL
LT0
3278 3043 M
83 40 V
1.000 UL
LT0
3505 3061 M
-144 22 V
1.000 UL
LT0
4988 3024 M
83 42 V
1.000 UL
LT0
5215 3040 M
-144 26 V
1.000 UL
LT0
3648 3039 M
83 39 V
1.000 UL
LT0
3875 3055 M
-144 23 V
1.000 UL
LT0
2680 3021 M
83 42 V
1.000 UL
LT0
2907 3043 M
-144 20 V
1.000 UL
LT0
5359 3014 M
83 41 V
1.000 UL
LT0
5586 3029 M
-144 26 V
1.000 UL
LT0
4019 3031 M
83 40 V
1.000 UL
LT0
4246 3046 M
-144 25 V
1.000 UL
LT0
2082 2992 M
83 44 V
1.000 UL
LT0
2309 3017 M
-144 19 V
1.000 UL
LT0
5730 3003 M
83 43 V
1.000 UL
LT0
3278 3043 M
-105 15 V
1.000 UL
LT0
4390 3021 M
83 40 V
1.000 UL
LT0
4617 3035 M
-144 26 V
1.000 UL
LT0
4761 3010 M
83 40 V
1.000 UL
LT0
4988 3024 M
-144 26 V
1.000 UL
LT0
2453 2998 M
83 42 V
1.000 UL
LT0
2680 3021 M
-144 19 V
1.000 UL
LT0
3422 3022 M
83 39 V
1.000 UL
LT0
3648 3039 M
-143 22 V
1.000 UL
LT0
5132 2998 M
83 42 V
1.000 UL
LT0
5359 3014 M
-144 26 V
1.000 UL
LT0
3792 3016 M
83 39 V
1.000 UL
LT0
4019 3031 M
-144 24 V
1.000 UL
LT0
2824 3002 M
83 41 V
1.000 UL
LT0
3002 3030 M
-95 13 V
1.000 UL
LT0
5503 2988 M
83 41 V
1.000 UL
LT0
5730 3003 M
-144 26 V
1.000 UL
LT0
4163 3007 M
83 39 V
1.000 UL
LT0
4390 3021 M
-144 25 V
1.000 UL
LT0
2226 2973 M
83 44 V
1.000 UL
LT0
2453 2998 M
-144 19 V
1.000 UL
LT0
4534 2995 M
83 40 V
1.000 UL
LT0
4761 3010 M
-144 25 V
1.000 UL
LT0
3195 3004 M
83 39 V
1.000 UL
LT0
3422 3022 M
-144 21 V
1.000 UL
LT0
4905 2984 M
83 40 V
1.000 UL
LT0
5132 2998 M
-144 26 V
1.000 UL
LT0
3566 3001 M
82 38 V
1.000 UL
LT0
3792 3016 M
-144 23 V
1.000 UL
LT0
2597 2979 M
83 42 V
1.000 UL
LT0
2824 3002 M
-144 19 V
1.000 UL
LT0
5276 2972 M
83 42 V
1.000 UL
LT0
5503 2988 M
-144 26 V
1.000 UL
LT0
3936 2993 M
83 38 V
1.000 UL
LT0
4163 3007 M
-144 24 V
1.000 UL
LT0
1999 2948 M
83 44 V
1.000 UL
LT0
2226 2973 M
-144 19 V
1.000 UL
LT0
5647 2961 M
83 42 V
1.000 UL
LT0
2968 2984 M
23 11 V
1.000 UL
LT0
4307 2981 M
83 40 V
1.000 UL
LT0
4534 2995 M
-144 26 V
1.000 UL
LT0
4678 2969 M
83 41 V
1.000 UL
LT0
4905 2984 M
-144 26 V
1.000 UL
LT0
2370 2954 M
83 44 V
1.000 UL
LT0
2597 2979 M
-144 19 V
1.000 UL
LT0
3339 2984 M
83 38 V
1.000 UL
LT0
3566 3001 M
-144 21 V
1.000 UL
LT0
5049 2957 M
83 41 V
1.000 UL
LT0
5276 2972 M
-144 26 V
1.000 UL
LT0
3709 2978 M
83 38 V
1.000 UL
LT0
3936 2993 M
-144 23 V
1.000 UL
LT0
5420 2946 M
83 42 V
1.000 UL
LT0
5647 2961 M
-144 27 V
1.000 UL
LT0
2741 2961 M
83 41 V
1.000 UL
LT0
2968 2984 M
-144 18 V
1.000 UL
LT0
4080 2968 M
83 39 V
1.000 UL
LT0
4307 2981 M
-144 26 V
1.000 UL
LT0
2143 2929 M
83 44 V
1.000 UL
LT0
2370 2954 M
-144 19 V
1.000 UL
LT0
4451 2956 M
83 39 V
1.000 UL
LT0
4678 2969 M
-144 26 V
1.000 UL
LT0
3339 2984 M
-144 20 V
1.000 UL
LT0
4822 2943 M
83 41 V
1.000 UL
LT0
5049 2957 M
-144 27 V
1.000 UL
LT0
2514 2936 M
83 43 V
1.000 UL
LT0
2741 2961 M
-144 18 V
1.000 UL
LT0
3483 2963 M
83 38 V
1.000 UL
LT0
3709 2978 M
-143 23 V
1.000 UL
LT0
5193 2931 M
83 41 V
1.000 UL
LT0
5420 2946 M
-144 26 V
1.000 UL
LT0
1916 2903 M
83 45 V
1.000 UL
LT0
2143 2929 M
-144 19 V
1.000 UL
LT0
3853 2955 M
83 38 V
1.000 UL
LT0
4080 2968 M
-144 25 V
1.000 UL
LT0
5564 2919 M
83 42 V
1.000 UL
LT0
2885 2943 M
83 41 V
1.000 UL
LT0
2987 2981 M
-19 3 V
1.000 UL
LT0
4224 2943 M
83 38 V
1.000 UL
LT0
4451 2956 M
-144 25 V
1.000 UL
LT0
2287 2910 M
83 44 V
1.000 UL
LT0
2514 2936 M
-144 18 V
1.000 UL
LT0
4595 2929 M
83 40 V
1.000 UL
LT0
4822 2943 M
-144 26 V
1.000 UL
LT0
3256 2946 M
83 38 V
1.000 UL
LT0
3483 2963 M
-144 21 V
1.000 UL
LT0
4966 2916 M
83 41 V
1.000 UL
LT0
5193 2931 M
-144 26 V
1.000 UL
LT0
3626 2941 M
83 37 V
1.000 UL
LT0
3853 2955 M
-144 23 V
1.000 UL
LT0
5337 2904 M
83 42 V
1.000 UL
LT0
5564 2919 M
-144 27 V
1.000 UL
LT0
2658 2919 M
83 42 V
1.000 UL
LT0
2885 2943 M
-144 18 V
1.000 UL
LT0
2060 2884 M
83 45 V
1.000 UL
LT0
2287 2910 M
-144 19 V
1.000 UL
LT0
3997 2930 M
83 38 V
1.000 UL
LT0
4224 2943 M
-144 25 V
1.000 UL
LT0
4368 2916 M
83 40 V
1.000 UL
LT0
4595 2929 M
-144 27 V
1.000 UL
LT0
3256 2946 M
-41 5 V
1.000 UL
LT0
4739 2902 M
83 41 V
1.000 UL
LT0
4966 2916 M
-144 27 V
1.000 UL
LT0
2431 2892 M
83 44 V
1.000 UL
LT0
2658 2919 M
-144 17 V
1.000 UL
LT0
3400 2927 M
83 36 V
1.000 UL
LT0
3626 2941 M
-143 22 V
1.000 UL
LT0
5110 2889 M
83 42 V
1.000 UL
LT0
5337 2904 M
-144 27 V
1.000 UL
LT0
1833 2858 M
83 45 V
1.000 UL
LT0
2060 2884 M
-144 19 V
1.000 UL
LT0
5481 2877 M
83 42 V
1.000 UL
LT0
3770 2918 M
83 37 V
1.000 UL
LT0
3997 2930 M
-144 25 V
1.000 UL
LT0
2802 2903 M
83 40 V
1.000 UL
LT0
2973 2933 M
-88 10 V
1.000 UL
LT0
4141 2905 M
83 38 V
1.000 UL
LT0
4368 2916 M
-144 27 V
1.000 UL
LT0
2204 2865 M
83 45 V
1.000 UL
LT0
2431 2892 M
-144 18 V
1.000 UL
LT0
4512 2890 M
83 39 V
1.000 UL
LT0
4739 2902 M
-144 27 V
1.000 UL
LT0
3223 2932 M
33 14 V
1.000 UL
LT0
3400 2927 M
-144 19 V
1.000 UL
LT0
4883 2875 M
83 41 V
1.000 UL
LT0
5110 2889 M
-144 27 V
1.000 UL
LT0
5254 2862 M
83 42 V
1.000 UL
LT0
5481 2877 M
-144 27 V
1.000 UL
LT0
2575 2876 M
83 43 V
1.000 UL
LT0
2802 2903 M
-144 16 V
1.000 UL
LT0
3544 2906 M
82 35 V
1.000 UL
LT0
3770 2918 M
-144 23 V
1.000 UL
LT0
1977 2838 M
83 46 V
1.000 UL
LT0
2204 2865 M
-144 19 V
1.000 UL
LT0
3914 2894 M
83 36 V
1.000 UL
LT0
4141 2905 M
-144 25 V
1.000 UL
LT0
4285 2878 M
83 38 V
1.000 UL
LT0
4512 2890 M
-144 26 V
1.000 UL
LT0
2946 2887 M
15 8 V
1.000 UL
LT0
4656 2862 M
83 40 V
1.000 UL
LT0
4883 2875 M
-144 27 V
1.000 UL
LT0
2348 2847 M
83 45 V
1.000 UL
LT0
2575 2876 M
-144 16 V
1.000 UL
LT0
5027 2848 M
83 41 V
1.000 UL
LT0
5254 2862 M
-144 27 V
1.000 UL
LT0
1749 2812 M
84 46 V
1.000 UL
LT0
1977 2838 M
-144 20 V
1.000 UL
LT0
3317 2891 M
83 36 V
1.000 UL
LT0
3544 2906 M
-144 21 V
1.000 UL
LT0
5398 2835 M
83 42 V
1.000 UL
LT0
3687 2883 M
83 35 V
1.000 UL
LT0
3914 2894 M
-144 24 V
1.000 UL
LT0
2719 2861 M
83 42 V
1.000 UL
LT0
2946 2887 M
-144 16 V
1.000 UL
LT0
2121 2818 M
83 47 V
1.000 UL
LT0
2348 2847 M
-144 18 V
1.000 UL
LT0
4058 2868 M
83 37 V
1.000 UL
LT0
4285 2878 M
-144 27 V
1.000 UL
LT0
4429 2851 M
83 39 V
1.000 UL
LT0
4656 2862 M
-144 28 V
1.000 UL
LT0
3317 2891 M
-82 10 V
1.000 UL
LT0
4800 2835 M
83 40 V
1.000 UL
LT0
5027 2848 M
-144 27 V
1.000 UL
LT0
2492 2831 M
83 45 V
1.000 UL
LT0
2719 2861 M
-144 15 V
1.000 UL
LT0
5171 2821 M
83 41 V
1.000 UL
LT0
5398 2835 M
-144 27 V
1.000 UL
LT0
1893 2791 M
84 47 V
1.000 UL
LT0
2121 2818 M
-144 20 V
1.000 UL
LT0
3461 2872 M
83 34 V
1.000 UL
LT0
3687 2883 M
-143 23 V
1.000 UL
LT0
3831 2859 M
83 35 V
1.000 UL
LT0
4058 2868 M
-144 26 V
1.000 UL
LT0
4202 2840 M
83 38 V
1.000 UL
LT0
4429 2851 M
-144 27 V
1.000 UL
LT0
2863 2848 M
83 39 V
1.000 UL
LT0
2959 2886 M
-13 1 V
1.000 UL
LT0
2264 2800 M
84 47 V
1.000 UL
LT0
2492 2831 M
-144 16 V
1.000 UL
LT0
4573 2822 M
83 40 V
1.000 UL
LT0
4800 2835 M
-144 27 V
1.000 UL
LT0
1666 2766 M
83 46 V
1.000 UL
LT0
1893 2791 M
-144 21 V
1.000 UL
LT0
4944 2807 M
83 41 V
1.000 UL
LT0
5171 2821 M
-144 27 V
1.000 UL
LT0
3250 2864 M
67 27 V
1.000 UL
LT0
3461 2872 M
-144 19 V
1.000 UL
LT0
5315 2793 M
83 42 V
1.000 UL
LT0
2635 2817 M
84 44 V
1.000 UL
LT0
2863 2848 M
-144 13 V
1.000 UL
LT0
3604 2850 M
83 33 V
1.000 UL
LT0
3831 2859 M
-144 24 V
1.000 UL
LT0
2037 2770 M
84 48 V
1.000 UL
LT0
2264 2800 M
-143 18 V
1.000 UL
LT0
3975 2832 M
83 36 V
1.000 UL
LT0
4202 2840 M
-144 28 V
1.000 UL
LT0
4346 2812 M
83 39 V
1.000 UL
LT0
4573 2822 M
-144 29 V
1.000 UL
LT0
4717 2794 M
83 41 V
1.000 UL
LT0
4944 2807 M
-144 28 V
1.000 UL
LT0
2408 2784 M
84 47 V
1.000 UL
LT0
2635 2817 M
-143 14 V
1.000 UL
LT0
5088 2779 M
83 42 V
1.000 UL
LT0
5315 2793 M
-144 28 V
1.000 UL
LT0
1810 2744 M
83 47 V
1.000 UL
LT0
2037 2770 M
-144 21 V
1.000 UL
LT0
3378 2840 M
83 32 V
1.000 UL
LT0
3604 2850 M
-143 22 V
1.000 UL
LT0
3748 2826 M
83 33 V
1.000 UL
LT0
3975 2832 M
-144 27 V
1.000 UL
LT0
2181 2751 M
83 49 V
1.000 UL
LT0
2408 2784 M
-144 16 V
1.000 UL
LT0
4119 2804 M
83 36 V
1.000 UL
LT0
4346 2812 M
-144 28 V
1.000 UL
LT0
2779 2807 M
84 41 V
1.000 UL
LT0
2945 2841 M
-82 7 V
1.000 UL
LT0
4490 2783 M
83 39 V
1.000 UL
LT0
4717 2794 M
-144 28 V
1.000 UL
LT0
1583 2720 M
83 46 V
1.000 UL
LT0
1810 2744 M
-144 22 V
1.000 UL
LT0
4861 2766 M
83 41 V
1.000 UL
LT0
5088 2779 M
-144 28 V
1.000 UL
LT0
5232 2751 M
83 42 V
1.000 UL
LT0
3378 2840 M
-119 14 V
1.000 UL
LT0
1954 2721 M
83 49 V
1.000 UL
LT0
2181 2751 M
-144 19 V
1.000 UL
LT0
2552 2771 M
83 46 V
1.000 UL
LT0
2779 2807 M
-144 10 V
1.000 UL
LT0
3521 2820 M
83 30 V
1.000 UL
LT0
3748 2826 M
-144 24 V
1.000 UL
LT0
3891 2798 M
84 34 V
1.000 UL
LT0
4119 2804 M
-144 28 V
1.000 UL
LT0
4262 2774 M
84 38 V
1.000 UL
LT0
4490 2783 M
-144 29 V
1.000 UL
LT0
4634 2754 M
83 40 V
1.000 UL
LT0
4861 2766 M
-144 28 V
1.000 UL
LT0
2325 2734 M
83 50 V
1.000 UL
LT0
2552 2771 M
-144 13 V
1.000 UL
LT0
1727 2696 M
83 48 V
1.000 UL
LT0
1954 2721 M
-144 23 V
1.000 UL
LT0
2923 2800 M
11 5 V
1.000 UL
LT0
5005 2737 M
83 42 V
1.000 UL
LT0
5232 2751 M
-144 28 V
1.000 UL
LT0
3296 2813 M
82 27 V
1.000 UL
LT0
3521 2820 M
-143 20 V
1.000 UL
LT0
2098 2700 M
83 51 V
1.000 UL
LT0
2325 2734 M
-144 17 V
1.000 UL
LT0
3664 2796 M
84 30 V
1.000 UL
LT0
3891 2798 M
-143 28 V
1.000 UL
LT0
2696 2762 M
83 45 V
1.000 UL
LT0
2923 2800 M
-144 7 V
1.000 UL
LT0
4035 2768 M
84 36 V
1.000 UL
LT0
4262 2774 M
-143 30 V
1.000 UL
LT0
1500 2674 M
83 46 V
1.000 UL
LT0
1727 2696 M
-144 24 V
1.000 UL
LT0
4406 2744 M
84 39 V
1.000 UL
LT0
4634 2754 M
-144 29 V
1.000 UL
LT0
4777 2724 M
84 42 V
1.000 UL
LT0
5005 2737 M
-144 29 V
1.000 UL
LT0
5148 2709 M
84 42 V
1.000 UL
LT0
1871 2672 M
83 49 V
1.000 UL
LT0
2098 2700 M
-144 21 V
1.000 UL
LT0
2469 2720 M
83 51 V
1.000 UL
LT0
2696 2762 M
-144 9 V
1.000 UL
LT0
3438 2795 M
83 25 V
1.000 UL
LT0
3664 2796 M
-143 24 V
1.000 UL
LT0
3808 2766 M
83 32 V
1.000 UL
LT0
4035 2768 M
-144 30 V
1.000 UL
LT0
2242 2681 M
83 53 V
1.000 UL
LT0
2469 2720 M
-144 14 V
1.000 UL
LT0
4179 2737 M
83 37 V
1.000 UL
LT0
4406 2744 M
-144 30 V
1.000 UL
LT0
4550 2713 M
84 41 V
1.000 UL
LT0
4777 2724 M
-143 30 V
1.000 UL
LT0
1644 2648 M
83 48 V
1.000 UL
LT0
1871 2672 M
-144 24 V
1.000 UL
LT0
4921 2695 M
84 42 V
1.000 UL
LT0
5148 2709 M
-143 28 V
1.000 UL
LT0
2840 2760 M
83 40 V
1.000 UL
LT0
2933 2799 M
-10 1 V
1.000 UL
LT0
2015 2648 M
83 52 V
1.000 UL
LT0
2242 2681 M
-144 19 V
1.000 UL
LT0
2613 2712 M
83 50 V
1.000 UL
LT0
2840 2760 M
-144 2 V
1.000 UL
LT0
3438 2795 M
-142 17 V
1.000 UL
LT0
1644 2648 M
-144 26 V
1.000 UL
LT0
3952 2734 M
83 34 V
1.000 UL
LT0
4179 2737 M
-144 31 V
1.000 UL
LT0
3582 2770 M
82 26 V
1.000 UL
LT0
3808 2766 M
-144 30 V
1.000 UL
LT0
4323 2705 M
83 39 V
1.000 UL
LT0
4550 2713 M
-144 31 V
1.000 UL
LT0
4694 2683 M
83 41 V
1.000 UL
LT0
4921 2695 M
-144 29 V
1.000 UL
LT0
1788 2622 M
83 50 V
1.000 UL
LT0
2015 2648 M
-144 24 V
1.000 UL
LT0
2386 2664 M
83 56 V
1.000 UL
LT0
2613 2712 M
-144 8 V
1.000 UL
LT0
5065 2667 M
83 42 V
1.000 UL
LT0
2159 2625 M
83 56 V
1.000 UL
LT0
2386 2664 M
-144 17 V
1.000 UL
LT0
1788 2622 M
-144 26 V
1.000 UL
LT0
4096 2700 M
83 37 V
1.000 UL
LT0
4323 2705 M
-144 32 V
1.000 UL
LT0
3725 2738 M
83 28 V
1.000 UL
LT0
3952 2734 M
-144 32 V
1.000 UL
LT0
4467 2673 M
83 40 V
1.000 UL
LT0
4694 2683 M
-144 30 V
1.000 UL
LT0
3355 2777 M
83 18 V
1.000 UL
LT0
3582 2770 M
-144 25 V
1.000 UL
LT0
4838 2653 M
83 42 V
1.000 UL
LT0
5065 2667 M
-144 28 V
1.000 UL
LT0
2757 2713 M
83 47 V
1.000 UL
LT0
2922 2763 M
-82 -3 V
1.000 UL
LT0
1932 2595 M
83 53 V
1.000 UL
LT0
2159 2625 M
-144 23 V
1.000 UL
LT0
2530 2652 M
83 60 V
1.000 UL
LT0
2757 2713 M
-144 -1 V
1.000 UL
LT0
3084 1770 M
-144 25 V
1.000 UL
LT0
3023 3099 M
2940 1795 L
1.000 UL
LT0
2796 2325 M
144 -530 V
1.000 UL
LT0
2303 2603 M
83 61 V
1.000 UL
LT0
2530 2652 M
-144 12 V
1.000 UL
LT0
4240 2666 M
83 39 V
1.000 UL
LT0
4467 2673 M
-144 32 V
1.000 UL
LT0
1932 2595 M
-144 27 V
1.000 UL
LT0
3869 2702 M
83 32 V
1.000 UL
LT0
4096 2700 M
-144 34 V
1.000 UL
LT0
3355 2777 M
-29 2 V
1.000 UL
LT0
4611 2641 M
83 42 V
1.000 UL
LT0
4838 2653 M
-144 30 V
1.000 UL
LT0
3499 2752 M
83 18 V
1.000 UL
LT0
3725 2738 M
-143 32 V
1.000 UL
LT0
4982 2624 M
83 43 V
1.000 UL
LT0
2076 2568 M
83 57 V
1.000 UL
LT0
2303 2603 M
-144 22 V
1.000 UL
LT0
3228 2250 M
3084 1770 L
1.000 UL
LT0
3167 3074 M
3084 1770 L
1.000 UL
LT0
2901 2729 M
12 5 V
1.000 UL
LT0
4384 2632 M
83 41 V
1.000 UL
LT0
4611 2641 M
-144 32 V
1.000 UL
LT0
4013 2664 M
83 36 V
1.000 UL
LT0
4240 2666 M
-144 34 V
1.000 UL
LT0
2674 2650 M
83 63 V
1.000 UL
LT0
2901 2729 M
-144 -16 V
1.000 UL
LT0
4755 2611 M
83 42 V
1.000 UL
LT0
4982 2624 M
-144 29 V
1.000 UL
LT0
2076 2568 M
-144 27 V
1.000 UL
LT0
3642 2715 M
83 23 V
1.000 UL
LT0
3869 2702 M
-144 36 V
1.000 UL
LT0
2447 2583 M
83 69 V
1.000 UL
LT0
2674 2650 M
-144 2 V
1.000 UL
LT0
3329 2775 M
26 2 V
1.000 UL
LT0
3499 2752 M
-144 25 V
1.000 UL
LT0
2220 2540 M
83 63 V
1.000 UL
LT0
2447 2583 M
-144 20 V
1.000 UL
LT0
4157 2626 M
83 40 V
1.000 UL
LT0
4384 2632 M
-144 34 V
1.000 UL
LT0
4528 2599 M
83 42 V
1.000 UL
LT0
4755 2611 M
-144 30 V
1.000 UL
LT0
3786 2671 M
83 31 V
1.000 UL
LT0
4013 2664 M
-144 38 V
1.000 UL
LT0
4899 2581 M
83 43 V
1.000 UL
LT0
2220 2540 M
-144 28 V
1.000 UL
LT0
3416 2748 M
83 4 V
1.000 UL
LT0
3642 2715 M
-143 37 V
1.000 UL
LT0
2591 2568 M
83 82 V
1.000 UL
LT0
2818 2672 M
-144 -22 V
1.000 UL
LT0
2818 2672 M
83 57 V
1.000 UL
LT0
2913 2732 M
-12 -3 V
1.000 UL
LT0
2364 2511 M
83 72 V
1.000 UL
LT0
2591 2568 M
-144 15 V
1.000 UL
LT0
4301 2590 M
83 42 V
1.000 UL
LT0
4528 2599 M
-144 33 V
1.000 UL
LT0
3930 2627 M
83 37 V
1.000 UL
LT0
4157 2626 M
-144 38 V
1.000 UL
LT0
4672 2567 M
83 44 V
1.000 UL
LT0
4899 2581 M
-144 30 V
1.000 UL
LT0
2364 2511 M
-144 29 V
1.000 UL
LT0
3560 2698 M
82 17 V
1.000 UL
LT0
3786 2671 M
-144 44 V
1.000 UL
LT0
4445 2555 M
83 44 V
1.000 UL
LT0
4672 2567 M
-144 32 V
1.000 UL
LT0
4074 2584 M
83 42 V
1.000 UL
LT0
4301 2590 M
-144 36 V
1.000 UL
LT0
2508 2476 M
83 92 V
1.000 UL
LT0
2735 2566 M
-144 2 V
1.000 UL
LT0
4816 2537 M
83 44 V
1.000 UL
LT0
3703 2641 M
83 30 V
1.000 UL
LT0
3930 2627 M
-144 44 V
1.000 UL
LT0
2508 2476 M
-144 35 V
1.000 UL
LT0
2735 2566 M
83 106 V
1.000 UL
LT0
2909 2718 M
-91 -46 V
1.000 UL
LT0
4218 2546 M
83 44 V
1.000 UL
LT0
4445 2555 M
-144 35 V
1.000 UL
LT0
4589 2523 M
83 44 V
1.000 UL
LT0
4816 2537 M
-144 30 V
1.000 UL
LT0
3333 2771 M
83 -23 V
1.000 UL
LT0
3560 2698 M
-144 50 V
1.000 UL
LT0
3847 2587 M
83 40 V
1.000 UL
LT0
4074 2584 M
-144 43 V
1.000 UL
LT0
2652 2428 M
-144 48 V
1.000 UL
LT0
2652 2428 M
83 138 V
1.000 UL
LT0
2879 2619 M
-144 -53 V
1.000 UL
LT0
3477 2689 M
83 9 V
1.000 UL
LT0
3703 2641 M
-143 57 V
1.000 UL
LT0
4362 2511 M
83 44 V
1.000 UL
LT0
4589 2523 M
-144 32 V
1.000 UL
LT0
3991 2539 M
83 45 V
1.000 UL
LT0
4218 2546 M
-144 38 V
1.000 UL
LT0
4733 2493 M
83 44 V
1.000 UL
LT0
2879 2619 M
-83 -294 V
1.000 UL
LT0
2652 2428 M
144 -103 V
1.000 UL
LT0
3620 2605 M
83 36 V
1.000 UL
LT0
3847 2587 M
-144 54 V
1.000 UL
LT0
4135 2500 M
83 46 V
1.000 UL
LT0
4362 2511 M
-144 35 V
1.000 UL
LT0
4506 2478 M
83 45 V
1.000 UL
LT0
4733 2493 M
-144 30 V
1.000 UL
LT0
3764 2539 M
83 48 V
1.000 UL
LT0
3991 2539 M
-144 48 V
1.000 UL
LT0
4279 2463 M
83 48 V
1.000 UL
LT0
4506 2478 M
-144 33 V
1.000 UL
LT0
3023 3099 M
2879 2619 L
1.000 UL
LT0
3908 2489 M
83 50 V
1.000 UL
LT0
4135 2500 M
-144 39 V
1.000 UL
LT0
3250 2864 M
83 -93 V
1.000 UL
LT0
3477 2689 M
-144 82 V
1.000 UL
LT0
4650 2447 M
83 46 V
1.000 UL
LT0
3394 2671 M
83 18 V
1.000 UL
LT0
3620 2605 M
-143 84 V
1.000 UL
LT0
3538 2547 M
82 58 V
1.000 UL
LT0
3764 2539 M
-144 66 V
1.000 UL
LT0
4052 2448 M
83 52 V
1.000 UL
LT0
4279 2463 M
-144 37 V
1.000 UL
LT0
4423 2430 M
83 48 V
1.000 UL
LT0
4650 2447 M
-144 31 V
1.000 UL
LT0
3681 2477 M
83 62 V
1.000 UL
LT0
3908 2489 M
-144 50 V
1.000 UL
LT0
3372 2303 M
-144 -53 V
1.000 UL
LT0
3311 2544 M
-83 -294 V
1.000 UL
LT0
3825 2429 M
83 60 V
1.000 UL
LT0
4052 2448 M
-144 41 V
1.000 UL
LT0
4196 2412 M
83 51 V
1.000 UL
LT0
4423 2430 M
-144 33 V
1.000 UL
LT0
4567 2399 M
83 48 V
1.000 UL
LT0
3455 2443 M
83 104 V
1.000 UL
LT0
3681 2477 M
-143 70 V
1.000 UL
LT0
3394 2671 M
144 -124 V
1.000 UL
LT0
3311 2544 M
83 127 V
1.000 UL
LT0
3250 2864 M
144 -193 V
1.000 UL
LT0
3969 2391 M
83 57 V
1.000 UL
LT0
4196 2412 M
-144 36 V
1.000 UL
LT0
3599 2394 M
82 83 V
1.000 UL
LT0
3825 2429 M
-144 48 V
1.000 UL
LT0
4340 2380 M
83 50 V
1.000 UL
LT0
4567 2399 M
-144 31 V
1.000 UL
LT0
3372 2303 M
83 140 V
1.000 UL
LT0
3599 2394 M
-144 49 V
1.000 UL
LT0
3311 2544 M
144 -101 V
1.000 UL
LT0
3167 3074 M
144 -530 V
1.000 UL
LT0
3742 2359 M
83 70 V
1.000 UL
LT0
3969 2391 M
-144 38 V
1.000 UL
LT0
4113 2358 M
83 54 V
1.000 UL
LT0
4340 2380 M
-144 32 V
1.000 UL
LT0
3515 2301 M
-143 2 V
1.000 UL
LT0
4484 2350 M
83 49 V
1.000 UL
LT0
3167 3074 M
83 -210 V
1.000 UL
LT0
3515 2301 M
84 93 V
1.000 UL
LT0
3742 2359 M
-143 35 V
1.000 UL
LT0
3886 2329 M
83 62 V
1.000 UL
LT0
4113 2358 M
-144 33 V
1.000 UL
LT0
4257 2328 M
83 52 V
1.000 UL
LT0
4484 2350 M
-144 30 V
1.000 UL
LT0
3658 2286 M
84 73 V
1.000 UL
LT0
3886 2329 M
-144 30 V
1.000 UL
LT0
3658 2286 M
-143 15 V
1.000 UL
LT0
4029 2301 M
84 57 V
1.000 UL
LT0
4257 2328 M
-144 30 V
1.000 UL
LT0
4400 2300 M
84 50 V
1.000 UL
LT0
3802 2266 M
84 63 V
1.000 UL
LT0
4029 2301 M
-143 28 V
1.000 UL
LT0
4173 2275 M
84 53 V
1.000 UL
LT0
4400 2300 M
-143 28 V
1.000 UL
LT0
3802 2266 M
-144 20 V
1.000 UL
LT0
3946 2244 M
83 57 V
1.000 UL
LT0
4173 2275 M
-144 26 V
1.000 UL
LT0
4317 2248 M
83 52 V
1.000 UL
LT0
3946 2244 M
-144 22 V
1.000 UL
LT0
4090 2221 M
83 54 V
1.000 UL
LT0
4317 2248 M
-144 27 V
1.000 UL
LT0
3167 3074 M
-144 25 V
1.000 UL
LT0
4090 2221 M
-144 23 V
1.000 UL
LT0
4234 2197 M
83 51 V
1.000 UL
LT0
4234 2197 M
-144 24 V
1.000 UL
LT0
1.000 UL
LT1
LT2
1.000 UL
LT2
3185 1142 M
-22 1 V
1.000 UL
LT2
3163 1143 M
-144 25 V
1.000 UL
LT2
3019 1168 M
-14 5 V
1.000 UL
LT2
3005 1173 M
38 8 V
1.000 UL
LT2
3187 1156 M
-144 25 V
1.000 UL
LT2
3185 1142 M
2 14 V
LT3
1.000 UL
LT3
3208 1138 M
-51 2 V
1.000 UL
LT3
3157 1140 M
-144 25 V
1.000 UL
LT3
3013 1165 M
-31 12 V
1.000 UL
LT3
2982 1177 M
88 18 V
1.000 UL
LT3
3214 1170 M
-144 25 V
1.000 UL
LT3
3208 1138 M
6 32 V
LT4
1.000 UL
LT4
3231 1134 M
-79 4 V
1.000 UL
LT4
3152 1138 M
-144 25 V
1.000 UL
LT4
3008 1163 M
-49 18 V
1.000 UL
LT4
2959 1181 M
138 28 V
1.000 UL
LT4
3241 1184 M
-144 25 V
1.000 UL
LT4
3231 1134 M
10 50 V
LT5
1.000 UL
LT5
3254 1130 M
-107 5 V
1.000 UL
LT5
3147 1135 M
-144 25 V
1.000 UL
LT5
3003 1160 M
-67 25 V
1.000 UL
LT5
2936 1185 M
125 36 V
1.000 UL
LT5
3061 1221 M
77 9 V
1.000 UL
LT5
3282 1205 M
-144 25 V
1.000 UL
LT5
3295 1181 M
-13 24 V
1.000 UL
LT5
3254 1130 M
41 51 V
LT6
1.000 UL
LT6
3277 1126 M
-136 6 V
1.000 UL
LT6
3141 1132 M
-144 25 V
1.000 UL
LT6
2997 1157 M
-85 32 V
1.000 UL
LT6
2912 1189 M
79 44 V
1.000 UL
LT6
2991 1233 M
196 23 V
1.000 UL
LT6
3332 1231 M
-145 25 V
1.000 UL
LT6
3365 1169 M
-33 62 V
1.000 UL
LT6
3277 1126 M
88 43 V
LT7
1.000 UL
LT7
3347 1139 M
115 13 V
1.000 UL
LT7
3300 1122 M
47 17 V
1.000 UL
LT7
3300 1122 M
-164 7 V
1.000 UL
LT7
3136 1129 M
-144 25 V
1.000 UL
LT7
2992 1154 M
-103 39 V
1.000 UL
LT7
2889 1193 M
26 21 V
1.000 UL
LT7
2915 1214 M
-21 36 V
1.000 UL
LT7
2894 1250 M
100 41 V
1.000 UL
LT7
2994 1291 M
103 18 V
1.000 UL
LT7
3097 1309 M
106 3 V
1.000 UL
LT7
3203 1312 M
94 1 V
1.000 UL
LT7
3442 1289 M
-145 24 V
1.000 UL
LT7
3488 1263 M
-46 26 V
1.000 UL
LT7
3530 1235 M
-42 28 V
1.000 UL
LT7
3530 1198 M
0 37 V
1.000 UL
LT7
3462 1152 M
68 46 V
LT8
1.000 UL
LT8
3752 1151 M
28 3 V
1.000 UL
LT8
3629 1123 M
123 28 V
1.000 UL
LT8
3499 1118 M
130 5 V
1.000 UL
LT8
3394 1106 M
105 12 V
1.000 UL
LT8
3394 1106 M
-98 7 V
1.000 UL
LT8
3296 1113 M
-165 13 V
1.000 UL
LT8
3131 1126 M
-144 25 V
1.000 UL
LT8
2987 1151 M
-123 37 V
1.000 UL
LT8
2864 1188 M
-68 22 V
1.000 UL
LT8
2796 1210 M
-17 33 V
1.000 UL
LT8
2779 1243 M
-51 36 V
1.000 UL
LT8
2728 1279 M
22 49 V
1.000 UL
LT8
2750 1328 M
-2 5 V
1.000 UL
LT8
2748 1333 M
57 48 V
1.000 UL
LT8
2805 1381 M
103 40 V
1.000 UL
LT8
2908 1421 M
40 10 V
1.000 UL
LT8
2948 1431 M
106 23 V
1.000 UL
LT8
3054 1454 M
166 19 V
1.000 UL
LT8
3220 1473 M
47 1 V
1.000 UL
LT8
3267 1474 M
154 4 V
1.000 UL
LT8
3589 1465 M
-168 13 V
1.000 UL
LT8
3735 1442 M
-146 23 V
1.000 UL
LT8
3859 1407 M
-124 35 V
1.000 UL
LT8
3950 1355 M
-91 52 V
1.000 UL
LT8
3951 1355 M
-1 0 V
1.000 UL
LT8
3988 1291 M
-37 64 V
1.000 UL
LT8
3982 1271 M
6 20 V
1.000 UL
LT8
3963 1238 M
19 33 V
1.000 UL
LT8
3894 1192 M
69 46 V
1.000 UL
LT8
3780 1154 M
114 38 V
LT0
1.000 UL
LT0
4276 924 M
-144 25 V
1.000 UL
LT0
4132 949 M
-144 25 V
1.000 UL
LT0
3988 974 M
-144 25 V
1.000 UL
LT0
3844 999 M
-144 25 V
1.000 UL
LT0
3700 1024 M
-143 25 V
1.000 UL
LT0
3557 1049 M
-144 25 V
1.000 UL
LT0
3413 1074 M
-144 25 V
1.000 UL
LT0
3269 1099 M
-144 25 V
1.000 UL
LT0
3125 1124 M
-144 25 V
1.000 UL
LT0
2981 1149 M
-144 25 V
1.000 UL
LT0
2837 1174 M
-144 25 V
1.000 UL
LT0
2693 1199 M
-144 25 V
1.000 UL
LT0
2549 1224 M
-144 25 V
1.000 UL
LT0
2405 1249 M
-144 25 V
1.000 UL
LT0
2261 1274 M
-143 25 V
1.000 UL
LT0
2118 1299 M
-144 25 V
1.000 UL
LT0
1974 1324 M
-144 25 V
1.000 UL
LT0
1830 1349 M
-144 25 V
1.000 UL
LT0
1686 1374 M
-144 25 V
LT1
1.000 UL
LT1
3311 1063 M
-69 22 V
1.000 UL
LT1
3242 1085 M
-122 36 V
1.000 UL
LT1
3120 1121 M
-144 25 V
1.000 UL
LT1
2976 1146 M
-166 14 V
1.000 UL
LT1
2810 1160 M
-97 6 V
LT2
1.000 UL
LT2
3217 1079 M
-102 39 V
1.000 UL
LT2
3115 1118 M
-144 25 V
1.000 UL
LT2
2971 1143 M
-165 7 V
LT3
1.000 UL
LT3
3194 1083 M
-85 32 V
1.000 UL
LT3
3109 1115 M
-144 25 V
1.000 UL
LT3
2965 1140 M
-136 6 V
LT4
1.000 UL
LT4
3171 1087 M
-67 25 V
1.000 UL
LT4
3104 1112 M
-144 25 V
1.000 UL
LT4
2960 1137 M
-108 5 V
LT5
1.000 UL
LT5
3148 1091 M
-50 19 V
1.000 UL
LT5
3098 1110 M
-143 25 V
1.000 UL
LT5
2955 1135 M
-79 3 V
LT6
1.000 UL
LT6
3125 1095 M
-32 12 V
1.000 UL
LT6
3093 1107 M
-144 25 V
1.000 UL
LT6
2949 1132 M
-50 2 V
LT7
1.000 UL
LT7
3102 1099 M
-14 5 V
1.000 UL
LT7
3088 1104 M
-144 25 V
1.000 UL
LT7
2944 1129 M
-22 1 V
1.000 UL
LTb
4284 778 M
1870 974 V
1.000 UL
LTb
4284 778 M
1046 1340 L
1.000 UL
LTb
1046 1340 M
1767 921 V
1.000 UL
LTb
6154 1752 M
3247 2257 L
1.000 UL
LTb
1046 3288 M
0 -1948 V
1.000 UL
LTb
1046 1340 M
52 28 V
1.000 UL
LTb
936 1245 M
gsave 0 setgray
[ [(Times) 220.0 0.0 true true 0 (-2.5)]
] -73.3 MCshow
grestore
1.000 UL
LTb
1.000 UL
LTb
1406 1278 M
52 27 V
1.000 UL
LTb
1296 1183 M
gsave 0 setgray
[ [(Times) 220.0 0.0 true true 0 (-2)]
] -73.3 MCshow
grestore
1.000 UL
LTb
1.000 UL
LTb
3224 2225 M
52 27 V
1.000 UL
LTb
1766 1215 M
52 28 V
1.000 UL
LTb
1656 1120 M
gsave 0 setgray
[ [(Times) 220.0 0.0 true true 0 (-1.5)]
] -73.3 MCshow
grestore
1.000 UL
LTb
1.000 UL
LTb
3583 2162 M
52 28 V
1.000 UL
LTb
2126 1153 M
52 27 V
1.000 UL
LTb
2016 1058 M
gsave 0 setgray
[ [(Times) 220.0 0.0 true true 0 (-1)]
] -73.3 MCshow
grestore
1.000 UL
LTb
1.000 UL
LTb
3942 2100 M
53 27 V
1.000 UL
LTb
2486 1090 M
52 28 V
1.000 UL
LTb
2376 995 M
gsave 0 setgray
[ [(Times) 220.0 0.0 true true 0 (-0.5)]
] -73.3 MCshow
grestore
1.000 UL
LTb
1.000 UL
LTb
4302 2037 M
53 28 V
1.000 UL
LTb
2845 1028 M
53 27 V
1.000 UL
LTb
2736 933 M
gsave 0 setgray
[ [(Times) 220.0 0.0 true true 0 ( 0)]
] -73.3 MCshow
grestore
1.000 UL
LTb
1.000 UL
LTb
4662 1975 M
52 27 V
1.000 UL
LTb
3205 965 M
53 28 V
1.000 UL
LTb
3096 870 M
gsave 0 setgray
[ [(Times) 220.0 0.0 true true 0 ( 0.5)]
] -73.3 MCshow
grestore
1.000 UL
LTb
1.000 UL
LTb
5022 1912 M
52 28 V
1.000 UL
LTb
3565 903 M
52 27 V
1.000 UL
LTb
3455 808 M
gsave 0 setgray
[ [(Times) 220.0 0.0 true true 0 ( 1)]
] -73.3 MCshow
grestore
1.000 UL
LTb
1.000 UL
LTb
5382 1850 M
52 27 V
1.000 UL
LTb
3924 840 M
52 28 V
1.000 UL
LTb
3814 745 M
gsave 0 setgray
[ [(Times) 220.0 0.0 true true 0 ( 1.5)]
] -73.3 MCshow
grestore
1.000 UL
LTb
1.000 UL
LTb
5742 1787 M
52 28 V
1.000 UL
LTb
4284 778 M
52 27 V
1.000 UL
LTb
4174 683 M
gsave 0 setgray
[ [(Times) 220.0 0.0 true true 0 ( 2)]
] -73.3 MCshow
grestore
1.000 UL
LTb
1.000 UL
LTb
6102 1725 M
52 27 V
LTb
2198 816 M
gsave 0 setgray
[ [(Times) 220.0 0.0 true true 0 (Re\(p\))]
] -73.3 MCshow
grestore
1.000 UL
LTb
4284 778 M
-55 9 V
stroke
4398 745 M
gsave 0 setgray
[ [(Times) 220.0 0.0 true true 0 (-0.5)]
] -73.3 MCshow
grestore
1.000 UL
LTb
1.000 UL
LTb
1101 1331 M
-55 9 V
1.000 UL
LTb
4492 886 M
-55 10 V
stroke
4606 853 M
gsave 0 setgray
[ [(Times) 220.0 0.0 true true 0 ( 0)]
] -73.3 MCshow
grestore
1.000 UL
LTb
1.000 UL
LTb
1308 1439 M
-54 10 V
1.000 UL
LTb
4700 994 M
-55 10 V
stroke
4814 961 M
gsave 0 setgray
[ [(Times) 220.0 0.0 true true 0 ( 0.5)]
] -73.3 MCshow
grestore
1.000 UL
LTb
1.000 UL
LTb
1516 1547 M
-54 10 V
1.000 UL
LTb
4907 1103 M
-54 9 V
stroke
5022 1070 M
gsave 0 setgray
[ [(Times) 220.0 0.0 true true 0 ( 1)]
] -73.3 MCshow
grestore
1.000 UL
LTb
1.000 UL
LTb
1724 1656 M
-55 9 V
1.000 UL
LTb
5115 1211 M
-54 9 V
stroke
5229 1178 M
gsave 0 setgray
[ [(Times) 220.0 0.0 true true 0 ( 1.5)]
] -73.3 MCshow
grestore
1.000 UL
LTb
1.000 UL
LTb
1932 1764 M
-55 9 V
1.000 UL
LTb
5323 1319 M
-55 10 V
stroke
5437 1286 M
gsave 0 setgray
[ [(Times) 220.0 0.0 true true 0 ( 2)]
] -73.3 MCshow
grestore
1.000 UL
LTb
1.000 UL
LTb
2139 1872 M
-54 10 V
1.000 UL
LTb
5531 1427 M
-55 10 V
stroke
5645 1394 M
gsave 0 setgray
[ [(Times) 220.0 0.0 true true 0 ( 2.5)]
] -73.3 MCshow
grestore
1.000 UL
LTb
1.000 UL
LTb
2347 1980 M
-54 10 V
1.000 UL
LTb
5738 1536 M
-54 9 V
stroke
5853 1503 M
gsave 0 setgray
[ [(Times) 220.0 0.0 true true 0 ( 3)]
] -73.3 MCshow
grestore
1.000 UL
LTb
1.000 UL
LTb
2555 2089 M
-55 9 V
1.000 UL
LTb
5946 1644 M
-54 9 V
stroke
6061 1611 M
gsave 0 setgray
[ [(Times) 220.0 0.0 true true 0 ( 3.5)]
] -73.3 MCshow
grestore
1.000 UL
LTb
1.000 UL
LTb
2763 2197 M
-55 9 V
1.000 UL
LTb
6154 1752 M
-55 10 V
stroke
6268 1719 M
gsave 0 setgray
[ [(Times) 220.0 0.0 true true 0 ( 4)]
] -73.3 MCshow
grestore
1.000 UL
LTb
LTb
6029 1124 M
gsave 0 setgray
[ [(Times) 220.0 0.0 true true 0 (Im\(p\))]
] -73.3 MCshow
grestore
1.000 UL
LTb
1109 1990 M
-63 0 V
stroke
920 1990 M
gsave 0 setgray
[ [(Times) 220.0 0.0 true true 0 (-8)]
] -73.3 MRshow
grestore
1.000 UL
LTb
1.000 UL
LTb
1109 2152 M
-63 0 V
stroke
920 2152 M
gsave 0 setgray
[ [(Times) 220.0 0.0 true true 0 (-6)]
] -73.3 MRshow
grestore
1.000 UL
LTb
1.000 UL
LTb
1109 2315 M
-63 0 V
stroke
920 2315 M
gsave 0 setgray
[ [(Times) 220.0 0.0 true true 0 (-4)]
] -73.3 MRshow
grestore
1.000 UL
LTb
1.000 UL
LTb
1109 2477 M
-63 0 V
stroke
920 2477 M
gsave 0 setgray
[ [(Times) 220.0 0.0 true true 0 (-2)]
] -73.3 MRshow
grestore
1.000 UL
LTb
1.000 UL
LTb
1109 2638 M
-63 0 V
stroke
920 2638 M
gsave 0 setgray
[ [(Times) 220.0 0.0 true true 0 ( 0)]
] -73.3 MRshow
grestore
1.000 UL
LTb
1.000 UL
LTb
1109 2801 M
-63 0 V
stroke
920 2801 M
gsave 0 setgray
[ [(Times) 220.0 0.0 true true 0 ( 2)]
] -73.3 MRshow
grestore
1.000 UL
LTb
1.000 UL
LTb
1109 2963 M
-63 0 V
stroke
920 2963 M
gsave 0 setgray
[ [(Times) 220.0 0.0 true true 0 ( 4)]
] -73.3 MRshow
grestore
1.000 UL
LTb
1.000 UL
LTb
1109 3126 M
-63 0 V
stroke
920 3126 M
gsave 0 setgray
[ [(Times) 220.0 0.0 true true 0 ( 6)]
] -73.3 MRshow
grestore
1.000 UL
LTb
1.000 UL
LTb
1109 3288 M
-63 0 V
stroke
920 3288 M
gsave 0 setgray
[ [(Times) 220.0 0.0 true true 0 ( 8)]
] -73.3 MRshow
grestore
1.000 UL
LTb
1.000 UP
stroke
grestore
end
showpage
%%Trailer
%%DocumentFonts: Times
