%!PS-Adobe-2.0 EPSF-2.0
%%Title: flux_real_cosbc.eps
%%Creator: gnuplot 4.0 patchlevel 0
%%CreationDate: Fri Nov 17 17:00:22 2006
%%DocumentFonts: (atend)
%%BoundingBox: 50 50 410 302
%%Orientation: Portrait
%%EndComments
/gnudict 256 dict def
gnudict begin
/Color false def
/Solid false def
/gnulinewidth 5.000 def
/userlinewidth gnulinewidth def
/vshift -73 def
/dl {10.0 mul} def
/hpt_ 31.5 def
/vpt_ 31.5 def
/hpt hpt_ def
/vpt vpt_ def
/Rounded false def
/M {moveto} bind def
/L {lineto} bind def
/R {rmoveto} bind def
/V {rlineto} bind def
/N {newpath moveto} bind def
/C {setrgbcolor} bind def
/f {rlineto fill} bind def
/vpt2 vpt 2 mul def
/hpt2 hpt 2 mul def
/Lshow { currentpoint stroke M
  0 vshift R show } def
/Rshow { currentpoint stroke M
  dup stringwidth pop neg vshift R show } def
/Cshow { currentpoint stroke M
  dup stringwidth pop -2 div vshift R show } def
/UP { dup vpt_ mul /vpt exch def hpt_ mul /hpt exch def
  /hpt2 hpt 2 mul def /vpt2 vpt 2 mul def } def
/DL { Color {setrgbcolor Solid {pop []} if 0 setdash }
 {pop pop pop 0 setgray Solid {pop []} if 0 setdash} ifelse } def
/BL { stroke userlinewidth 2 mul setlinewidth
      Rounded { 1 setlinejoin 1 setlinecap } if } def
/AL { stroke userlinewidth 2 div setlinewidth
      Rounded { 1 setlinejoin 1 setlinecap } if } def
/UL { dup gnulinewidth mul /userlinewidth exch def
      dup 1 lt {pop 1} if 10 mul /udl exch def } def
/PL { stroke userlinewidth setlinewidth
      Rounded { 1 setlinejoin 1 setlinecap } if } def
/LTw { PL [] 1 setgray } def
/LTb { BL [] 0 0 0 DL } def
/LTa { AL [1 udl mul 2 udl mul] 0 setdash 0 0 0 setrgbcolor } def
/LT0 { PL [] 1 0 0 DL } def
/LT1 { PL [4 dl 2 dl] 0 1 0 DL } def
/LT2 { PL [2 dl 3 dl] 0 0 1 DL } def
/LT3 { PL [1 dl 1.5 dl] 1 0 1 DL } def
/LT4 { PL [5 dl 2 dl 1 dl 2 dl] 0 1 1 DL } def
/LT5 { PL [4 dl 3 dl 1 dl 3 dl] 1 1 0 DL } def
/LT6 { PL [2 dl 2 dl 2 dl 4 dl] 0 0 0 DL } def
/LT7 { PL [2 dl 2 dl 2 dl 2 dl 2 dl 4 dl] 1 0.3 0 DL } def
/LT8 { PL [2 dl 2 dl 2 dl 2 dl 2 dl 2 dl 2 dl 4 dl] 0.5 0.5 0.5 DL } def
/Pnt { stroke [] 0 setdash
   gsave 1 setlinecap M 0 0 V stroke grestore } def
/Dia { stroke [] 0 setdash 2 copy vpt add M
  hpt neg vpt neg V hpt vpt neg V
  hpt vpt V hpt neg vpt V closepath stroke
  Pnt } def
/Pls { stroke [] 0 setdash vpt sub M 0 vpt2 V
  currentpoint stroke M
  hpt neg vpt neg R hpt2 0 V stroke
  } def
/Box { stroke [] 0 setdash 2 copy exch hpt sub exch vpt add M
  0 vpt2 neg V hpt2 0 V 0 vpt2 V
  hpt2 neg 0 V closepath stroke
  Pnt } def
/Crs { stroke [] 0 setdash exch hpt sub exch vpt add M
  hpt2 vpt2 neg V currentpoint stroke M
  hpt2 neg 0 R hpt2 vpt2 V stroke } def
/TriU { stroke [] 0 setdash 2 copy vpt 1.12 mul add M
  hpt neg vpt -1.62 mul V
  hpt 2 mul 0 V
  hpt neg vpt 1.62 mul V closepath stroke
  Pnt  } def
/Star { 2 copy Pls Crs } def
/BoxF { stroke [] 0 setdash exch hpt sub exch vpt add M
  0 vpt2 neg V  hpt2 0 V  0 vpt2 V
  hpt2 neg 0 V  closepath fill } def
/TriUF { stroke [] 0 setdash vpt 1.12 mul add M
  hpt neg vpt -1.62 mul V
  hpt 2 mul 0 V
  hpt neg vpt 1.62 mul V closepath fill } def
/TriD { stroke [] 0 setdash 2 copy vpt 1.12 mul sub M
  hpt neg vpt 1.62 mul V
  hpt 2 mul 0 V
  hpt neg vpt -1.62 mul V closepath stroke
  Pnt  } def
/TriDF { stroke [] 0 setdash vpt 1.12 mul sub M
  hpt neg vpt 1.62 mul V
  hpt 2 mul 0 V
  hpt neg vpt -1.62 mul V closepath fill} def
/DiaF { stroke [] 0 setdash vpt add M
  hpt neg vpt neg V hpt vpt neg V
  hpt vpt V hpt neg vpt V closepath fill } def
/Pent { stroke [] 0 setdash 2 copy gsave
  translate 0 hpt M 4 {72 rotate 0 hpt L} repeat
  closepath stroke grestore Pnt } def
/PentF { stroke [] 0 setdash gsave
  translate 0 hpt M 4 {72 rotate 0 hpt L} repeat
  closepath fill grestore } def
/Circle { stroke [] 0 setdash 2 copy
  hpt 0 360 arc stroke Pnt } def
/CircleF { stroke [] 0 setdash hpt 0 360 arc fill } def
/C0 { BL [] 0 setdash 2 copy moveto vpt 90 450  arc } bind def
/C1 { BL [] 0 setdash 2 copy        moveto
       2 copy  vpt 0 90 arc closepath fill
               vpt 0 360 arc closepath } bind def
/C2 { BL [] 0 setdash 2 copy moveto
       2 copy  vpt 90 180 arc closepath fill
               vpt 0 360 arc closepath } bind def
/C3 { BL [] 0 setdash 2 copy moveto
       2 copy  vpt 0 180 arc closepath fill
               vpt 0 360 arc closepath } bind def
/C4 { BL [] 0 setdash 2 copy moveto
       2 copy  vpt 180 270 arc closepath fill
               vpt 0 360 arc closepath } bind def
/C5 { BL [] 0 setdash 2 copy moveto
       2 copy  vpt 0 90 arc
       2 copy moveto
       2 copy  vpt 180 270 arc closepath fill
               vpt 0 360 arc } bind def
/C6 { BL [] 0 setdash 2 copy moveto
      2 copy  vpt 90 270 arc closepath fill
              vpt 0 360 arc closepath } bind def
/C7 { BL [] 0 setdash 2 copy moveto
      2 copy  vpt 0 270 arc closepath fill
              vpt 0 360 arc closepath } bind def
/C8 { BL [] 0 setdash 2 copy moveto
      2 copy vpt 270 360 arc closepath fill
              vpt 0 360 arc closepath } bind def
/C9 { BL [] 0 setdash 2 copy moveto
      2 copy  vpt 270 450 arc closepath fill
              vpt 0 360 arc closepath } bind def
/C10 { BL [] 0 setdash 2 copy 2 copy moveto vpt 270 360 arc closepath fill
       2 copy moveto
       2 copy vpt 90 180 arc closepath fill
               vpt 0 360 arc closepath } bind def
/C11 { BL [] 0 setdash 2 copy moveto
       2 copy  vpt 0 180 arc closepath fill
       2 copy moveto
       2 copy  vpt 270 360 arc closepath fill
               vpt 0 360 arc closepath } bind def
/C12 { BL [] 0 setdash 2 copy moveto
       2 copy  vpt 180 360 arc closepath fill
               vpt 0 360 arc closepath } bind def
/C13 { BL [] 0 setdash  2 copy moveto
       2 copy  vpt 0 90 arc closepath fill
       2 copy moveto
       2 copy  vpt 180 360 arc closepath fill
               vpt 0 360 arc closepath } bind def
/C14 { BL [] 0 setdash 2 copy moveto
       2 copy  vpt 90 360 arc closepath fill
               vpt 0 360 arc } bind def
/C15 { BL [] 0 setdash 2 copy vpt 0 360 arc closepath fill
               vpt 0 360 arc closepath } bind def
/Rec   { newpath 4 2 roll moveto 1 index 0 rlineto 0 exch rlineto
       neg 0 rlineto closepath } bind def
/Square { dup Rec } bind def
/Bsquare { vpt sub exch vpt sub exch vpt2 Square } bind def
/S0 { BL [] 0 setdash 2 copy moveto 0 vpt rlineto BL Bsquare } bind def
/S1 { BL [] 0 setdash 2 copy vpt Square fill Bsquare } bind def
/S2 { BL [] 0 setdash 2 copy exch vpt sub exch vpt Square fill Bsquare } bind def
/S3 { BL [] 0 setdash 2 copy exch vpt sub exch vpt2 vpt Rec fill Bsquare } bind def
/S4 { BL [] 0 setdash 2 copy exch vpt sub exch vpt sub vpt Square fill Bsquare } bind def
/S5 { BL [] 0 setdash 2 copy 2 copy vpt Square fill
       exch vpt sub exch vpt sub vpt Square fill Bsquare } bind def
/S6 { BL [] 0 setdash 2 copy exch vpt sub exch vpt sub vpt vpt2 Rec fill Bsquare } bind def
/S7 { BL [] 0 setdash 2 copy exch vpt sub exch vpt sub vpt vpt2 Rec fill
       2 copy vpt Square fill
       Bsquare } bind def
/S8 { BL [] 0 setdash 2 copy vpt sub vpt Square fill Bsquare } bind def
/S9 { BL [] 0 setdash 2 copy vpt sub vpt vpt2 Rec fill Bsquare } bind def
/S10 { BL [] 0 setdash 2 copy vpt sub vpt Square fill 2 copy exch vpt sub exch vpt Square fill
       Bsquare } bind def
/S11 { BL [] 0 setdash 2 copy vpt sub vpt Square fill 2 copy exch vpt sub exch vpt2 vpt Rec fill
       Bsquare } bind def
/S12 { BL [] 0 setdash 2 copy exch vpt sub exch vpt sub vpt2 vpt Rec fill Bsquare } bind def
/S13 { BL [] 0 setdash 2 copy exch vpt sub exch vpt sub vpt2 vpt Rec fill
       2 copy vpt Square fill Bsquare } bind def
/S14 { BL [] 0 setdash 2 copy exch vpt sub exch vpt sub vpt2 vpt Rec fill
       2 copy exch vpt sub exch vpt Square fill Bsquare } bind def
/S15 { BL [] 0 setdash 2 copy Bsquare fill Bsquare } bind def
/D0 { gsave translate 45 rotate 0 0 S0 stroke grestore } bind def
/D1 { gsave translate 45 rotate 0 0 S1 stroke grestore } bind def
/D2 { gsave translate 45 rotate 0 0 S2 stroke grestore } bind def
/D3 { gsave translate 45 rotate 0 0 S3 stroke grestore } bind def
/D4 { gsave translate 45 rotate 0 0 S4 stroke grestore } bind def
/D5 { gsave translate 45 rotate 0 0 S5 stroke grestore } bind def
/D6 { gsave translate 45 rotate 0 0 S6 stroke grestore } bind def
/D7 { gsave translate 45 rotate 0 0 S7 stroke grestore } bind def
/D8 { gsave translate 45 rotate 0 0 S8 stroke grestore } bind def
/D9 { gsave translate 45 rotate 0 0 S9 stroke grestore } bind def
/D10 { gsave translate 45 rotate 0 0 S10 stroke grestore } bind def
/D11 { gsave translate 45 rotate 0 0 S11 stroke grestore } bind def
/D12 { gsave translate 45 rotate 0 0 S12 stroke grestore } bind def
/D13 { gsave translate 45 rotate 0 0 S13 stroke grestore } bind def
/D14 { gsave translate 45 rotate 0 0 S14 stroke grestore } bind def
/D15 { gsave translate 45 rotate 0 0 S15 stroke grestore } bind def
/DiaE { stroke [] 0 setdash vpt add M
  hpt neg vpt neg V hpt vpt neg V
  hpt vpt V hpt neg vpt V closepath stroke } def
/BoxE { stroke [] 0 setdash exch hpt sub exch vpt add M
  0 vpt2 neg V hpt2 0 V 0 vpt2 V
  hpt2 neg 0 V closepath stroke } def
/TriUE { stroke [] 0 setdash vpt 1.12 mul add M
  hpt neg vpt -1.62 mul V
  hpt 2 mul 0 V
  hpt neg vpt 1.62 mul V closepath stroke } def
/TriDE { stroke [] 0 setdash vpt 1.12 mul sub M
  hpt neg vpt 1.62 mul V
  hpt 2 mul 0 V
  hpt neg vpt -1.62 mul V closepath stroke } def
/PentE { stroke [] 0 setdash gsave
  translate 0 hpt M 4 {72 rotate 0 hpt L} repeat
  closepath stroke grestore } def
/CircE { stroke [] 0 setdash 
  hpt 0 360 arc stroke } def
/Opaque { gsave closepath 1 setgray fill grestore 0 setgray closepath } def
/DiaW { stroke [] 0 setdash vpt add M
  hpt neg vpt neg V hpt vpt neg V
  hpt vpt V hpt neg vpt V Opaque stroke } def
/BoxW { stroke [] 0 setdash exch hpt sub exch vpt add M
  0 vpt2 neg V hpt2 0 V 0 vpt2 V
  hpt2 neg 0 V Opaque stroke } def
/TriUW { stroke [] 0 setdash vpt 1.12 mul add M
  hpt neg vpt -1.62 mul V
  hpt 2 mul 0 V
  hpt neg vpt 1.62 mul V Opaque stroke } def
/TriDW { stroke [] 0 setdash vpt 1.12 mul sub M
  hpt neg vpt 1.62 mul V
  hpt 2 mul 0 V
  hpt neg vpt -1.62 mul V Opaque stroke } def
/PentW { stroke [] 0 setdash gsave
  translate 0 hpt M 4 {72 rotate 0 hpt L} repeat
  Opaque stroke grestore } def
/CircW { stroke [] 0 setdash 
  hpt 0 360 arc Opaque stroke } def
/BoxFill { gsave Rec 1 setgray fill grestore } def
/BoxColFill {
  gsave Rec
  /Fillden exch def
  currentrgbcolor
  /ColB exch def /ColG exch def /ColR exch def
  /ColR ColR Fillden mul Fillden sub 1 add def
  /ColG ColG Fillden mul Fillden sub 1 add def
  /ColB ColB Fillden mul Fillden sub 1 add def
  ColR ColG ColB setrgbcolor
  fill grestore } def
%
% PostScript Level 1 Pattern Fill routine
% Usage: x y w h s a XX PatternFill
%	x,y = lower left corner of box to be filled
%	w,h = width and height of box
%	  a = angle in degrees between lines and x-axis
%	 XX = 0/1 for no/yes cross-hatch
%
/PatternFill { gsave /PFa [ 9 2 roll ] def
    PFa 0 get PFa 2 get 2 div add PFa 1 get PFa 3 get 2 div add translate
    PFa 2 get -2 div PFa 3 get -2 div PFa 2 get PFa 3 get Rec
    gsave 1 setgray fill grestore clip
    currentlinewidth 0.5 mul setlinewidth
    /PFs PFa 2 get dup mul PFa 3 get dup mul add sqrt def
    0 0 M PFa 5 get rotate PFs -2 div dup translate
	0 1 PFs PFa 4 get div 1 add floor cvi
	{ PFa 4 get mul 0 M 0 PFs V } for
    0 PFa 6 get ne {
	0 1 PFs PFa 4 get div 1 add floor cvi
	{ PFa 4 get mul 0 2 1 roll M PFs 0 V } for
    } if
    stroke grestore } def
%
/Symbol-Oblique /Symbol findfont [1 0 .167 1 0 0] makefont
dup length dict begin {1 index /FID eq {pop pop} {def} ifelse} forall
currentdict end definefont pop
/MFshow {
   { dup 5 get 3 ge
     { 5 get 3 eq {gsave} {grestore} ifelse }
     {dup dup 0 get findfont exch 1 get scalefont setfont
     [ currentpoint ] exch dup 2 get 0 exch R dup 5 get 2 ne {dup dup 6
     get exch 4 get {show} {stringwidth pop 0 R} ifelse }if dup 5 get 0 eq
     {dup 3 get {2 get neg 0 exch R pop} {pop aload pop M} ifelse} {dup 5
     get 1 eq {dup 2 get exch dup 3 get exch 6 get stringwidth pop -2 div
     dup 0 R} {dup 6 get stringwidth pop -2 div 0 R 6 get
     show 2 index {aload pop M neg 3 -1 roll neg R pop pop} {pop pop pop
     pop aload pop M} ifelse }ifelse }ifelse }
     ifelse }
   forall} bind def
/MFwidth {0 exch {dup 3 get{dup dup 0 get findfont exch 1 get scalefont
     setfont 6 get stringwidth pop add} {pop} ifelse} forall} bind def
/MLshow { currentpoint stroke M
  0 exch R MFshow } bind def
/MRshow { currentpoint stroke M
  exch dup MFwidth neg 3 -1 roll R MFshow } def
/MCshow { currentpoint stroke M
  exch dup MFwidth -2 div 3 -1 roll R MFshow } def
end
%%EndProlog
gnudict begin
gsave
50 50 translate
0.050 0.050 scale
0 setgray
newpath
(Times) findfont 220 scalefont setfont
1.000 UL
LTb
LTb
3600 4621 M
gsave 0 setgray
[ [(Times) 220.0 0.0 true true 0 (Re\(LT-BEM x-flux\))]
] -73.3 MCshow
grestore
3600 4401 M
gsave 0 setgray
[ [(Times) 220.0 0.0 true true 0 (cos 2t [p/\(p)]
[(Times) 176.0 110.0 true true 0 (2)]
[(Times) 220.0 0.0 true true 0 ( + 4\)] boundary condition)]
] -95.3 MCshow
grestore
1.000 UP
1.000 UL
LT0
2996 3559 M
83 42 V
1.000 UL
LT0
3223 3575 M
-144 26 V
1.000 UL
LT0
3140 3533 M
83 42 V
1.000 UL
LT0
3367 3548 M
-144 27 V
1.000 UL
LT0
2913 3517 M
83 42 V
1.000 UL
LT0
3140 3533 M
-144 26 V
1.000 UL
LT0
3284 3507 M
83 41 V
1.000 UL
LT0
3511 3521 M
-144 27 V
1.000 UL
LT0
3057 3492 M
83 41 V
1.000 UL
LT0
3284 3507 M
-144 26 V
1.000 UL
LT0
3428 3480 M
83 41 V
1.000 UL
LT0
3654 3494 M
-143 27 V
1.000 UL
LT0
2830 3475 M
83 42 V
1.000 UL
LT0
3057 3492 M
-144 25 V
1.000 UL
LT0
3201 3466 M
83 41 V
1.000 UL
LT0
3428 3480 M
-144 27 V
1.000 UL
LT0
3572 3453 M
82 41 V
1.000 UL
LT0
3798 3466 M
-27 5 V
1.000 UL
LT0
3768 3472 M
-114 22 V
1.000 UL
LT0
2974 3450 M
83 42 V
1.000 UL
LT0
3201 3466 M
-144 26 V
1.000 UL
LT0
3345 3440 M
83 40 V
1.000 UL
LT0
3572 3453 M
-144 27 V
1.000 UL
LT0
3776 3455 M
22 11 V
1.000 UL
LT0
3715 3425 M
37 18 V
1.000 UL
LT0
3942 3437 M
-144 29 V
1.000 UL
LT0
2747 3434 M
83 41 V
1.000 UL
LT0
2974 3450 M
-144 25 V
1.000 UL
LT0
3118 3425 M
83 41 V
1.000 UL
LT0
3345 3440 M
-144 26 V
1.000 UL
LT0
3489 3413 M
83 40 V
1.000 UL
LT0
3715 3425 M
-143 28 V
1.000 UL
LT0
3859 3396 M
83 41 V
1.000 UL
LT0
4086 3408 M
-144 29 V
1.000 UL
LT0
2891 3409 M
83 41 V
1.000 UL
LT0
3118 3425 M
-144 25 V
1.000 UL
LT0
3262 3400 M
83 40 V
1.000 UL
LT0
3489 3413 M
-144 27 V
1.000 UL
LT0
3632 3385 M
83 40 V
1.000 UL
LT0
3859 3396 M
-68 14 V
1.000 UL
LT0
3739 3420 M
-24 5 V
1.000 UL
LT0
4003 3366 M
83 42 V
1.000 UL
LT0
4230 3377 M
-144 31 V
1.000 UL
LT0
2664 3391 M
83 43 V
1.000 UL
LT0
2891 3409 M
-144 25 V
1.000 UL
LT0
3035 3385 M
83 40 V
1.000 UL
LT0
3262 3400 M
-144 25 V
1.000 UL
LT0
3406 3373 M
83 40 V
1.000 UL
LT0
3632 3385 M
-143 28 V
1.000 UL
LT0
3804 3369 M
55 27 V
1.000 UL
LT0
4003 3366 M
-144 30 V
1.000 UL
LT0
4147 3335 M
83 42 V
1.000 UL
LT0
4374 3346 M
-144 31 V
1.000 UL
LT0
2808 3368 M
83 41 V
1.000 UL
LT0
3035 3385 M
-144 24 V
1.000 UL
LT0
3179 3360 M
83 40 V
1.000 UL
LT0
3406 3373 M
-144 27 V
1.000 UL
LT0
3550 3346 M
82 39 V
1.000 UL
LT0
3709 3369 M
-77 16 V
1.000 UL
LT0
3920 3325 M
83 41 V
1.000 UL
LT0
4147 3335 M
-144 31 V
1.000 UL
LT0
4291 3302 M
83 44 V
1.000 UL
LT0
4518 3315 M
-144 31 V
1.000 UL
LT0
2581 3349 M
83 42 V
1.000 UL
LT0
2808 3368 M
-144 23 V
1.000 UL
LT0
2952 3344 M
83 41 V
1.000 UL
LT0
3179 3360 M
-144 25 V
1.000 UL
LT0
3323 3335 M
83 38 V
1.000 UL
LT0
3550 3346 M
-144 27 V
1.000 UL
LT0
3920 3325 M
-110 24 V
1.000 UL
LT0
4064 3293 M
83 42 V
1.000 UL
LT0
4291 3302 M
-144 33 V
1.000 UL
LT0
4435 3270 M
83 45 V
1.000 UL
LT0
4662 3285 M
-144 30 V
1.000 UL
LT0
2725 3326 M
83 42 V
1.000 UL
LT0
2952 3344 M
-144 24 V
1.000 UL
LT0
3096 3321 M
83 39 V
1.000 UL
LT0
3323 3335 M
-144 25 V
1.000 UL
LT0
3467 3309 M
83 37 V
1.000 UL
LT0
3681 3320 M
-131 26 V
1.000 UL
LT0
3837 3287 M
83 38 V
1.000 UL
LT0
4064 3293 M
-144 32 V
1.000 UL
LT0
4208 3259 M
83 43 V
1.000 UL
LT0
4435 3270 M
-144 32 V
1.000 UL
LT0
4579 3238 M
83 47 V
1.000 UL
LT0
4806 3255 M
-144 30 V
1.000 UL
LT0
2497 3306 M
84 43 V
1.000 UL
LT0
2725 3326 M
-144 23 V
1.000 UL
LT0
2869 3304 M
83 40 V
1.000 UL
LT0
3096 3321 M
-144 23 V
1.000 UL
LT0
3240 3298 M
83 37 V
1.000 UL
LT0
3467 3309 M
-144 26 V
1.000 UL
LT0
3610 3281 M
66 29 V
1.000 UL
LT0
3837 3287 M
-7 1 V
1.000 UL
LT0
3981 3253 M
83 40 V
1.000 UL
LT0
4208 3259 M
-144 34 V
1.000 UL
LT0
4352 3224 M
83 46 V
1.000 UL
LT0
4579 3238 M
-144 32 V
1.000 UL
LT0
4723 3206 M
83 49 V
1.000 UL
LT0
4950 3226 M
-144 29 V
1.000 UL
LT0
2641 3284 M
84 42 V
1.000 UL
LT0
2869 3304 M
-144 22 V
1.000 UL
LT0
3012 3282 M
84 39 V
1.000 UL
LT0
3240 3298 M
-144 23 V
1.000 UL
LT0
3383 3274 M
84 35 V
1.000 UL
LT0
3610 3281 M
-143 28 V
1.000 UL
LT0
4125 3216 M
83 43 V
1.000 UL
LT0
4352 3224 M
-144 35 V
1.000 UL
LT0
3831 3284 M
6 3 V
1.000 UL
LT0
3981 3253 M
-144 34 V
1.000 UL
LT0
4496 3189 M
83 49 V
1.000 UL
LT0
4723 3206 M
-144 32 V
1.000 UL
LT0
2414 3262 M
83 44 V
1.000 UL
LT0
2641 3284 M
-144 22 V
1.000 UL
LT0
4867 3177 M
83 49 V
1.000 UL
LT0
5094 3198 M
-144 28 V
1.000 UL
LT0
2785 3263 M
84 41 V
1.000 UL
LT0
3012 3282 M
-143 22 V
1.000 UL
LT0
3156 3261 M
84 37 V
1.000 UL
LT0
3383 3274 M
-143 24 V
1.000 UL
LT0
4268 3177 M
84 47 V
1.000 UL
LT0
4496 3189 M
-144 35 V
1.000 UL
LT0
3897 3216 M
84 37 V
1.000 UL
LT0
4125 3216 M
-144 37 V
1.000 UL
LT0
3527 3248 M
83 33 V
1.000 UL
LT0
3654 3272 M
-44 9 V
1.000 UL
LT0
4639 3157 M
84 49 V
1.000 UL
LT0
4867 3177 M
-144 29 V
1.000 UL
LT0
2558 3241 M
83 43 V
1.000 UL
LT0
2785 3263 M
-144 21 V
1.000 UL
LT0
5010 3149 M
84 49 V
1.000 UL
LT0
5238 3171 M
-144 27 V
1.000 UL
LT0
2929 3243 M
83 39 V
1.000 UL
LT0
3156 3261 M
-144 21 V
1.000 UL
LT0
4041 3175 M
84 41 V
1.000 UL
LT0
4268 3177 M
-143 39 V
1.000 UL
LT0
4412 3139 M
84 50 V
1.000 UL
LT0
4639 3157 M
-143 32 V
1.000 UL
LT0
3300 3240 M
83 34 V
1.000 UL
LT0
3527 3248 M
-144 26 V
1.000 UL
LT0
3897 3216 M
-48 11 V
1.000 UL
LT0
2331 3218 M
83 44 V
1.000 UL
LT0
2558 3241 M
-144 21 V
1.000 UL
LT0
4783 3126 M
84 51 V
1.000 UL
LT0
5010 3149 M
-143 28 V
1.000 UL
LT0
5154 3122 M
84 49 V
1.000 UL
LT0
5382 3145 M
-144 26 V
1.000 UL
LT0
2702 3221 M
83 42 V
1.000 UL
LT0
2929 3243 M
-144 20 V
1.000 UL
LT0
4185 3130 M
83 47 V
1.000 UL
LT0
4412 3139 M
-144 38 V
1.000 UL
LT0
3073 3224 M
83 37 V
1.000 UL
LT0
3300 3240 M
-144 21 V
1.000 UL
LT0
4556 3104 M
83 53 V
1.000 UL
LT0
4783 3126 M
-144 31 V
1.000 UL
LT0
3859 3201 M
38 15 V
1.000 UL
LT0
4041 3175 M
-144 41 V
1.000 UL
LT0
3444 3218 M
83 30 V
1.000 UL
LT0
3629 3228 M
-102 20 V
1.000 UL
LT0
4927 3098 M
83 51 V
1.000 UL
LT0
5154 3122 M
-144 27 V
1.000 UL
LT0
2475 3197 M
83 44 V
1.000 UL
LT0
2702 3221 M
-144 20 V
1.000 UL
LT0
5298 3097 M
84 48 V
1.000 UL
LT0
5525 3120 M
-143 25 V
1.000 UL
LT0
2846 3202 M
83 41 V
1.000 UL
LT0
3073 3224 M
-144 19 V
1.000 UL
LT0
4329 3086 M
83 53 V
1.000 UL
LT0
4556 3104 M
-144 35 V
1.000 UL
LT0
3958 3139 M
83 36 V
1.000 UL
LT0
4185 3130 M
-144 45 V
1.000 UL
LT0
4700 3073 M
83 53 V
1.000 UL
LT0
4927 3098 M
-144 28 V
1.000 UL
LT0
2248 3173 M
83 45 V
1.000 UL
LT0
2475 3197 M
-144 21 V
1.000 UL
LT0
3217 3206 M
83 34 V
1.000 UL
LT0
3444 3218 M
-144 22 V
1.000 UL
LT0
5071 3072 M
83 50 V
1.000 UL
LT0
5298 3097 M
-144 25 V
1.000 UL
LT0
2619 3178 M
83 43 V
1.000 UL
LT0
2846 3202 M
-144 19 V
1.000 UL
LT0
5442 3072 M
83 48 V
1.000 UL
LT0
5669 3096 M
-144 24 V
1.000 UL
LT0
4102 3083 M
83 47 V
1.000 UL
LT0
4329 3086 M
-144 44 V
1.000 UL
LT0
4473 3047 M
83 57 V
1.000 UL
LT0
4700 3073 M
-144 31 V
1.000 UL
LT0
2990 3185 M
83 39 V
1.000 UL
LT0
3217 3206 M
-144 18 V
1.000 UL
LT0
4844 3046 M
83 52 V
1.000 UL
LT0
5071 3072 M
-144 26 V
1.000 UL
LT0
3958 3139 M
-85 27 V
1.000 UL
LT0
2392 3153 M
83 44 V
1.000 UL
LT0
2619 3178 M
-144 19 V
1.000 UL
LT0
3361 3190 M
83 28 V
1.000 UL
LT0
3577 3196 M
-133 22 V
1.000 UL
LT0
5215 3048 M
83 49 V
1.000 UL
LT0
5442 3072 M
-144 25 V
1.000 UL
LT0
4246 3027 M
83 59 V
1.000 UL
LT0
4473 3047 M
-144 39 V
1.000 UL
LT0
2763 3160 M
83 42 V
1.000 UL
LT0
2990 3185 M
-144 17 V
1.000 UL
LT0
4617 3016 M
83 57 V
1.000 UL
LT0
4844 3046 M
-144 27 V
1.000 UL
LT0
5586 3048 M
83 48 V
1.000 UL
LT0
5813 3071 M
-144 25 V
1.000 UL
LT0
4080 2828 M
-18 -88 V
1.000 UL
LT0
3853 3217 M
75 -419 V
1.000 UL
LT0
2165 3127 M
83 46 V
1.000 UL
LT0
2392 3153 M
-144 20 V
1.000 UL
LT0
3892 3120 M
66 19 V
1.000 UL
LT0
4102 3083 M
-144 56 V
1.000 UL
LT0
3134 3170 M
83 36 V
1.000 UL
LT0
3361 3190 M
-144 16 V
1.000 UL
LT0
4988 3021 M
83 51 V
1.000 UL
LT0
5215 3048 M
-144 24 V
1.000 UL
LT0
3505 3175 M
58 14 V
1.000 UL
LT0
2536 3134 M
83 44 V
1.000 UL
LT0
2763 3160 M
-144 18 V
1.000 UL
LT0
4390 2983 M
83 64 V
1.000 UL
LT0
4617 3016 M
-144 31 V
1.000 UL
LT0
5359 3024 M
83 48 V
1.000 UL
LT0
5586 3048 M
-144 24 V
1.000 UL
LT0
4019 3038 M
83 45 V
1.000 UL
LT0
4246 3027 M
-144 56 V
1.000 UL
LT0
4761 2990 M
83 56 V
1.000 UL
LT0
4988 3021 M
-144 25 V
1.000 UL
LT0
2907 3144 M
83 41 V
1.000 UL
LT0
3134 3170 M
-144 15 V
1.000 UL
LT0
5730 3025 M
83 46 V
1.000 UL
LT0
2309 3107 M
83 46 V
1.000 UL
LT0
2536 3134 M
-144 19 V
1.000 UL
LT0
4163 2953 M
83 74 V
1.000 UL
LT0
4390 2983 M
-144 44 V
1.000 UL
LT0
5132 2998 M
83 50 V
1.000 UL
LT0
5359 3024 M
-144 24 V
1.000 UL
LT0
3278 3160 M
83 30 V
1.000 UL
LT0
3505 3175 M
-144 15 V
1.000 UL
LT0
4534 2953 M
83 63 V
1.000 UL
LT0
4761 2990 M
-144 26 V
1.000 UL
LT0
2680 3116 M
83 44 V
1.000 UL
LT0
2907 3144 M
-144 16 V
1.000 UL
LT0
5503 3001 M
83 47 V
1.000 UL
LT0
5730 3025 M
-144 23 V
1.000 UL
LT0
2082 3080 M
83 47 V
1.000 UL
LT0
2309 3107 M
-144 20 V
1.000 UL
LT0
4905 2968 M
83 53 V
1.000 UL
LT0
5132 2998 M
-144 23 V
1.000 UL
LT0
4307 2902 M
83 81 V
1.000 UL
LT0
4534 2953 M
-144 30 V
1.000 UL
LT0
4019 3038 M
-120 65 V
1.000 UL
LT0
3051 3131 M
83 39 V
1.000 UL
LT0
3278 3160 M
-144 10 V
1.000 UL
LT0
2453 3088 M
83 46 V
1.000 UL
LT0
2680 3116 M
-144 18 V
1.000 UL
LT0
5276 2975 M
83 49 V
1.000 UL
LT0
5503 3001 M
-144 23 V
1.000 UL
LT0
3936 3009 M
83 29 V
1.000 UL
LT0
4163 2953 M
-144 85 V
1.000 UL
LT0
4678 2932 M
83 58 V
1.000 UL
LT0
4905 2968 M
-144 22 V
1.000 UL
LT0
3422 3156 M
83 19 V
1.000 UL
LT0
3533 3172 M
-28 3 V
1.000 UL
LT0
4080 2828 M
83 125 V
1.000 UL
LT0
4307 2902 M
-144 51 V
1.000 UL
LT0
5647 2978 M
83 47 V
1.000 UL
LT0
2824 3100 M
83 44 V
1.000 UL
LT0
3051 3131 M
-144 13 V
1.000 UL
LT0
2226 3060 M
83 47 V
1.000 UL
LT0
2453 3088 M
-144 19 V
1.000 UL
LT0
5049 2947 M
83 51 V
1.000 UL
LT0
5276 2975 M
-144 23 V
1.000 UL
LT0
4451 2882 M
83 71 V
1.000 UL
LT0
4678 2932 M
-144 21 V
1.000 UL
LT0
4224 2791 M
-144 37 V
1.000 UL
LT0
3936 3009 M
144 -181 V
1.000 UL
LT0
4224 2791 M
83 111 V
1.000 UL
LT0
4451 2882 M
-144 20 V
1.000 UL
LT0
3195 3123 M
83 37 V
1.000 UL
LT0
3422 3156 M
-144 4 V
1.000 UL
LT0
5420 2953 M
83 48 V
1.000 UL
LT0
5647 2978 M
-144 23 V
1.000 UL
LT0
2597 3070 M
83 46 V
1.000 UL
LT0
2824 3100 M
-144 16 V
1.000 UL
LT0
1999 3033 M
83 47 V
1.000 UL
LT0
2226 3060 M
-144 20 V
1.000 UL
LT0
4822 2914 M
83 54 V
1.000 UL
LT0
5049 2947 M
-144 21 V
1.000 UL
LT0
2968 3087 M
83 44 V
1.000 UL
LT0
3195 3123 M
-144 8 V
1.000 UL
LT0
2370 3042 M
83 46 V
1.000 UL
LT0
2597 3070 M
-144 18 V
1.000 UL
LT0
5193 2926 M
83 49 V
1.000 UL
LT0
5420 2953 M
-144 22 V
1.000 UL
LT0
4595 2871 M
83 61 V
1.000 UL
LT0
4822 2914 M
-144 18 V
1.000 UL
LT0
4179 2722 M
45 69 V
1.000 UL
LT0
4368 2805 M
-144 -14 V
1.000 UL
LT0
4368 2805 M
83 77 V
1.000 UL
LT0
4595 2871 M
-144 11 V
1.000 UL
LT0
3853 3217 M
83 -208 V
1.000 UL
LT0
5564 2931 M
83 47 V
1.000 UL
LT0
2741 3054 M
83 46 V
1.000 UL
LT0
2968 3087 M
-144 13 V
1.000 UL
LT0
2143 3014 M
83 46 V
1.000 UL
LT0
2370 3042 M
-144 18 V
1.000 UL
LT0
4966 2896 M
83 51 V
1.000 UL
LT0
5193 2926 M
-144 21 V
1.000 UL
LT0
3339 3124 M
83 32 V
1.000 UL
LT0
3515 3163 M
-93 -7 V
1.000 UL
LT0
5337 2905 M
83 48 V
1.000 UL
LT0
5564 2931 M
-144 22 V
1.000 UL
LT0
2514 3023 M
83 47 V
1.000 UL
LT0
2741 3054 M
-144 16 V
1.000 UL
LT0
4739 2860 M
83 54 V
1.000 UL
LT0
4966 2896 M
-144 18 V
1.000 UL
LT0
3112 3077 M
83 46 V
1.000 UL
LT0
3339 3124 M
-144 -1 V
1.000 UL
LT0
1916 2985 M
83 48 V
1.000 UL
LT0
2143 3014 M
-144 19 V
1.000 UL
LT0
4512 2811 M
83 60 V
1.000 UL
LT0
4739 2860 M
-144 11 V
1.000 UL
LT0
4285 2741 M
83 64 V
1.000 UL
LT0
4512 2811 M
-144 -6 V
1.000 UL
LT0
2885 3039 M
83 48 V
1.000 UL
LT0
3112 3077 M
-144 10 V
1.000 UL
LT0
5110 2877 M
83 49 V
1.000 UL
LT0
5337 2905 M
-144 21 V
1.000 UL
LT0
2287 2995 M
83 47 V
1.000 UL
LT0
2514 3023 M
-144 19 V
1.000 UL
LT0
3770 3475 M
114 -641 V
1.000 UL
LT0
5481 2884 M
83 47 V
1.000 UL
LT0
2658 3006 M
83 48 V
1.000 UL
LT0
2885 3039 M
-144 15 V
1.000 UL
LT0
4883 2846 M
83 50 V
1.000 UL
LT0
5110 2877 M
-144 19 V
1.000 UL
LT0
2060 2967 M
83 47 V
1.000 UL
LT0
2287 2995 M
-144 19 V
1.000 UL
LT0
3256 3074 M
83 50 V
1.000 UL
LT0
3483 3145 M
-144 -21 V
1.000 UL
LT0
5254 2858 M
83 47 V
1.000 UL
LT0
5481 2884 M
-144 21 V
1.000 UL
LT0
4656 2808 M
83 52 V
1.000 UL
LT0
4883 2846 M
-144 14 V
1.000 UL
LT0
2431 2976 M
83 47 V
1.000 UL
LT0
2658 3006 M
-144 17 V
1.000 UL
LT0
3029 3026 M
83 51 V
1.000 UL
LT0
3256 3074 M
-144 3 V
1.000 UL
LT0
1833 2938 M
83 47 V
1.000 UL
LT0
2060 2967 M
-144 18 V
1.000 UL
LT0
4429 2762 M
83 49 V
1.000 UL
LT0
4656 2808 M
-144 3 V
1.000 UL
LT0
4202 2720 M
83 21 V
1.000 UL
LT0
4429 2762 M
-144 -21 V
1.000 UL
LT0
5027 2830 M
83 47 V
1.000 UL
LT0
5254 2858 M
-144 19 V
1.000 UL
LT0
2802 2988 M
83 51 V
1.000 UL
LT0
3029 3026 M
-144 13 V
1.000 UL
LT0
2204 2947 M
83 48 V
1.000 UL
LT0
2431 2976 M
-144 19 V
1.000 UL
LT0
5398 2838 M
83 46 V
1.000 UL
LT0
2575 2957 M
83 49 V
1.000 UL
LT0
2802 2988 M
-144 18 V
1.000 UL
LT0
4800 2798 M
83 48 V
1.000 UL
LT0
5027 2830 M
-144 16 V
1.000 UL
LT0
1977 2920 M
83 47 V
1.000 UL
LT0
2204 2947 M
-144 20 V
1.000 UL
LT0
3400 3081 M
83 64 V
1.000 UL
LT0
3626 3223 M
-143 -78 V
1.000 UL
LT0
3173 3015 M
83 59 V
1.000 UL
LT0
3400 3081 M
-144 -7 V
1.000 UL
LT0
4573 2763 M
83 45 V
1.000 UL
LT0
4800 2798 M
-144 10 V
1.000 UL
LT0
5171 2812 M
83 46 V
1.000 UL
LT0
5398 2838 M
-144 20 V
1.000 UL
LT0
2348 2928 M
83 48 V
1.000 UL
LT0
2575 2957 M
-144 19 V
1.000 UL
LT0
2946 2972 M
83 54 V
1.000 UL
LT0
3173 3015 M
-144 11 V
1.000 UL
LT0
1749 2892 M
84 46 V
1.000 UL
LT0
1977 2920 M
-144 18 V
1.000 UL
LT0
4346 2730 M
83 32 V
1.000 UL
LT0
4573 2763 M
-144 -1 V
1.000 UL
LT0
2719 2938 M
83 50 V
1.000 UL
LT0
2946 2972 M
-144 16 V
1.000 UL
LT0
4944 2783 M
83 47 V
1.000 UL
LT0
5171 2812 M
-144 18 V
1.000 UL
LT0
2121 2901 M
83 46 V
1.000 UL
LT0
2348 2928 M
-144 19 V
1.000 UL
LT0
4119 2727 M
83 -7 V
1.000 UL
LT0
4346 2730 M
-144 -10 V
1.000 UL
LT0
3770 3475 M
83 -258 V
1.000 UL
LT0
5315 2792 M
83 46 V
1.000 UL
LT0
2492 2908 M
83 49 V
1.000 UL
LT0
2719 2938 M
-144 19 V
1.000 UL
LT0
4717 2754 M
83 44 V
1.000 UL
LT0
4944 2783 M
-144 15 V
1.000 UL
LT0
3317 3004 M
83 77 V
1.000 UL
LT0
3544 3095 M
-144 -14 V
1.000 UL
LT0
1893 2874 M
84 46 V
1.000 UL
LT0
2121 2901 M
-144 19 V
1.000 UL
LT0
3090 2954 M
83 61 V
1.000 UL
LT0
3317 3004 M
-144 11 V
1.000 UL
LT0
4490 2726 M
83 37 V
1.000 UL
LT0
4717 2754 M
-144 9 V
1.000 UL
LT0
2863 2918 M
83 54 V
1.000 UL
LT0
3090 2954 M
-144 18 V
1.000 UL
LT0
5088 2766 M
83 46 V
1.000 UL
LT0
5315 2792 M
-144 20 V
1.000 UL
LT0
2264 2881 M
84 47 V
1.000 UL
LT0
2492 2908 M
-144 20 V
1.000 UL
LT0
1666 2846 M
83 46 V
1.000 UL
LT0
1893 2874 M
-144 18 V
1.000 UL
LT0
3544 3095 M
82 128 V
1.000 UL
LT0
3770 3475 M
3626 3223 L
1.000 UL
LT0
4262 2711 M
84 19 V
1.000 UL
LT0
4490 2726 M
-144 4 V
1.000 UL
LT0
2635 2888 M
84 50 V
1.000 UL
LT0
2863 2918 M
-144 20 V
1.000 UL
LT0
3891 2772 M
84 -12 V
1.000 UL
LT0
4119 2727 M
-144 33 V
1.000 UL
LT0
3831 2878 M
144 -118 V
1.000 UL
LT0
4861 2740 M
83 43 V
1.000 UL
LT0
5088 2766 M
-144 17 V
1.000 UL
LT0
2037 2854 M
84 47 V
1.000 UL
LT0
2264 2881 M
-143 20 V
1.000 UL
LT0
3234 2934 M
83 70 V
1.000 UL
LT0
3461 2985 M
-144 19 V
1.000 UL
LT0
3748 2849 M
83 29 V
1.000 UL
LT0
3687 3059 M
144 -181 V
1.000 UL
LT0
3461 2985 M
83 110 V
1.000 UL
LT0
3687 3059 M
-143 36 V
1.000 UL
LT0
5232 2748 M
83 44 V
1.000 UL
LT0
3006 2897 M
84 57 V
1.000 UL
LT0
3234 2934 M
-144 20 V
1.000 UL
LT0
2408 2860 M
84 48 V
1.000 UL
LT0
2635 2888 M
-143 20 V
1.000 UL
LT0
4634 2715 M
83 39 V
1.000 UL
LT0
4861 2740 M
-144 14 V
1.000 UL
LT0
1810 2828 M
83 46 V
1.000 UL
LT0
2037 2854 M
-144 20 V
1.000 UL
LT0
4035 2723 M
84 4 V
1.000 UL
LT0
4262 2711 M
-143 16 V
1.000 UL
LT0
2779 2866 M
84 52 V
1.000 UL
LT0
3006 2897 M
-143 21 V
1.000 UL
LT0
5005 2723 M
83 43 V
1.000 UL
LT0
5232 2748 M
-144 18 V
1.000 UL
LT0
2181 2834 M
83 47 V
1.000 UL
LT0
2408 2860 M
-144 21 V
1.000 UL
LT0
4406 2696 M
84 30 V
1.000 UL
LT0
4634 2715 M
-144 11 V
1.000 UL
LT0
3378 2905 M
83 80 V
1.000 UL
LT0
3604 2934 M
-143 51 V
1.000 UL
LT0
3604 2934 M
83 125 V
1.000 UL
LT0
3770 3475 M
-83 -416 V
1.000 UL
LT0
1583 2802 M
83 44 V
1.000 UL
LT0
1810 2828 M
-144 18 V
1.000 UL
LT0
3150 2872 M
84 62 V
1.000 UL
LT0
3378 2905 M
-144 29 V
1.000 UL
LT0
2552 2839 M
83 49 V
1.000 UL
LT0
2779 2866 M
-144 22 V
1.000 UL
LT0
4777 2700 M
84 40 V
1.000 UL
LT0
5005 2723 M
-144 17 V
1.000 UL
LT0
1954 2809 M
83 45 V
1.000 UL
LT0
2181 2834 M
-144 20 V
1.000 UL
LT0
3521 2861 M
83 73 V
1.000 UL
LT0
3748 2849 M
-144 85 V
1.000 UL
LT0
4179 2692 M
83 19 V
1.000 UL
LT0
4406 2696 M
-144 15 V
1.000 UL
LT0
2923 2842 M
83 55 V
1.000 UL
LT0
3150 2872 M
-144 25 V
1.000 UL
LT0
3664 2804 M
84 45 V
1.000 UL
LT0
3891 2772 M
-143 77 V
1.000 UL
LT0
2325 2813 M
83 47 V
1.000 UL
LT0
2552 2839 M
-144 21 V
1.000 UL
LT0
5148 2704 M
84 44 V
1.000 UL
LT0
1727 2784 M
83 44 V
1.000 UL
LT0
1954 2809 M
-144 19 V
1.000 UL
LT0
4550 2680 M
84 35 V
1.000 UL
LT0
4777 2700 M
-143 15 V
1.000 UL
LT0
3808 2748 M
83 24 V
1.000 UL
LT0
4035 2723 M
-144 49 V
1.000 UL
LT0
3294 2841 M
84 64 V
1.000 UL
LT0
3521 2861 M
-143 44 V
1.000 UL
LT0
2696 2816 M
83 50 V
1.000 UL
LT0
2923 2842 M
-144 24 V
1.000 UL
LT0
2098 2789 M
83 45 V
1.000 UL
LT0
2325 2813 M
-144 21 V
1.000 UL
LT0
4921 2682 M
84 41 V
1.000 UL
LT0
5148 2704 M
-143 19 V
1.000 UL
LT0
1500 2759 M
83 43 V
1.000 UL
LT0
1727 2784 M
-144 18 V
1.000 UL
LT0
3067 2816 M
83 56 V
1.000 UL
LT0
3294 2841 M
-144 31 V
1.000 UL
LT0
4323 2668 M
83 28 V
1.000 UL
LT0
4550 2680 M
-144 16 V
1.000 UL
LT0
3952 2703 M
83 20 V
1.000 UL
LT0
4179 2692 M
-144 31 V
1.000 UL
LT0
2469 2791 M
83 48 V
1.000 UL
LT0
2696 2816 M
-144 23 V
1.000 UL
LT0
3438 2802 M
83 59 V
1.000 UL
LT0
3664 2804 M
-143 57 V
1.000 UL
LT0
1871 2765 M
83 44 V
1.000 UL
LT0
2098 2789 M
-144 20 V
1.000 UL
LT0
4694 2661 M
83 39 V
1.000 UL
LT0
4921 2682 M
-144 18 V
1.000 UL
LT0
2840 2791 M
83 51 V
1.000 UL
LT0
3067 2816 M
-144 26 V
1.000 UL
LT0
3582 2758 M
82 46 V
1.000 UL
LT0
3808 2748 M
-144 56 V
1.000 UL
LT0
2242 2768 M
83 45 V
1.000 UL
LT0
2469 2791 M
-144 22 V
1.000 UL
LT0
5065 2662 M
83 42 V
1.000 UL
LT0
3211 2785 M
83 56 V
1.000 UL
LT0
3438 2802 M
-144 39 V
1.000 UL
LT0
4096 2667 M
83 25 V
1.000 UL
LT0
4323 2668 M
-144 24 V
1.000 UL
LT0
1644 2740 M
83 44 V
1.000 UL
LT0
1871 2765 M
-144 19 V
1.000 UL
LT0
4467 2646 M
83 34 V
1.000 UL
LT0
4694 2661 M
-144 19 V
1.000 UL
LT0
2613 2768 M
83 48 V
1.000 UL
LT0
2840 2791 M
-144 25 V
1.000 UL
LT0
3725 2713 M
83 35 V
1.000 UL
LT0
3952 2703 M
-144 45 V
1.000 UL
LT0
2015 2744 M
83 45 V
1.000 UL
LT0
2242 2768 M
-144 21 V
1.000 UL
LT0
4838 2642 M
83 40 V
1.000 UL
LT0
5065 2662 M
-144 20 V
1.000 UL
LT0
2984 2764 M
83 52 V
1.000 UL
LT0
3211 2785 M
-144 31 V
1.000 UL
LT0
1644 2740 M
-144 19 V
1.000 UL
LT0
3355 2750 M
83 52 V
1.000 UL
LT0
3582 2758 M
-144 44 V
1.000 UL
LT0
2386 2745 M
83 46 V
1.000 UL
LT0
2613 2768 M
-144 23 V
1.000 UL
LT0
4240 2638 M
83 30 V
1.000 UL
LT0
4467 2646 M
-144 22 V
1.000 UL
LT0
3869 2672 M
83 31 V
1.000 UL
LT0
4096 2667 M
-144 36 V
1.000 UL
LT0
1788 2721 M
83 44 V
1.000 UL
LT0
2015 2744 M
-144 21 V
1.000 UL
LT0
2757 2742 M
83 49 V
1.000 UL
LT0
2984 2764 M
-144 27 V
1.000 UL
LT0
4611 2625 M
83 36 V
1.000 UL
LT0
4838 2642 M
-144 19 V
1.000 UL
LT0
3499 2712 M
83 46 V
1.000 UL
LT0
3725 2713 M
-143 45 V
1.000 UL
LT0
3128 2734 M
83 51 V
1.000 UL
LT0
3355 2750 M
-144 35 V
1.000 UL
LT0
2159 2723 M
83 45 V
1.000 UL
LT0
2386 2745 M
-144 23 V
1.000 UL
LT0
4982 2621 M
83 41 V
1.000 UL
LT0
1788 2721 M
-144 19 V
1.000 UL
LT0
2530 2721 M
83 47 V
1.000 UL
LT0
2757 2742 M
-144 26 V
1.000 UL
LT0
4013 2636 M
83 31 V
1.000 UL
LT0
4240 2638 M
-144 29 V
1.000 UL
LT0
4384 2612 M
83 34 V
1.000 UL
LT0
4611 2625 M
-144 21 V
1.000 UL
LT0
2901 2715 M
83 49 V
1.000 UL
LT0
3128 2734 M
-144 30 V
1.000 UL
LT0
1932 2701 M
83 43 V
1.000 UL
LT0
2159 2723 M
-144 21 V
1.000 UL
LT0
3642 2673 M
83 40 V
1.000 UL
LT0
3869 2672 M
-144 41 V
1.000 UL
LT0
4755 2603 M
83 39 V
1.000 UL
LT0
4982 2621 M
-144 21 V
1.000 UL
LT0
3272 2701 M
83 49 V
1.000 UL
LT0
3499 2712 M
-144 38 V
1.000 UL
LT0
2303 2700 M
83 45 V
1.000 UL
LT0
2530 2721 M
-144 24 V
1.000 UL
LT0
1932 2701 M
-144 20 V
1.000 UL
LT0
2674 2696 M
83 46 V
1.000 UL
LT0
2901 2715 M
-144 27 V
1.000 UL
LT0
4157 2605 M
83 33 V
1.000 UL
LT0
4384 2612 M
-144 26 V
1.000 UL
LT0
3786 2635 M
83 37 V
1.000 UL
LT0
4013 2636 M
-144 36 V
1.000 UL
LT0
4528 2588 M
83 37 V
1.000 UL
LT0
4755 2603 M
-144 22 V
1.000 UL
LT0
3045 2685 M
83 49 V
1.000 UL
LT0
3272 2701 M
-144 33 V
1.000 UL
LT0
3416 2666 M
83 46 V
1.000 UL
LT0
3642 2673 M
-143 39 V
1.000 UL
LT0
2076 2680 M
83 43 V
1.000 UL
LT0
2303 2700 M
-144 23 V
1.000 UL
LT0
4899 2581 M
83 40 V
1.000 UL
LT0
2447 2676 M
83 45 V
1.000 UL
LT0
2674 2696 M
-144 25 V
1.000 UL
LT0
2818 2668 M
83 47 V
1.000 UL
LT0
3045 2685 M
-144 30 V
1.000 UL
LT0
3930 2601 M
83 35 V
1.000 UL
LT0
4157 2605 M
-144 31 V
1.000 UL
LT0
4301 2577 M
83 35 V
1.000 UL
LT0
4528 2588 M
-144 24 V
1.000 UL
LT0
2076 2680 M
-144 21 V
1.000 UL
LT0
3560 2631 M
82 42 V
1.000 UL
LT0
3786 2635 M
-144 38 V
1.000 UL
LT0
3189 2654 M
83 47 V
1.000 UL
LT0
3416 2666 M
-144 35 V
1.000 UL
LT0
4672 2565 M
83 38 V
1.000 UL
LT0
4899 2581 M
-144 22 V
1.000 UL
LT0
2220 2657 M
83 43 V
1.000 UL
LT0
2447 2676 M
-144 24 V
1.000 UL
LT0
2591 2651 M
83 45 V
1.000 UL
LT0
2818 2668 M
-144 28 V
1.000 UL
LT0
2962 2639 M
83 46 V
1.000 UL
LT0
3189 2654 M
-144 31 V
1.000 UL
LT0
4074 2569 M
83 36 V
1.000 UL
LT0
4301 2577 M
-144 28 V
1.000 UL
LT0
3703 2596 M
83 39 V
1.000 UL
LT0
3930 2601 M
-144 34 V
1.000 UL
LT0
3333 2621 M
83 45 V
1.000 UL
LT0
3560 2631 M
-144 35 V
1.000 UL
LT0
4445 2551 M
83 37 V
1.000 UL
LT0
4672 2565 M
-144 23 V
1.000 UL
LT0
2220 2657 M
-144 23 V
1.000 UL
LT0
4816 2541 M
83 40 V
1.000 UL
LT0
2364 2633 M
83 43 V
1.000 UL
LT0
2591 2651 M
-144 25 V
1.000 UL
LT0
2735 2623 M
83 45 V
1.000 UL
LT0
2962 2639 M
-144 29 V
1.000 UL
LT0
3106 2608 M
83 46 V
1.000 UL
LT0
3333 2621 M
-144 33 V
1.000 UL
LT0
3847 2563 M
83 38 V
1.000 UL
LT0
4074 2569 M
-144 32 V
1.000 UL
LT0
3477 2588 M
83 43 V
1.000 UL
LT0
3703 2596 M
-143 35 V
1.000 UL
LT0
4218 2540 M
83 37 V
1.000 UL
LT0
4445 2551 M
-144 26 V
1.000 UL
LT0
4589 2526 M
83 39 V
1.000 UL
LT0
4816 2541 M
-144 24 V
1.000 UL
LT0
2364 2633 M
-144 24 V
1.000 UL
LT0
2508 2607 M
83 44 V
1.000 UL
LT0
2735 2623 M
-144 28 V
1.000 UL
LT0
2879 2594 M
83 45 V
1.000 UL
LT0
3106 2608 M
-144 31 V
1.000 UL
LT0
3250 2577 M
83 44 V
1.000 UL
LT0
3477 2588 M
-144 33 V
1.000 UL
LT0
3620 2555 M
83 41 V
1.000 UL
LT0
3847 2563 M
-144 33 V
1.000 UL
LT0
3991 2531 M
83 38 V
1.000 UL
LT0
4218 2540 M
-144 29 V
1.000 UL
LT0
4362 2514 M
83 37 V
1.000 UL
LT0
4589 2526 M
-144 25 V
1.000 UL
LT0
4733 2502 M
83 39 V
1.000 UL
LT0
2508 2607 M
-144 26 V
1.000 UL
LT0
2652 2580 M
83 43 V
1.000 UL
LT0
2879 2594 M
-144 29 V
1.000 UL
LT0
3023 2564 M
83 44 V
1.000 UL
LT0
3250 2577 M
-144 31 V
1.000 UL
LT0
3394 2545 M
83 43 V
1.000 UL
LT0
3620 2555 M
-143 33 V
1.000 UL
LT0
3764 2522 M
83 41 V
1.000 UL
LT0
3991 2531 M
-144 32 V
1.000 UL
LT0
4135 2503 M
83 37 V
1.000 UL
LT0
4362 2514 M
-144 26 V
1.000 UL
LT0
4506 2488 M
83 38 V
1.000 UL
LT0
4733 2502 M
-144 24 V
1.000 UL
LT0
2652 2580 M
-144 27 V
1.000 UL
LT0
2796 2551 M
83 43 V
1.000 UL
LT0
3023 2564 M
-144 30 V
1.000 UL
LT0
3167 2533 M
83 44 V
1.000 UL
LT0
3394 2545 M
-144 32 V
1.000 UL
LT0
3538 2513 M
82 42 V
1.000 UL
LT0
3764 2522 M
-144 33 V
1.000 UL
LT0
3908 2492 M
83 39 V
1.000 UL
LT0
4135 2503 M
-144 28 V
1.000 UL
LT0
4279 2475 M
83 39 V
1.000 UL
LT0
4506 2488 M
-144 26 V
1.000 UL
LT0
4650 2462 M
83 40 V
1.000 UL
LT0
2796 2551 M
-144 29 V
1.000 UL
LT0
2940 2521 M
83 43 V
1.000 UL
LT0
3167 2533 M
-144 31 V
1.000 UL
LT0
3311 2502 M
83 43 V
1.000 UL
LT0
3538 2513 M
-144 32 V
1.000 UL
LT0
3681 2482 M
83 40 V
1.000 UL
LT0
3908 2492 M
-144 30 V
1.000 UL
LT0
4052 2463 M
83 40 V
1.000 UL
LT0
4279 2475 M
-144 28 V
1.000 UL
LT0
4423 2448 M
83 40 V
1.000 UL
LT0
4650 2462 M
-144 26 V
1.000 UL
LT0
2940 2521 M
-144 30 V
1.000 UL
LT0
3084 2491 M
83 42 V
1.000 UL
LT0
3311 2502 M
-144 31 V
1.000 UL
LT0
3455 2470 M
83 43 V
1.000 UL
LT0
3681 2482 M
-143 31 V
1.000 UL
LT0
3825 2451 M
83 41 V
1.000 UL
LT0
4052 2463 M
-144 29 V
1.000 UL
LT0
4196 2434 M
83 41 V
1.000 UL
LT0
4423 2448 M
-144 27 V
1.000 UL
LT0
4567 2422 M
83 40 V
1.000 UL
LT0
3084 2491 M
-144 30 V
1.000 UL
LT0
3228 2459 M
83 43 V
1.000 UL
LT0
3455 2470 M
-144 32 V
1.000 UL
LT0
3599 2439 M
82 43 V
1.000 UL
LT0
3825 2451 M
-144 31 V
1.000 UL
LT0
3969 2421 M
83 42 V
1.000 UL
LT0
4196 2434 M
-144 29 V
1.000 UL
LT0
4340 2407 M
83 41 V
1.000 UL
LT0
4567 2422 M
-144 26 V
1.000 UL
LT0
3228 2459 M
-144 32 V
1.000 UL
LT0
3372 2427 M
83 43 V
1.000 UL
LT0
3599 2439 M
-144 31 V
1.000 UL
LT0
3742 2409 M
83 42 V
1.000 UL
LT0
3969 2421 M
-144 30 V
1.000 UL
LT0
4113 2393 M
83 41 V
1.000 UL
LT0
4340 2407 M
-144 27 V
1.000 UL
LT0
4484 2380 M
83 42 V
1.000 UL
LT0
3372 2427 M
-144 32 V
1.000 UL
LT0
3515 2396 M
84 43 V
1.000 UL
LT0
3742 2409 M
-143 30 V
1.000 UL
LT0
3886 2379 M
83 42 V
1.000 UL
LT0
4113 2393 M
-144 28 V
1.000 UL
LT0
4257 2365 M
83 42 V
1.000 UL
LT0
4484 2380 M
-144 27 V
1.000 UL
LT0
3515 2396 M
-143 31 V
1.000 UL
LT0
3658 2365 M
84 44 V
1.000 UL
LT0
3886 2379 M
-144 30 V
1.000 UL
LT0
4029 2350 M
84 43 V
1.000 UL
LT0
4257 2365 M
-144 28 V
1.000 UL
LT0
4400 2338 M
84 42 V
1.000 UL
LT0
3658 2365 M
-143 31 V
1.000 UL
LT0
3802 2336 M
84 43 V
1.000 UL
LT0
4029 2350 M
-143 29 V
1.000 UL
LT0
4173 2323 M
84 42 V
1.000 UL
LT0
4400 2338 M
-143 27 V
1.000 UL
LT0
3802 2336 M
-144 29 V
1.000 UL
LT0
3946 2307 M
83 43 V
1.000 UL
LT0
4173 2323 M
-144 27 V
1.000 UL
LT0
4317 2296 M
83 42 V
1.000 UL
LT0
3946 2307 M
-144 29 V
1.000 UL
LT0
4090 2279 M
83 44 V
1.000 UL
LT0
4317 2296 M
-144 27 V
1.000 UL
LT0
4090 2279 M
-144 28 V
1.000 UL
LT0
4234 2252 M
83 44 V
1.000 UL
LT0
4234 2252 M
-144 27 V
1.000 UL
LT0
1.000 UL
LT1
LT2
1.000 UL
LT2
3756 1553 M
25 5 V
1.000 UL
LT2
3756 1553 M
-18 12 V
1.000 UL
LT2
3738 1565 M
48 4 V
1.000 UL
LT2
3781 1558 M
5 11 V
LT3
1.000 UL
LT3
3736 1542 M
62 13 V
1.000 UL
LT3
3736 1542 M
-46 32 V
1.000 UL
LT3
3690 1574 M
122 8 V
1.000 UL
LT3
3798 1555 M
14 27 V
LT4
1.000 UL
LT4
3715 1531 M
100 21 V
1.000 UL
LT4
3715 1531 M
-73 51 V
1.000 UL
LT4
3642 1582 M
196 13 V
1.000 UL
LT4
3815 1552 M
23 43 V
LT5
1.000 UL
LT5
3694 1521 M
138 28 V
1.000 UL
LT5
3694 1521 M
-128 32 V
1.000 UL
LT5
3566 1553 M
-26 47 V
1.000 UL
LT5
3540 1600 M
165 29 V
1.000 UL
LT5
3710 1629 M
-5 0 V
1.000 UL
LT5
3865 1610 M
-155 19 V
1.000 UL
LT5
3860 1602 M
5 8 V
1.000 UL
LT5
3832 1549 M
28 53 V
LT6
1.000 UL
LT6
3627 1485 M
114 22 V
1.000 UL
LT6
3627 1485 M
-151 11 V
1.000 UL
LT6
3455 1495 M
21 1 V
1.000 UL
LT6
3455 1495 M
-67 16 V
1.000 UL
LT6
3388 1511 M
-65 16 V
1.000 UL
LT6
3323 1527 M
-63 64 V
1.000 UL
LT6
3260 1591 M
7 7 V
1.000 UL
LT6
3267 1598 M
43 42 V
1.000 UL
LT6
3310 1640 M
68 15 V
1.000 UL
LT6
3378 1655 M
68 19 V
1.000 UL
LT6
3446 1674 M
168 5 V
1.000 UL
LT6
3773 1662 M
-159 17 V
1.000 UL
LT6
3896 1626 M
-123 36 V
1.000 UL
LT6
3877 1599 M
19 27 V
1.000 UL
LT6
3849 1546 M
28 53 V
1.000 UL
LT6
3741 1507 M
108 39 V
LT7
1.000 UL
LT7
1701 1342 M
83 43 V
1.000 UL
LT7
1784 1385 M
55 49 V
1.000 UL
LT7
1839 1434 M
17 29 V
1.000 UL
LT7
1856 1463 M
17 22 V
1.000 UL
LT7
1873 1485 M
17 55 V
1.000 UL
LT7
1890 1540 M
-1 40 V
1.000 UL
LT7
3012 1114 M
83 44 V
1.000 UL
LT7
3095 1158 M
99 40 V
1.000 UL
LT7
3194 1198 M
110 39 V
1.000 UL
LT7
3304 1237 M
111 38 V
1.000 UL
LT7
3415 1275 M
1 0 V
1.000 UL
LT7
3416 1275 M
106 39 V
1.000 UL
LT7
3522 1314 M
96 41 V
1.000 UL
LT7
3618 1355 M
86 43 V
1.000 UL
LT7
3704 1398 M
71 46 V
1.000 UL
LT7
3775 1444 M
29 34 V
1.000 UL
LT7
3804 1478 M
22 14 V
1.000 UL
LT7
3826 1492 M
41 51 V
1.000 UL
LT7
3867 1543 M
27 53 V
1.000 UL
LT7
3894 1596 M
33 46 V
1.000 UL
LT7
3927 1642 M
-35 12 V
1.000 UL
LT7
3892 1654 M
10 56 V
1.000 UL
LT7
3902 1710 M
14 26 V
1.000 UL
LT7
3916 1736 M
-28 34 V
1.000 UL
LT7
3888 1770 M
-2 51 V
1.000 UL
LT7
3886 1821 M
-12 9 V
1.000 UL
LT7
3874 1830 M
-22 62 V
1.000 UL
LT7
3852 1892 M
2 12 V
1.000 UL
LT7
3854 1904 M
-26 50 V
1.000 UL
LT7
3828 1954 M
-1 36 V
1.000 UL
LT7
3827 1990 M
-13 24 V
1.000 UL
LT7
3814 2014 M
0 58 V
LT8
1.000 UL
LT8
4446 1412 M
116 10 V
1.000 UL
LT8
4318 1407 M
128 5 V
1.000 UL
LT8
4318 1407 M
-69 3 V
1.000 UL
LT8
4249 1410 M
-158 17 V
1.000 UL
LT8
4091 1427 M
-123 36 V
1.000 UL
LT8
3968 1463 M
0 5 V
1.000 UL
LT8
3968 1468 M
-108 39 V
1.000 UL
LT8
3860 1507 M
24 33 V
1.000 UL
LT8
3884 1540 M
27 53 V
1.000 UL
LT8
3911 1593 M
85 43 V
1.000 UL
LT8
3996 1636 M
143 33 V
1.000 UL
LT8
4139 1669 M
51 10 V
1.000 UL
LT8
4190 1679 M
196 2 V
1.000 UL
LT8
4441 1674 M
-55 7 V
1.000 UL
LT8
4547 1665 M
-106 9 V
1.000 UL
LT8
4649 1638 M
-102 27 V
1.000 UL
LT8
4675 1631 M
-26 7 V
1.000 UL
LT8
4765 1578 M
-90 53 V
1.000 UL
LT8
4782 1557 M
-17 21 V
1.000 UL
LT8
4769 1502 M
13 55 V
1.000 UL
LT8
4693 1457 M
76 45 V
1.000 UL
LT8
4562 1422 M
131 35 V
LT0
1.000 UL
LT0
4136 1496 M
-102 2 V
1.000 UL
LT0
4034 1498 M
-143 25 V
1.000 UL
LT0
3891 1523 M
10 14 V
1.000 UL
LT0
3901 1537 M
27 53 V
1.000 UL
LT0
3928 1590 M
152 31 V
1.000 UL
LT0
4096 1619 M
-16 2 V
1.000 UL
LT0
4237 1603 M
-141 16 V
1.000 UL
LT0
4263 1590 M
-26 13 V
1.000 UL
LT0
4274 1530 M
-11 60 V
1.000 UL
LT0
4136 1496 M
138 34 V
LT1
1.000 UL
LT1
4138 1552 M
6 1 V
1.000 UL
LT1
3920 1538 M
218 14 V
1.000 UL
LT1
3920 1538 M
25 49 V
1.000 UL
LT1
3945 1587 M
114 24 V
1.000 UL
LT1
4143 1554 M
-84 57 V
1.000 UL
LT1
4144 1553 M
-1 1 V
LT2
1.000 UL
LT2
3946 1552 M
148 9 V
1.000 UL
LT2
3946 1552 M
17 32 V
1.000 UL
LT2
3963 1584 M
75 16 V
1.000 UL
LT2
4094 1561 M
-56 39 V
LT3
1.000 UL
LT3
3971 1565 M
74 5 V
1.000 UL
LT3
3971 1565 M
9 16 V
1.000 UL
LT3
3980 1581 M
38 8 V
1.000 UL
LT3
4045 1570 M
-27 19 V
LT4
1.000 UL
LT4
3997 1578 M
1.000 UL
LT4
3997 1578 M
1.000 UL
LT4
3997 1578 M
1.000 UL
LT4
3997 1578 M
1.000 UL
LTb
4284 778 M
1870 974 V
1.000 UL
LTb
4284 778 M
1046 1340 L
1.000 UL
LTb
1046 1340 M
1870 975 V
1.000 UL
LTb
6154 1752 M
2916 2315 L
1.000 UL
LTb
1046 3288 M
0 -1948 V
1.000 UL
LTb
1046 1340 M
52 28 V
1.000 UL
LTb
936 1245 M
gsave 0 setgray
[ [(Times) 220.0 0.0 true true 0 (-2.5)]
] -73.3 MCshow
grestore
1.000 UL
LTb
1.000 UL
LTb
2864 2287 M
52 28 V
1.000 UL
LTb
1406 1278 M
52 27 V
1.000 UL
LTb
1296 1183 M
gsave 0 setgray
[ [(Times) 220.0 0.0 true true 0 (-2)]
] -73.3 MCshow
grestore
1.000 UL
LTb
1.000 UL
LTb
3224 2225 M
52 27 V
1.000 UL
LTb
1766 1215 M
52 28 V
1.000 UL
LTb
1656 1120 M
gsave 0 setgray
[ [(Times) 220.0 0.0 true true 0 (-1.5)]
] -73.3 MCshow
grestore
1.000 UL
LTb
1.000 UL
LTb
3583 2162 M
52 28 V
1.000 UL
LTb
2126 1153 M
52 27 V
1.000 UL
LTb
2016 1058 M
gsave 0 setgray
[ [(Times) 220.0 0.0 true true 0 (-1)]
] -73.3 MCshow
grestore
1.000 UL
LTb
1.000 UL
LTb
3942 2100 M
53 27 V
1.000 UL
LTb
2486 1090 M
52 28 V
1.000 UL
LTb
2376 995 M
gsave 0 setgray
[ [(Times) 220.0 0.0 true true 0 (-0.5)]
] -73.3 MCshow
grestore
1.000 UL
LTb
1.000 UL
LTb
4302 2037 M
53 28 V
1.000 UL
LTb
2845 1028 M
53 27 V
1.000 UL
LTb
2736 933 M
gsave 0 setgray
[ [(Times) 220.0 0.0 true true 0 ( 0)]
] -73.3 MCshow
grestore
1.000 UL
LTb
1.000 UL
LTb
4662 1975 M
52 27 V
1.000 UL
LTb
3205 965 M
53 28 V
1.000 UL
LTb
3096 870 M
gsave 0 setgray
[ [(Times) 220.0 0.0 true true 0 ( 0.5)]
] -73.3 MCshow
grestore
1.000 UL
LTb
1.000 UL
LTb
5022 1912 M
52 28 V
1.000 UL
LTb
3565 903 M
52 27 V
1.000 UL
LTb
3455 808 M
gsave 0 setgray
[ [(Times) 220.0 0.0 true true 0 ( 1)]
] -73.3 MCshow
grestore
1.000 UL
LTb
1.000 UL
LTb
5382 1850 M
52 27 V
1.000 UL
LTb
3924 840 M
52 28 V
1.000 UL
LTb
3814 745 M
gsave 0 setgray
[ [(Times) 220.0 0.0 true true 0 ( 1.5)]
] -73.3 MCshow
grestore
1.000 UL
LTb
1.000 UL
LTb
5742 1787 M
52 28 V
1.000 UL
LTb
4284 778 M
52 27 V
1.000 UL
LTb
4174 683 M
gsave 0 setgray
[ [(Times) 220.0 0.0 true true 0 ( 2)]
] -73.3 MCshow
grestore
1.000 UL
LTb
1.000 UL
LTb
6102 1725 M
52 27 V
LTb
2198 816 M
gsave 0 setgray
[ [(Times) 220.0 0.0 true true 0 (Re\(p\))]
] -73.3 MCshow
grestore
1.000 UL
LTb
4284 778 M
-55 9 V
stroke
4398 745 M
gsave 0 setgray
[ [(Times) 220.0 0.0 true true 0 (-0.5)]
] -73.3 MCshow
grestore
1.000 UL
LTb
1.000 UL
LTb
1101 1331 M
-55 9 V
1.000 UL
LTb
4492 886 M
-55 10 V
stroke
4606 853 M
gsave 0 setgray
[ [(Times) 220.0 0.0 true true 0 ( 0)]
] -73.3 MCshow
grestore
1.000 UL
LTb
1.000 UL
LTb
1308 1439 M
-54 10 V
1.000 UL
LTb
4700 994 M
-55 10 V
stroke
4814 961 M
gsave 0 setgray
[ [(Times) 220.0 0.0 true true 0 ( 0.5)]
] -73.3 MCshow
grestore
1.000 UL
LTb
1.000 UL
LTb
1516 1547 M
-54 10 V
1.000 UL
LTb
4907 1103 M
-54 9 V
stroke
5022 1070 M
gsave 0 setgray
[ [(Times) 220.0 0.0 true true 0 ( 1)]
] -73.3 MCshow
grestore
1.000 UL
LTb
1.000 UL
LTb
1724 1656 M
-55 9 V
1.000 UL
LTb
5115 1211 M
-54 9 V
stroke
5229 1178 M
gsave 0 setgray
[ [(Times) 220.0 0.0 true true 0 ( 1.5)]
] -73.3 MCshow
grestore
1.000 UL
LTb
1.000 UL
LTb
1932 1764 M
-55 9 V
1.000 UL
LTb
5323 1319 M
-55 10 V
stroke
5437 1286 M
gsave 0 setgray
[ [(Times) 220.0 0.0 true true 0 ( 2)]
] -73.3 MCshow
grestore
1.000 UL
LTb
1.000 UL
LTb
2139 1872 M
-54 10 V
1.000 UL
LTb
5531 1427 M
-55 10 V
stroke
5645 1394 M
gsave 0 setgray
[ [(Times) 220.0 0.0 true true 0 ( 2.5)]
] -73.3 MCshow
grestore
1.000 UL
LTb
1.000 UL
LTb
2347 1980 M
-54 10 V
1.000 UL
LTb
5738 1536 M
-54 9 V
stroke
5853 1503 M
gsave 0 setgray
[ [(Times) 220.0 0.0 true true 0 ( 3)]
] -73.3 MCshow
grestore
1.000 UL
LTb
1.000 UL
LTb
2555 2089 M
-55 9 V
1.000 UL
LTb
5946 1644 M
-54 9 V
stroke
6061 1611 M
gsave 0 setgray
[ [(Times) 220.0 0.0 true true 0 ( 3.5)]
] -73.3 MCshow
grestore
1.000 UL
LTb
1.000 UL
LTb
2763 2197 M
-55 9 V
1.000 UL
LTb
6154 1752 M
-55 10 V
stroke
6268 1719 M
gsave 0 setgray
[ [(Times) 220.0 0.0 true true 0 ( 4)]
] -73.3 MCshow
grestore
1.000 UL
LTb
1.000 UL
LTb
2971 2305 M
-55 10 V
LTb
6029 1124 M
gsave 0 setgray
[ [(Times) 220.0 0.0 true true 0 (Im\(p\))]
] -73.3 MCshow
grestore
1.000 UL
LTb
1109 1990 M
-63 0 V
stroke
920 1990 M
gsave 0 setgray
[ [(Times) 220.0 0.0 true true 0 (-8)]
] -73.3 MRshow
grestore
1.000 UL
LTb
1.000 UL
LTb
1109 2175 M
-63 0 V
stroke
920 2175 M
gsave 0 setgray
[ [(Times) 220.0 0.0 true true 0 (-6)]
] -73.3 MRshow
grestore
1.000 UL
LTb
1.000 UL
LTb
1109 2361 M
-63 0 V
stroke
920 2361 M
gsave 0 setgray
[ [(Times) 220.0 0.0 true true 0 (-4)]
] -73.3 MRshow
grestore
1.000 UL
LTb
1.000 UL
LTb
1109 2546 M
-63 0 V
stroke
920 2546 M
gsave 0 setgray
[ [(Times) 220.0 0.0 true true 0 (-2)]
] -73.3 MRshow
grestore
1.000 UL
LTb
1.000 UL
LTb
1109 2731 M
-63 0 V
stroke
920 2731 M
gsave 0 setgray
[ [(Times) 220.0 0.0 true true 0 ( 0)]
] -73.3 MRshow
grestore
1.000 UL
LTb
1.000 UL
LTb
1109 2917 M
-63 0 V
stroke
920 2917 M
gsave 0 setgray
[ [(Times) 220.0 0.0 true true 0 ( 2)]
] -73.3 MRshow
grestore
1.000 UL
LTb
1.000 UL
LTb
1109 3102 M
-63 0 V
stroke
920 3102 M
gsave 0 setgray
[ [(Times) 220.0 0.0 true true 0 ( 4)]
] -73.3 MRshow
grestore
1.000 UL
LTb
1.000 UL
LTb
1109 3288 M
-63 0 V
stroke
920 3288 M
gsave 0 setgray
[ [(Times) 220.0 0.0 true true 0 ( 6)]
] -73.3 MRshow
grestore
1.000 UL
LTb
1.000 UP
stroke
grestore
end
showpage
%%Trailer
%%DocumentFonts: Times
