%!PS-Adobe-2.0 EPSF-2.0
%%Title: flux_imag_cosbc.eps
%%Creator: gnuplot 4.0 patchlevel 0
%%CreationDate: Fri Nov 17 17:00:22 2006
%%DocumentFonts: (atend)
%%BoundingBox: 50 50 410 302
%%Orientation: Portrait
%%EndComments
/gnudict 256 dict def
gnudict begin
/Color false def
/Solid false def
/gnulinewidth 5.000 def
/userlinewidth gnulinewidth def
/vshift -73 def
/dl {10.0 mul} def
/hpt_ 31.5 def
/vpt_ 31.5 def
/hpt hpt_ def
/vpt vpt_ def
/Rounded false def
/M {moveto} bind def
/L {lineto} bind def
/R {rmoveto} bind def
/V {rlineto} bind def
/N {newpath moveto} bind def
/C {setrgbcolor} bind def
/f {rlineto fill} bind def
/vpt2 vpt 2 mul def
/hpt2 hpt 2 mul def
/Lshow { currentpoint stroke M
  0 vshift R show } def
/Rshow { currentpoint stroke M
  dup stringwidth pop neg vshift R show } def
/Cshow { currentpoint stroke M
  dup stringwidth pop -2 div vshift R show } def
/UP { dup vpt_ mul /vpt exch def hpt_ mul /hpt exch def
  /hpt2 hpt 2 mul def /vpt2 vpt 2 mul def } def
/DL { Color {setrgbcolor Solid {pop []} if 0 setdash }
 {pop pop pop 0 setgray Solid {pop []} if 0 setdash} ifelse } def
/BL { stroke userlinewidth 2 mul setlinewidth
      Rounded { 1 setlinejoin 1 setlinecap } if } def
/AL { stroke userlinewidth 2 div setlinewidth
      Rounded { 1 setlinejoin 1 setlinecap } if } def
/UL { dup gnulinewidth mul /userlinewidth exch def
      dup 1 lt {pop 1} if 10 mul /udl exch def } def
/PL { stroke userlinewidth setlinewidth
      Rounded { 1 setlinejoin 1 setlinecap } if } def
/LTw { PL [] 1 setgray } def
/LTb { BL [] 0 0 0 DL } def
/LTa { AL [1 udl mul 2 udl mul] 0 setdash 0 0 0 setrgbcolor } def
/LT0 { PL [] 1 0 0 DL } def
/LT1 { PL [4 dl 2 dl] 0 1 0 DL } def
/LT2 { PL [2 dl 3 dl] 0 0 1 DL } def
/LT3 { PL [1 dl 1.5 dl] 1 0 1 DL } def
/LT4 { PL [5 dl 2 dl 1 dl 2 dl] 0 1 1 DL } def
/LT5 { PL [4 dl 3 dl 1 dl 3 dl] 1 1 0 DL } def
/LT6 { PL [2 dl 2 dl 2 dl 4 dl] 0 0 0 DL } def
/LT7 { PL [2 dl 2 dl 2 dl 2 dl 2 dl 4 dl] 1 0.3 0 DL } def
/LT8 { PL [2 dl 2 dl 2 dl 2 dl 2 dl 2 dl 2 dl 4 dl] 0.5 0.5 0.5 DL } def
/Pnt { stroke [] 0 setdash
   gsave 1 setlinecap M 0 0 V stroke grestore } def
/Dia { stroke [] 0 setdash 2 copy vpt add M
  hpt neg vpt neg V hpt vpt neg V
  hpt vpt V hpt neg vpt V closepath stroke
  Pnt } def
/Pls { stroke [] 0 setdash vpt sub M 0 vpt2 V
  currentpoint stroke M
  hpt neg vpt neg R hpt2 0 V stroke
  } def
/Box { stroke [] 0 setdash 2 copy exch hpt sub exch vpt add M
  0 vpt2 neg V hpt2 0 V 0 vpt2 V
  hpt2 neg 0 V closepath stroke
  Pnt } def
/Crs { stroke [] 0 setdash exch hpt sub exch vpt add M
  hpt2 vpt2 neg V currentpoint stroke M
  hpt2 neg 0 R hpt2 vpt2 V stroke } def
/TriU { stroke [] 0 setdash 2 copy vpt 1.12 mul add M
  hpt neg vpt -1.62 mul V
  hpt 2 mul 0 V
  hpt neg vpt 1.62 mul V closepath stroke
  Pnt  } def
/Star { 2 copy Pls Crs } def
/BoxF { stroke [] 0 setdash exch hpt sub exch vpt add M
  0 vpt2 neg V  hpt2 0 V  0 vpt2 V
  hpt2 neg 0 V  closepath fill } def
/TriUF { stroke [] 0 setdash vpt 1.12 mul add M
  hpt neg vpt -1.62 mul V
  hpt 2 mul 0 V
  hpt neg vpt 1.62 mul V closepath fill } def
/TriD { stroke [] 0 setdash 2 copy vpt 1.12 mul sub M
  hpt neg vpt 1.62 mul V
  hpt 2 mul 0 V
  hpt neg vpt -1.62 mul V closepath stroke
  Pnt  } def
/TriDF { stroke [] 0 setdash vpt 1.12 mul sub M
  hpt neg vpt 1.62 mul V
  hpt 2 mul 0 V
  hpt neg vpt -1.62 mul V closepath fill} def
/DiaF { stroke [] 0 setdash vpt add M
  hpt neg vpt neg V hpt vpt neg V
  hpt vpt V hpt neg vpt V closepath fill } def
/Pent { stroke [] 0 setdash 2 copy gsave
  translate 0 hpt M 4 {72 rotate 0 hpt L} repeat
  closepath stroke grestore Pnt } def
/PentF { stroke [] 0 setdash gsave
  translate 0 hpt M 4 {72 rotate 0 hpt L} repeat
  closepath fill grestore } def
/Circle { stroke [] 0 setdash 2 copy
  hpt 0 360 arc stroke Pnt } def
/CircleF { stroke [] 0 setdash hpt 0 360 arc fill } def
/C0 { BL [] 0 setdash 2 copy moveto vpt 90 450  arc } bind def
/C1 { BL [] 0 setdash 2 copy        moveto
       2 copy  vpt 0 90 arc closepath fill
               vpt 0 360 arc closepath } bind def
/C2 { BL [] 0 setdash 2 copy moveto
       2 copy  vpt 90 180 arc closepath fill
               vpt 0 360 arc closepath } bind def
/C3 { BL [] 0 setdash 2 copy moveto
       2 copy  vpt 0 180 arc closepath fill
               vpt 0 360 arc closepath } bind def
/C4 { BL [] 0 setdash 2 copy moveto
       2 copy  vpt 180 270 arc closepath fill
               vpt 0 360 arc closepath } bind def
/C5 { BL [] 0 setdash 2 copy moveto
       2 copy  vpt 0 90 arc
       2 copy moveto
       2 copy  vpt 180 270 arc closepath fill
               vpt 0 360 arc } bind def
/C6 { BL [] 0 setdash 2 copy moveto
      2 copy  vpt 90 270 arc closepath fill
              vpt 0 360 arc closepath } bind def
/C7 { BL [] 0 setdash 2 copy moveto
      2 copy  vpt 0 270 arc closepath fill
              vpt 0 360 arc closepath } bind def
/C8 { BL [] 0 setdash 2 copy moveto
      2 copy vpt 270 360 arc closepath fill
              vpt 0 360 arc closepath } bind def
/C9 { BL [] 0 setdash 2 copy moveto
      2 copy  vpt 270 450 arc closepath fill
              vpt 0 360 arc closepath } bind def
/C10 { BL [] 0 setdash 2 copy 2 copy moveto vpt 270 360 arc closepath fill
       2 copy moveto
       2 copy vpt 90 180 arc closepath fill
               vpt 0 360 arc closepath } bind def
/C11 { BL [] 0 setdash 2 copy moveto
       2 copy  vpt 0 180 arc closepath fill
       2 copy moveto
       2 copy  vpt 270 360 arc closepath fill
               vpt 0 360 arc closepath } bind def
/C12 { BL [] 0 setdash 2 copy moveto
       2 copy  vpt 180 360 arc closepath fill
               vpt 0 360 arc closepath } bind def
/C13 { BL [] 0 setdash  2 copy moveto
       2 copy  vpt 0 90 arc closepath fill
       2 copy moveto
       2 copy  vpt 180 360 arc closepath fill
               vpt 0 360 arc closepath } bind def
/C14 { BL [] 0 setdash 2 copy moveto
       2 copy  vpt 90 360 arc closepath fill
               vpt 0 360 arc } bind def
/C15 { BL [] 0 setdash 2 copy vpt 0 360 arc closepath fill
               vpt 0 360 arc closepath } bind def
/Rec   { newpath 4 2 roll moveto 1 index 0 rlineto 0 exch rlineto
       neg 0 rlineto closepath } bind def
/Square { dup Rec } bind def
/Bsquare { vpt sub exch vpt sub exch vpt2 Square } bind def
/S0 { BL [] 0 setdash 2 copy moveto 0 vpt rlineto BL Bsquare } bind def
/S1 { BL [] 0 setdash 2 copy vpt Square fill Bsquare } bind def
/S2 { BL [] 0 setdash 2 copy exch vpt sub exch vpt Square fill Bsquare } bind def
/S3 { BL [] 0 setdash 2 copy exch vpt sub exch vpt2 vpt Rec fill Bsquare } bind def
/S4 { BL [] 0 setdash 2 copy exch vpt sub exch vpt sub vpt Square fill Bsquare } bind def
/S5 { BL [] 0 setdash 2 copy 2 copy vpt Square fill
       exch vpt sub exch vpt sub vpt Square fill Bsquare } bind def
/S6 { BL [] 0 setdash 2 copy exch vpt sub exch vpt sub vpt vpt2 Rec fill Bsquare } bind def
/S7 { BL [] 0 setdash 2 copy exch vpt sub exch vpt sub vpt vpt2 Rec fill
       2 copy vpt Square fill
       Bsquare } bind def
/S8 { BL [] 0 setdash 2 copy vpt sub vpt Square fill Bsquare } bind def
/S9 { BL [] 0 setdash 2 copy vpt sub vpt vpt2 Rec fill Bsquare } bind def
/S10 { BL [] 0 setdash 2 copy vpt sub vpt Square fill 2 copy exch vpt sub exch vpt Square fill
       Bsquare } bind def
/S11 { BL [] 0 setdash 2 copy vpt sub vpt Square fill 2 copy exch vpt sub exch vpt2 vpt Rec fill
       Bsquare } bind def
/S12 { BL [] 0 setdash 2 copy exch vpt sub exch vpt sub vpt2 vpt Rec fill Bsquare } bind def
/S13 { BL [] 0 setdash 2 copy exch vpt sub exch vpt sub vpt2 vpt Rec fill
       2 copy vpt Square fill Bsquare } bind def
/S14 { BL [] 0 setdash 2 copy exch vpt sub exch vpt sub vpt2 vpt Rec fill
       2 copy exch vpt sub exch vpt Square fill Bsquare } bind def
/S15 { BL [] 0 setdash 2 copy Bsquare fill Bsquare } bind def
/D0 { gsave translate 45 rotate 0 0 S0 stroke grestore } bind def
/D1 { gsave translate 45 rotate 0 0 S1 stroke grestore } bind def
/D2 { gsave translate 45 rotate 0 0 S2 stroke grestore } bind def
/D3 { gsave translate 45 rotate 0 0 S3 stroke grestore } bind def
/D4 { gsave translate 45 rotate 0 0 S4 stroke grestore } bind def
/D5 { gsave translate 45 rotate 0 0 S5 stroke grestore } bind def
/D6 { gsave translate 45 rotate 0 0 S6 stroke grestore } bind def
/D7 { gsave translate 45 rotate 0 0 S7 stroke grestore } bind def
/D8 { gsave translate 45 rotate 0 0 S8 stroke grestore } bind def
/D9 { gsave translate 45 rotate 0 0 S9 stroke grestore } bind def
/D10 { gsave translate 45 rotate 0 0 S10 stroke grestore } bind def
/D11 { gsave translate 45 rotate 0 0 S11 stroke grestore } bind def
/D12 { gsave translate 45 rotate 0 0 S12 stroke grestore } bind def
/D13 { gsave translate 45 rotate 0 0 S13 stroke grestore } bind def
/D14 { gsave translate 45 rotate 0 0 S14 stroke grestore } bind def
/D15 { gsave translate 45 rotate 0 0 S15 stroke grestore } bind def
/DiaE { stroke [] 0 setdash vpt add M
  hpt neg vpt neg V hpt vpt neg V
  hpt vpt V hpt neg vpt V closepath stroke } def
/BoxE { stroke [] 0 setdash exch hpt sub exch vpt add M
  0 vpt2 neg V hpt2 0 V 0 vpt2 V
  hpt2 neg 0 V closepath stroke } def
/TriUE { stroke [] 0 setdash vpt 1.12 mul add M
  hpt neg vpt -1.62 mul V
  hpt 2 mul 0 V
  hpt neg vpt 1.62 mul V closepath stroke } def
/TriDE { stroke [] 0 setdash vpt 1.12 mul sub M
  hpt neg vpt 1.62 mul V
  hpt 2 mul 0 V
  hpt neg vpt -1.62 mul V closepath stroke } def
/PentE { stroke [] 0 setdash gsave
  translate 0 hpt M 4 {72 rotate 0 hpt L} repeat
  closepath stroke grestore } def
/CircE { stroke [] 0 setdash 
  hpt 0 360 arc stroke } def
/Opaque { gsave closepath 1 setgray fill grestore 0 setgray closepath } def
/DiaW { stroke [] 0 setdash vpt add M
  hpt neg vpt neg V hpt vpt neg V
  hpt vpt V hpt neg vpt V Opaque stroke } def
/BoxW { stroke [] 0 setdash exch hpt sub exch vpt add M
  0 vpt2 neg V hpt2 0 V 0 vpt2 V
  hpt2 neg 0 V Opaque stroke } def
/TriUW { stroke [] 0 setdash vpt 1.12 mul add M
  hpt neg vpt -1.62 mul V
  hpt 2 mul 0 V
  hpt neg vpt 1.62 mul V Opaque stroke } def
/TriDW { stroke [] 0 setdash vpt 1.12 mul sub M
  hpt neg vpt 1.62 mul V
  hpt 2 mul 0 V
  hpt neg vpt -1.62 mul V Opaque stroke } def
/PentW { stroke [] 0 setdash gsave
  translate 0 hpt M 4 {72 rotate 0 hpt L} repeat
  Opaque stroke grestore } def
/CircW { stroke [] 0 setdash 
  hpt 0 360 arc Opaque stroke } def
/BoxFill { gsave Rec 1 setgray fill grestore } def
/BoxColFill {
  gsave Rec
  /Fillden exch def
  currentrgbcolor
  /ColB exch def /ColG exch def /ColR exch def
  /ColR ColR Fillden mul Fillden sub 1 add def
  /ColG ColG Fillden mul Fillden sub 1 add def
  /ColB ColB Fillden mul Fillden sub 1 add def
  ColR ColG ColB setrgbcolor
  fill grestore } def
%
% PostScript Level 1 Pattern Fill routine
% Usage: x y w h s a XX PatternFill
%	x,y = lower left corner of box to be filled
%	w,h = width and height of box
%	  a = angle in degrees between lines and x-axis
%	 XX = 0/1 for no/yes cross-hatch
%
/PatternFill { gsave /PFa [ 9 2 roll ] def
    PFa 0 get PFa 2 get 2 div add PFa 1 get PFa 3 get 2 div add translate
    PFa 2 get -2 div PFa 3 get -2 div PFa 2 get PFa 3 get Rec
    gsave 1 setgray fill grestore clip
    currentlinewidth 0.5 mul setlinewidth
    /PFs PFa 2 get dup mul PFa 3 get dup mul add sqrt def
    0 0 M PFa 5 get rotate PFs -2 div dup translate
	0 1 PFs PFa 4 get div 1 add floor cvi
	{ PFa 4 get mul 0 M 0 PFs V } for
    0 PFa 6 get ne {
	0 1 PFs PFa 4 get div 1 add floor cvi
	{ PFa 4 get mul 0 2 1 roll M PFs 0 V } for
    } if
    stroke grestore } def
%
/Symbol-Oblique /Symbol findfont [1 0 .167 1 0 0] makefont
dup length dict begin {1 index /FID eq {pop pop} {def} ifelse} forall
currentdict end definefont pop
/MFshow {
   { dup 5 get 3 ge
     { 5 get 3 eq {gsave} {grestore} ifelse }
     {dup dup 0 get findfont exch 1 get scalefont setfont
     [ currentpoint ] exch dup 2 get 0 exch R dup 5 get 2 ne {dup dup 6
     get exch 4 get {show} {stringwidth pop 0 R} ifelse }if dup 5 get 0 eq
     {dup 3 get {2 get neg 0 exch R pop} {pop aload pop M} ifelse} {dup 5
     get 1 eq {dup 2 get exch dup 3 get exch 6 get stringwidth pop -2 div
     dup 0 R} {dup 6 get stringwidth pop -2 div 0 R 6 get
     show 2 index {aload pop M neg 3 -1 roll neg R pop pop} {pop pop pop
     pop aload pop M} ifelse }ifelse }ifelse }
     ifelse }
   forall} bind def
/MFwidth {0 exch {dup 3 get{dup dup 0 get findfont exch 1 get scalefont
     setfont 6 get stringwidth pop add} {pop} ifelse} forall} bind def
/MLshow { currentpoint stroke M
  0 exch R MFshow } bind def
/MRshow { currentpoint stroke M
  exch dup MFwidth neg 3 -1 roll R MFshow } def
/MCshow { currentpoint stroke M
  exch dup MFwidth -2 div 3 -1 roll R MFshow } def
end
%%EndProlog
gnudict begin
gsave
50 50 translate
0.050 0.050 scale
0 setgray
newpath
(Times) findfont 220 scalefont setfont
1.000 UL
LTb
LTb
3600 4621 M
gsave 0 setgray
[ [(Times) 220.0 0.0 true true 0 (Im\(LT-BEM x-flux\))]
] -73.3 MCshow
grestore
3600 4401 M
gsave 0 setgray
[ [(Times) 220.0 0.0 true true 0 (cos 2t [p/\(p)]
[(Times) 176.0 110.0 true true 0 (2)]
[(Times) 220.0 0.0 true true 0 ( + 4\)] boundary condition)]
] -95.3 MCshow
grestore
1.000 UP
1.000 UL
LT0
2996 3430 M
83 42 V
1.000 UL
LT0
3223 3449 M
-144 23 V
1.000 UL
LT0
3140 3407 M
83 42 V
1.000 UL
LT0
3367 3425 M
-144 24 V
1.000 UL
LT0
2913 3388 M
83 42 V
1.000 UL
LT0
3140 3407 M
-144 23 V
1.000 UL
LT0
3284 3384 M
83 41 V
1.000 UL
LT0
3511 3402 M
-144 23 V
1.000 UL
LT0
3057 3364 M
83 43 V
1.000 UL
LT0
3284 3384 M
-144 23 V
1.000 UL
LT0
3428 3361 M
83 41 V
1.000 UL
LT0
3654 3379 M
-143 23 V
1.000 UL
LT0
2830 3345 M
83 43 V
1.000 UL
LT0
3057 3364 M
-144 24 V
1.000 UL
LT0
3201 3342 M
83 42 V
1.000 UL
LT0
3428 3361 M
-144 23 V
1.000 UL
LT0
3572 3338 M
82 41 V
1.000 UL
LT0
3798 3356 M
-144 23 V
1.000 UL
LT0
2974 3322 M
83 42 V
1.000 UL
LT0
3201 3342 M
-144 22 V
1.000 UL
LT0
3345 3319 M
83 42 V
1.000 UL
LT0
3572 3338 M
-144 23 V
1.000 UL
LT0
3715 3316 M
83 40 V
1.000 UL
LT0
3942 3333 M
-72 11 V
1.000 UL
LT0
3839 3349 M
-41 7 V
1.000 UL
LT0
2747 3302 M
83 43 V
1.000 UL
LT0
2974 3322 M
-144 23 V
1.000 UL
LT0
3118 3299 M
83 43 V
1.000 UL
LT0
3345 3319 M
-144 23 V
1.000 UL
LT0
3489 3298 M
83 40 V
1.000 UL
LT0
3715 3316 M
-143 22 V
1.000 UL
LT0
3886 3307 M
56 26 V
1.000 UL
LT0
4086 3309 M
-144 24 V
1.000 UL
LT0
2891 3278 M
83 44 V
1.000 UL
LT0
3118 3299 M
-144 23 V
1.000 UL
LT0
3262 3277 M
83 42 V
1.000 UL
LT0
3489 3298 M
-144 21 V
1.000 UL
LT0
3632 3276 M
83 40 V
1.000 UL
LT0
3819 3300 M
-104 16 V
1.000 UL
LT0
2664 3257 M
83 45 V
1.000 UL
LT0
2891 3278 M
-144 24 V
1.000 UL
LT0
4003 3271 M
83 38 V
1.000 UL
LT0
4230 3285 M
-144 24 V
1.000 UL
LT0
3035 3256 M
83 43 V
1.000 UL
LT0
3262 3277 M
-144 22 V
1.000 UL
LT0
3406 3256 M
83 42 V
1.000 UL
LT0
3632 3276 M
-143 22 V
1.000 UL
LT0
3776 3255 M
30 14 V
1.000 UL
LT0
4003 3271 M
-109 17 V
1.000 UL
LT0
2808 3234 M
83 44 V
1.000 UL
LT0
3035 3256 M
-144 22 V
1.000 UL
LT0
4147 3248 M
83 37 V
1.000 UL
LT0
4374 3260 M
-144 25 V
1.000 UL
LT0
3179 3234 M
83 43 V
1.000 UL
LT0
3406 3256 M
-144 21 V
1.000 UL
LT0
3550 3236 M
82 40 V
1.000 UL
LT0
3776 3255 M
-144 21 V
1.000 UL
LT0
2581 3213 M
83 44 V
1.000 UL
LT0
2808 3234 M
-144 23 V
1.000 UL
LT0
3920 3234 M
83 37 V
1.000 UL
LT0
4147 3248 M
-144 23 V
1.000 UL
LT0
2952 3211 M
83 45 V
1.000 UL
LT0
3179 3234 M
-144 22 V
1.000 UL
LT0
4291 3223 M
83 37 V
1.000 UL
LT0
4518 3233 M
-144 27 V
1.000 UL
LT0
3323 3214 M
83 42 V
1.000 UL
LT0
3550 3236 M
-144 20 V
1.000 UL
LT0
2725 3189 M
83 45 V
1.000 UL
LT0
2952 3211 M
-144 23 V
1.000 UL
LT0
3693 3217 M
83 38 V
1.000 UL
LT0
3920 3234 M
-2 0 V
1.000 UL
LT0
3799 3252 M
-23 3 V
1.000 UL
LT0
4064 3212 M
83 36 V
1.000 UL
LT0
4291 3223 M
-144 25 V
1.000 UL
LT0
3096 3190 M
83 44 V
1.000 UL
LT0
3323 3214 M
-144 20 V
1.000 UL
LT0
4435 3196 M
83 37 V
1.000 UL
LT0
4662 3205 M
-144 28 V
1.000 UL
LT0
2497 3167 M
84 46 V
1.000 UL
LT0
2725 3189 M
-144 24 V
1.000 UL
LT0
3467 3195 M
83 41 V
1.000 UL
LT0
3693 3217 M
-143 19 V
1.000 UL
LT0
2869 3166 M
83 45 V
1.000 UL
LT0
3096 3190 M
-144 21 V
1.000 UL
LT0
3918 3234 M
2 0 V
1.000 UL
LT0
4064 3212 M
-144 22 V
1.000 UL
LT0
4208 3188 M
83 35 V
1.000 UL
LT0
4435 3196 M
-144 27 V
1.000 UL
LT0
4579 3168 M
83 37 V
1.000 UL
LT0
4806 3176 M
-144 29 V
1.000 UL
LT0
3240 3170 M
83 44 V
1.000 UL
LT0
3467 3195 M
-144 19 V
1.000 UL
LT0
2641 3142 M
84 47 V
1.000 UL
LT0
2869 3166 M
-144 23 V
1.000 UL
LT0
3610 3178 M
83 39 V
1.000 UL
LT0
3779 3205 M
-86 12 V
1.000 UL
LT0
3012 3144 M
84 46 V
1.000 UL
LT0
3240 3170 M
-144 20 V
1.000 UL
LT0
3981 3178 M
83 34 V
1.000 UL
LT0
4208 3188 M
-144 24 V
1.000 UL
LT0
4352 3162 M
83 34 V
1.000 UL
LT0
4579 3168 M
-144 28 V
1.000 UL
LT0
4723 3138 M
83 38 V
1.000 UL
LT0
4950 3147 M
-144 29 V
1.000 UL
LT0
2414 3120 M
83 47 V
1.000 UL
LT0
2641 3142 M
-144 25 V
1.000 UL
LT0
3383 3153 M
84 42 V
1.000 UL
LT0
3610 3178 M
-143 17 V
1.000 UL
LT0
2785 3119 M
84 47 V
1.000 UL
LT0
3012 3144 M
-143 22 V
1.000 UL
LT0
3753 3162 M
10 4 V
1.000 UL
LT0
3981 3178 M
-41 6 V
1.000 UL
LT0
4125 3156 M
83 32 V
1.000 UL
LT0
4352 3162 M
-144 26 V
1.000 UL
LT0
3156 3124 M
84 46 V
1.000 UL
LT0
3383 3153 M
-143 17 V
1.000 UL
LT0
4496 3132 M
83 36 V
1.000 UL
LT0
4723 3138 M
-144 30 V
1.000 UL
LT0
4867 3107 M
83 40 V
1.000 UL
LT0
5094 3116 M
-144 31 V
1.000 UL
LT0
2558 3095 M
83 47 V
1.000 UL
LT0
2785 3119 M
-144 23 V
1.000 UL
LT0
3527 3138 M
83 40 V
1.000 UL
LT0
3753 3162 M
-143 16 V
1.000 UL
LT0
2929 3096 M
83 48 V
1.000 UL
LT0
3156 3124 M
-144 20 V
1.000 UL
LT0
3948 3166 M
33 12 V
1.000 UL
LT0
4125 3156 M
-144 22 V
1.000 UL
LT0
2331 3073 M
83 47 V
1.000 UL
LT0
2558 3095 M
-144 25 V
1.000 UL
LT0
4268 3130 M
84 32 V
1.000 UL
LT0
4496 3132 M
-144 30 V
1.000 UL
LT0
4639 3101 M
84 37 V
1.000 UL
LT0
4867 3107 M
-144 31 V
1.000 UL
LT0
5010 3075 M
84 41 V
1.000 UL
LT0
5238 3086 M
-144 30 V
1.000 UL
LT0
3300 3107 M
83 46 V
1.000 UL
LT0
3527 3138 M
-144 15 V
1.000 UL
LT0
2702 3071 M
83 48 V
1.000 UL
LT0
2929 3096 M
-144 23 V
1.000 UL
LT0
3670 3126 M
83 36 V
1.000 UL
LT0
3761 3161 M
-8 1 V
1.000 UL
LT0
3073 3076 M
83 48 V
1.000 UL
LT0
3300 3107 M
-144 17 V
1.000 UL
LT0
4041 3128 M
84 28 V
1.000 UL
LT0
4268 3130 M
-143 26 V
1.000 UL
LT0
4412 3099 M
84 33 V
1.000 UL
LT0
4639 3101 M
-143 31 V
1.000 UL
LT0
4783 3068 M
84 39 V
1.000 UL
LT0
5010 3075 M
-143 32 V
1.000 UL
LT0
2475 3047 M
83 48 V
1.000 UL
LT0
2702 3071 M
-144 24 V
1.000 UL
LT0
5154 3044 M
84 42 V
1.000 UL
LT0
5382 3056 M
-144 30 V
1.000 UL
LT0
3444 3094 M
83 44 V
1.000 UL
LT0
3670 3126 M
-143 12 V
1.000 UL
LT0
2846 3047 M
83 49 V
1.000 UL
LT0
3073 3076 M
-144 20 V
1.000 UL
LT0
2248 3026 M
83 47 V
1.000 UL
LT0
2475 3047 M
-144 26 V
1.000 UL
LT0
4041 3128 M
-81 10 V
1.000 UL
LT0
3217 3058 M
83 49 V
1.000 UL
LT0
3444 3094 M
-144 13 V
1.000 UL
LT0
4556 3065 M
83 36 V
1.000 UL
LT0
4783 3068 M
-144 33 V
1.000 UL
LT0
4927 3034 M
83 41 V
1.000 UL
LT0
5154 3044 M
-144 31 V
1.000 UL
LT0
4185 3104 M
83 26 V
1.000 UL
LT0
4412 3099 M
-144 31 V
1.000 UL
LT0
2619 3021 M
83 50 V
1.000 UL
LT0
2846 3047 M
-144 24 V
1.000 UL
LT0
5298 3013 M
84 43 V
1.000 UL
LT0
5525 3027 M
-143 29 V
1.000 UL
LT0
2990 3025 M
83 51 V
1.000 UL
LT0
3217 3058 M
-144 18 V
1.000 UL
LT0
3588 3087 M
82 39 V
1.000 UL
LT0
3744 3121 M
-74 5 V
1.000 UL
LT0
2392 2998 M
83 49 V
1.000 UL
LT0
2619 3021 M
-144 26 V
1.000 UL
LT0
4700 3028 M
83 40 V
1.000 UL
LT0
4927 3034 M
-144 34 V
1.000 UL
LT0
5071 3001 M
83 43 V
1.000 UL
LT0
5298 3013 M
-144 31 V
1.000 UL
LT0
4329 3070 M
83 29 V
1.000 UL
LT0
4556 3065 M
-144 34 V
1.000 UL
LT0
3992 3115 M
49 13 V
1.000 UL
LT0
4185 3104 M
-144 24 V
1.000 UL
LT0
5442 2983 M
83 44 V
1.000 UL
LT0
5669 2998 M
-144 29 V
1.000 UL
LT0
2763 2996 M
83 51 V
1.000 UL
LT0
2990 3025 M
-144 22 V
1.000 UL
LT0
3361 3044 M
83 50 V
1.000 UL
LT0
3588 3087 M
-144 7 V
1.000 UL
LT0
2165 2977 M
83 49 V
1.000 UL
LT0
2392 2998 M
-144 28 V
1.000 UL
LT0
3134 3004 M
83 54 V
1.000 UL
LT0
3361 3044 M
-144 14 V
1.000 UL
LT0
2536 2972 M
83 49 V
1.000 UL
LT0
2763 2996 M
-144 25 V
1.000 UL
LT0
4844 2992 M
83 42 V
1.000 UL
LT0
5071 3001 M
-144 33 V
1.000 UL
LT0
4473 3031 M
83 34 V
1.000 UL
LT0
4700 3028 M
-144 37 V
1.000 UL
LT0
5215 2969 M
83 44 V
1.000 UL
LT0
5442 2983 M
-144 30 V
1.000 UL
LT0
4102 3086 M
83 18 V
1.000 UL
LT0
4329 3070 M
-144 34 V
1.000 UL
LT0
5586 2954 M
83 44 V
1.000 UL
LT0
5813 2969 M
-144 29 V
1.000 UL
LT0
2907 2972 M
83 53 V
1.000 UL
LT0
3134 3004 M
-144 21 V
1.000 UL
LT0
3505 3039 M
83 48 V
1.000 UL
LT0
3731 3088 M
-143 -1 V
1.000 UL
LT0
2309 2950 M
83 48 V
1.000 UL
LT0
2536 2972 M
-144 26 V
1.000 UL
LT0
4988 2958 M
83 43 V
1.000 UL
LT0
5215 2969 M
-144 32 V
1.000 UL
LT0
4617 2989 M
83 39 V
1.000 UL
LT0
4844 2992 M
-144 36 V
1.000 UL
LT0
2680 2945 M
83 51 V
1.000 UL
LT0
2907 2972 M
-144 24 V
1.000 UL
LT0
5359 2939 M
83 44 V
1.000 UL
LT0
5586 2954 M
-144 29 V
1.000 UL
LT0
3278 2987 M
83 57 V
1.000 UL
LT0
3505 3039 M
-144 5 V
1.000 UL
LT0
4246 3049 M
83 21 V
1.000 UL
LT0
4473 3031 M
-144 39 V
1.000 UL
LT0
5730 2925 M
83 44 V
1.000 UL
LT0
4102 3086 M
-80 12 V
1.000 UL
LT0
2082 2929 M
83 48 V
1.000 UL
LT0
2309 2950 M
-144 27 V
1.000 UL
LT0
3051 2948 M
83 56 V
1.000 UL
LT0
3278 2987 M
-144 17 V
1.000 UL
LT0
3997 3055 M
-54 -533 V
1.000 UL
LT0
2453 2922 M
83 50 V
1.000 UL
LT0
2680 2945 M
-144 27 V
1.000 UL
LT0
4761 2949 M
83 43 V
1.000 UL
LT0
4988 2958 M
-144 34 V
1.000 UL
LT0
5132 2925 M
83 44 V
1.000 UL
LT0
5359 2939 M
-144 30 V
1.000 UL
LT0
4390 2998 M
83 33 V
1.000 UL
LT0
4617 2989 M
-144 42 V
1.000 UL
LT0
5503 2909 M
83 45 V
1.000 UL
LT0
5730 2925 M
-144 29 V
1.000 UL
LT0
3648 3050 M
82 37 V
1.000 UL
LT0
2824 2918 M
83 54 V
1.000 UL
LT0
3051 2948 M
-144 24 V
1.000 UL
LT0
3422 2977 M
83 62 V
1.000 UL
LT0
3648 3050 M
-143 -11 V
1.000 UL
LT0
4036 3089 M
66 -3 V
1.000 UL
LT0
4246 3049 M
-144 37 V
1.000 UL
LT0
2226 2900 M
83 50 V
1.000 UL
LT0
2453 2922 M
-144 28 V
1.000 UL
LT0
3195 2925 M
83 62 V
1.000 UL
LT0
3422 2977 M
-144 10 V
1.000 UL
LT0
2597 2894 M
83 51 V
1.000 UL
LT0
2824 2918 M
-144 27 V
1.000 UL
LT0
4905 2912 M
83 46 V
1.000 UL
LT0
5132 2925 M
-144 33 V
1.000 UL
LT0
4534 2947 M
83 42 V
1.000 UL
LT0
4761 2949 M
-144 40 V
1.000 UL
LT0
5276 2893 M
83 46 V
1.000 UL
LT0
5503 2909 M
-144 30 V
1.000 UL
LT0
5647 2880 M
83 45 V
1.000 UL
LT0
2968 2891 M
83 57 V
1.000 UL
LT0
3195 2925 M
-144 23 V
1.000 UL
LT0
1999 2880 M
83 49 V
1.000 UL
LT0
2226 2900 M
-144 29 V
1.000 UL
LT0
4163 3041 M
83 8 V
1.000 UL
LT0
4390 2998 M
-144 51 V
1.000 UL
LT0
2370 2872 M
83 50 V
1.000 UL
LT0
2597 2894 M
-144 28 V
1.000 UL
LT0
4678 2902 M
83 47 V
1.000 UL
LT0
4905 2912 M
-144 37 V
1.000 UL
LT0
5049 2878 M
83 47 V
1.000 UL
LT0
5276 2893 M
-144 32 V
1.000 UL
LT0
2741 2865 M
83 53 V
1.000 UL
LT0
2968 2891 M
-144 27 V
1.000 UL
LT0
5420 2863 M
83 46 V
1.000 UL
LT0
5647 2880 M
-144 29 V
1.000 UL
LT0
3566 2981 M
82 69 V
1.000 UL
LT0
3724 3071 M
-76 -21 V
1.000 UL
LT0
3339 2902 M
83 75 V
1.000 UL
LT0
3566 2981 M
-144 -4 V
1.000 UL
LT0
4307 2965 M
83 33 V
1.000 UL
LT0
4534 2947 M
-144 51 V
1.000 UL
LT0
2143 2851 M
83 49 V
1.000 UL
LT0
2370 2872 M
-144 28 V
1.000 UL
LT0
3112 2862 M
83 63 V
1.000 UL
LT0
3339 2902 M
-144 23 V
1.000 UL
LT0
2514 2843 M
83 51 V
1.000 UL
LT0
2741 2865 M
-144 29 V
1.000 UL
LT0
4822 2864 M
83 48 V
1.000 UL
LT0
5049 2878 M
-144 34 V
1.000 UL
LT0
5193 2846 M
83 47 V
1.000 UL
LT0
5420 2863 M
-144 30 V
1.000 UL
LT0
4451 2899 M
83 48 V
1.000 UL
LT0
4678 2902 M
-144 45 V
1.000 UL
LT0
3687 2551 M
83 9 V
1.000 UL
LT0
3793 2523 M
-23 37 V
1.000 UL
LT0
3853 3383 M
-83 -823 V
1.000 UL
LT0
3626 2837 M
144 -277 V
1.000 UL
LT0
2885 2835 M
83 56 V
1.000 UL
LT0
3112 2862 M
-144 29 V
1.000 UL
LT0
5564 2834 M
83 46 V
1.000 UL
LT0
4163 3041 M
-106 36 V
1.000 UL
LT0
1916 2831 M
83 49 V
1.000 UL
LT0
2143 2851 M
-144 29 V
1.000 UL
LT0
2287 2822 M
83 50 V
1.000 UL
LT0
2514 2843 M
-144 29 V
1.000 UL
LT0
3256 2828 M
83 74 V
1.000 UL
LT0
3483 2878 M
-144 24 V
1.000 UL
LT0
3483 2878 M
83 103 V
1.000 UL
LT0
3709 3036 M
-143 -55 V
1.000 UL
LT0
4595 2849 M
83 53 V
1.000 UL
LT0
4822 2864 M
-144 38 V
1.000 UL
LT0
2658 2814 M
83 51 V
1.000 UL
LT0
2885 2835 M
-144 30 V
1.000 UL
LT0
4966 2829 M
83 49 V
1.000 UL
LT0
5193 2846 M
-144 32 V
1.000 UL
LT0
4080 3063 M
83 -22 V
1.000 UL
LT0
4307 2965 M
-144 76 V
1.000 UL
LT0
5337 2817 M
83 46 V
1.000 UL
LT0
5564 2834 M
-144 29 V
1.000 UL
LT0
3029 2802 M
83 60 V
1.000 UL
LT0
3256 2828 M
-144 34 V
1.000 UL
LT0
2060 2802 M
83 49 V
1.000 UL
LT0
2287 2822 M
-144 29 V
1.000 UL
LT0
4224 2913 M
83 52 V
1.000 UL
LT0
4451 2899 M
-144 66 V
1.000 UL
LT0
2431 2793 M
83 50 V
1.000 UL
LT0
2658 2814 M
-144 29 V
1.000 UL
LT0
4739 2810 M
83 54 V
1.000 UL
LT0
4966 2829 M
-144 35 V
1.000 UL
LT0
3400 2782 M
83 96 V
1.000 UL
LT0
3626 2837 M
-143 41 V
1.000 UL
LT0
4368 2832 M
83 67 V
1.000 UL
LT0
4595 2849 M
-144 50 V
1.000 UL
LT0
5110 2798 M
83 48 V
1.000 UL
LT0
5337 2817 M
-144 29 V
1.000 UL
LT0
2802 2782 M
83 53 V
1.000 UL
LT0
3029 2802 M
-144 33 V
1.000 UL
LT0
5481 2788 M
83 46 V
1.000 UL
LT0
1833 2781 M
83 50 V
1.000 UL
LT0
2060 2802 M
-144 29 V
1.000 UL
LT0
3173 2764 M
83 64 V
1.000 UL
LT0
3400 2782 M
-144 46 V
1.000 UL
LT0
2204 2773 M
83 49 V
1.000 UL
LT0
2431 2793 M
-144 29 V
1.000 UL
LT0
3604 2574 M
83 -23 V
1.000 UL
LT0
3748 2525 M
-61 26 V
1.000 UL
LT0
3544 2701 M
143 -150 V
1.000 UL
LT0
4512 2786 M
83 63 V
1.000 UL
LT0
4739 2810 M
-144 39 V
1.000 UL
LT0
2575 2763 M
83 51 V
1.000 UL
LT0
2802 2782 M
-144 32 V
1.000 UL
LT0
4883 2778 M
83 51 V
1.000 UL
LT0
5110 2798 M
-144 31 V
1.000 UL
LT0
3544 2701 M
82 136 V
1.000 UL
LT0
3709 3036 M
-83 -199 V
1.000 UL
LT0
2946 2748 M
83 54 V
1.000 UL
LT0
3173 2764 M
-144 38 V
1.000 UL
LT0
5254 2769 M
83 48 V
1.000 UL
LT0
5481 2788 M
-144 29 V
1.000 UL
LT0
3317 2715 M
83 67 V
1.000 UL
LT0
3544 2701 M
-144 81 V
1.000 UL
LT0
3853 3383 M
3709 3036 L
1.000 UL
LT0
4141 2778 M
83 135 V
1.000 UL
LT0
4368 2832 M
-144 81 V
1.000 UL
LT0
4080 3063 M
144 -150 V
1.000 UL
LT0
1977 2752 M
83 50 V
1.000 UL
LT0
2204 2773 M
-144 29 V
1.000 UL
LT0
3461 2649 M
83 52 V
1.000 UL
LT0
3975 2524 M
83 55 V
1.000 UL
LT0
4202 2633 M
-144 -54 V
1.000 UL
LT0
4141 2778 M
-83 -199 V
1.000 UL
LT0
4285 2737 M
83 95 V
1.000 UL
LT0
4512 2786 M
-144 46 V
1.000 UL
LT0
2348 2744 M
83 49 V
1.000 UL
LT0
2575 2763 M
-144 30 V
1.000 UL
LT0
4656 2752 M
83 58 V
1.000 UL
LT0
4883 2778 M
-144 32 V
1.000 UL
LT0
2719 2732 M
83 50 V
1.000 UL
LT0
2946 2748 M
-144 34 V
1.000 UL
LT0
4080 3063 M
-118 70 V
1.000 UL
LT0
4285 2737 M
-144 41 V
1.000 UL
LT0
3997 3055 M
144 -277 V
1.000 UL
LT0
5027 2748 M
83 50 V
1.000 UL
LT0
5254 2769 M
-144 29 V
1.000 UL
LT0
3090 2710 M
83 54 V
1.000 UL
LT0
3317 2715 M
-144 49 V
1.000 UL
LT0
3997 3055 M
83 8 V
1.000 UL
LT0
1749 2731 M
84 50 V
1.000 UL
LT0
1977 2752 M
-144 29 V
1.000 UL
LT0
5398 2740 M
83 48 V
1.000 UL
LT0
2121 2724 M
83 49 V
1.000 UL
LT0
2348 2744 M
-144 29 V
1.000 UL
LT0
4429 2712 M
83 74 V
1.000 UL
LT0
4656 2752 M
-144 34 V
1.000 UL
LT0
2492 2715 M
83 48 V
1.000 UL
LT0
2719 2732 M
-144 31 V
1.000 UL
LT0
4800 2723 M
83 55 V
1.000 UL
LT0
5027 2748 M
-144 30 V
1.000 UL
LT0
3234 2666 M
83 49 V
1.000 UL
LT0
3461 2649 M
-144 66 V
1.000 UL
LT0
4202 2633 M
83 104 V
1.000 UL
LT0
4429 2712 M
-144 25 V
1.000 UL
LT0
2863 2699 M
83 49 V
1.000 UL
LT0
3090 2710 M
-144 38 V
1.000 UL
LT0
5171 2720 M
83 49 V
1.000 UL
LT0
5398 2740 M
-144 29 V
1.000 UL
LT0
1893 2703 M
84 49 V
1.000 UL
LT0
2121 2724 M
-144 28 V
1.000 UL
LT0
3378 2615 M
83 34 V
1.000 UL
LT0
3604 2574 M
-143 75 V
1.000 UL
LT0
4119 2565 M
-144 -41 V
1.000 UL
LT0
4573 2690 M
83 62 V
1.000 UL
LT0
4800 2723 M
-144 29 V
1.000 UL
LT0
2264 2696 M
84 48 V
1.000 UL
LT0
2492 2715 M
-144 29 V
1.000 UL
LT0
3521 2566 M
83 8 V
1.000 UL
LT0
3748 2525 M
-144 49 V
1.000 UL
LT0
2635 2684 M
84 48 V
1.000 UL
LT0
2863 2699 M
-144 33 V
1.000 UL
LT0
4944 2696 M
83 52 V
1.000 UL
LT0
5171 2720 M
-144 28 V
1.000 UL
LT0
3006 2663 M
84 47 V
1.000 UL
LT0
3234 2666 M
-144 44 V
1.000 UL
LT0
4119 2565 M
83 68 V
1.000 UL
LT0
4346 2638 M
-144 -5 V
1.000 UL
LT0
4346 2638 M
83 74 V
1.000 UL
LT0
4573 2690 M
-144 22 V
1.000 UL
LT0
1666 2680 M
83 51 V
1.000 UL
LT0
1893 2703 M
-144 28 V
1.000 UL
LT0
5315 2692 M
83 48 V
1.000 UL
LT0
2037 2675 M
84 49 V
1.000 UL
LT0
2264 2696 M
-143 28 V
1.000 UL
LT0
3664 2528 M
84 -3 V
1.000 UL
LT0
3891 2520 M
-143 5 V
1.000 UL
LT0
4717 2667 M
83 56 V
1.000 UL
LT0
4944 2696 M
-144 27 V
1.000 UL
LT0
2408 2667 M
84 48 V
1.000 UL
LT0
2635 2684 M
-143 31 V
1.000 UL
LT0
3853 3383 M
144 -328 V
1.000 UL
LT0
3150 2623 M
84 43 V
1.000 UL
LT0
3378 2615 M
-144 51 V
1.000 UL
LT0
2779 2652 M
84 47 V
1.000 UL
LT0
3006 2663 M
-143 36 V
1.000 UL
LT0
5088 2670 M
83 50 V
1.000 UL
LT0
5315 2692 M
-144 28 V
1.000 UL
LT0
1810 2653 M
83 50 V
1.000 UL
LT0
2037 2675 M
-144 28 V
1.000 UL
LT0
4490 2628 M
83 62 V
1.000 UL
LT0
4717 2667 M
-144 23 V
1.000 UL
LT0
3294 2583 M
84 32 V
1.000 UL
LT0
3521 2566 M
-143 49 V
1.000 UL
LT0
2181 2648 M
83 48 V
1.000 UL
LT0
2408 2667 M
-144 29 V
1.000 UL
LT0
4262 2576 M
84 62 V
1.000 UL
LT0
4490 2628 M
-144 10 V
1.000 UL
LT0
4035 2527 M
84 38 V
1.000 UL
LT0
4262 2576 M
-143 -11 V
1.000 UL
LT0
4861 2643 M
83 53 V
1.000 UL
LT0
5088 2670 M
-144 26 V
1.000 UL
LT0
2552 2637 M
83 47 V
1.000 UL
LT0
2779 2652 M
-144 32 V
1.000 UL
LT0
2923 2618 M
83 45 V
1.000 UL
LT0
3150 2623 M
-144 40 V
1.000 UL
LT0
1583 2629 M
83 51 V
1.000 UL
LT0
1810 2653 M
-144 27 V
1.000 UL
LT0
3808 2509 M
83 11 V
1.000 UL
LT0
4035 2527 M
-144 -7 V
1.000 UL
LT0
5232 2644 M
83 48 V
1.000 UL
LT0
3438 2544 M
83 22 V
1.000 UL
LT0
3664 2528 M
-143 38 V
1.000 UL
LT0
1954 2627 M
83 48 V
1.000 UL
LT0
2181 2648 M
-144 27 V
1.000 UL
LT0
4634 2611 M
83 56 V
1.000 UL
LT0
4861 2643 M
-144 24 V
1.000 UL
LT0
2325 2620 M
83 47 V
1.000 UL
LT0
2552 2637 M
-144 30 V
1.000 UL
LT0
3067 2583 M
83 40 V
1.000 UL
LT0
3294 2583 M
-144 40 V
1.000 UL
LT0
2696 2607 M
83 45 V
1.000 UL
LT0
2923 2618 M
-144 34 V
1.000 UL
LT0
5005 2619 M
83 51 V
1.000 UL
LT0
5232 2644 M
-144 26 V
1.000 UL
LT0
4406 2571 M
84 57 V
1.000 UL
LT0
4634 2611 M
-144 17 V
1.000 UL
LT0
1727 2604 M
83 49 V
1.000 UL
LT0
1954 2627 M
-144 26 V
1.000 UL
LT0
3582 2512 M
82 16 V
1.000 UL
LT0
3808 2509 M
-144 19 V
1.000 UL
LT0
4179 2529 M
83 47 V
1.000 UL
LT0
4406 2571 M
-144 5 V
1.000 UL
LT0
2098 2600 M
83 48 V
1.000 UL
LT0
2325 2620 M
-144 28 V
1.000 UL
LT0
4777 2591 M
84 52 V
1.000 UL
LT0
5005 2619 M
-144 24 V
1.000 UL
LT0
3952 2499 M
83 28 V
1.000 UL
LT0
4179 2529 M
-144 -2 V
1.000 UL
LT0
3211 2548 M
83 35 V
1.000 UL
LT0
3438 2544 M
-144 39 V
1.000 UL
LT0
2469 2592 M
83 45 V
1.000 UL
LT0
2696 2607 M
-144 30 V
1.000 UL
LT0
2840 2576 M
83 42 V
1.000 UL
LT0
3067 2583 M
-144 35 V
1.000 UL
LT0
1500 2578 M
83 51 V
1.000 UL
LT0
1727 2604 M
-144 25 V
1.000 UL
LT0
5148 2595 M
84 49 V
1.000 UL
LT0
4550 2558 M
84 53 V
1.000 UL
LT0
4777 2591 M
-143 20 V
1.000 UL
LT0
1871 2578 M
83 49 V
1.000 UL
LT0
2098 2600 M
-144 27 V
1.000 UL
LT0
3725 2488 M
83 21 V
1.000 UL
LT0
3952 2499 M
-144 10 V
1.000 UL
LT0
2242 2573 M
83 47 V
1.000 UL
LT0
2469 2592 M
-144 28 V
1.000 UL
LT0
3355 2516 M
83 28 V
1.000 UL
LT0
3582 2512 M
-144 32 V
1.000 UL
LT0
4323 2522 M
83 49 V
1.000 UL
LT0
4550 2558 M
-144 13 V
1.000 UL
LT0
4921 2569 M
84 50 V
1.000 UL
LT0
5148 2595 M
-143 24 V
1.000 UL
LT0
2613 2563 M
83 44 V
1.000 UL
LT0
2840 2576 M
-144 31 V
1.000 UL
LT0
2984 2544 M
83 39 V
1.000 UL
LT0
3211 2548 M
-144 35 V
1.000 UL
LT0
1644 2554 M
83 50 V
1.000 UL
LT0
1871 2578 M
-144 26 V
1.000 UL
LT0
4096 2491 M
83 38 V
1.000 UL
LT0
4323 2522 M
-144 7 V
1.000 UL
LT0
2015 2553 M
83 47 V
1.000 UL
LT0
2242 2573 M
-144 27 V
1.000 UL
LT0
4694 2540 M
83 51 V
1.000 UL
LT0
4921 2569 M
-144 22 V
1.000 UL
LT0
3499 2486 M
83 26 V
1.000 UL
LT0
3725 2488 M
-143 24 V
1.000 UL
LT0
2386 2546 M
83 46 V
1.000 UL
LT0
2613 2563 M
-144 29 V
1.000 UL
LT0
1644 2554 M
-144 24 V
1.000 UL
LT0
3128 2513 M
83 35 V
1.000 UL
LT0
3355 2516 M
-144 32 V
1.000 UL
LT0
2757 2534 M
83 42 V
1.000 UL
LT0
2984 2544 M
-144 32 V
1.000 UL
LT0
3869 2470 M
83 29 V
1.000 UL
LT0
4096 2491 M
-144 8 V
1.000 UL
LT0
5065 2547 M
83 48 V
1.000 UL
LT0
4467 2510 M
83 48 V
1.000 UL
LT0
4694 2540 M
-144 18 V
1.000 UL
LT0
1788 2529 M
83 49 V
1.000 UL
LT0
2015 2553 M
-144 25 V
1.000 UL
LT0
2159 2527 M
83 46 V
1.000 UL
LT0
2386 2546 M
-144 27 V
1.000 UL
LT0
4240 2479 M
83 43 V
1.000 UL
LT0
4467 2510 M
-144 12 V
1.000 UL
LT0
4838 2520 M
83 49 V
1.000 UL
LT0
5065 2547 M
-144 22 V
1.000 UL
LT0
2530 2520 M
83 43 V
1.000 UL
LT0
2757 2534 M
-144 29 V
1.000 UL
LT0
3642 2461 M
83 27 V
1.000 UL
LT0
3869 2470 M
-144 18 V
1.000 UL
LT0
3272 2483 M
83 33 V
1.000 UL
LT0
3499 2486 M
-144 30 V
1.000 UL
LT0
2901 2505 M
83 39 V
1.000 UL
LT0
3128 2513 M
-144 31 V
1.000 UL
LT0
1788 2529 M
-144 25 V
1.000 UL
LT0
4013 2455 M
83 36 V
1.000 UL
LT0
4240 2479 M
-144 12 V
1.000 UL
LT0
1932 2506 M
83 47 V
1.000 UL
LT0
2159 2527 M
-144 26 V
1.000 UL
LT0
4611 2493 M
83 47 V
1.000 UL
LT0
4838 2520 M
-144 20 V
1.000 UL
LT0
2303 2502 M
83 44 V
1.000 UL
LT0
2530 2520 M
-144 26 V
1.000 UL
LT0
2674 2493 M
83 41 V
1.000 UL
LT0
2901 2505 M
-144 29 V
1.000 UL
LT0
4982 2500 M
83 47 V
1.000 UL
LT0
3416 2454 M
83 32 V
1.000 UL
LT0
3642 2461 M
-143 25 V
1.000 UL
LT0
3045 2476 M
83 37 V
1.000 UL
LT0
3272 2483 M
-144 30 V
1.000 UL
LT0
4384 2465 M
83 45 V
1.000 UL
LT0
4611 2493 M
-144 17 V
1.000 UL
LT0
1932 2506 M
-144 23 V
1.000 UL
LT0
3786 2439 M
83 31 V
1.000 UL
LT0
4013 2455 M
-144 15 V
1.000 UL
LT0
2076 2482 M
83 45 V
1.000 UL
LT0
2303 2502 M
-144 25 V
1.000 UL
LT0
4755 2474 M
83 46 V
1.000 UL
LT0
4982 2500 M
-144 20 V
1.000 UL
LT0
4157 2440 M
83 39 V
1.000 UL
LT0
4384 2465 M
-144 14 V
1.000 UL
LT0
2447 2477 M
83 43 V
1.000 UL
LT0
2674 2493 M
-144 27 V
1.000 UL
LT0
2818 2465 M
83 40 V
1.000 UL
LT0
3045 2476 M
-144 29 V
1.000 UL
LT0
3189 2447 M
83 36 V
1.000 UL
LT0
3416 2454 M
-144 29 V
1.000 UL
LT0
3560 2429 M
82 32 V
1.000 UL
LT0
3786 2439 M
-144 22 V
1.000 UL
LT0
2076 2482 M
-144 24 V
1.000 UL
LT0
4528 2448 M
83 45 V
1.000 UL
LT0
4755 2474 M
-144 19 V
1.000 UL
LT0
3930 2420 M
83 35 V
1.000 UL
LT0
4157 2440 M
-144 15 V
1.000 UL
LT0
2220 2457 M
83 45 V
1.000 UL
LT0
2447 2477 M
-144 25 V
1.000 UL
LT0
4899 2453 M
83 47 V
1.000 UL
LT0
2591 2451 M
83 42 V
1.000 UL
LT0
2818 2465 M
-144 28 V
1.000 UL
LT0
4301 2423 M
83 42 V
1.000 UL
LT0
4528 2448 M
-144 17 V
1.000 UL
LT0
2962 2438 M
83 38 V
1.000 UL
LT0
3189 2447 M
-144 29 V
1.000 UL
LT0
3333 2420 M
83 34 V
1.000 UL
LT0
3560 2429 M
-144 25 V
1.000 UL
LT0
3703 2406 M
83 33 V
1.000 UL
LT0
3930 2420 M
-144 19 V
1.000 UL
LT0
2220 2457 M
-144 25 V
1.000 UL
LT0
4672 2428 M
83 46 V
1.000 UL
LT0
4899 2453 M
-144 21 V
1.000 UL
LT0
4074 2401 M
83 39 V
1.000 UL
LT0
4301 2423 M
-144 17 V
1.000 UL
LT0
2364 2433 M
83 44 V
1.000 UL
LT0
2591 2451 M
-144 26 V
1.000 UL
LT0
2735 2425 M
83 40 V
1.000 UL
LT0
2962 2438 M
-144 27 V
1.000 UL
LT0
3106 2411 M
83 36 V
1.000 UL
LT0
3333 2420 M
-144 27 V
1.000 UL
LT0
4445 2404 M
83 44 V
1.000 UL
LT0
4672 2428 M
-144 20 V
1.000 UL
LT0
3477 2395 M
83 34 V
1.000 UL
LT0
3703 2406 M
-143 23 V
1.000 UL
LT0
3847 2384 M
83 36 V
1.000 UL
LT0
4074 2401 M
-144 19 V
1.000 UL
LT0
2364 2433 M
-144 24 V
1.000 UL
LT0
4816 2408 M
83 45 V
1.000 UL
LT0
2508 2409 M
83 42 V
1.000 UL
LT0
2735 2425 M
-144 26 V
1.000 UL
LT0
4218 2382 M
83 41 V
1.000 UL
LT0
4445 2404 M
-144 19 V
1.000 UL
LT0
2879 2399 M
83 39 V
1.000 UL
LT0
3106 2411 M
-144 27 V
1.000 UL
LT0
3250 2385 M
83 35 V
1.000 UL
LT0
3477 2395 M
-144 25 V
1.000 UL
LT0
3620 2371 M
83 35 V
1.000 UL
LT0
3847 2384 M
-144 22 V
1.000 UL
LT0
4589 2384 M
83 44 V
1.000 UL
LT0
4816 2408 M
-144 20 V
1.000 UL
LT0
2508 2409 M
-144 24 V
1.000 UL
LT0
3991 2363 M
83 38 V
1.000 UL
LT0
4218 2382 M
-144 19 V
1.000 UL
LT0
2652 2385 M
83 40 V
1.000 UL
LT0
2879 2399 M
-144 26 V
1.000 UL
LT0
3023 2374 M
83 37 V
1.000 UL
LT0
3250 2385 M
-144 26 V
1.000 UL
LT0
4362 2362 M
83 42 V
1.000 UL
LT0
4589 2384 M
-144 20 V
1.000 UL
LT0
3394 2359 M
83 36 V
1.000 UL
LT0
3620 2371 M
-143 24 V
1.000 UL
LT0
3764 2348 M
83 36 V
1.000 UL
LT0
3991 2363 M
-144 21 V
1.000 UL
LT0
4733 2363 M
83 45 V
1.000 UL
LT0
2652 2385 M
-144 24 V
1.000 UL
LT0
4135 2342 M
83 40 V
1.000 UL
LT0
4362 2362 M
-144 20 V
1.000 UL
LT0
2796 2360 M
83 39 V
1.000 UL
LT0
3023 2374 M
-144 25 V
1.000 UL
LT0
3167 2348 M
83 37 V
1.000 UL
LT0
3394 2359 M
-144 26 V
1.000 UL
LT0
4506 2341 M
83 43 V
1.000 UL
LT0
4733 2363 M
-144 21 V
1.000 UL
LT0
3538 2335 M
82 36 V
1.000 UL
LT0
3764 2348 M
-144 23 V
1.000 UL
LT0
3908 2325 M
83 38 V
1.000 UL
LT0
4135 2342 M
-144 21 V
1.000 UL
LT0
2796 2360 M
-144 25 V
1.000 UL
LT0
4279 2321 M
83 41 V
1.000 UL
LT0
4506 2341 M
-144 21 V
1.000 UL
LT0
2940 2336 M
83 38 V
1.000 UL
LT0
3167 2348 M
-144 26 V
1.000 UL
LT0
3311 2323 M
83 36 V
1.000 UL
LT0
3538 2335 M
-144 24 V
1.000 UL
LT0
4650 2319 M
83 44 V
1.000 UL
LT0
3681 2311 M
83 37 V
1.000 UL
LT0
3908 2325 M
-144 23 V
1.000 UL
LT0
4052 2303 M
83 39 V
1.000 UL
LT0
4279 2321 M
-144 21 V
1.000 UL
LT0
2940 2336 M
-144 24 V
1.000 UL
LT0
3084 2311 M
83 37 V
1.000 UL
LT0
3311 2323 M
-144 25 V
1.000 UL
LT0
4423 2299 M
83 42 V
1.000 UL
LT0
4650 2319 M
-144 22 V
1.000 UL
LT0
3455 2298 M
83 37 V
1.000 UL
LT0
3681 2311 M
-143 24 V
1.000 UL
LT0
3825 2287 M
83 38 V
1.000 UL
LT0
4052 2303 M
-144 22 V
1.000 UL
LT0
4196 2280 M
83 41 V
1.000 UL
LT0
4423 2299 M
-144 22 V
1.000 UL
LT0
3084 2311 M
-144 25 V
1.000 UL
LT0
3228 2287 M
83 36 V
1.000 UL
LT0
3455 2298 M
-144 25 V
1.000 UL
LT0
4567 2277 M
83 42 V
1.000 UL
LT0
3599 2274 M
82 37 V
1.000 UL
LT0
3825 2287 M
-144 24 V
1.000 UL
LT0
3969 2264 M
83 39 V
1.000 UL
LT0
4196 2280 M
-144 23 V
1.000 UL
LT0
4340 2258 M
83 41 V
1.000 UL
LT0
4567 2277 M
-144 22 V
1.000 UL
LT0
3228 2287 M
-144 24 V
1.000 UL
LT0
3372 2261 M
83 37 V
1.000 UL
LT0
3599 2274 M
-144 24 V
1.000 UL
LT0
3742 2249 M
83 38 V
1.000 UL
LT0
3969 2264 M
-144 23 V
1.000 UL
LT0
4113 2240 M
83 40 V
1.000 UL
LT0
4340 2258 M
-144 22 V
1.000 UL
LT0
4484 2234 M
83 43 V
1.000 UL
LT0
3372 2261 M
-144 26 V
1.000 UL
LT0
3515 2236 M
84 38 V
1.000 UL
LT0
3742 2249 M
-143 25 V
1.000 UL
LT0
3886 2224 M
83 40 V
1.000 UL
LT0
4113 2240 M
-144 24 V
1.000 UL
LT0
4257 2216 M
83 42 V
1.000 UL
LT0
4484 2234 M
-144 24 V
1.000 UL
LT0
3515 2236 M
-143 25 V
1.000 UL
LT0
3658 2211 M
84 38 V
1.000 UL
LT0
3886 2224 M
-144 25 V
1.000 UL
LT0
4029 2200 M
84 40 V
1.000 UL
LT0
4257 2216 M
-144 24 V
1.000 UL
LT0
4400 2192 M
84 42 V
1.000 UL
LT0
3658 2211 M
-143 25 V
1.000 UL
LT0
3802 2185 M
84 39 V
1.000 UL
LT0
4029 2200 M
-143 24 V
1.000 UL
LT0
4173 2175 M
84 41 V
1.000 UL
LT0
4400 2192 M
-143 24 V
1.000 UL
LT0
3802 2185 M
-144 26 V
1.000 UL
LT0
3946 2160 M
83 40 V
1.000 UL
LT0
4173 2175 M
-144 25 V
1.000 UL
LT0
4317 2151 M
83 41 V
1.000 UL
LT0
3946 2160 M
-144 25 V
1.000 UL
LT0
4090 2134 M
83 41 V
1.000 UL
LT0
4317 2151 M
-144 24 V
1.000 UL
LT0
4090 2134 M
-144 26 V
1.000 UL
LT0
4234 2109 M
83 42 V
1.000 UL
LT0
4234 2109 M
-144 25 V
1.000 UL
LT0
1.000 UL
LT1
LT2
1.000 UL
LT2
3861 1602 M
-10 0 V
1.000 UL
LT2
3851 1602 M
-5 2 V
1.000 UL
LT2
3846 1604 M
12 2 V
1.000 UL
LT2
3861 1602 M
-3 4 V
LT3
1.000 UL
LT3
3905 1594 M
-64 3 V
1.000 UL
LT3
3841 1597 M
-31 14 V
1.000 UL
LT3
3810 1611 M
76 9 V
1.000 UL
LT3
3905 1594 M
-19 26 V
LT4
1.000 UL
LT4
3949 1586 M
-118 6 V
1.000 UL
LT4
3831 1592 M
-57 25 V
1.000 UL
LT4
3774 1617 M
140 18 V
1.000 UL
LT4
3949 1586 M
-35 49 V
LT5
1.000 UL
LT5
3993 1579 M
-172 8 V
1.000 UL
LT5
3821 1587 M
-83 36 V
1.000 UL
LT5
3738 1623 M
165 29 V
1.000 UL
LT5
3903 1652 M
48 2 V
1.000 UL
LT5
3980 1639 M
-29 15 V
1.000 UL
LT5
3993 1579 M
-13 60 V
LT6
1.000 UL
LT6
4046 1570 M
-58 3 V
1.000 UL
LT6
3988 1573 M
-177 9 V
1.000 UL
LT6
3811 1582 M
-111 42 V
1.000 UL
LT6
3700 1624 M
-21 10 V
1.000 UL
LT6
3679 1634 M
51 48 V
1.000 UL
LT6
3730 1682 M
123 21 V
1.000 UL
LT6
3953 1701 M
-100 2 V
1.000 UL
LT6
4035 1698 M
-82 3 V
1.000 UL
LT6
4073 1681 M
-38 17 V
1.000 UL
LT6
4144 1655 M
-71 26 V
1.000 UL
LT6
4138 1611 M
6 44 V
1.000 UL
LT6
4046 1570 M
92 41 V
LT7
1.000 UL
LT7
4207 1588 M
64 0 V
1.000 UL
LT7
4099 1561 M
108 27 V
1.000 UL
LT7
4099 1561 M
-121 7 V
1.000 UL
LT7
3978 1568 M
-176 9 V
1.000 UL
LT7
3802 1577 M
-151 21 V
1.000 UL
LT7
3651 1598 M
-126 34 V
1.000 UL
LT7
3525 1632 M
-104 46 V
1.000 UL
LT7
3421 1678 M
-4 1 V
1.000 UL
LT7
3417 1679 M
-55 67 V
1.000 UL
LT7
3362 1746 M
2 2 V
1.000 UL
LT7
3364 1748 M
7 55 V
1.000 UL
LT7
3371 1803 M
65 46 V
1.000 UL
LT7
3436 1849 M
110 39 V
1.000 UL
LT7
3546 1888 M
129 22 V
1.000 UL
LT7
3675 1910 M
41 6 V
1.000 UL
LT7
3716 1916 M
180 10 V
1.000 UL
LT7
4016 1921 M
-120 5 V
1.000 UL
LT7
4075 1919 M
-59 2 V
1.000 UL
LT7
4229 1899 M
-154 20 V
1.000 UL
LT7
4358 1867 M
-129 32 V
1.000 UL
LT7
4375 1859 M
-17 8 V
1.000 UL
LT7
4466 1823 M
-91 36 V
1.000 UL
LT7
4511 1778 M
-45 45 V
1.000 UL
LT7
4529 1756 M
-18 22 V
1.000 UL
LT7
4526 1717 M
3 39 V
1.000 UL
LT7
4484 1667 M
42 50 V
1.000 UL
LT7
4401 1624 M
83 43 V
1.000 UL
LT7
4271 1588 M
130 36 V
LT8
1.000 UL
LT8
4934 1267 M
-36 39 V
1.000 UL
LT8
4898 1306 M
-39 22 V
1.000 UL
LT8
4859 1328 M
-91 52 V
1.000 UL
LT8
4768 1380 M
-13 9 V
1.000 UL
LT8
4755 1389 M
-92 36 V
1.000 UL
LT8
4663 1425 M
-117 39 V
1.000 UL
LT8
4546 1464 M
-127 34 V
1.000 UL
LT8
4419 1498 M
-138 28 V
1.000 UL
LT8
4281 1526 M
-150 22 V
1.000 UL
LT8
4131 1548 M
-163 15 V
1.000 UL
LT8
3968 1563 M
-176 8 V
1.000 UL
LT8
3792 1571 M
-140 9 V
1.000 UL
LT8
3585 1563 M
67 17 V
1.000 UL
LT8
3425 1562 M
160 1 V
1.000 UL
LT8
3365 1549 M
60 13 V
1.000 UL
LT8
3235 1538 M
130 11 V
1.000 UL
LT8
3091 1506 M
144 32 V
1.000 UL
LT8
3088 1505 M
3 1 V
1.000 UL
LT8
2950 1471 M
138 34 V
1.000 UL
LT8
2835 1434 M
115 37 V
1.000 UL
LT8
2732 1394 M
103 40 V
1.000 UL
LT8
2636 1353 M
96 41 V
1.000 UL
LT8
2546 1311 M
90 42 V
1.000 UL
LT8
2461 1268 M
85 43 V
1.000 UL
LT8
2405 1249 M
56 19 V
1.000 UL
LT8
2405 1249 M
-144 25 V
1.000 UL
LT8
2261 1274 M
-143 25 V
1.000 UL
LT8
2118 1299 M
-144 25 V
1.000 UL
LT8
1974 1324 M
-144 25 V
1.000 UL
LT8
1830 1349 M
-144 25 V
1.000 UL
LT8
1686 1374 M
-144 25 V
1.000 UL
LT8
4276 924 M
-144 25 V
1.000 UL
LT8
4132 949 M
-144 25 V
1.000 UL
LT8
3988 974 M
-144 25 V
1.000 UL
LT8
3844 999 M
-144 25 V
1.000 UL
LT8
3700 1024 M
-143 25 V
1.000 UL
LT8
3557 1049 M
-144 25 V
1.000 UL
LT8
3413 1074 M
-144 25 V
1.000 UL
LT8
3269 1099 M
-144 25 V
1.000 UL
LT8
3125 1124 M
-144 25 V
1.000 UL
LT8
2981 1149 M
-144 25 V
1.000 UL
LT8
2837 1174 M
-144 25 V
1.000 UL
LT8
2693 1199 M
-144 25 V
1.000 UL
LT8
2549 1224 M
-171 0 V
LT0
1.000 UL
LT0
3850 1402 M
113 9 V
1.000 UL
LT0
3850 1402 M
-167 13 V
1.000 UL
LT0
3683 1415 M
-107 43 V
1.000 UL
LT0
3576 1458 M
-6 21 V
1.000 UL
LT0
3570 1479 M
28 53 V
1.000 UL
LT0
3598 1532 M
107 39 V
1.000 UL
LT0
3782 1566 M
-77 5 V
1.000 UL
LT0
3958 1558 M
-176 8 V
1.000 UL
LT0
4081 1522 M
-123 36 V
1.000 UL
LT0
4137 1496 M
-56 26 V
1.000 UL
LT0
4094 1446 M
43 50 V
1.000 UL
LT0
3963 1411 M
131 35 V
LT1
1.000 UL
LT1
3794 1472 M
116 6 V
1.000 UL
LT1
3794 1472 M
-72 38 V
1.000 UL
LT1
3722 1510 M
0 25 V
1.000 UL
LT1
3722 1535 M
36 27 V
1.000 UL
LT1
3772 1561 M
-14 1 V
1.000 UL
LT1
3948 1553 M
-176 8 V
1.000 UL
LT1
4039 1513 M
-91 40 V
1.000 UL
LT1
3910 1478 M
129 35 V
LT2
1.000 UL
LT2
3845 1499 M
158 20 V
1.000 UL
LT2
3845 1499 M
-41 55 V
1.000 UL
LT2
3938 1548 M
-134 6 V
1.000 UL
LT2
4003 1519 M
-65 29 V
LT3
1.000 UL
LT3
3873 1513 M
94 13 V
1.000 UL
LT3
3873 1513 M
-25 33 V
1.000 UL
LT3
3928 1543 M
-80 3 V
1.000 UL
LT3
3967 1526 M
-39 17 V
LT4
1.000 UL
LT4
3900 1528 M
31 4 V
1.000 UL
LT4
3900 1528 M
-7 11 V
1.000 UL
LT4
3918 1537 M
-25 2 V
1.000 UL
LT4
3931 1532 M
-13 5 V
1.000 UL
LTb
4284 778 M
1870 974 V
1.000 UL
LTb
4284 778 M
1046 1340 L
1.000 UL
LTb
1046 1340 M
1870 975 V
1.000 UL
LTb
6154 1752 M
2916 2315 L
1.000 UL
LTb
1046 3288 M
0 -1948 V
1.000 UL
LTb
1046 1340 M
52 28 V
1.000 UL
LTb
936 1245 M
gsave 0 setgray
[ [(Times) 220.0 0.0 true true 0 (-2.5)]
] -73.3 MCshow
grestore
1.000 UL
LTb
1.000 UL
LTb
2864 2287 M
52 28 V
1.000 UL
LTb
1406 1278 M
52 27 V
1.000 UL
LTb
1296 1183 M
gsave 0 setgray
[ [(Times) 220.0 0.0 true true 0 (-2)]
] -73.3 MCshow
grestore
1.000 UL
LTb
1.000 UL
LTb
3224 2225 M
52 27 V
1.000 UL
LTb
1766 1215 M
52 28 V
1.000 UL
LTb
1656 1120 M
gsave 0 setgray
[ [(Times) 220.0 0.0 true true 0 (-1.5)]
] -73.3 MCshow
grestore
1.000 UL
LTb
1.000 UL
LTb
3583 2162 M
52 28 V
1.000 UL
LTb
2126 1153 M
52 27 V
1.000 UL
LTb
2016 1058 M
gsave 0 setgray
[ [(Times) 220.0 0.0 true true 0 (-1)]
] -73.3 MCshow
grestore
1.000 UL
LTb
1.000 UL
LTb
3942 2100 M
53 27 V
1.000 UL
LTb
2486 1090 M
52 28 V
1.000 UL
LTb
2376 995 M
gsave 0 setgray
[ [(Times) 220.0 0.0 true true 0 (-0.5)]
] -73.3 MCshow
grestore
1.000 UL
LTb
1.000 UL
LTb
4302 2037 M
53 28 V
1.000 UL
LTb
2845 1028 M
53 27 V
1.000 UL
LTb
2736 933 M
gsave 0 setgray
[ [(Times) 220.0 0.0 true true 0 ( 0)]
] -73.3 MCshow
grestore
1.000 UL
LTb
1.000 UL
LTb
4662 1975 M
52 27 V
1.000 UL
LTb
3205 965 M
53 28 V
1.000 UL
LTb
3096 870 M
gsave 0 setgray
[ [(Times) 220.0 0.0 true true 0 ( 0.5)]
] -73.3 MCshow
grestore
1.000 UL
LTb
1.000 UL
LTb
5022 1912 M
52 28 V
1.000 UL
LTb
3565 903 M
52 27 V
1.000 UL
LTb
3455 808 M
gsave 0 setgray
[ [(Times) 220.0 0.0 true true 0 ( 1)]
] -73.3 MCshow
grestore
1.000 UL
LTb
1.000 UL
LTb
5382 1850 M
52 27 V
1.000 UL
LTb
3924 840 M
52 28 V
1.000 UL
LTb
3814 745 M
gsave 0 setgray
[ [(Times) 220.0 0.0 true true 0 ( 1.5)]
] -73.3 MCshow
grestore
1.000 UL
LTb
1.000 UL
LTb
5742 1787 M
52 28 V
1.000 UL
LTb
4284 778 M
52 27 V
1.000 UL
LTb
4174 683 M
gsave 0 setgray
[ [(Times) 220.0 0.0 true true 0 ( 2)]
] -73.3 MCshow
grestore
1.000 UL
LTb
1.000 UL
LTb
6102 1725 M
52 27 V
LTb
2198 816 M
gsave 0 setgray
[ [(Times) 220.0 0.0 true true 0 (Re\(p\))]
] -73.3 MCshow
grestore
1.000 UL
LTb
4284 778 M
-55 9 V
stroke
4398 745 M
gsave 0 setgray
[ [(Times) 220.0 0.0 true true 0 (-0.5)]
] -73.3 MCshow
grestore
1.000 UL
LTb
1.000 UL
LTb
1101 1331 M
-55 9 V
1.000 UL
LTb
4492 886 M
-55 10 V
stroke
4606 853 M
gsave 0 setgray
[ [(Times) 220.0 0.0 true true 0 ( 0)]
] -73.3 MCshow
grestore
1.000 UL
LTb
1.000 UL
LTb
1308 1439 M
-54 10 V
1.000 UL
LTb
4700 994 M
-55 10 V
stroke
4814 961 M
gsave 0 setgray
[ [(Times) 220.0 0.0 true true 0 ( 0.5)]
] -73.3 MCshow
grestore
1.000 UL
LTb
1.000 UL
LTb
1516 1547 M
-54 10 V
1.000 UL
LTb
4907 1103 M
-54 9 V
stroke
5022 1070 M
gsave 0 setgray
[ [(Times) 220.0 0.0 true true 0 ( 1)]
] -73.3 MCshow
grestore
1.000 UL
LTb
1.000 UL
LTb
1724 1656 M
-55 9 V
1.000 UL
LTb
5115 1211 M
-54 9 V
stroke
5229 1178 M
gsave 0 setgray
[ [(Times) 220.0 0.0 true true 0 ( 1.5)]
] -73.3 MCshow
grestore
1.000 UL
LTb
1.000 UL
LTb
1932 1764 M
-55 9 V
1.000 UL
LTb
5323 1319 M
-55 10 V
stroke
5437 1286 M
gsave 0 setgray
[ [(Times) 220.0 0.0 true true 0 ( 2)]
] -73.3 MCshow
grestore
1.000 UL
LTb
1.000 UL
LTb
2139 1872 M
-54 10 V
1.000 UL
LTb
5531 1427 M
-55 10 V
stroke
5645 1394 M
gsave 0 setgray
[ [(Times) 220.0 0.0 true true 0 ( 2.5)]
] -73.3 MCshow
grestore
1.000 UL
LTb
1.000 UL
LTb
2347 1980 M
-54 10 V
1.000 UL
LTb
5738 1536 M
-54 9 V
stroke
5853 1503 M
gsave 0 setgray
[ [(Times) 220.0 0.0 true true 0 ( 3)]
] -73.3 MCshow
grestore
1.000 UL
LTb
1.000 UL
LTb
2555 2089 M
-55 9 V
1.000 UL
LTb
5946 1644 M
-54 9 V
stroke
6061 1611 M
gsave 0 setgray
[ [(Times) 220.0 0.0 true true 0 ( 3.5)]
] -73.3 MCshow
grestore
1.000 UL
LTb
1.000 UL
LTb
2763 2197 M
-55 9 V
1.000 UL
LTb
6154 1752 M
-55 10 V
stroke
6268 1719 M
gsave 0 setgray
[ [(Times) 220.0 0.0 true true 0 ( 4)]
] -73.3 MCshow
grestore
1.000 UL
LTb
1.000 UL
LTb
2971 2305 M
-55 10 V
LTb
6029 1124 M
gsave 0 setgray
[ [(Times) 220.0 0.0 true true 0 (Im\(p\))]
] -73.3 MCshow
grestore
1.000 UL
LTb
1109 1990 M
-63 0 V
stroke
920 1990 M
gsave 0 setgray
[ [(Times) 220.0 0.0 true true 0 (-6)]
] -73.3 MRshow
grestore
1.000 UL
LTb
1.000 UL
LTb
1109 2175 M
-63 0 V
stroke
920 2175 M
gsave 0 setgray
[ [(Times) 220.0 0.0 true true 0 (-4)]
] -73.3 MRshow
grestore
1.000 UL
LTb
1.000 UL
LTb
1109 2361 M
-63 0 V
stroke
920 2361 M
gsave 0 setgray
[ [(Times) 220.0 0.0 true true 0 (-2)]
] -73.3 MRshow
grestore
1.000 UL
LTb
1.000 UL
LTb
1109 2546 M
-63 0 V
stroke
920 2546 M
gsave 0 setgray
[ [(Times) 220.0 0.0 true true 0 ( 0)]
] -73.3 MRshow
grestore
1.000 UL
LTb
1.000 UL
LTb
1109 2731 M
-63 0 V
stroke
920 2731 M
gsave 0 setgray
[ [(Times) 220.0 0.0 true true 0 ( 2)]
] -73.3 MRshow
grestore
1.000 UL
LTb
1.000 UL
LTb
1109 2917 M
-63 0 V
stroke
920 2917 M
gsave 0 setgray
[ [(Times) 220.0 0.0 true true 0 ( 4)]
] -73.3 MRshow
grestore
1.000 UL
LTb
1.000 UL
LTb
1109 3102 M
-63 0 V
stroke
920 3102 M
gsave 0 setgray
[ [(Times) 220.0 0.0 true true 0 ( 6)]
] -73.3 MRshow
grestore
1.000 UL
LTb
1.000 UL
LTb
1109 3288 M
-63 0 V
stroke
920 3288 M
gsave 0 setgray
[ [(Times) 220.0 0.0 true true 0 ( 8)]
] -73.3 MRshow
grestore
1.000 UL
LTb
1.000 UP
stroke
grestore
end
showpage
%%Trailer
%%DocumentFonts: Times
