%!PS-Adobe-2.0 EPSF-2.0
%%Title: potential_imag_cosbc.eps
%%Creator: gnuplot 4.0 patchlevel 0
%%CreationDate: Fri Nov 17 17:00:22 2006
%%DocumentFonts: (atend)
%%BoundingBox: 50 50 410 302
%%Orientation: Portrait
%%EndComments
/gnudict 256 dict def
gnudict begin
/Color false def
/Solid false def
/gnulinewidth 5.000 def
/userlinewidth gnulinewidth def
/vshift -73 def
/dl {10.0 mul} def
/hpt_ 31.5 def
/vpt_ 31.5 def
/hpt hpt_ def
/vpt vpt_ def
/Rounded false def
/M {moveto} bind def
/L {lineto} bind def
/R {rmoveto} bind def
/V {rlineto} bind def
/N {newpath moveto} bind def
/C {setrgbcolor} bind def
/f {rlineto fill} bind def
/vpt2 vpt 2 mul def
/hpt2 hpt 2 mul def
/Lshow { currentpoint stroke M
  0 vshift R show } def
/Rshow { currentpoint stroke M
  dup stringwidth pop neg vshift R show } def
/Cshow { currentpoint stroke M
  dup stringwidth pop -2 div vshift R show } def
/UP { dup vpt_ mul /vpt exch def hpt_ mul /hpt exch def
  /hpt2 hpt 2 mul def /vpt2 vpt 2 mul def } def
/DL { Color {setrgbcolor Solid {pop []} if 0 setdash }
 {pop pop pop 0 setgray Solid {pop []} if 0 setdash} ifelse } def
/BL { stroke userlinewidth 2 mul setlinewidth
      Rounded { 1 setlinejoin 1 setlinecap } if } def
/AL { stroke userlinewidth 2 div setlinewidth
      Rounded { 1 setlinejoin 1 setlinecap } if } def
/UL { dup gnulinewidth mul /userlinewidth exch def
      dup 1 lt {pop 1} if 10 mul /udl exch def } def
/PL { stroke userlinewidth setlinewidth
      Rounded { 1 setlinejoin 1 setlinecap } if } def
/LTw { PL [] 1 setgray } def
/LTb { BL [] 0 0 0 DL } def
/LTa { AL [1 udl mul 2 udl mul] 0 setdash 0 0 0 setrgbcolor } def
/LT0 { PL [] 1 0 0 DL } def
/LT1 { PL [4 dl 2 dl] 0 1 0 DL } def
/LT2 { PL [2 dl 3 dl] 0 0 1 DL } def
/LT3 { PL [1 dl 1.5 dl] 1 0 1 DL } def
/LT4 { PL [5 dl 2 dl 1 dl 2 dl] 0 1 1 DL } def
/LT5 { PL [4 dl 3 dl 1 dl 3 dl] 1 1 0 DL } def
/LT6 { PL [2 dl 2 dl 2 dl 4 dl] 0 0 0 DL } def
/LT7 { PL [2 dl 2 dl 2 dl 2 dl 2 dl 4 dl] 1 0.3 0 DL } def
/LT8 { PL [2 dl 2 dl 2 dl 2 dl 2 dl 2 dl 2 dl 4 dl] 0.5 0.5 0.5 DL } def
/Pnt { stroke [] 0 setdash
   gsave 1 setlinecap M 0 0 V stroke grestore } def
/Dia { stroke [] 0 setdash 2 copy vpt add M
  hpt neg vpt neg V hpt vpt neg V
  hpt vpt V hpt neg vpt V closepath stroke
  Pnt } def
/Pls { stroke [] 0 setdash vpt sub M 0 vpt2 V
  currentpoint stroke M
  hpt neg vpt neg R hpt2 0 V stroke
  } def
/Box { stroke [] 0 setdash 2 copy exch hpt sub exch vpt add M
  0 vpt2 neg V hpt2 0 V 0 vpt2 V
  hpt2 neg 0 V closepath stroke
  Pnt } def
/Crs { stroke [] 0 setdash exch hpt sub exch vpt add M
  hpt2 vpt2 neg V currentpoint stroke M
  hpt2 neg 0 R hpt2 vpt2 V stroke } def
/TriU { stroke [] 0 setdash 2 copy vpt 1.12 mul add M
  hpt neg vpt -1.62 mul V
  hpt 2 mul 0 V
  hpt neg vpt 1.62 mul V closepath stroke
  Pnt  } def
/Star { 2 copy Pls Crs } def
/BoxF { stroke [] 0 setdash exch hpt sub exch vpt add M
  0 vpt2 neg V  hpt2 0 V  0 vpt2 V
  hpt2 neg 0 V  closepath fill } def
/TriUF { stroke [] 0 setdash vpt 1.12 mul add M
  hpt neg vpt -1.62 mul V
  hpt 2 mul 0 V
  hpt neg vpt 1.62 mul V closepath fill } def
/TriD { stroke [] 0 setdash 2 copy vpt 1.12 mul sub M
  hpt neg vpt 1.62 mul V
  hpt 2 mul 0 V
  hpt neg vpt -1.62 mul V closepath stroke
  Pnt  } def
/TriDF { stroke [] 0 setdash vpt 1.12 mul sub M
  hpt neg vpt 1.62 mul V
  hpt 2 mul 0 V
  hpt neg vpt -1.62 mul V closepath fill} def
/DiaF { stroke [] 0 setdash vpt add M
  hpt neg vpt neg V hpt vpt neg V
  hpt vpt V hpt neg vpt V closepath fill } def
/Pent { stroke [] 0 setdash 2 copy gsave
  translate 0 hpt M 4 {72 rotate 0 hpt L} repeat
  closepath stroke grestore Pnt } def
/PentF { stroke [] 0 setdash gsave
  translate 0 hpt M 4 {72 rotate 0 hpt L} repeat
  closepath fill grestore } def
/Circle { stroke [] 0 setdash 2 copy
  hpt 0 360 arc stroke Pnt } def
/CircleF { stroke [] 0 setdash hpt 0 360 arc fill } def
/C0 { BL [] 0 setdash 2 copy moveto vpt 90 450  arc } bind def
/C1 { BL [] 0 setdash 2 copy        moveto
       2 copy  vpt 0 90 arc closepath fill
               vpt 0 360 arc closepath } bind def
/C2 { BL [] 0 setdash 2 copy moveto
       2 copy  vpt 90 180 arc closepath fill
               vpt 0 360 arc closepath } bind def
/C3 { BL [] 0 setdash 2 copy moveto
       2 copy  vpt 0 180 arc closepath fill
               vpt 0 360 arc closepath } bind def
/C4 { BL [] 0 setdash 2 copy moveto
       2 copy  vpt 180 270 arc closepath fill
               vpt 0 360 arc closepath } bind def
/C5 { BL [] 0 setdash 2 copy moveto
       2 copy  vpt 0 90 arc
       2 copy moveto
       2 copy  vpt 180 270 arc closepath fill
               vpt 0 360 arc } bind def
/C6 { BL [] 0 setdash 2 copy moveto
      2 copy  vpt 90 270 arc closepath fill
              vpt 0 360 arc closepath } bind def
/C7 { BL [] 0 setdash 2 copy moveto
      2 copy  vpt 0 270 arc closepath fill
              vpt 0 360 arc closepath } bind def
/C8 { BL [] 0 setdash 2 copy moveto
      2 copy vpt 270 360 arc closepath fill
              vpt 0 360 arc closepath } bind def
/C9 { BL [] 0 setdash 2 copy moveto
      2 copy  vpt 270 450 arc closepath fill
              vpt 0 360 arc closepath } bind def
/C10 { BL [] 0 setdash 2 copy 2 copy moveto vpt 270 360 arc closepath fill
       2 copy moveto
       2 copy vpt 90 180 arc closepath fill
               vpt 0 360 arc closepath } bind def
/C11 { BL [] 0 setdash 2 copy moveto
       2 copy  vpt 0 180 arc closepath fill
       2 copy moveto
       2 copy  vpt 270 360 arc closepath fill
               vpt 0 360 arc closepath } bind def
/C12 { BL [] 0 setdash 2 copy moveto
       2 copy  vpt 180 360 arc closepath fill
               vpt 0 360 arc closepath } bind def
/C13 { BL [] 0 setdash  2 copy moveto
       2 copy  vpt 0 90 arc closepath fill
       2 copy moveto
       2 copy  vpt 180 360 arc closepath fill
               vpt 0 360 arc closepath } bind def
/C14 { BL [] 0 setdash 2 copy moveto
       2 copy  vpt 90 360 arc closepath fill
               vpt 0 360 arc } bind def
/C15 { BL [] 0 setdash 2 copy vpt 0 360 arc closepath fill
               vpt 0 360 arc closepath } bind def
/Rec   { newpath 4 2 roll moveto 1 index 0 rlineto 0 exch rlineto
       neg 0 rlineto closepath } bind def
/Square { dup Rec } bind def
/Bsquare { vpt sub exch vpt sub exch vpt2 Square } bind def
/S0 { BL [] 0 setdash 2 copy moveto 0 vpt rlineto BL Bsquare } bind def
/S1 { BL [] 0 setdash 2 copy vpt Square fill Bsquare } bind def
/S2 { BL [] 0 setdash 2 copy exch vpt sub exch vpt Square fill Bsquare } bind def
/S3 { BL [] 0 setdash 2 copy exch vpt sub exch vpt2 vpt Rec fill Bsquare } bind def
/S4 { BL [] 0 setdash 2 copy exch vpt sub exch vpt sub vpt Square fill Bsquare } bind def
/S5 { BL [] 0 setdash 2 copy 2 copy vpt Square fill
       exch vpt sub exch vpt sub vpt Square fill Bsquare } bind def
/S6 { BL [] 0 setdash 2 copy exch vpt sub exch vpt sub vpt vpt2 Rec fill Bsquare } bind def
/S7 { BL [] 0 setdash 2 copy exch vpt sub exch vpt sub vpt vpt2 Rec fill
       2 copy vpt Square fill
       Bsquare } bind def
/S8 { BL [] 0 setdash 2 copy vpt sub vpt Square fill Bsquare } bind def
/S9 { BL [] 0 setdash 2 copy vpt sub vpt vpt2 Rec fill Bsquare } bind def
/S10 { BL [] 0 setdash 2 copy vpt sub vpt Square fill 2 copy exch vpt sub exch vpt Square fill
       Bsquare } bind def
/S11 { BL [] 0 setdash 2 copy vpt sub vpt Square fill 2 copy exch vpt sub exch vpt2 vpt Rec fill
       Bsquare } bind def
/S12 { BL [] 0 setdash 2 copy exch vpt sub exch vpt sub vpt2 vpt Rec fill Bsquare } bind def
/S13 { BL [] 0 setdash 2 copy exch vpt sub exch vpt sub vpt2 vpt Rec fill
       2 copy vpt Square fill Bsquare } bind def
/S14 { BL [] 0 setdash 2 copy exch vpt sub exch vpt sub vpt2 vpt Rec fill
       2 copy exch vpt sub exch vpt Square fill Bsquare } bind def
/S15 { BL [] 0 setdash 2 copy Bsquare fill Bsquare } bind def
/D0 { gsave translate 45 rotate 0 0 S0 stroke grestore } bind def
/D1 { gsave translate 45 rotate 0 0 S1 stroke grestore } bind def
/D2 { gsave translate 45 rotate 0 0 S2 stroke grestore } bind def
/D3 { gsave translate 45 rotate 0 0 S3 stroke grestore } bind def
/D4 { gsave translate 45 rotate 0 0 S4 stroke grestore } bind def
/D5 { gsave translate 45 rotate 0 0 S5 stroke grestore } bind def
/D6 { gsave translate 45 rotate 0 0 S6 stroke grestore } bind def
/D7 { gsave translate 45 rotate 0 0 S7 stroke grestore } bind def
/D8 { gsave translate 45 rotate 0 0 S8 stroke grestore } bind def
/D9 { gsave translate 45 rotate 0 0 S9 stroke grestore } bind def
/D10 { gsave translate 45 rotate 0 0 S10 stroke grestore } bind def
/D11 { gsave translate 45 rotate 0 0 S11 stroke grestore } bind def
/D12 { gsave translate 45 rotate 0 0 S12 stroke grestore } bind def
/D13 { gsave translate 45 rotate 0 0 S13 stroke grestore } bind def
/D14 { gsave translate 45 rotate 0 0 S14 stroke grestore } bind def
/D15 { gsave translate 45 rotate 0 0 S15 stroke grestore } bind def
/DiaE { stroke [] 0 setdash vpt add M
  hpt neg vpt neg V hpt vpt neg V
  hpt vpt V hpt neg vpt V closepath stroke } def
/BoxE { stroke [] 0 setdash exch hpt sub exch vpt add M
  0 vpt2 neg V hpt2 0 V 0 vpt2 V
  hpt2 neg 0 V closepath stroke } def
/TriUE { stroke [] 0 setdash vpt 1.12 mul add M
  hpt neg vpt -1.62 mul V
  hpt 2 mul 0 V
  hpt neg vpt 1.62 mul V closepath stroke } def
/TriDE { stroke [] 0 setdash vpt 1.12 mul sub M
  hpt neg vpt 1.62 mul V
  hpt 2 mul 0 V
  hpt neg vpt -1.62 mul V closepath stroke } def
/PentE { stroke [] 0 setdash gsave
  translate 0 hpt M 4 {72 rotate 0 hpt L} repeat
  closepath stroke grestore } def
/CircE { stroke [] 0 setdash 
  hpt 0 360 arc stroke } def
/Opaque { gsave closepath 1 setgray fill grestore 0 setgray closepath } def
/DiaW { stroke [] 0 setdash vpt add M
  hpt neg vpt neg V hpt vpt neg V
  hpt vpt V hpt neg vpt V Opaque stroke } def
/BoxW { stroke [] 0 setdash exch hpt sub exch vpt add M
  0 vpt2 neg V hpt2 0 V 0 vpt2 V
  hpt2 neg 0 V Opaque stroke } def
/TriUW { stroke [] 0 setdash vpt 1.12 mul add M
  hpt neg vpt -1.62 mul V
  hpt 2 mul 0 V
  hpt neg vpt 1.62 mul V Opaque stroke } def
/TriDW { stroke [] 0 setdash vpt 1.12 mul sub M
  hpt neg vpt 1.62 mul V
  hpt 2 mul 0 V
  hpt neg vpt -1.62 mul V Opaque stroke } def
/PentW { stroke [] 0 setdash gsave
  translate 0 hpt M 4 {72 rotate 0 hpt L} repeat
  Opaque stroke grestore } def
/CircW { stroke [] 0 setdash 
  hpt 0 360 arc Opaque stroke } def
/BoxFill { gsave Rec 1 setgray fill grestore } def
/BoxColFill {
  gsave Rec
  /Fillden exch def
  currentrgbcolor
  /ColB exch def /ColG exch def /ColR exch def
  /ColR ColR Fillden mul Fillden sub 1 add def
  /ColG ColG Fillden mul Fillden sub 1 add def
  /ColB ColB Fillden mul Fillden sub 1 add def
  ColR ColG ColB setrgbcolor
  fill grestore } def
%
% PostScript Level 1 Pattern Fill routine
% Usage: x y w h s a XX PatternFill
%	x,y = lower left corner of box to be filled
%	w,h = width and height of box
%	  a = angle in degrees between lines and x-axis
%	 XX = 0/1 for no/yes cross-hatch
%
/PatternFill { gsave /PFa [ 9 2 roll ] def
    PFa 0 get PFa 2 get 2 div add PFa 1 get PFa 3 get 2 div add translate
    PFa 2 get -2 div PFa 3 get -2 div PFa 2 get PFa 3 get Rec
    gsave 1 setgray fill grestore clip
    currentlinewidth 0.5 mul setlinewidth
    /PFs PFa 2 get dup mul PFa 3 get dup mul add sqrt def
    0 0 M PFa 5 get rotate PFs -2 div dup translate
	0 1 PFs PFa 4 get div 1 add floor cvi
	{ PFa 4 get mul 0 M 0 PFs V } for
    0 PFa 6 get ne {
	0 1 PFs PFa 4 get div 1 add floor cvi
	{ PFa 4 get mul 0 2 1 roll M PFs 0 V } for
    } if
    stroke grestore } def
%
/Symbol-Oblique /Symbol findfont [1 0 .167 1 0 0] makefont
dup length dict begin {1 index /FID eq {pop pop} {def} ifelse} forall
currentdict end definefont pop
/MFshow {
   { dup 5 get 3 ge
     { 5 get 3 eq {gsave} {grestore} ifelse }
     {dup dup 0 get findfont exch 1 get scalefont setfont
     [ currentpoint ] exch dup 2 get 0 exch R dup 5 get 2 ne {dup dup 6
     get exch 4 get {show} {stringwidth pop 0 R} ifelse }if dup 5 get 0 eq
     {dup 3 get {2 get neg 0 exch R pop} {pop aload pop M} ifelse} {dup 5
     get 1 eq {dup 2 get exch dup 3 get exch 6 get stringwidth pop -2 div
     dup 0 R} {dup 6 get stringwidth pop -2 div 0 R 6 get
     show 2 index {aload pop M neg 3 -1 roll neg R pop pop} {pop pop pop
     pop aload pop M} ifelse }ifelse }ifelse }
     ifelse }
   forall} bind def
/MFwidth {0 exch {dup 3 get{dup dup 0 get findfont exch 1 get scalefont
     setfont 6 get stringwidth pop add} {pop} ifelse} forall} bind def
/MLshow { currentpoint stroke M
  0 exch R MFshow } bind def
/MRshow { currentpoint stroke M
  exch dup MFwidth neg 3 -1 roll R MFshow } def
/MCshow { currentpoint stroke M
  exch dup MFwidth -2 div 3 -1 roll R MFshow } def
end
%%EndProlog
gnudict begin
gsave
50 50 translate
0.050 0.050 scale
0 setgray
newpath
(Times) findfont 220 scalefont setfont
1.000 UL
LTb
LTb
3600 4621 M
gsave 0 setgray
[ [(Times) 220.0 0.0 true true 0 (Im\(LT-BEM potential\))]
] -73.3 MCshow
grestore
3600 4401 M
gsave 0 setgray
[ [(Times) 220.0 0.0 true true 0 (cos 2t [p/\(p)]
[(Times) 176.0 110.0 true true 0 (2)]
[(Times) 220.0 0.0 true true 0 ( + 4\)] boundary condition)]
] -95.3 MCshow
grestore
1.000 UP
1.000 UL
LT0
2996 3464 M
83 45 V
1.000 UL
LT0
3223 3488 M
-144 21 V
1.000 UL
LT0
3140 3443 M
83 45 V
1.000 UL
LT0
3367 3466 M
-144 22 V
1.000 UL
LT0
2913 3419 M
83 45 V
1.000 UL
LT0
3140 3443 M
-144 21 V
1.000 UL
LT0
3284 3422 M
83 44 V
1.000 UL
LT0
3511 3446 M
-144 20 V
1.000 UL
LT0
3057 3398 M
83 45 V
1.000 UL
LT0
3284 3422 M
-144 21 V
1.000 UL
LT0
3428 3402 M
83 44 V
1.000 UL
LT0
3654 3426 M
-143 20 V
1.000 UL
LT0
2830 3374 M
83 45 V
1.000 UL
LT0
3057 3398 M
-144 21 V
1.000 UL
LT0
3201 3378 M
83 44 V
1.000 UL
LT0
3428 3402 M
-144 20 V
1.000 UL
LT0
3572 3383 M
82 43 V
1.000 UL
LT0
3798 3406 M
-144 20 V
1.000 UL
LT0
2974 3353 M
83 45 V
1.000 UL
LT0
3201 3378 M
-144 20 V
1.000 UL
LT0
3345 3358 M
83 44 V
1.000 UL
LT0
3572 3383 M
-144 19 V
1.000 UL
LT0
2747 3328 M
83 46 V
1.000 UL
LT0
2974 3353 M
-144 21 V
1.000 UL
LT0
3715 3364 M
83 42 V
1.000 UL
LT0
3942 3386 M
-144 20 V
1.000 UL
LT0
3118 3332 M
83 46 V
1.000 UL
LT0
3345 3358 M
-144 20 V
1.000 UL
LT0
3489 3339 M
83 44 V
1.000 UL
LT0
3715 3364 M
-143 19 V
1.000 UL
LT0
2891 3307 M
83 46 V
1.000 UL
LT0
3118 3332 M
-144 21 V
1.000 UL
LT0
3859 3345 M
82 41 V
1.000 UL
LT0
4086 3367 M
-55 7 V
1.000 UL
LT0
3262 3313 M
83 45 V
1.000 UL
LT0
3489 3339 M
-144 19 V
1.000 UL
LT0
2664 3282 M
83 46 V
1.000 UL
LT0
2891 3307 M
-144 21 V
1.000 UL
LT0
3632 3321 M
83 43 V
1.000 UL
LT0
3859 3345 M
-144 19 V
1.000 UL
LT0
3035 3286 M
83 46 V
1.000 UL
LT0
3262 3313 M
-144 19 V
1.000 UL
LT0
4041 3345 M
45 22 V
1.000 UL
LT0
4230 3347 M
-144 20 V
1.000 UL
LT0
3406 3294 M
83 45 V
1.000 UL
LT0
3632 3321 M
-143 18 V
1.000 UL
LT0
2808 3260 M
83 47 V
1.000 UL
LT0
3035 3286 M
-144 21 V
1.000 UL
LT0
3776 3304 M
83 41 V
1.000 UL
LT0
3911 3339 M
-52 6 V
1.000 UL
LT0
3179 3266 M
83 47 V
1.000 UL
LT0
3406 3294 M
-144 19 V
1.000 UL
LT0
4147 3309 M
83 38 V
1.000 UL
LT0
4374 3327 M
-144 20 V
1.000 UL
LT0
2581 3235 M
83 47 V
1.000 UL
LT0
2808 3260 M
-144 22 V
1.000 UL
LT0
3550 3277 M
82 44 V
1.000 UL
LT0
3776 3304 M
-144 17 V
1.000 UL
LT0
2952 3239 M
83 47 V
1.000 UL
LT0
3179 3266 M
-144 20 V
1.000 UL
LT0
4147 3309 M
-98 12 V
1.000 UL
LT0
3323 3248 M
83 46 V
1.000 UL
LT0
3550 3277 M
-144 17 V
1.000 UL
LT0
2725 3213 M
83 47 V
1.000 UL
LT0
2952 3239 M
-144 21 V
1.000 UL
LT0
4291 3290 M
83 37 V
1.000 UL
LT0
4518 3305 M
-144 22 V
1.000 UL
LT0
3693 3261 M
83 43 V
1.000 UL
LT0
3882 3292 M
-106 12 V
1.000 UL
LT0
3096 3219 M
83 47 V
1.000 UL
LT0
3323 3248 M
-144 18 V
1.000 UL
LT0
2497 3189 M
84 46 V
1.000 UL
LT0
2725 3213 M
-144 22 V
1.000 UL
LT0
4066 3272 M
81 37 V
1.000 UL
LT0
4291 3290 M
-144 19 V
1.000 UL
LT0
3467 3231 M
83 46 V
1.000 UL
LT0
3693 3261 M
-143 16 V
1.000 UL
LT0
2869 3191 M
83 48 V
1.000 UL
LT0
3096 3219 M
-144 20 V
1.000 UL
LT0
4435 3270 M
83 35 V
1.000 UL
LT0
4662 3283 M
-144 22 V
1.000 UL
LT0
3837 3247 M
25 12 V
1.000 UL
LT0
3240 3200 M
83 48 V
1.000 UL
LT0
3467 3231 M
-144 17 V
1.000 UL
LT0
2641 3166 M
84 47 V
1.000 UL
LT0
2869 3191 M
-144 22 V
1.000 UL
LT0
4208 3255 M
83 35 V
1.000 UL
LT0
4435 3270 M
-144 20 V
1.000 UL
LT0
3610 3217 M
83 44 V
1.000 UL
LT0
3837 3247 M
-144 14 V
1.000 UL
LT0
4579 3247 M
83 36 V
1.000 UL
LT0
4806 3258 M
-144 25 V
1.000 UL
LT0
3012 3170 M
84 49 V
1.000 UL
LT0
3240 3200 M
-144 19 V
1.000 UL
LT0
2414 3142 M
83 47 V
1.000 UL
LT0
2641 3166 M
-144 23 V
1.000 UL
LT0
4208 3255 M
-141 16 V
1.000 UL
LT0
3383 3183 M
84 48 V
1.000 UL
LT0
3610 3217 M
-143 14 V
1.000 UL
LT0
2785 3143 M
84 48 V
1.000 UL
LT0
3012 3170 M
-143 21 V
1.000 UL
LT0
4352 3236 M
83 34 V
1.000 UL
LT0
4579 3247 M
-144 23 V
1.000 UL
LT0
4723 3223 M
83 35 V
1.000 UL
LT0
4950 3232 M
-144 26 V
1.000 UL
LT0
3156 3150 M
84 50 V
1.000 UL
LT0
3383 3183 M
-143 17 V
1.000 UL
LT0
3753 3206 M
84 41 V
1.000 UL
LT0
2558 3118 M
83 48 V
1.000 UL
LT0
2785 3143 M
-144 23 V
1.000 UL
LT0
4125 3221 M
83 34 V
1.000 UL
LT0
4352 3236 M
-144 19 V
1.000 UL
LT0
2929 3120 M
83 50 V
1.000 UL
LT0
3156 3150 M
-144 20 V
1.000 UL
LT0
3527 3170 M
83 47 V
1.000 UL
LT0
3753 3206 M
-143 11 V
1.000 UL
LT0
4496 3215 M
83 32 V
1.000 UL
LT0
4723 3223 M
-144 24 V
1.000 UL
LT0
2331 3095 M
83 47 V
1.000 UL
LT0
2558 3118 M
-144 24 V
1.000 UL
LT0
4867 3196 M
83 36 V
1.000 UL
LT0
5094 3205 M
-144 27 V
1.000 UL
LT0
3300 3132 M
83 51 V
1.000 UL
LT0
3527 3170 M
-144 13 V
1.000 UL
LT0
4125 3221 M
-37 4 V
1.000 UL
LT0
2702 3094 M
83 49 V
1.000 UL
LT0
2929 3120 M
-144 23 V
1.000 UL
LT0
4268 3206 M
84 30 V
1.000 UL
LT0
4496 3215 M
-144 21 V
1.000 UL
LT0
3073 3098 M
83 52 V
1.000 UL
LT0
3300 3132 M
-144 18 V
1.000 UL
LT0
4639 3189 M
84 34 V
1.000 UL
LT0
4867 3196 M
-144 27 V
1.000 UL
LT0
3670 3161 M
83 45 V
1.000 UL
LT0
3831 3201 M
-78 5 V
1.000 UL
LT0
2475 3071 M
83 47 V
1.000 UL
LT0
2702 3094 M
-144 24 V
1.000 UL
LT0
5010 3168 M
84 37 V
1.000 UL
LT0
5238 3177 M
-144 28 V
1.000 UL
LT0
2846 3070 M
83 50 V
1.000 UL
LT0
3073 3098 M
-144 22 V
1.000 UL
LT0
3444 3118 M
83 52 V
1.000 UL
LT0
3670 3161 M
-143 9 V
1.000 UL
LT0
4102 3213 M
23 8 V
1.000 UL
LT0
4268 3206 M
-143 15 V
1.000 UL
LT0
2248 3050 M
83 45 V
1.000 UL
LT0
2475 3071 M
-144 24 V
1.000 UL
LT0
4412 3185 M
84 30 V
1.000 UL
LT0
4639 3189 M
-143 26 V
1.000 UL
LT0
4783 3161 M
84 35 V
1.000 UL
LT0
5010 3168 M
-143 28 V
1.000 UL
LT0
3217 3077 M
83 55 V
1.000 UL
LT0
3444 3118 M
-144 14 V
1.000 UL
LT0
5154 3139 M
84 38 V
1.000 UL
LT0
5382 3149 M
-144 28 V
1.000 UL
LT0
2619 3046 M
83 48 V
1.000 UL
LT0
2846 3070 M
-144 24 V
1.000 UL
LT0
2990 3046 M
83 52 V
1.000 UL
LT0
3217 3077 M
-144 21 V
1.000 UL
LT0
4185 3180 M
83 26 V
1.000 UL
LT0
4412 3185 M
-144 21 V
1.000 UL
LT0
3588 3110 M
82 51 V
1.000 UL
LT0
3810 3159 M
-140 2 V
1.000 UL
LT0
2392 3025 M
83 46 V
1.000 UL
LT0
2619 3046 M
-144 25 V
1.000 UL
LT0
4556 3159 M
83 30 V
1.000 UL
LT0
4783 3161 M
-144 28 V
1.000 UL
LT0
4927 3131 M
83 37 V
1.000 UL
LT0
5154 3139 M
-144 29 V
1.000 UL
LT0
5298 3109 M
84 40 V
1.000 UL
LT0
5525 3120 M
-143 29 V
1.000 UL
LT0
2763 3020 M
83 50 V
1.000 UL
LT0
2990 3046 M
-144 24 V
1.000 UL
LT0
3361 3059 M
83 59 V
1.000 UL
LT0
3588 3110 M
-144 8 V
1.000 UL
LT0
2165 3005 M
83 45 V
1.000 UL
LT0
2392 3025 M
-144 25 V
1.000 UL
LT0
4185 3180 M
-50 4 V
1.000 UL
LT0
3134 3021 M
83 56 V
1.000 UL
LT0
3361 3059 M
-144 18 V
1.000 UL
LT0
4329 3162 M
83 23 V
1.000 UL
LT0
4556 3159 M
-144 26 V
1.000 UL
LT0
2536 2999 M
83 47 V
1.000 UL
LT0
2763 3020 M
-144 26 V
1.000 UL
LT0
4700 3129 M
83 32 V
1.000 UL
LT0
4927 3131 M
-144 30 V
1.000 UL
LT0
5071 3101 M
83 38 V
1.000 UL
LT0
5298 3109 M
-144 30 V
1.000 UL
LT0
5442 3080 M
83 40 V
1.000 UL
LT0
5669 3092 M
-144 28 V
1.000 UL
LT0
3731 3114 M
78 42 V
1.000 UL
LT0
2907 2993 M
83 53 V
1.000 UL
LT0
3134 3021 M
-144 25 V
1.000 UL
LT0
3853 3245 M
-55 -635 V
1.000 UL
LT0
3626 2731 M
41 -128 V
1.000 UL
LT0
3505 3047 M
83 63 V
1.000 UL
LT0
3731 3114 M
-143 -4 V
1.000 UL
LT0
2309 2979 M
83 46 V
1.000 UL
LT0
2536 2999 M
-144 26 V
1.000 UL
LT0
3278 2995 M
83 64 V
1.000 UL
LT0
3505 3047 M
-144 12 V
1.000 UL
LT0
4148 3173 M
37 7 V
1.000 UL
LT0
4329 3162 M
-144 18 V
1.000 UL
LT0
4844 3096 M
83 35 V
1.000 UL
LT0
5071 3101 M
-144 30 V
1.000 UL
LT0
4473 3134 M
83 25 V
1.000 UL
LT0
4700 3129 M
-144 30 V
1.000 UL
LT0
2680 2972 M
83 48 V
1.000 UL
LT0
2907 2993 M
-144 27 V
1.000 UL
LT0
5215 3069 M
83 40 V
1.000 UL
LT0
5442 3080 M
-144 29 V
1.000 UL
LT0
5586 3050 M
83 42 V
1.000 UL
LT0
5813 3063 M
-144 29 V
1.000 UL
LT0
3051 2964 M
83 57 V
1.000 UL
LT0
3278 2995 M
-144 26 V
1.000 UL
LT0
2082 2961 M
83 44 V
1.000 UL
LT0
2309 2979 M
-144 26 V
1.000 UL
LT0
2453 2953 M
83 46 V
1.000 UL
LT0
2680 2972 M
-144 27 V
1.000 UL
LT0
4988 3062 M
83 39 V
1.000 UL
LT0
5215 3069 M
-144 32 V
1.000 UL
LT0
4617 3098 M
83 31 V
1.000 UL
LT0
4844 3096 M
-144 33 V
1.000 UL
LT0
2824 2942 M
83 51 V
1.000 UL
LT0
3051 2964 M
-144 29 V
1.000 UL
LT0
5359 3039 M
83 41 V
1.000 UL
LT0
5586 3050 M
-144 30 V
1.000 UL
LT0
3648 3049 M
83 65 V
1.000 UL
LT0
3792 3123 M
-61 -9 V
1.000 UL
LT0
4246 3149 M
83 13 V
1.000 UL
LT0
4473 3134 M
-144 28 V
1.000 UL
LT0
3422 2971 M
83 76 V
1.000 UL
LT0
3648 3049 M
-143 -2 V
1.000 UL
LT0
5730 3021 M
83 42 V
1.000 UL
LT0
3195 2932 M
83 63 V
1.000 UL
LT0
3422 2971 M
-144 24 V
1.000 UL
LT0
2226 2935 M
83 44 V
1.000 UL
LT0
2453 2953 M
-144 26 V
1.000 UL
LT0
2597 2925 M
83 47 V
1.000 UL
LT0
2824 2942 M
-144 30 V
1.000 UL
LT0
4761 3061 M
83 35 V
1.000 UL
LT0
4988 3062 M
-144 34 V
1.000 UL
LT0
5132 3029 M
83 40 V
1.000 UL
LT0
5359 3039 M
-144 30 V
1.000 UL
LT0
2968 2910 M
83 54 V
1.000 UL
LT0
3195 2932 M
-144 32 V
1.000 UL
LT0
5503 3009 M
83 41 V
1.000 UL
LT0
5730 3021 M
-144 29 V
1.000 UL
LT0
4390 3115 M
83 19 V
1.000 UL
LT0
4617 3098 M
-144 36 V
1.000 UL
LT0
1999 2918 M
83 43 V
1.000 UL
LT0
2226 2935 M
-144 26 V
1.000 UL
LT0
3339 2893 M
83 78 V
1.000 UL
LT0
3566 2950 M
-144 21 V
1.000 UL
LT0
2370 2908 M
83 45 V
1.000 UL
LT0
2597 2925 M
-144 28 V
1.000 UL
LT0
3566 2950 M
82 99 V
1.000 UL
LT0
3774 3086 M
-126 -37 V
1.000 UL
LT0
2741 2895 M
83 47 V
1.000 UL
LT0
2968 2910 M
-144 32 V
1.000 UL
LT0
4905 3024 M
83 38 V
1.000 UL
LT0
5132 3029 M
-144 33 V
1.000 UL
LT0
5276 2997 M
83 42 V
1.000 UL
LT0
5503 3009 M
-144 30 V
1.000 UL
LT0
3112 2873 M
83 59 V
1.000 UL
LT0
3339 2893 M
-144 39 V
1.000 UL
LT0
4534 3070 M
83 28 V
1.000 UL
LT0
4761 3061 M
-144 37 V
1.000 UL
LT0
5647 2979 M
83 42 V
1.000 UL
LT0
2143 2892 M
83 43 V
1.000 UL
LT0
2370 2908 M
-144 27 V
1.000 UL
LT0
4163 3160 M
83 -11 V
1.000 UL
LT0
4390 3115 M
-144 34 V
1.000 UL
LT0
2514 2880 M
83 45 V
1.000 UL
LT0
2741 2895 M
-144 30 V
1.000 UL
LT0
3483 2838 M
83 112 V
1.000 UL
LT0
3709 2955 M
-143 -5 V
1.000 UL
LT0
2885 2861 M
83 49 V
1.000 UL
LT0
3112 2873 M
-144 37 V
1.000 UL
LT0
5049 2988 M
83 41 V
1.000 UL
LT0
5276 2997 M
-144 32 V
1.000 UL
LT0
3256 2827 M
83 66 V
1.000 UL
LT0
3483 2838 M
-144 55 V
1.000 UL
LT0
4678 3025 M
83 36 V
1.000 UL
LT0
4905 3024 M
-144 37 V
1.000 UL
LT0
5420 2966 M
83 43 V
1.000 UL
LT0
5647 2979 M
-144 30 V
1.000 UL
LT0
1916 2876 M
83 42 V
1.000 UL
LT0
2143 2892 M
-144 26 V
1.000 UL
LT0
3997 3474 M
-72 -828 V
1.000 UL
LT0
4307 3106 M
83 9 V
1.000 UL
LT0
4534 3070 M
-144 45 V
1.000 UL
LT0
2287 2865 M
83 43 V
1.000 UL
LT0
2514 2880 M
-144 28 V
1.000 UL
LT0
3544 2662 M
82 69 V
1.000 UL
LT0
3709 2955 M
-83 -224 V
1.000 UL
LT0
3483 2838 M
143 -107 V
1.000 UL
LT0
3400 2763 M
83 75 V
1.000 UL
LT0
2658 2850 M
83 45 V
1.000 UL
LT0
2885 2861 M
-144 34 V
1.000 UL
LT0
3029 2823 M
83 50 V
1.000 UL
LT0
3256 2827 M
-144 46 V
1.000 UL
LT0
4822 2983 M
83 41 V
1.000 UL
LT0
5049 2988 M
-144 36 V
1.000 UL
LT0
5193 2955 M
83 42 V
1.000 UL
LT0
5420 2966 M
-144 31 V
1.000 UL
LT0
5564 2936 M
83 43 V
1.000 UL
LT0
4451 3041 M
83 29 V
1.000 UL
LT0
4678 3025 M
-144 45 V
1.000 UL
LT0
3853 3245 M
3709 2955 L
1.000 UL
LT0
2060 2850 M
83 42 V
1.000 UL
LT0
2287 2865 M
-144 27 V
1.000 UL
LT0
2431 2837 M
83 43 V
1.000 UL
LT0
2658 2850 M
-144 30 V
1.000 UL
LT0
3173 2778 M
83 49 V
1.000 UL
LT0
3400 2763 M
-144 64 V
1.000 UL
LT0
3544 2662 M
58 -54 V
1.000 UL
LT0
2802 2817 M
83 44 V
1.000 UL
LT0
3029 2823 M
-144 38 V
1.000 UL
LT0
4966 2946 M
83 42 V
1.000 UL
LT0
5193 2955 M
-144 33 V
1.000 UL
LT0
5337 2923 M
83 43 V
1.000 UL
LT0
5564 2936 M
-144 30 V
1.000 UL
LT0
4595 2985 M
83 40 V
1.000 UL
LT0
4822 2983 M
-144 42 V
1.000 UL
LT0
3461 2659 M
83 3 V
1.000 UL
LT0
3400 2763 M
144 -101 V
1.000 UL
LT0
3317 2723 M
83 40 V
1.000 UL
LT0
4080 3232 M
83 -72 V
1.000 UL
LT0
4307 3106 M
-144 54 V
1.000 UL
LT0
1833 2835 M
83 41 V
1.000 UL
LT0
2060 2850 M
-144 26 V
1.000 UL
LT0
2204 2824 M
83 41 V
1.000 UL
LT0
2431 2837 M
-144 28 V
1.000 UL
LT0
2575 2807 M
83 43 V
1.000 UL
LT0
2802 2817 M
-144 33 V
1.000 UL
LT0
2946 2780 M
83 43 V
1.000 UL
LT0
3173 2778 M
-144 45 V
1.000 UL
LT0
4224 3102 M
83 4 V
1.000 UL
LT0
4451 3041 M
-144 65 V
1.000 UL
LT0
5110 2911 M
83 44 V
1.000 UL
LT0
5337 2923 M
-144 32 V
1.000 UL
LT0
4739 2939 M
83 44 V
1.000 UL
LT0
4966 2946 M
-144 37 V
1.000 UL
LT0
5481 2892 M
83 44 V
1.000 UL
LT0
1977 2809 M
83 41 V
1.000 UL
LT0
2204 2824 M
-144 26 V
1.000 UL
LT0
4368 3000 M
83 41 V
1.000 UL
LT0
4595 2985 M
-144 56 V
1.000 UL
LT0
3090 2740 M
83 38 V
1.000 UL
LT0
3317 2723 M
-144 55 V
1.000 UL
LT0
2348 2796 M
83 41 V
1.000 UL
LT0
2575 2807 M
-144 30 V
1.000 UL
LT0
2719 2776 M
83 41 V
1.000 UL
LT0
2946 2780 M
-144 37 V
1.000 UL
LT0
4883 2900 M
83 46 V
1.000 UL
LT0
5110 2911 M
-144 35 V
1.000 UL
LT0
5254 2878 M
83 45 V
1.000 UL
LT0
5481 2892 M
-144 31 V
1.000 UL
LT0
4512 2935 M
83 50 V
1.000 UL
LT0
4739 2939 M
-144 46 V
1.000 UL
LT0
3234 2696 M
83 27 V
1.000 UL
LT0
3461 2659 M
-144 64 V
1.000 UL
LT0
1749 2795 M
84 40 V
1.000 UL
LT0
1977 2809 M
-144 26 V
1.000 UL
LT0
2121 2783 M
83 41 V
1.000 UL
LT0
2348 2796 M
-144 28 V
1.000 UL
LT0
2863 2742 M
83 38 V
1.000 UL
LT0
3090 2740 M
-144 40 V
1.000 UL
LT0
2492 2767 M
83 40 V
1.000 UL
LT0
2719 2776 M
-144 31 V
1.000 UL
LT0
3378 2651 M
83 8 V
1.000 UL
LT0
3593 2609 M
-132 50 V
1.000 UL
LT0
5027 2864 M
83 47 V
1.000 UL
LT0
5254 2878 M
-144 33 V
1.000 UL
LT0
4656 2888 M
83 51 V
1.000 UL
LT0
4883 2900 M
-144 39 V
1.000 UL
LT0
5398 2847 M
83 45 V
1.000 UL
LT0
1893 2769 M
84 40 V
1.000 UL
LT0
2121 2783 M
-144 26 V
1.000 UL
LT0
3689 2602 M
-40 2 V
1.000 UL
LT0
4285 2924 M
83 76 V
1.000 UL
LT0
4512 2935 M
-144 65 V
1.000 UL
LT0
4224 3102 M
144 -102 V
1.000 UL
LT0
4141 3033 M
83 69 V
1.000 UL
LT0
4080 3232 M
144 -130 V
1.000 UL
LT0
3006 2706 M
84 34 V
1.000 UL
LT0
3234 2696 M
-144 44 V
1.000 UL
LT0
2264 2756 M
84 40 V
1.000 UL
LT0
2492 2767 M
-144 29 V
1.000 UL
LT0
2635 2737 M
84 39 V
1.000 UL
LT0
2863 2742 M
-144 34 V
1.000 UL
LT0
4800 2849 M
83 51 V
1.000 UL
LT0
5027 2864 M
-144 36 V
1.000 UL
LT0
5171 2832 M
83 46 V
1.000 UL
LT0
5398 2847 M
-144 31 V
1.000 UL
LT0
3997 3474 M
83 -242 V
1.000 UL
LT0
4429 2869 M
83 66 V
1.000 UL
LT0
4656 2888 M
-144 47 V
1.000 UL
LT0
1666 2755 M
83 40 V
1.000 UL
LT0
1893 2769 M
-144 26 V
1.000 UL
LT0
3975 2672 M
83 137 V
1.000 UL
LT0
4202 2812 M
-144 -3 V
1.000 UL
LT0
4141 3033 M
-83 -224 V
1.000 UL
LT0
3150 2669 M
84 27 V
1.000 UL
LT0
3378 2651 M
-144 45 V
1.000 UL
LT0
2037 2743 M
84 40 V
1.000 UL
LT0
2264 2756 M
-143 27 V
1.000 UL
LT0
2408 2728 M
84 39 V
1.000 UL
LT0
2635 2737 M
-143 30 V
1.000 UL
LT0
2779 2705 M
84 37 V
1.000 UL
LT0
3006 2706 M
-143 36 V
1.000 UL
LT0
4573 2829 M
83 59 V
1.000 UL
LT0
4800 2849 M
-144 39 V
1.000 UL
LT0
4944 2816 M
83 48 V
1.000 UL
LT0
5171 2832 M
-144 32 V
1.000 UL
LT0
3891 2629 M
84 43 V
1.000 UL
LT0
4119 2714 M
-144 -42 V
1.000 UL
LT0
3891 2629 M
-132 -27 V
1.000 UL
LT0
4202 2812 M
83 112 V
1.000 UL
LT0
4429 2869 M
-144 55 V
1.000 UL
LT0
4141 3033 M
144 -109 V
1.000 UL
LT0
5315 2801 M
83 46 V
1.000 UL
LT0
3997 3474 M
144 -441 V
1.000 UL
LT0
3294 2634 M
84 17 V
1.000 UL
LT0
3521 2617 M
-143 34 V
1.000 UL
LT0
3997 3474 M
3853 3245 L
1.000 UL
LT0
1810 2730 M
83 39 V
1.000 UL
LT0
2037 2743 M
-144 26 V
1.000 UL
LT0
2181 2717 M
83 39 V
1.000 UL
LT0
2408 2728 M
-144 28 V
1.000 UL
LT0
4346 2791 M
83 78 V
1.000 UL
LT0
4573 2829 M
-144 40 V
1.000 UL
LT0
2923 2673 M
83 33 V
1.000 UL
LT0
3150 2669 M
-144 37 V
1.000 UL
LT0
2552 2699 M
83 38 V
1.000 UL
LT0
2779 2705 M
-144 32 V
1.000 UL
LT0
4717 2795 M
83 54 V
1.000 UL
LT0
4944 2816 M
-144 33 V
1.000 UL
LT0
4119 2714 M
83 98 V
1.000 UL
LT0
4346 2791 M
-144 21 V
1.000 UL
LT0
5088 2784 M
83 48 V
1.000 UL
LT0
5315 2801 M
-144 31 V
1.000 UL
LT0
3438 2606 M
83 11 V
1.000 UL
LT0
3664 2602 M
-143 15 V
1.000 UL
LT0
1583 2716 M
83 39 V
1.000 UL
LT0
1810 2730 M
-144 25 V
1.000 UL
LT0
4490 2765 M
83 64 V
1.000 UL
LT0
4717 2795 M
-144 34 V
1.000 UL
LT0
1954 2704 M
83 39 V
1.000 UL
LT0
2181 2717 M
-144 26 V
1.000 UL
LT0
3067 2641 M
83 28 V
1.000 UL
LT0
3294 2634 M
-144 35 V
1.000 UL
LT0
2325 2690 M
83 38 V
1.000 UL
LT0
2552 2699 M
-144 29 V
1.000 UL
LT0
4861 2764 M
83 52 V
1.000 UL
LT0
5088 2784 M
-144 32 V
1.000 UL
LT0
2696 2670 M
83 35 V
1.000 UL
LT0
2923 2673 M
-144 32 V
1.000 UL
LT0
3808 2603 M
83 26 V
1.000 UL
LT0
4035 2650 M
-144 -21 V
1.000 UL
LT0
5232 2754 M
83 47 V
1.000 UL
LT0
4035 2650 M
84 64 V
1.000 UL
LT0
4262 2715 M
-143 -1 V
1.000 UL
LT0
4262 2715 M
84 76 V
1.000 UL
LT0
4490 2765 M
-144 26 V
1.000 UL
LT0
1727 2691 M
83 39 V
1.000 UL
LT0
1954 2704 M
-144 26 V
1.000 UL
LT0
3582 2587 M
82 15 V
1.000 UL
LT0
3808 2603 M
-144 -1 V
1.000 UL
LT0
4634 2738 M
83 57 V
1.000 UL
LT0
4861 2764 M
-144 31 V
1.000 UL
LT0
3211 2611 M
83 23 V
1.000 UL
LT0
3438 2606 M
-144 28 V
1.000 UL
LT0
2098 2679 M
83 38 V
1.000 UL
LT0
2325 2690 M
-144 27 V
1.000 UL
LT0
5005 2735 M
83 49 V
1.000 UL
LT0
5232 2754 M
-144 30 V
1.000 UL
LT0
2469 2662 M
83 37 V
1.000 UL
LT0
2696 2670 M
-144 29 V
1.000 UL
LT0
2840 2640 M
83 33 V
1.000 UL
LT0
3067 2641 M
-144 32 V
1.000 UL
LT0
4406 2701 M
84 64 V
1.000 UL
LT0
4634 2738 M
-144 27 V
1.000 UL
LT0
1500 2677 M
83 39 V
1.000 UL
LT0
1727 2691 M
-144 25 V
1.000 UL
LT0
4179 2652 M
83 63 V
1.000 UL
LT0
4406 2701 M
-144 14 V
1.000 UL
LT0
1871 2666 M
83 38 V
1.000 UL
LT0
2098 2679 M
-144 25 V
1.000 UL
LT0
4777 2711 M
84 53 V
1.000 UL
LT0
5005 2735 M
-144 29 V
1.000 UL
LT0
3952 2605 M
83 45 V
1.000 UL
LT0
4179 2652 M
-144 -2 V
1.000 UL
LT0
3355 2584 M
83 22 V
1.000 UL
LT0
3582 2587 M
-144 19 V
1.000 UL
LT0
2242 2652 M
83 38 V
1.000 UL
LT0
2469 2662 M
-144 28 V
1.000 UL
LT0
2984 2611 M
83 30 V
1.000 UL
LT0
3211 2611 M
-144 30 V
1.000 UL
LT0
5148 2706 M
84 48 V
1.000 UL
LT0
2613 2635 M
83 35 V
1.000 UL
LT0
2840 2640 M
-144 30 V
1.000 UL
LT0
3725 2576 M
83 27 V
1.000 UL
LT0
3952 2605 M
-144 -2 V
1.000 UL
LT0
4550 2681 M
84 57 V
1.000 UL
LT0
4777 2711 M
-143 27 V
1.000 UL
LT0
1644 2652 M
83 39 V
1.000 UL
LT0
1871 2666 M
-144 25 V
1.000 UL
LT0
4921 2684 M
84 51 V
1.000 UL
LT0
5148 2706 M
-143 29 V
1.000 UL
LT0
2015 2641 M
83 38 V
1.000 UL
LT0
2242 2652 M
-144 27 V
1.000 UL
LT0
4323 2643 M
83 58 V
1.000 UL
LT0
4550 2681 M
-144 20 V
1.000 UL
LT0
2386 2626 M
83 36 V
1.000 UL
LT0
2613 2635 M
-144 27 V
1.000 UL
LT0
3128 2583 M
83 28 V
1.000 UL
LT0
3355 2584 M
-144 27 V
1.000 UL
LT0
2757 2607 M
83 33 V
1.000 UL
LT0
2984 2611 M
-144 29 V
1.000 UL
LT0
3499 2563 M
83 24 V
1.000 UL
LT0
3725 2576 M
-143 11 V
1.000 UL
LT0
4096 2601 M
83 51 V
1.000 UL
LT0
4323 2643 M
-144 9 V
1.000 UL
LT0
1644 2652 M
-144 25 V
1.000 UL
LT0
4694 2658 M
83 53 V
1.000 UL
LT0
4921 2684 M
-144 27 V
1.000 UL
LT0
3869 2567 M
83 38 V
1.000 UL
LT0
4096 2601 M
-144 4 V
1.000 UL
LT0
1788 2627 M
83 39 V
1.000 UL
LT0
2015 2641 M
-144 25 V
1.000 UL
LT0
5065 2658 M
83 48 V
1.000 UL
LT0
2159 2615 M
83 37 V
1.000 UL
LT0
2386 2626 M
-144 26 V
1.000 UL
LT0
2530 2599 M
83 36 V
1.000 UL
LT0
2757 2607 M
-144 28 V
1.000 UL
LT0
2901 2579 M
83 32 V
1.000 UL
LT0
3128 2583 M
-144 28 V
1.000 UL
LT0
3272 2558 M
83 26 V
1.000 UL
LT0
3499 2563 M
-144 21 V
1.000 UL
LT0
4467 2626 M
83 55 V
1.000 UL
LT0
4694 2658 M
-144 23 V
1.000 UL
LT0
3642 2547 M
83 29 V
1.000 UL
LT0
3869 2567 M
-144 9 V
1.000 UL
LT0
4838 2634 M
83 50 V
1.000 UL
LT0
5065 2658 M
-144 26 V
1.000 UL
LT0
1788 2627 M
-144 25 V
1.000 UL
LT0
4240 2591 M
83 52 V
1.000 UL
LT0
4467 2626 M
-144 17 V
1.000 UL
LT0
1932 2603 M
83 38 V
1.000 UL
LT0
2159 2615 M
-144 26 V
1.000 UL
LT0
2303 2590 M
83 36 V
1.000 UL
LT0
2530 2599 M
-144 27 V
1.000 UL
LT0
2674 2573 M
83 34 V
1.000 UL
LT0
2901 2579 M
-144 28 V
1.000 UL
LT0
4013 2558 M
83 43 V
1.000 UL
LT0
4240 2591 M
-144 10 V
1.000 UL
LT0
3045 2553 M
83 30 V
1.000 UL
LT0
3272 2558 M
-144 25 V
1.000 UL
LT0
3416 2535 M
83 28 V
1.000 UL
LT0
3642 2547 M
-143 16 V
1.000 UL
LT0
4611 2606 M
83 52 V
1.000 UL
LT0
4838 2634 M
-144 24 V
1.000 UL
LT0
4982 2609 M
83 49 V
1.000 UL
LT0
1932 2603 M
-144 24 V
1.000 UL
LT0
3786 2532 M
83 35 V
1.000 UL
LT0
4013 2558 M
-144 9 V
1.000 UL
LT0
4384 2576 M
83 50 V
1.000 UL
LT0
4611 2606 M
-144 20 V
1.000 UL
LT0
2076 2578 M
83 37 V
1.000 UL
LT0
2303 2590 M
-144 25 V
1.000 UL
LT0
2447 2564 M
83 35 V
1.000 UL
LT0
2674 2573 M
-144 26 V
1.000 UL
LT0
2818 2546 M
83 33 V
1.000 UL
LT0
3045 2553 M
-144 26 V
1.000 UL
LT0
3189 2528 M
83 30 V
1.000 UL
LT0
3416 2535 M
-144 23 V
1.000 UL
LT0
4755 2584 M
83 50 V
1.000 UL
LT0
4982 2609 M
-144 25 V
1.000 UL
LT0
4157 2545 M
83 46 V
1.000 UL
LT0
4384 2576 M
-144 15 V
1.000 UL
LT0
3560 2516 M
82 31 V
1.000 UL
LT0
3786 2532 M
-144 15 V
1.000 UL
LT0
2076 2578 M
-144 25 V
1.000 UL
LT0
2220 2554 M
83 36 V
1.000 UL
LT0
2447 2564 M
-144 26 V
1.000 UL
LT0
3930 2518 M
83 40 V
1.000 UL
LT0
4157 2545 M
-144 13 V
1.000 UL
LT0
4528 2557 M
83 49 V
1.000 UL
LT0
4755 2584 M
-144 22 V
1.000 UL
LT0
2591 2539 M
83 34 V
1.000 UL
LT0
2818 2546 M
-144 27 V
1.000 UL
LT0
2962 2521 M
83 32 V
1.000 UL
LT0
3189 2528 M
-144 25 V
1.000 UL
LT0
3333 2505 M
83 30 V
1.000 UL
LT0
3560 2516 M
-144 19 V
1.000 UL
LT0
4899 2560 M
83 49 V
1.000 UL
LT0
4301 2528 M
83 48 V
1.000 UL
LT0
4528 2557 M
-144 19 V
1.000 UL
LT0
3703 2498 M
83 34 V
1.000 UL
LT0
3930 2518 M
-144 14 V
1.000 UL
LT0
2220 2554 M
-144 24 V
1.000 UL
LT0
2364 2529 M
83 35 V
1.000 UL
LT0
2591 2539 M
-144 25 V
1.000 UL
LT0
4672 2535 M
83 49 V
1.000 UL
LT0
4899 2560 M
-144 24 V
1.000 UL
LT0
2735 2514 M
83 32 V
1.000 UL
LT0
2962 2521 M
-144 25 V
1.000 UL
LT0
4074 2502 M
83 43 V
1.000 UL
LT0
4301 2528 M
-144 17 V
1.000 UL
LT0
3106 2497 M
83 31 V
1.000 UL
LT0
3333 2505 M
-144 23 V
1.000 UL
LT0
3477 2483 M
83 33 V
1.000 UL
LT0
3703 2498 M
-143 18 V
1.000 UL
LT0
4445 2510 M
83 47 V
1.000 UL
LT0
4672 2535 M
-144 22 V
1.000 UL
LT0
3847 2480 M
83 38 V
1.000 UL
LT0
4074 2502 M
-144 16 V
1.000 UL
LT0
2364 2529 M
-144 25 V
1.000 UL
LT0
2508 2506 M
83 33 V
1.000 UL
LT0
2735 2514 M
-144 25 V
1.000 UL
LT0
2879 2489 M
83 32 V
1.000 UL
LT0
3106 2497 M
-144 24 V
1.000 UL
LT0
4816 2513 M
83 47 V
1.000 UL
LT0
3250 2473 M
83 32 V
1.000 UL
LT0
3477 2483 M
-144 22 V
1.000 UL
LT0
4218 2484 M
83 44 V
1.000 UL
LT0
4445 2510 M
-144 18 V
1.000 UL
LT0
3620 2462 M
83 36 V
1.000 UL
LT0
3847 2480 M
-144 18 V
1.000 UL
LT0
4589 2489 M
83 46 V
1.000 UL
LT0
4816 2513 M
-144 22 V
1.000 UL
LT0
2508 2506 M
-144 23 V
1.000 UL
LT0
3991 2461 M
83 41 V
1.000 UL
LT0
4218 2484 M
-144 18 V
1.000 UL
LT0
2652 2481 M
83 33 V
1.000 UL
LT0
2879 2489 M
-144 25 V
1.000 UL
LT0
3023 2464 M
83 33 V
1.000 UL
LT0
3250 2473 M
-144 24 V
1.000 UL
LT0
3394 2449 M
83 34 V
1.000 UL
LT0
3620 2462 M
-143 21 V
1.000 UL
LT0
4362 2465 M
83 45 V
1.000 UL
LT0
4589 2489 M
-144 21 V
1.000 UL
LT0
3764 2442 M
83 38 V
1.000 UL
LT0
3991 2461 M
-144 19 V
1.000 UL
LT0
4733 2467 M
83 46 V
1.000 UL
LT0
2652 2481 M
-144 25 V
1.000 UL
LT0
2796 2456 M
83 33 V
1.000 UL
LT0
3023 2464 M
-144 25 V
1.000 UL
LT0
4135 2441 M
83 43 V
1.000 UL
LT0
4362 2465 M
-144 19 V
1.000 UL
LT0
3167 2439 M
83 34 V
1.000 UL
LT0
3394 2449 M
-144 24 V
1.000 UL
LT0
3538 2427 M
82 35 V
1.000 UL
LT0
3764 2442 M
-144 20 V
1.000 UL
LT0
4506 2443 M
83 46 V
1.000 UL
LT0
4733 2467 M
-144 22 V
1.000 UL
LT0
3908 2421 M
83 40 V
1.000 UL
LT0
4135 2441 M
-144 20 V
1.000 UL
LT0
2796 2456 M
-144 25 V
1.000 UL
LT0
2940 2431 M
83 33 V
1.000 UL
LT0
3167 2439 M
-144 25 V
1.000 UL
LT0
4279 2421 M
83 44 V
1.000 UL
LT0
4506 2443 M
-144 22 V
1.000 UL
LT0
3311 2415 M
83 34 V
1.000 UL
LT0
3538 2427 M
-144 22 V
1.000 UL
LT0
3681 2404 M
83 38 V
1.000 UL
LT0
3908 2421 M
-144 21 V
1.000 UL
LT0
4650 2421 M
83 46 V
1.000 UL
LT0
4052 2400 M
83 41 V
1.000 UL
LT0
4279 2421 M
-144 20 V
1.000 UL
LT0
2940 2431 M
-144 25 V
1.000 UL
LT0
3084 2406 M
83 33 V
1.000 UL
LT0
3311 2415 M
-144 24 V
1.000 UL
LT0
4423 2399 M
83 44 V
1.000 UL
LT0
4650 2421 M
-144 22 V
1.000 UL
LT0
3455 2391 M
83 36 V
1.000 UL
LT0
3681 2404 M
-143 23 V
1.000 UL
LT0
3825 2381 M
83 40 V
1.000 UL
LT0
4052 2400 M
-144 21 V
1.000 UL
LT0
4196 2378 M
83 43 V
1.000 UL
LT0
4423 2399 M
-144 22 V
1.000 UL
LT0
3084 2406 M
-144 25 V
1.000 UL
LT0
3228 2380 M
83 35 V
1.000 UL
LT0
3455 2391 M
-144 24 V
1.000 UL
LT0
4567 2376 M
83 45 V
1.000 UL
LT0
3599 2366 M
82 38 V
1.000 UL
LT0
3825 2381 M
-144 23 V
1.000 UL
LT0
3969 2359 M
83 41 V
1.000 UL
LT0
4196 2378 M
-144 22 V
1.000 UL
LT0
4340 2355 M
83 44 V
1.000 UL
LT0
4567 2376 M
-144 23 V
1.000 UL
LT0
3228 2380 M
-144 26 V
1.000 UL
LT0
3372 2355 M
83 36 V
1.000 UL
LT0
3599 2366 M
-144 25 V
1.000 UL
LT0
3742 2342 M
83 39 V
1.000 UL
LT0
3969 2359 M
-144 22 V
1.000 UL
LT0
4113 2335 M
83 43 V
1.000 UL
LT0
4340 2355 M
-144 23 V
1.000 UL
LT0
3372 2355 M
-144 25 V
1.000 UL
LT0
4484 2332 M
83 44 V
1.000 UL
LT0
3515 2329 M
84 37 V
1.000 UL
LT0
3742 2342 M
-143 24 V
1.000 UL
LT0
3886 2318 M
83 41 V
1.000 UL
LT0
4113 2335 M
-144 24 V
1.000 UL
LT0
4257 2312 M
83 43 V
1.000 UL
LT0
4484 2332 M
-144 23 V
1.000 UL
LT0
3515 2329 M
-143 26 V
1.000 UL
LT0
3658 2303 M
84 39 V
1.000 UL
LT0
3886 2318 M
-144 24 V
1.000 UL
LT0
4029 2293 M
84 42 V
1.000 UL
LT0
4257 2312 M
-144 23 V
1.000 UL
LT0
4400 2288 M
84 44 V
1.000 UL
LT0
3658 2303 M
-143 26 V
1.000 UL
LT0
3802 2277 M
84 41 V
1.000 UL
LT0
4029 2293 M
-143 25 V
1.000 UL
LT0
4173 2269 M
84 43 V
1.000 UL
LT0
4400 2288 M
-143 24 V
1.000 UL
LT0
3802 2277 M
-144 26 V
1.000 UL
LT0
3946 2252 M
83 41 V
1.000 UL
LT0
4173 2269 M
-144 24 V
1.000 UL
LT0
4317 2244 M
83 44 V
1.000 UL
LT0
3946 2252 M
-144 25 V
1.000 UL
LT0
4090 2226 M
83 43 V
1.000 UL
LT0
4317 2244 M
-144 25 V
1.000 UL
LT0
4090 2226 M
-144 26 V
1.000 UL
LT0
4234 2201 M
83 43 V
1.000 UL
LT0
4234 2201 M
-144 25 V
1.000 UL
LT0
1.000 UL
LT1
LT2
1.000 UL
LT2
4002 1577 M
-6 1 V
1.000 UL
LT2
3996 1578 M
-7 2 V
1.000 UL
LT2
3989 1580 M
12 0 V
1.000 UL
LT2
4002 1577 M
-1 3 V
LT3
1.000 UL
LT3
4024 1574 M
-34 1 V
1.000 UL
LT3
3990 1575 M
-38 11 V
1.000 UL
LT3
3952 1586 M
68 4 V
1.000 UL
LT3
4024 1574 M
-4 16 V
LT4
1.000 UL
LT4
4046 1570 M
-62 1 V
1.000 UL
LT4
3984 1571 M
-68 21 V
1.000 UL
LT4
3916 1592 M
123 8 V
1.000 UL
LT4
4046 1570 M
-7 30 V
LT5
1.000 UL
LT5
4069 1566 M
-91 2 V
1.000 UL
LT5
3978 1568 M
-99 31 V
1.000 UL
LT5
3879 1599 M
178 11 V
1.000 UL
LT5
4069 1566 M
-12 44 V
LT6
1.000 UL
LT6
4091 1562 M
-119 3 V
1.000 UL
LT6
3972 1565 M
-121 37 V
1.000 UL
LT6
3851 1602 M
-7 3 V
1.000 UL
LT6
3844 1605 M
28 8 V
1.000 UL
LT6
3872 1613 M
204 7 V
1.000 UL
LT6
4091 1562 M
-15 58 V
LT7
1.000 UL
LT7
4114 1558 M
-148 4 V
1.000 UL
LT7
3966 1562 M
-121 37 V
1.000 UL
LT7
3845 1599 M
-31 11 V
1.000 UL
LT7
3814 1610 M
121 37 V
1.000 UL
LT7
3935 1647 M
2 0 V
1.000 UL
LT7
4118 1641 M
-181 6 V
1.000 UL
LT7
4152 1609 M
-34 32 V
1.000 UL
LT7
4114 1558 M
38 51 V
LT8
1.000 UL
LT8
4183 1575 M
65 17 V
1.000 UL
LT8
4136 1554 M
47 21 V
1.000 UL
LT8
4136 1554 M
-176 5 V
1.000 UL
LT8
3960 1559 M
-121 37 V
1.000 UL
LT8
3839 1596 M
-54 19 V
1.000 UL
LT8
3785 1615 M
82 43 V
1.000 UL
LT8
3867 1658 M
134 23 V
1.000 UL
LT8
4149 1667 M
-148 14 V
1.000 UL
LT8
4166 1666 M
-17 1 V
1.000 UL
LT8
4173 1663 M
-7 3 V
1.000 UL
LT8
4251 1611 M
-78 52 V
1.000 UL
LT8
4248 1592 M
3 19 V
LT0
1.000 UL
LT0
4365 1570 M
6 1 V
1.000 UL
LT0
4230 1538 M
135 32 V
1.000 UL
LT0
4230 1538 M
-113 3 V
1.000 UL
LT0
4117 1541 M
-163 15 V
1.000 UL
LT0
3954 1556 M
-121 37 V
1.000 UL
LT0
3833 1593 M
-78 27 V
1.000 UL
LT0
3755 1620 M
45 50 V
1.000 UL
LT0
3800 1670 M
95 41 V
1.000 UL
LT0
3895 1711 M
193 25 V
1.000 UL
LT0
4088 1736 M
23 1 V
1.000 UL
LT0
4282 1727 M
-171 10 V
1.000 UL
LT0
4403 1690 M
-121 37 V
1.000 UL
LT0
4418 1678 M
-15 12 V
1.000 UL
LT0
4446 1616 M
-28 62 V
1.000 UL
LT0
4400 1588 M
46 28 V
1.000 UL
LT0
4371 1571 M
29 17 V
LT1
1.000 UL
LT1
4637 1512 M
56 3 V
1.000 UL
LT1
4457 1498 M
180 14 V
1.000 UL
LT1
4457 1498 M
-35 2 V
1.000 UL
LT1
4422 1500 M
-177 7 V
1.000 UL
LT1
4245 1507 M
-158 18 V
1.000 UL
LT1
4087 1525 M
-139 28 V
1.000 UL
LT1
3948 1553 M
-121 37 V
1.000 UL
LT1
3827 1590 M
-101 35 V
1.000 UL
LT1
3726 1625 M
15 20 V
1.000 UL
LT1
3741 1645 M
-71 48 V
1.000 UL
LT1
3670 1693 M
19 25 V
1.000 UL
LT1
3689 1718 M
-12 31 V
1.000 UL
LT1
3677 1749 M
56 48 V
1.000 UL
LT1
3733 1797 M
95 42 V
1.000 UL
LT1
3828 1839 M
133 34 V
1.000 UL
LT1
3961 1873 M
41 8 V
1.000 UL
LT1
4002 1881 M
142 18 V
1.000 UL
LT1
4144 1899 M
102 9 V
1.000 UL
LT1
4246 1908 M
176 0 V
1.000 UL
LT1
4422 1908 M
17 1 V
1.000 UL
LT1
4610 1898 M
-171 11 V
1.000 UL
LT1
4758 1875 M
-148 23 V
1.000 UL
LT1
4887 1842 M
-129 33 V
1.000 UL
LT1
4943 1818 M
-56 24 V
1.000 UL
LT1
4992 1797 M
-49 21 V
1.000 UL
LT1
5059 1740 M
-67 57 V
1.000 UL
LT1
5063 1734 M
-4 6 V
1.000 UL
LT1
5073 1680 M
-10 54 V
1.000 UL
LT1
5035 1629 M
38 51 V
1.000 UL
LT1
4959 1584 M
76 45 V
1.000 UL
LT1
4850 1545 M
109 39 V
1.000 UL
LT1
4693 1515 M
157 30 V
LT2
1.000 UL
LT2
1686 1374 M
-144 25 V
1.000 UL
LT2
1830 1349 M
-144 25 V
1.000 UL
LT2
1974 1324 M
-144 25 V
1.000 UL
LT2
2118 1299 M
-144 25 V
1.000 UL
LT2
2261 1274 M
-143 25 V
1.000 UL
LT2
2405 1249 M
-144 25 V
1.000 UL
LT2
2549 1224 M
-144 25 V
1.000 UL
LT2
2693 1199 M
-144 25 V
1.000 UL
LT2
2837 1174 M
-144 25 V
1.000 UL
LT2
2981 1149 M
-144 25 V
1.000 UL
LT2
3125 1124 M
-144 25 V
1.000 UL
LT2
3269 1099 M
-144 25 V
1.000 UL
LT2
3413 1074 M
-144 25 V
1.000 UL
LT2
3557 1049 M
-144 25 V
1.000 UL
LT2
3700 1024 M
-143 25 V
1.000 UL
LT2
3844 999 M
-144 25 V
1.000 UL
LT2
3988 974 M
-144 25 V
1.000 UL
LT2
4132 949 M
-144 25 V
1.000 UL
LT2
4299 948 M
-167 1 V
1.000 UL
LT2
4299 948 M
69 46 V
1.000 UL
LT2
4368 994 M
54 48 V
1.000 UL
LT2
4422 1042 M
34 52 V
1.000 UL
LT2
4456 1094 M
-1 23 V
1.000 UL
LT2
4455 1117 M
19 32 V
1.000 UL
LT2
4474 1149 M
-5 59 V
1.000 UL
LT2
4469 1208 M
-11 11 V
1.000 UL
LT2
4458 1219 M
-14 51 V
1.000 UL
LT2
4444 1270 M
-33 24 V
1.000 UL
LT2
4411 1294 M
-29 44 V
1.000 UL
LT2
4382 1338 M
-39 21 V
1.000 UL
LT2
4343 1359 M
-82 57 V
1.000 UL
LT2
4261 1416 M
-1 1 V
1.000 UL
LT2
4260 1417 M
-102 45 V
1.000 UL
LT2
4158 1462 M
-101 48 V
1.000 UL
LT2
4057 1510 M
1.000 UL
LT2
4057 1510 M
-115 40 V
1.000 UL
LT2
3942 1550 M
-120 37 V
1.000 UL
LT2
3822 1587 M
-126 34 V
1.000 UL
LT2
3696 1621 M
-125 31 V
1.000 UL
LT2
3571 1652 M
-4 2 V
1.000 UL
LT2
3567 1654 M
-131 31 V
1.000 UL
LT2
3436 1685 M
-134 31 V
1.000 UL
LT2
3302 1716 M
-133 30 V
1.000 UL
LT2
3169 1746 M
-128 33 V
1.000 UL
LT2
3041 1779 M
-121 37 V
1.000 UL
LT2
2920 1816 M
-39 14 V
1.000 UL
LT2
2881 1830 M
-69 30 V
1.000 UL
LT2
2812 1860 M
-93 52 V
1.000 UL
LT2
2719 1912 M
-9 5 V
1.000 UL
LT2
2710 1917 M
-65 57 V
1.000 UL
LT2
4216 905 M
60 19 V
LT3
1.000 UL
LT3
3755 1352 M
109 18 V
1.000 UL
LT3
3663 1348 M
92 4 V
1.000 UL
LT3
3549 1344 M
114 4 V
1.000 UL
LT3
3549 1344 M
-164 15 V
1.000 UL
LT3
3385 1359 M
-135 29 V
1.000 UL
LT3
3250 1388 M
-104 46 V
1.000 UL
LT3
3146 1434 M
-5 4 V
1.000 UL
LT3
3141 1438 M
-38 65 V
1.000 UL
LT3
3103 1503 M
18 18 V
1.000 UL
LT3
3121 1521 M
30 31 V
1.000 UL
LT3
3151 1552 M
66 19 V
1.000 UL
LT3
3217 1571 M
49 19 V
1.000 UL
LT3
3266 1590 M
195 24 V
1.000 UL
LT3
3488 1613 M
-27 1 V
1.000 UL
LT3
3666 1606 M
-178 7 V
1.000 UL
LT3
3816 1584 M
-150 22 V
1.000 UL
LT3
3936 1547 M
-120 37 V
1.000 UL
LT3
4028 1515 M
-92 32 V
1.000 UL
LT3
3999 1479 M
29 36 V
1.000 UL
LT3
4034 1456 M
-35 23 V
1.000 UL
LT3
3978 1408 M
56 48 V
1.000 UL
LT3
3864 1370 M
114 38 V
LT4
1.000 UL
LT4
3717 1433 M
75 8 V
1.000 UL
LT4
3717 1433 M
-167 12 V
1.000 UL
LT4
3550 1445 M
-107 44 V
1.000 UL
LT4
3443 1489 M
-11 14 V
1.000 UL
LT4
3432 1503 M
21 54 V
1.000 UL
LT4
3453 1557 M
135 35 V
1.000 UL
LT4
3636 1590 M
-48 2 V
1.000 UL
LT4
3810 1581 M
-174 9 V
1.000 UL
LT4
3931 1544 M
-121 37 V
1.000 UL
LT4
3998 1520 M
-67 24 V
1.000 UL
LT4
3936 1473 M
62 47 V
1.000 UL
LT4
3792 1441 M
144 32 V
LT5
1.000 UL
LT5
3795 1473 M
73 12 V
1.000 UL
LT5
3795 1473 M
-171 11 V
1.000 UL
LT5
3624 1484 M
-57 54 V
1.000 UL
LT5
3567 1538 M
74 44 V
1.000 UL
LT5
3804 1578 M
-163 4 V
1.000 UL
LT5
3925 1541 M
-121 37 V
1.000 UL
LT5
3968 1525 M
-43 16 V
1.000 UL
LT5
3868 1485 M
100 40 V
LT6
1.000 UL
LT6
3859 1507 M
80 24 V
1.000 UL
LT6
3750 1506 M
109 1 V
1.000 UL
LT6
3750 1506 M
-79 2 V
1.000 UL
LT6
3671 1508 M
-15 14 V
1.000 UL
LT6
3656 1522 M
7 56 V
1.000 UL
LT6
3798 1575 M
-135 3 V
1.000 UL
LT6
3919 1538 M
-121 37 V
1.000 UL
LT6
3939 1531 M
-20 7 V
LT7
1.000 UL
LT7
3699 1523 M
209 13 V
1.000 UL
LT7
3699 1523 M
-14 52 V
1.000 UL
LT7
3792 1572 M
-107 3 V
1.000 UL
LT7
3908 1536 M
-116 36 V
LT8
1.000 UL
LT8
3718 1533 M
153 9 V
1.000 UL
LT8
3718 1533 M
-10 38 V
1.000 UL
LT8
3786 1568 M
-78 3 V
1.000 UL
LT8
3871 1542 M
-85 26 V
LT0
1.000 UL
LT0
3737 1543 M
97 6 V
1.000 UL
LT0
3737 1543 M
-7 24 V
1.000 UL
LT0
3780 1565 M
-50 2 V
1.000 UL
LT0
3834 1549 M
-54 16 V
LT1
1.000 UL
LT1
3756 1553 M
42 2 V
1.000 UL
LT1
3756 1553 M
-3 10 V
1.000 UL
LT1
3774 1562 M
-21 1 V
1.000 UL
LT1
3798 1555 M
-24 7 V
1.000 UL
LTb
4284 778 M
1870 974 V
1.000 UL
LTb
4284 778 M
1046 1340 L
1.000 UL
LTb
1046 1340 M
1870 975 V
1.000 UL
LTb
6154 1752 M
2916 2315 L
1.000 UL
LTb
1046 3288 M
0 -1948 V
1.000 UL
LTb
1046 1340 M
52 28 V
1.000 UL
LTb
936 1245 M
gsave 0 setgray
[ [(Times) 220.0 0.0 true true 0 (-2.5)]
] -73.3 MCshow
grestore
1.000 UL
LTb
1.000 UL
LTb
2864 2287 M
52 28 V
1.000 UL
LTb
1406 1278 M
52 27 V
1.000 UL
LTb
1296 1183 M
gsave 0 setgray
[ [(Times) 220.0 0.0 true true 0 (-2)]
] -73.3 MCshow
grestore
1.000 UL
LTb
1.000 UL
LTb
3224 2225 M
52 27 V
1.000 UL
LTb
1766 1215 M
52 28 V
1.000 UL
LTb
1656 1120 M
gsave 0 setgray
[ [(Times) 220.0 0.0 true true 0 (-1.5)]
] -73.3 MCshow
grestore
1.000 UL
LTb
1.000 UL
LTb
3583 2162 M
52 28 V
1.000 UL
LTb
2126 1153 M
52 27 V
1.000 UL
LTb
2016 1058 M
gsave 0 setgray
[ [(Times) 220.0 0.0 true true 0 (-1)]
] -73.3 MCshow
grestore
1.000 UL
LTb
1.000 UL
LTb
3942 2100 M
53 27 V
1.000 UL
LTb
2486 1090 M
52 28 V
1.000 UL
LTb
2376 995 M
gsave 0 setgray
[ [(Times) 220.0 0.0 true true 0 (-0.5)]
] -73.3 MCshow
grestore
1.000 UL
LTb
1.000 UL
LTb
4302 2037 M
53 28 V
1.000 UL
LTb
2845 1028 M
53 27 V
1.000 UL
LTb
2736 933 M
gsave 0 setgray
[ [(Times) 220.0 0.0 true true 0 ( 0)]
] -73.3 MCshow
grestore
1.000 UL
LTb
1.000 UL
LTb
4662 1975 M
52 27 V
1.000 UL
LTb
3205 965 M
53 28 V
1.000 UL
LTb
3096 870 M
gsave 0 setgray
[ [(Times) 220.0 0.0 true true 0 ( 0.5)]
] -73.3 MCshow
grestore
1.000 UL
LTb
1.000 UL
LTb
5022 1912 M
52 28 V
1.000 UL
LTb
3565 903 M
52 27 V
1.000 UL
LTb
3455 808 M
gsave 0 setgray
[ [(Times) 220.0 0.0 true true 0 ( 1)]
] -73.3 MCshow
grestore
1.000 UL
LTb
1.000 UL
LTb
5382 1850 M
52 27 V
1.000 UL
LTb
3924 840 M
52 28 V
1.000 UL
LTb
3814 745 M
gsave 0 setgray
[ [(Times) 220.0 0.0 true true 0 ( 1.5)]
] -73.3 MCshow
grestore
1.000 UL
LTb
1.000 UL
LTb
5742 1787 M
52 28 V
1.000 UL
LTb
4284 778 M
52 27 V
1.000 UL
LTb
4174 683 M
gsave 0 setgray
[ [(Times) 220.0 0.0 true true 0 ( 2)]
] -73.3 MCshow
grestore
1.000 UL
LTb
1.000 UL
LTb
6102 1725 M
52 27 V
LTb
2198 816 M
gsave 0 setgray
[ [(Times) 220.0 0.0 true true 0 (Re\(p\))]
] -73.3 MCshow
grestore
1.000 UL
LTb
4284 778 M
-55 9 V
stroke
4398 745 M
gsave 0 setgray
[ [(Times) 220.0 0.0 true true 0 (-0.5)]
] -73.3 MCshow
grestore
1.000 UL
LTb
1.000 UL
LTb
1101 1331 M
-55 9 V
1.000 UL
LTb
4492 886 M
-55 10 V
stroke
4606 853 M
gsave 0 setgray
[ [(Times) 220.0 0.0 true true 0 ( 0)]
] -73.3 MCshow
grestore
1.000 UL
LTb
1.000 UL
LTb
1308 1439 M
-54 10 V
1.000 UL
LTb
4700 994 M
-55 10 V
stroke
4814 961 M
gsave 0 setgray
[ [(Times) 220.0 0.0 true true 0 ( 0.5)]
] -73.3 MCshow
grestore
1.000 UL
LTb
1.000 UL
LTb
1516 1547 M
-54 10 V
1.000 UL
LTb
4907 1103 M
-54 9 V
stroke
5022 1070 M
gsave 0 setgray
[ [(Times) 220.0 0.0 true true 0 ( 1)]
] -73.3 MCshow
grestore
1.000 UL
LTb
1.000 UL
LTb
1724 1656 M
-55 9 V
1.000 UL
LTb
5115 1211 M
-54 9 V
stroke
5229 1178 M
gsave 0 setgray
[ [(Times) 220.0 0.0 true true 0 ( 1.5)]
] -73.3 MCshow
grestore
1.000 UL
LTb
1.000 UL
LTb
1932 1764 M
-55 9 V
1.000 UL
LTb
5323 1319 M
-55 10 V
stroke
5437 1286 M
gsave 0 setgray
[ [(Times) 220.0 0.0 true true 0 ( 2)]
] -73.3 MCshow
grestore
1.000 UL
LTb
1.000 UL
LTb
2139 1872 M
-54 10 V
1.000 UL
LTb
5531 1427 M
-55 10 V
stroke
5645 1394 M
gsave 0 setgray
[ [(Times) 220.0 0.0 true true 0 ( 2.5)]
] -73.3 MCshow
grestore
1.000 UL
LTb
1.000 UL
LTb
2347 1980 M
-54 10 V
1.000 UL
LTb
5738 1536 M
-54 9 V
stroke
5853 1503 M
gsave 0 setgray
[ [(Times) 220.0 0.0 true true 0 ( 3)]
] -73.3 MCshow
grestore
1.000 UL
LTb
1.000 UL
LTb
2555 2089 M
-55 9 V
1.000 UL
LTb
5946 1644 M
-54 9 V
stroke
6061 1611 M
gsave 0 setgray
[ [(Times) 220.0 0.0 true true 0 ( 3.5)]
] -73.3 MCshow
grestore
1.000 UL
LTb
1.000 UL
LTb
2763 2197 M
-55 9 V
1.000 UL
LTb
6154 1752 M
-55 10 V
stroke
6268 1719 M
gsave 0 setgray
[ [(Times) 220.0 0.0 true true 0 ( 4)]
] -73.3 MCshow
grestore
1.000 UL
LTb
1.000 UL
LTb
2971 2305 M
-55 10 V
LTb
6029 1124 M
gsave 0 setgray
[ [(Times) 220.0 0.0 true true 0 (Im\(p\))]
] -73.3 MCshow
grestore
1.000 UL
LTb
1109 1990 M
-63 0 V
stroke
920 1990 M
gsave 0 setgray
[ [(Times) 220.0 0.0 true true 0 (-5)]
] -73.3 MRshow
grestore
1.000 UL
LTb
1.000 UL
LTb
1109 2120 M
-63 0 V
stroke
920 2120 M
gsave 0 setgray
[ [(Times) 220.0 0.0 true true 0 (-4)]
] -73.3 MRshow
grestore
1.000 UL
LTb
1.000 UL
LTb
1109 2250 M
-63 0 V
stroke
920 2250 M
gsave 0 setgray
[ [(Times) 220.0 0.0 true true 0 (-3)]
] -73.3 MRshow
grestore
1.000 UL
LTb
1.000 UL
LTb
1109 2380 M
-63 0 V
stroke
920 2380 M
gsave 0 setgray
[ [(Times) 220.0 0.0 true true 0 (-2)]
] -73.3 MRshow
grestore
1.000 UL
LTb
1.000 UL
LTb
1109 2509 M
-63 0 V
stroke
920 2509 M
gsave 0 setgray
[ [(Times) 220.0 0.0 true true 0 (-1)]
] -73.3 MRshow
grestore
1.000 UL
LTb
1.000 UL
LTb
1109 2638 M
-63 0 V
stroke
920 2638 M
gsave 0 setgray
[ [(Times) 220.0 0.0 true true 0 ( 0)]
] -73.3 MRshow
grestore
1.000 UL
LTb
1.000 UL
LTb
1109 2768 M
-63 0 V
stroke
920 2768 M
gsave 0 setgray
[ [(Times) 220.0 0.0 true true 0 ( 1)]
] -73.3 MRshow
grestore
1.000 UL
LTb
1.000 UL
LTb
1109 2898 M
-63 0 V
stroke
920 2898 M
gsave 0 setgray
[ [(Times) 220.0 0.0 true true 0 ( 2)]
] -73.3 MRshow
grestore
1.000 UL
LTb
1.000 UL
LTb
1109 3028 M
-63 0 V
stroke
920 3028 M
gsave 0 setgray
[ [(Times) 220.0 0.0 true true 0 ( 3)]
] -73.3 MRshow
grestore
1.000 UL
LTb
1.000 UL
LTb
1109 3158 M
-63 0 V
stroke
920 3158 M
gsave 0 setgray
[ [(Times) 220.0 0.0 true true 0 ( 4)]
] -73.3 MRshow
grestore
1.000 UL
LTb
1.000 UL
LTb
1109 3288 M
-63 0 V
stroke
920 3288 M
gsave 0 setgray
[ [(Times) 220.0 0.0 true true 0 ( 5)]
] -73.3 MRshow
grestore
1.000 UL
LTb
1.000 UP
stroke
grestore
end
showpage
%%Trailer
%%DocumentFonts: Times
