%!PS-Adobe-2.0 EPSF-2.0
%%Title: potential_real_cosbc.eps
%%Creator: gnuplot 4.0 patchlevel 0
%%CreationDate: Fri Nov 17 17:00:22 2006
%%DocumentFonts: (atend)
%%BoundingBox: 50 50 410 302
%%Orientation: Portrait
%%EndComments
/gnudict 256 dict def
gnudict begin
/Color false def
/Solid false def
/gnulinewidth 5.000 def
/userlinewidth gnulinewidth def
/vshift -73 def
/dl {10.0 mul} def
/hpt_ 31.5 def
/vpt_ 31.5 def
/hpt hpt_ def
/vpt vpt_ def
/Rounded false def
/M {moveto} bind def
/L {lineto} bind def
/R {rmoveto} bind def
/V {rlineto} bind def
/N {newpath moveto} bind def
/C {setrgbcolor} bind def
/f {rlineto fill} bind def
/vpt2 vpt 2 mul def
/hpt2 hpt 2 mul def
/Lshow { currentpoint stroke M
  0 vshift R show } def
/Rshow { currentpoint stroke M
  dup stringwidth pop neg vshift R show } def
/Cshow { currentpoint stroke M
  dup stringwidth pop -2 div vshift R show } def
/UP { dup vpt_ mul /vpt exch def hpt_ mul /hpt exch def
  /hpt2 hpt 2 mul def /vpt2 vpt 2 mul def } def
/DL { Color {setrgbcolor Solid {pop []} if 0 setdash }
 {pop pop pop 0 setgray Solid {pop []} if 0 setdash} ifelse } def
/BL { stroke userlinewidth 2 mul setlinewidth
      Rounded { 1 setlinejoin 1 setlinecap } if } def
/AL { stroke userlinewidth 2 div setlinewidth
      Rounded { 1 setlinejoin 1 setlinecap } if } def
/UL { dup gnulinewidth mul /userlinewidth exch def
      dup 1 lt {pop 1} if 10 mul /udl exch def } def
/PL { stroke userlinewidth setlinewidth
      Rounded { 1 setlinejoin 1 setlinecap } if } def
/LTw { PL [] 1 setgray } def
/LTb { BL [] 0 0 0 DL } def
/LTa { AL [1 udl mul 2 udl mul] 0 setdash 0 0 0 setrgbcolor } def
/LT0 { PL [] 1 0 0 DL } def
/LT1 { PL [4 dl 2 dl] 0 1 0 DL } def
/LT2 { PL [2 dl 3 dl] 0 0 1 DL } def
/LT3 { PL [1 dl 1.5 dl] 1 0 1 DL } def
/LT4 { PL [5 dl 2 dl 1 dl 2 dl] 0 1 1 DL } def
/LT5 { PL [4 dl 3 dl 1 dl 3 dl] 1 1 0 DL } def
/LT6 { PL [2 dl 2 dl 2 dl 4 dl] 0 0 0 DL } def
/LT7 { PL [2 dl 2 dl 2 dl 2 dl 2 dl 4 dl] 1 0.3 0 DL } def
/LT8 { PL [2 dl 2 dl 2 dl 2 dl 2 dl 2 dl 2 dl 4 dl] 0.5 0.5 0.5 DL } def
/Pnt { stroke [] 0 setdash
   gsave 1 setlinecap M 0 0 V stroke grestore } def
/Dia { stroke [] 0 setdash 2 copy vpt add M
  hpt neg vpt neg V hpt vpt neg V
  hpt vpt V hpt neg vpt V closepath stroke
  Pnt } def
/Pls { stroke [] 0 setdash vpt sub M 0 vpt2 V
  currentpoint stroke M
  hpt neg vpt neg R hpt2 0 V stroke
  } def
/Box { stroke [] 0 setdash 2 copy exch hpt sub exch vpt add M
  0 vpt2 neg V hpt2 0 V 0 vpt2 V
  hpt2 neg 0 V closepath stroke
  Pnt } def
/Crs { stroke [] 0 setdash exch hpt sub exch vpt add M
  hpt2 vpt2 neg V currentpoint stroke M
  hpt2 neg 0 R hpt2 vpt2 V stroke } def
/TriU { stroke [] 0 setdash 2 copy vpt 1.12 mul add M
  hpt neg vpt -1.62 mul V
  hpt 2 mul 0 V
  hpt neg vpt 1.62 mul V closepath stroke
  Pnt  } def
/Star { 2 copy Pls Crs } def
/BoxF { stroke [] 0 setdash exch hpt sub exch vpt add M
  0 vpt2 neg V  hpt2 0 V  0 vpt2 V
  hpt2 neg 0 V  closepath fill } def
/TriUF { stroke [] 0 setdash vpt 1.12 mul add M
  hpt neg vpt -1.62 mul V
  hpt 2 mul 0 V
  hpt neg vpt 1.62 mul V closepath fill } def
/TriD { stroke [] 0 setdash 2 copy vpt 1.12 mul sub M
  hpt neg vpt 1.62 mul V
  hpt 2 mul 0 V
  hpt neg vpt -1.62 mul V closepath stroke
  Pnt  } def
/TriDF { stroke [] 0 setdash vpt 1.12 mul sub M
  hpt neg vpt 1.62 mul V
  hpt 2 mul 0 V
  hpt neg vpt -1.62 mul V closepath fill} def
/DiaF { stroke [] 0 setdash vpt add M
  hpt neg vpt neg V hpt vpt neg V
  hpt vpt V hpt neg vpt V closepath fill } def
/Pent { stroke [] 0 setdash 2 copy gsave
  translate 0 hpt M 4 {72 rotate 0 hpt L} repeat
  closepath stroke grestore Pnt } def
/PentF { stroke [] 0 setdash gsave
  translate 0 hpt M 4 {72 rotate 0 hpt L} repeat
  closepath fill grestore } def
/Circle { stroke [] 0 setdash 2 copy
  hpt 0 360 arc stroke Pnt } def
/CircleF { stroke [] 0 setdash hpt 0 360 arc fill } def
/C0 { BL [] 0 setdash 2 copy moveto vpt 90 450  arc } bind def
/C1 { BL [] 0 setdash 2 copy        moveto
       2 copy  vpt 0 90 arc closepath fill
               vpt 0 360 arc closepath } bind def
/C2 { BL [] 0 setdash 2 copy moveto
       2 copy  vpt 90 180 arc closepath fill
               vpt 0 360 arc closepath } bind def
/C3 { BL [] 0 setdash 2 copy moveto
       2 copy  vpt 0 180 arc closepath fill
               vpt 0 360 arc closepath } bind def
/C4 { BL [] 0 setdash 2 copy moveto
       2 copy  vpt 180 270 arc closepath fill
               vpt 0 360 arc closepath } bind def
/C5 { BL [] 0 setdash 2 copy moveto
       2 copy  vpt 0 90 arc
       2 copy moveto
       2 copy  vpt 180 270 arc closepath fill
               vpt 0 360 arc } bind def
/C6 { BL [] 0 setdash 2 copy moveto
      2 copy  vpt 90 270 arc closepath fill
              vpt 0 360 arc closepath } bind def
/C7 { BL [] 0 setdash 2 copy moveto
      2 copy  vpt 0 270 arc closepath fill
              vpt 0 360 arc closepath } bind def
/C8 { BL [] 0 setdash 2 copy moveto
      2 copy vpt 270 360 arc closepath fill
              vpt 0 360 arc closepath } bind def
/C9 { BL [] 0 setdash 2 copy moveto
      2 copy  vpt 270 450 arc closepath fill
              vpt 0 360 arc closepath } bind def
/C10 { BL [] 0 setdash 2 copy 2 copy moveto vpt 270 360 arc closepath fill
       2 copy moveto
       2 copy vpt 90 180 arc closepath fill
               vpt 0 360 arc closepath } bind def
/C11 { BL [] 0 setdash 2 copy moveto
       2 copy  vpt 0 180 arc closepath fill
       2 copy moveto
       2 copy  vpt 270 360 arc closepath fill
               vpt 0 360 arc closepath } bind def
/C12 { BL [] 0 setdash 2 copy moveto
       2 copy  vpt 180 360 arc closepath fill
               vpt 0 360 arc closepath } bind def
/C13 { BL [] 0 setdash  2 copy moveto
       2 copy  vpt 0 90 arc closepath fill
       2 copy moveto
       2 copy  vpt 180 360 arc closepath fill
               vpt 0 360 arc closepath } bind def
/C14 { BL [] 0 setdash 2 copy moveto
       2 copy  vpt 90 360 arc closepath fill
               vpt 0 360 arc } bind def
/C15 { BL [] 0 setdash 2 copy vpt 0 360 arc closepath fill
               vpt 0 360 arc closepath } bind def
/Rec   { newpath 4 2 roll moveto 1 index 0 rlineto 0 exch rlineto
       neg 0 rlineto closepath } bind def
/Square { dup Rec } bind def
/Bsquare { vpt sub exch vpt sub exch vpt2 Square } bind def
/S0 { BL [] 0 setdash 2 copy moveto 0 vpt rlineto BL Bsquare } bind def
/S1 { BL [] 0 setdash 2 copy vpt Square fill Bsquare } bind def
/S2 { BL [] 0 setdash 2 copy exch vpt sub exch vpt Square fill Bsquare } bind def
/S3 { BL [] 0 setdash 2 copy exch vpt sub exch vpt2 vpt Rec fill Bsquare } bind def
/S4 { BL [] 0 setdash 2 copy exch vpt sub exch vpt sub vpt Square fill Bsquare } bind def
/S5 { BL [] 0 setdash 2 copy 2 copy vpt Square fill
       exch vpt sub exch vpt sub vpt Square fill Bsquare } bind def
/S6 { BL [] 0 setdash 2 copy exch vpt sub exch vpt sub vpt vpt2 Rec fill Bsquare } bind def
/S7 { BL [] 0 setdash 2 copy exch vpt sub exch vpt sub vpt vpt2 Rec fill
       2 copy vpt Square fill
       Bsquare } bind def
/S8 { BL [] 0 setdash 2 copy vpt sub vpt Square fill Bsquare } bind def
/S9 { BL [] 0 setdash 2 copy vpt sub vpt vpt2 Rec fill Bsquare } bind def
/S10 { BL [] 0 setdash 2 copy vpt sub vpt Square fill 2 copy exch vpt sub exch vpt Square fill
       Bsquare } bind def
/S11 { BL [] 0 setdash 2 copy vpt sub vpt Square fill 2 copy exch vpt sub exch vpt2 vpt Rec fill
       Bsquare } bind def
/S12 { BL [] 0 setdash 2 copy exch vpt sub exch vpt sub vpt2 vpt Rec fill Bsquare } bind def
/S13 { BL [] 0 setdash 2 copy exch vpt sub exch vpt sub vpt2 vpt Rec fill
       2 copy vpt Square fill Bsquare } bind def
/S14 { BL [] 0 setdash 2 copy exch vpt sub exch vpt sub vpt2 vpt Rec fill
       2 copy exch vpt sub exch vpt Square fill Bsquare } bind def
/S15 { BL [] 0 setdash 2 copy Bsquare fill Bsquare } bind def
/D0 { gsave translate 45 rotate 0 0 S0 stroke grestore } bind def
/D1 { gsave translate 45 rotate 0 0 S1 stroke grestore } bind def
/D2 { gsave translate 45 rotate 0 0 S2 stroke grestore } bind def
/D3 { gsave translate 45 rotate 0 0 S3 stroke grestore } bind def
/D4 { gsave translate 45 rotate 0 0 S4 stroke grestore } bind def
/D5 { gsave translate 45 rotate 0 0 S5 stroke grestore } bind def
/D6 { gsave translate 45 rotate 0 0 S6 stroke grestore } bind def
/D7 { gsave translate 45 rotate 0 0 S7 stroke grestore } bind def
/D8 { gsave translate 45 rotate 0 0 S8 stroke grestore } bind def
/D9 { gsave translate 45 rotate 0 0 S9 stroke grestore } bind def
/D10 { gsave translate 45 rotate 0 0 S10 stroke grestore } bind def
/D11 { gsave translate 45 rotate 0 0 S11 stroke grestore } bind def
/D12 { gsave translate 45 rotate 0 0 S12 stroke grestore } bind def
/D13 { gsave translate 45 rotate 0 0 S13 stroke grestore } bind def
/D14 { gsave translate 45 rotate 0 0 S14 stroke grestore } bind def
/D15 { gsave translate 45 rotate 0 0 S15 stroke grestore } bind def
/DiaE { stroke [] 0 setdash vpt add M
  hpt neg vpt neg V hpt vpt neg V
  hpt vpt V hpt neg vpt V closepath stroke } def
/BoxE { stroke [] 0 setdash exch hpt sub exch vpt add M
  0 vpt2 neg V hpt2 0 V 0 vpt2 V
  hpt2 neg 0 V closepath stroke } def
/TriUE { stroke [] 0 setdash vpt 1.12 mul add M
  hpt neg vpt -1.62 mul V
  hpt 2 mul 0 V
  hpt neg vpt 1.62 mul V closepath stroke } def
/TriDE { stroke [] 0 setdash vpt 1.12 mul sub M
  hpt neg vpt 1.62 mul V
  hpt 2 mul 0 V
  hpt neg vpt -1.62 mul V closepath stroke } def
/PentE { stroke [] 0 setdash gsave
  translate 0 hpt M 4 {72 rotate 0 hpt L} repeat
  closepath stroke grestore } def
/CircE { stroke [] 0 setdash 
  hpt 0 360 arc stroke } def
/Opaque { gsave closepath 1 setgray fill grestore 0 setgray closepath } def
/DiaW { stroke [] 0 setdash vpt add M
  hpt neg vpt neg V hpt vpt neg V
  hpt vpt V hpt neg vpt V Opaque stroke } def
/BoxW { stroke [] 0 setdash exch hpt sub exch vpt add M
  0 vpt2 neg V hpt2 0 V 0 vpt2 V
  hpt2 neg 0 V Opaque stroke } def
/TriUW { stroke [] 0 setdash vpt 1.12 mul add M
  hpt neg vpt -1.62 mul V
  hpt 2 mul 0 V
  hpt neg vpt 1.62 mul V Opaque stroke } def
/TriDW { stroke [] 0 setdash vpt 1.12 mul sub M
  hpt neg vpt 1.62 mul V
  hpt 2 mul 0 V
  hpt neg vpt -1.62 mul V Opaque stroke } def
/PentW { stroke [] 0 setdash gsave
  translate 0 hpt M 4 {72 rotate 0 hpt L} repeat
  Opaque stroke grestore } def
/CircW { stroke [] 0 setdash 
  hpt 0 360 arc Opaque stroke } def
/BoxFill { gsave Rec 1 setgray fill grestore } def
/BoxColFill {
  gsave Rec
  /Fillden exch def
  currentrgbcolor
  /ColB exch def /ColG exch def /ColR exch def
  /ColR ColR Fillden mul Fillden sub 1 add def
  /ColG ColG Fillden mul Fillden sub 1 add def
  /ColB ColB Fillden mul Fillden sub 1 add def
  ColR ColG ColB setrgbcolor
  fill grestore } def
%
% PostScript Level 1 Pattern Fill routine
% Usage: x y w h s a XX PatternFill
%	x,y = lower left corner of box to be filled
%	w,h = width and height of box
%	  a = angle in degrees between lines and x-axis
%	 XX = 0/1 for no/yes cross-hatch
%
/PatternFill { gsave /PFa [ 9 2 roll ] def
    PFa 0 get PFa 2 get 2 div add PFa 1 get PFa 3 get 2 div add translate
    PFa 2 get -2 div PFa 3 get -2 div PFa 2 get PFa 3 get Rec
    gsave 1 setgray fill grestore clip
    currentlinewidth 0.5 mul setlinewidth
    /PFs PFa 2 get dup mul PFa 3 get dup mul add sqrt def
    0 0 M PFa 5 get rotate PFs -2 div dup translate
	0 1 PFs PFa 4 get div 1 add floor cvi
	{ PFa 4 get mul 0 M 0 PFs V } for
    0 PFa 6 get ne {
	0 1 PFs PFa 4 get div 1 add floor cvi
	{ PFa 4 get mul 0 2 1 roll M PFs 0 V } for
    } if
    stroke grestore } def
%
/Symbol-Oblique /Symbol findfont [1 0 .167 1 0 0] makefont
dup length dict begin {1 index /FID eq {pop pop} {def} ifelse} forall
currentdict end definefont pop
/MFshow {
   { dup 5 get 3 ge
     { 5 get 3 eq {gsave} {grestore} ifelse }
     {dup dup 0 get findfont exch 1 get scalefont setfont
     [ currentpoint ] exch dup 2 get 0 exch R dup 5 get 2 ne {dup dup 6
     get exch 4 get {show} {stringwidth pop 0 R} ifelse }if dup 5 get 0 eq
     {dup 3 get {2 get neg 0 exch R pop} {pop aload pop M} ifelse} {dup 5
     get 1 eq {dup 2 get exch dup 3 get exch 6 get stringwidth pop -2 div
     dup 0 R} {dup 6 get stringwidth pop -2 div 0 R 6 get
     show 2 index {aload pop M neg 3 -1 roll neg R pop pop} {pop pop pop
     pop aload pop M} ifelse }ifelse }ifelse }
     ifelse }
   forall} bind def
/MFwidth {0 exch {dup 3 get{dup dup 0 get findfont exch 1 get scalefont
     setfont 6 get stringwidth pop add} {pop} ifelse} forall} bind def
/MLshow { currentpoint stroke M
  0 exch R MFshow } bind def
/MRshow { currentpoint stroke M
  exch dup MFwidth neg 3 -1 roll R MFshow } def
/MCshow { currentpoint stroke M
  exch dup MFwidth -2 div 3 -1 roll R MFshow } def
end
%%EndProlog
gnudict begin
gsave
50 50 translate
0.050 0.050 scale
0 setgray
newpath
(Times) findfont 220 scalefont setfont
1.000 UL
LTb
LTb
3600 4621 M
gsave 0 setgray
[ [(Times) 220.0 0.0 true true 0 (Re\(LT-BEM potential\))]
] -73.3 MCshow
grestore
3600 4401 M
gsave 0 setgray
[ [(Times) 220.0 0.0 true true 0 (cos 2t [p/\(p)]
[(Times) 176.0 110.0 true true 0 (2)]
[(Times) 220.0 0.0 true true 0 ( + 4\)] boundary condition)]
] -95.3 MCshow
grestore
1.000 UP
1.000 UL
LT0
2996 3508 M
83 40 V
1.000 UL
LT0
3223 3524 M
-144 24 V
1.000 UL
LT0
3140 3484 M
83 40 V
1.000 UL
LT0
3367 3499 M
-144 25 V
1.000 UL
LT0
2913 3468 M
83 40 V
1.000 UL
LT0
3140 3484 M
-144 24 V
1.000 UL
LT0
3284 3460 M
83 39 V
1.000 UL
LT0
3511 3475 M
-144 24 V
1.000 UL
LT0
3057 3445 M
83 39 V
1.000 UL
LT0
3284 3460 M
-144 24 V
1.000 UL
LT0
3428 3436 M
83 39 V
1.000 UL
LT0
3654 3450 M
-143 25 V
1.000 UL
LT0
2830 3428 M
83 40 V
1.000 UL
LT0
3057 3445 M
-144 23 V
1.000 UL
LT0
3201 3422 M
83 38 V
1.000 UL
LT0
3428 3436 M
-144 24 V
1.000 UL
LT0
3572 3412 M
82 38 V
1.000 UL
LT0
3798 3424 M
-144 26 V
1.000 UL
LT0
2974 3406 M
83 39 V
1.000 UL
LT0
3201 3422 M
-144 23 V
1.000 UL
LT0
3345 3398 M
83 38 V
1.000 UL
LT0
3572 3412 M
-144 24 V
1.000 UL
LT0
3715 3386 M
83 38 V
1.000 UL
LT0
3942 3397 M
-69 13 V
1.000 UL
LT0
3808 3422 M
-10 2 V
1.000 UL
LT0
2747 3389 M
83 39 V
1.000 UL
LT0
2974 3406 M
-144 22 V
1.000 UL
LT0
3118 3383 M
83 39 V
1.000 UL
LT0
3345 3398 M
-144 24 V
1.000 UL
LT0
3489 3374 M
83 38 V
1.000 UL
LT0
3715 3386 M
-143 26 V
1.000 UL
LT0
3882 3370 M
60 27 V
1.000 UL
LT0
4086 3369 M
-144 28 V
1.000 UL
LT0
2891 3367 M
83 39 V
1.000 UL
LT0
3118 3383 M
-144 23 V
1.000 UL
LT0
3262 3361 M
83 37 V
1.000 UL
LT0
3489 3374 M
-144 24 V
1.000 UL
LT0
3632 3350 M
83 36 V
1.000 UL
LT0
3782 3374 M
-67 12 V
1.000 UL
LT0
4003 3332 M
83 37 V
1.000 UL
LT0
4230 3340 M
-144 29 V
1.000 UL
LT0
2664 3349 M
83 40 V
1.000 UL
LT0
2891 3367 M
-144 22 V
1.000 UL
LT0
3035 3345 M
83 38 V
1.000 UL
LT0
3262 3361 M
-144 22 V
1.000 UL
LT0
3406 3338 M
83 36 V
1.000 UL
LT0
3632 3350 M
-143 24 V
1.000 UL
LT0
4003 3332 M
-117 23 V
1.000 UL
LT0
4147 3303 M
83 37 V
1.000 UL
LT0
4374 3310 M
-144 30 V
1.000 UL
LT0
2808 3327 M
83 40 V
1.000 UL
LT0
3035 3345 M
-144 22 V
1.000 UL
LT0
3179 3323 M
83 38 V
1.000 UL
LT0
3406 3338 M
-144 23 V
1.000 UL
LT0
3550 3315 M
82 35 V
1.000 UL
LT0
3756 3328 M
-124 22 V
1.000 UL
LT0
3920 3297 M
83 35 V
1.000 UL
LT0
4147 3303 M
-144 29 V
1.000 UL
LT0
4291 3271 M
83 39 V
1.000 UL
LT0
4518 3279 M
-144 31 V
1.000 UL
LT0
2581 3308 M
83 41 V
1.000 UL
LT0
2808 3327 M
-144 22 V
1.000 UL
LT0
2952 3306 M
83 39 V
1.000 UL
LT0
3179 3323 M
-144 22 V
1.000 UL
LT0
3323 3302 M
83 36 V
1.000 UL
LT0
3550 3315 M
-144 23 V
1.000 UL
LT0
3693 3290 M
54 23 V
1.000 UL
LT0
3920 3297 M
-22 4 V
1.000 UL
LT0
4064 3267 M
83 36 V
1.000 UL
LT0
4291 3271 M
-144 32 V
1.000 UL
LT0
4435 3239 M
83 40 V
1.000 UL
LT0
4662 3247 M
-144 32 V
1.000 UL
LT0
2725 3287 M
83 40 V
1.000 UL
LT0
2952 3306 M
-144 21 V
1.000 UL
LT0
3096 3285 M
83 38 V
1.000 UL
LT0
3323 3302 M
-144 21 V
1.000 UL
LT0
3467 3280 M
83 35 V
1.000 UL
LT0
3693 3290 M
-143 25 V
1.000 UL
LT0
3900 3289 M
20 8 V
1.000 UL
LT0
4064 3267 M
-144 30 V
1.000 UL
LT0
4208 3235 M
83 36 V
1.000 UL
LT0
4435 3239 M
-144 32 V
1.000 UL
LT0
4579 3205 M
83 42 V
1.000 UL
LT0
4806 3214 M
-144 33 V
1.000 UL
LT0
2497 3268 M
84 40 V
1.000 UL
LT0
2725 3287 M
-144 21 V
1.000 UL
LT0
2869 3267 M
83 39 V
1.000 UL
LT0
3096 3285 M
-144 21 V
1.000 UL
LT0
3240 3266 M
83 36 V
1.000 UL
LT0
3467 3280 M
-144 22 V
1.000 UL
LT0
3610 3258 M
83 32 V
1.000 UL
LT0
3731 3283 M
-38 7 V
1.000 UL
LT0
4352 3200 M
83 39 V
1.000 UL
LT0
4579 3205 M
-144 34 V
1.000 UL
LT0
3981 3234 M
83 33 V
1.000 UL
LT0
4208 3235 M
-144 32 V
1.000 UL
LT0
4723 3171 M
83 43 V
1.000 UL
LT0
4950 3183 M
-144 31 V
1.000 UL
LT0
2641 3246 M
84 41 V
1.000 UL
LT0
2869 3267 M
-144 20 V
1.000 UL
LT0
3012 3247 M
84 38 V
1.000 UL
LT0
3240 3266 M
-144 19 V
1.000 UL
LT0
3383 3247 M
84 33 V
1.000 UL
LT0
3610 3258 M
-143 22 V
1.000 UL
LT0
4496 3163 M
83 42 V
1.000 UL
LT0
4723 3171 M
-144 34 V
1.000 UL
LT0
2414 3226 M
83 42 V
1.000 UL
LT0
2641 3246 M
-144 22 V
1.000 UL
LT0
4125 3200 M
83 35 V
1.000 UL
LT0
4352 3200 M
-144 35 V
1.000 UL
LT0
4867 3137 M
83 46 V
1.000 UL
LT0
5094 3152 M
-144 31 V
1.000 UL
LT0
3981 3234 M
-72 15 V
1.000 UL
LT0
2785 3226 M
84 41 V
1.000 UL
LT0
3012 3247 M
-143 20 V
1.000 UL
LT0
3156 3229 M
84 37 V
1.000 UL
LT0
3383 3247 M
-143 19 V
1.000 UL
LT0
4639 3126 M
84 45 V
1.000 UL
LT0
4867 3137 M
-144 34 V
1.000 UL
LT0
4268 3162 M
84 38 V
1.000 UL
LT0
4496 3163 M
-144 37 V
1.000 UL
LT0
3527 3228 M
83 30 V
1.000 UL
LT0
3706 3242 M
-96 16 V
1.000 UL
LT0
5010 3105 M
84 47 V
1.000 UL
LT0
5238 3122 M
-144 30 V
1.000 UL
LT0
3917 3213 M
64 21 V
1.000 UL
LT0
4125 3200 M
-144 34 V
1.000 UL
LT0
2558 3205 M
83 41 V
1.000 UL
LT0
2785 3226 M
-144 20 V
1.000 UL
LT0
2929 3207 M
83 40 V
1.000 UL
LT0
3156 3229 M
-144 18 V
1.000 UL
LT0
4412 3121 M
84 42 V
1.000 UL
LT0
4639 3126 M
-143 37 V
1.000 UL
LT0
4783 3091 M
84 46 V
1.000 UL
LT0
5010 3105 M
-143 32 V
1.000 UL
LT0
2331 3184 M
83 42 V
1.000 UL
LT0
2558 3205 M
-144 21 V
1.000 UL
LT0
3300 3212 M
83 35 V
1.000 UL
LT0
3527 3228 M
-144 19 V
1.000 UL
LT0
4041 3171 M
84 29 V
1.000 UL
LT0
4268 3162 M
-143 38 V
1.000 UL
LT0
5154 3074 M
84 48 V
1.000 UL
LT0
5382 3092 M
-144 30 V
1.000 UL
LT0
2702 3184 M
83 42 V
1.000 UL
LT0
2929 3207 M
-144 19 V
1.000 UL
LT0
3073 3190 M
83 39 V
1.000 UL
LT0
3300 3212 M
-144 17 V
1.000 UL
LT0
4556 3080 M
83 46 V
1.000 UL
LT0
4783 3091 M
-144 35 V
1.000 UL
LT0
4927 3057 M
83 48 V
1.000 UL
LT0
5154 3074 M
-144 31 V
1.000 UL
LT0
4185 3128 M
83 34 V
1.000 UL
LT0
4412 3121 M
-144 41 V
1.000 UL
LT0
2475 3162 M
83 43 V
1.000 UL
LT0
2702 3184 M
-144 21 V
1.000 UL
LT0
5298 3045 M
84 47 V
1.000 UL
LT0
5525 3064 M
-143 28 V
1.000 UL
LT0
3444 3198 M
83 30 V
1.000 UL
LT0
3654 3210 M
-127 18 V
1.000 UL
LT0
4041 3171 M
-121 29 V
1.000 UL
LT0
2846 3165 M
83 42 V
1.000 UL
LT0
3073 3190 M
-144 17 V
1.000 UL
LT0
4700 3042 M
83 49 V
1.000 UL
LT0
4927 3057 M
-144 34 V
1.000 UL
LT0
4329 3080 M
83 41 V
1.000 UL
LT0
4556 3080 M
-144 41 V
1.000 UL
LT0
2248 3142 M
83 42 V
1.000 UL
LT0
2475 3162 M
-144 22 V
1.000 UL
LT0
5071 3026 M
83 48 V
1.000 UL
LT0
5298 3045 M
-144 29 V
1.000 UL
LT0
3217 3176 M
83 36 V
1.000 UL
LT0
3444 3198 M
-144 14 V
1.000 UL
LT0
3958 3150 M
83 21 V
1.000 UL
LT0
4185 3128 M
-144 43 V
1.000 UL
LT0
5442 3017 M
83 47 V
1.000 UL
LT0
5669 3037 M
-144 27 V
1.000 UL
LT0
2619 3141 M
83 43 V
1.000 UL
LT0
2846 3165 M
-144 19 V
1.000 UL
LT0
3588 3186 M
46 13 V
1.000 UL
LT0
4473 3032 M
83 48 V
1.000 UL
LT0
4700 3042 M
-144 38 V
1.000 UL
LT0
2990 3149 M
83 41 V
1.000 UL
LT0
3217 3176 M
-144 14 V
1.000 UL
LT0
4844 3007 M
83 50 V
1.000 UL
LT0
5071 3026 M
-144 31 V
1.000 UL
LT0
5215 2997 M
83 48 V
1.000 UL
LT0
5442 3017 M
-144 28 V
1.000 UL
LT0
4102 3100 M
83 28 V
1.000 UL
LT0
4329 3080 M
-144 48 V
1.000 UL
LT0
2392 3119 M
83 43 V
1.000 UL
LT0
2619 3141 M
-144 21 V
1.000 UL
LT0
5586 2990 M
83 47 V
1.000 UL
LT0
5813 3010 M
-144 27 V
1.000 UL
LT0
3361 3166 M
83 32 V
1.000 UL
LT0
3588 3186 M
-144 12 V
1.000 UL
LT0
3958 3150 M
-28 7 V
1.000 UL
LT0
2763 3122 M
83 43 V
1.000 UL
LT0
2990 3149 M
-144 16 V
1.000 UL
LT0
4617 2989 M
83 53 V
1.000 UL
LT0
4844 3007 M
-144 35 V
1.000 UL
LT0
4988 2975 M
83 51 V
1.000 UL
LT0
5215 2997 M
-144 29 V
1.000 UL
LT0
4246 3037 M
83 43 V
1.000 UL
LT0
4473 3032 M
-144 48 V
1.000 UL
LT0
2165 3099 M
83 43 V
1.000 UL
LT0
2392 3119 M
-144 23 V
1.000 UL
LT0
3134 3135 M
83 41 V
1.000 UL
LT0
3361 3166 M
-144 10 V
1.000 UL
LT0
5359 2969 M
83 48 V
1.000 UL
LT0
5586 2990 M
-144 27 V
1.000 UL
LT0
2536 3097 M
83 44 V
1.000 UL
LT0
2763 3122 M
-144 19 V
1.000 UL
LT0
5730 2963 M
83 47 V
1.000 UL
LT0
3931 3149 M
27 1 V
1.000 UL
LT0
4102 3100 M
-144 50 V
1.000 UL
LT0
3770 3205 M
88 -574 V
1.000 UL
LT0
4390 2977 M
83 55 V
1.000 UL
LT0
4617 2989 M
-144 43 V
1.000 UL
LT0
3505 3163 M
83 23 V
1.000 UL
LT0
3610 3184 M
-22 2 V
1.000 UL
LT0
4761 2953 M
83 54 V
1.000 UL
LT0
4988 2975 M
-144 32 V
1.000 UL
LT0
2907 3104 M
83 45 V
1.000 UL
LT0
3134 3135 M
-144 14 V
1.000 UL
LT0
5132 2946 M
83 51 V
1.000 UL
LT0
5359 2969 M
-144 28 V
1.000 UL
LT0
2309 3075 M
83 44 V
1.000 UL
LT0
2536 3097 M
-144 22 V
1.000 UL
LT0
5503 2942 M
83 48 V
1.000 UL
LT0
5730 2963 M
-144 27 V
1.000 UL
LT0
4019 3087 M
83 13 V
1.000 UL
LT0
4246 3037 M
-144 63 V
1.000 UL
LT0
3278 3128 M
83 38 V
1.000 UL
LT0
3505 3163 M
-144 3 V
1.000 UL
LT0
2680 3076 M
83 46 V
1.000 UL
LT0
2907 3104 M
-144 18 V
1.000 UL
LT0
4534 2930 M
83 59 V
1.000 UL
LT0
4761 2953 M
-144 36 V
1.000 UL
LT0
4905 2922 M
83 53 V
1.000 UL
LT0
5132 2946 M
-144 29 V
1.000 UL
LT0
4163 2991 M
83 46 V
1.000 UL
LT0
4390 2977 M
-144 60 V
1.000 UL
LT0
2082 3056 M
83 43 V
1.000 UL
LT0
2309 3075 M
-144 24 V
1.000 UL
LT0
5276 2919 M
83 50 V
1.000 UL
LT0
5503 2942 M
-144 27 V
1.000 UL
LT0
3051 3089 M
83 46 V
1.000 UL
LT0
3278 3128 M
-144 7 V
1.000 UL
LT0
2453 3052 M
83 45 V
1.000 UL
LT0
2680 3076 M
-144 21 V
1.000 UL
LT0
5647 2916 M
83 47 V
1.000 UL
LT0
4307 2907 M
83 70 V
1.000 UL
LT0
4534 2930 M
-144 47 V
1.000 UL
LT0
4678 2895 M
83 58 V
1.000 UL
LT0
4905 2922 M
-144 31 V
1.000 UL
LT0
4141 2616 M
-61 -24 V
1.000 UL
LT0
4080 2919 M
-75 -323 V
1.000 UL
LT0
3853 3502 M
138 -904 V
1.000 UL
LT0
2824 3056 M
83 48 V
1.000 UL
LT0
3051 3089 M
-144 15 V
1.000 UL
LT0
5049 2895 M
83 51 V
1.000 UL
LT0
5276 2919 M
-144 27 V
1.000 UL
LT0
3422 3131 M
83 32 V
1.000 UL
LT0
3584 3167 M
-79 -4 V
1.000 UL
LT0
2226 3031 M
83 44 V
1.000 UL
LT0
2453 3052 M
-144 23 V
1.000 UL
LT0
5420 2893 M
83 49 V
1.000 UL
LT0
5647 2916 M
-144 26 V
1.000 UL
LT0
4451 2859 M
83 71 V
1.000 UL
LT0
4678 2895 M
-144 35 V
1.000 UL
LT0
2597 3029 M
83 47 V
1.000 UL
LT0
2824 3056 M
-144 20 V
1.000 UL
LT0
3195 3079 M
83 49 V
1.000 UL
LT0
3422 3131 M
-144 -3 V
1.000 UL
LT0
4822 2866 M
83 56 V
1.000 UL
LT0
5049 2895 M
-144 27 V
1.000 UL
LT0
3936 3128 M
83 -41 V
1.000 UL
LT0
4163 2991 M
-144 96 V
1.000 UL
LT0
4080 2919 M
83 72 V
1.000 UL
LT0
4307 2907 M
-144 84 V
1.000 UL
LT0
1999 3012 M
83 44 V
1.000 UL
LT0
2226 3031 M
-144 25 V
1.000 UL
LT0
5193 2869 M
83 50 V
1.000 UL
LT0
5420 2893 M
-144 26 V
1.000 UL
LT0
4224 2798 M
83 109 V
1.000 UL
LT0
4451 2859 M
-144 48 V
1.000 UL
LT0
2968 3038 M
83 51 V
1.000 UL
LT0
3195 3079 M
-144 10 V
1.000 UL
LT0
2370 3006 M
83 46 V
1.000 UL
LT0
2597 3029 M
-144 23 V
1.000 UL
LT0
4595 2829 M
83 66 V
1.000 UL
LT0
4822 2866 M
-144 29 V
1.000 UL
LT0
5564 2868 M
83 48 V
1.000 UL
LT0
4966 2841 M
83 54 V
1.000 UL
LT0
5193 2869 M
-144 26 V
1.000 UL
LT0
2741 3007 M
83 49 V
1.000 UL
LT0
2968 3038 M
-144 18 V
1.000 UL
LT0
4368 2769 M
83 90 V
1.000 UL
LT0
4595 2829 M
-144 30 V
1.000 UL
LT0
4123 2595 M
18 21 V
1.000 UL
LT0
4285 2672 M
-144 -56 V
1.000 UL
LT0
4224 2798 M
-83 -182 V
1.000 UL
LT0
2143 2986 M
83 45 V
1.000 UL
LT0
2370 3006 M
-144 25 V
1.000 UL
LT0
4368 2769 M
-144 29 V
1.000 UL
LT0
4080 2919 M
144 -121 V
1.000 UL
LT0
5337 2844 M
83 49 V
1.000 UL
LT0
5564 2868 M
-144 25 V
1.000 UL
LT0
3339 3078 M
83 53 V
1.000 UL
LT0
3566 3156 M
-144 -25 V
1.000 UL
LT0
3936 3128 M
144 -209 V
1.000 UL
LT0
4739 2807 M
83 59 V
1.000 UL
LT0
4966 2841 M
-144 25 V
1.000 UL
LT0
2514 2982 M
83 47 V
1.000 UL
LT0
2741 3007 M
-144 22 V
1.000 UL
LT0
3112 3023 M
83 56 V
1.000 UL
LT0
3339 3078 M
-144 1 V
1.000 UL
LT0
5110 2817 M
83 52 V
1.000 UL
LT0
5337 2844 M
-144 25 V
1.000 UL
LT0
1916 2969 M
83 43 V
1.000 UL
LT0
2143 2986 M
-144 26 V
1.000 UL
LT0
4512 2758 M
83 71 V
1.000 UL
LT0
4739 2807 M
-144 22 V
1.000 UL
LT0
2885 2985 M
83 53 V
1.000 UL
LT0
3112 3023 M
-144 15 V
1.000 UL
LT0
4285 2672 M
83 97 V
1.000 UL
LT0
4512 2758 M
-144 11 V
1.000 UL
LT0
2287 2961 M
83 45 V
1.000 UL
LT0
2514 2982 M
-144 24 V
1.000 UL
LT0
5481 2820 M
83 48 V
1.000 UL
LT0
4883 2786 M
83 55 V
1.000 UL
LT0
5110 2817 M
-144 24 V
1.000 UL
LT0
2658 2957 M
83 50 V
1.000 UL
LT0
2885 2985 M
-144 22 V
1.000 UL
LT0
3256 3010 M
83 68 V
1.000 UL
LT0
3483 3094 M
-144 -16 V
1.000 UL
LT0
5254 2794 M
83 50 V
1.000 UL
LT0
5481 2820 M
-144 24 V
1.000 UL
LT0
2060 2942 M
83 44 V
1.000 UL
LT0
2287 2961 M
-144 25 V
1.000 UL
LT0
3853 3502 M
83 -374 V
1.000 UL
LT0
3483 3094 M
83 62 V
1.000 UL
LT0
3709 3244 M
-143 -88 V
1.000 UL
LT0
4656 2746 M
83 61 V
1.000 UL
LT0
4883 2786 M
-144 21 V
1.000 UL
LT0
3029 2963 M
83 60 V
1.000 UL
LT0
3256 3010 M
-144 13 V
1.000 UL
LT0
4202 2609 M
83 63 V
1.000 UL
LT0
4429 2689 M
-144 -17 V
1.000 UL
LT0
2431 2934 M
83 48 V
1.000 UL
LT0
2658 2957 M
-144 25 V
1.000 UL
LT0
4429 2689 M
83 69 V
1.000 UL
LT0
4656 2746 M
-144 12 V
1.000 UL
LT0
5027 2766 M
83 51 V
1.000 UL
LT0
5254 2794 M
-144 23 V
1.000 UL
LT0
2802 2932 M
83 53 V
1.000 UL
LT0
3029 2963 M
-144 22 V
1.000 UL
LT0
1833 2926 M
83 43 V
1.000 UL
LT0
2060 2942 M
-144 27 V
1.000 UL
LT0
2204 2915 M
83 46 V
1.000 UL
LT0
2431 2934 M
-144 27 V
1.000 UL
LT0
5398 2771 M
83 49 V
1.000 UL
LT0
4800 2731 M
83 55 V
1.000 UL
LT0
5027 2766 M
-144 20 V
1.000 UL
LT0
2575 2908 M
83 49 V
1.000 UL
LT0
2802 2932 M
-144 25 V
1.000 UL
LT0
3173 2940 M
83 70 V
1.000 UL
LT0
3400 2998 M
-144 12 V
1.000 UL
LT0
3400 2998 M
83 96 V
1.000 UL
LT0
3626 3150 M
-143 -56 V
1.000 UL
LT0
4573 2688 M
83 58 V
1.000 UL
LT0
4800 2731 M
-144 15 V
1.000 UL
LT0
5171 2745 M
83 49 V
1.000 UL
LT0
5398 2771 M
-144 23 V
1.000 UL
LT0
1977 2898 M
83 44 V
1.000 UL
LT0
2204 2915 M
-144 27 V
1.000 UL
LT0
4119 2594 M
83 15 V
1.000 UL
LT0
4346 2635 M
-144 -26 V
1.000 UL
LT0
2946 2905 M
83 58 V
1.000 UL
LT0
3173 2940 M
-144 23 V
1.000 UL
LT0
3687 2847 M
139 -203 V
1.000 UL
LT0
4346 2635 M
83 54 V
1.000 UL
LT0
4573 2688 M
-144 1 V
1.000 UL
LT0
2348 2887 M
83 47 V
1.000 UL
LT0
2575 2908 M
-144 26 V
1.000 UL
LT0
4944 2714 M
83 52 V
1.000 UL
LT0
5171 2745 M
-144 21 V
1.000 UL
LT0
2719 2880 M
83 52 V
1.000 UL
LT0
2946 2905 M
-144 27 V
1.000 UL
LT0
1749 2883 M
84 43 V
1.000 UL
LT0
1977 2898 M
-144 28 V
1.000 UL
LT0
3626 3150 M
83 94 V
1.000 UL
LT0
3853 3502 M
3709 3244 L
1.000 UL
LT0
3317 2909 M
83 89 V
1.000 UL
LT0
3544 2969 M
-144 29 V
1.000 UL
LT0
5315 2723 M
83 48 V
1.000 UL
LT0
2121 2870 M
83 45 V
1.000 UL
LT0
2348 2887 M
-144 28 V
1.000 UL
LT0
4717 2679 M
83 52 V
1.000 UL
LT0
4944 2714 M
-144 17 V
1.000 UL
LT0
3090 2875 M
83 65 V
1.000 UL
LT0
3317 2909 M
-144 31 V
1.000 UL
LT0
2492 2859 M
83 49 V
1.000 UL
LT0
2719 2880 M
-144 28 V
1.000 UL
LT0
4490 2638 M
83 50 V
1.000 UL
LT0
4717 2679 M
-144 9 V
1.000 UL
LT0
3604 2775 M
83 72 V
1.000 UL
LT0
3770 3205 M
-83 -358 V
1.000 UL
LT0
3544 2969 M
143 -122 V
1.000 UL
LT0
2863 2850 M
83 55 V
1.000 UL
LT0
3090 2875 M
-144 30 V
1.000 UL
LT0
5088 2695 M
83 50 V
1.000 UL
LT0
5315 2723 M
-144 22 V
1.000 UL
LT0
4262 2601 M
84 34 V
1.000 UL
LT0
4490 2638 M
-144 -3 V
1.000 UL
LT0
1893 2854 M
84 44 V
1.000 UL
LT0
2121 2870 M
-144 28 V
1.000 UL
LT0
3461 2859 M
83 110 V
1.000 UL
LT0
3626 3150 M
-82 -181 V
1.000 UL
LT0
3770 3205 M
-144 -55 V
1.000 UL
LT0
2264 2841 M
84 46 V
1.000 UL
LT0
2492 2859 M
-144 28 V
1.000 UL
LT0
3234 2838 M
83 71 V
1.000 UL
LT0
3461 2859 M
-144 50 V
1.000 UL
LT0
4035 2590 M
84 4 V
1.000 UL
LT0
4262 2601 M
-143 -7 V
1.000 UL
LT0
4861 2664 M
83 50 V
1.000 UL
LT0
5088 2695 M
-144 19 V
1.000 UL
LT0
2635 2830 M
84 50 V
1.000 UL
LT0
2863 2850 M
-144 30 V
1.000 UL
LT0
3006 2817 M
84 58 V
1.000 UL
LT0
3234 2838 M
-144 37 V
1.000 UL
LT0
1666 2839 M
83 44 V
1.000 UL
LT0
1893 2854 M
-144 29 V
1.000 UL
LT0
5232 2675 M
83 48 V
1.000 UL
LT0
4634 2631 M
83 48 V
1.000 UL
LT0
4861 2664 M
-144 15 V
1.000 UL
LT0
3378 2790 M
83 69 V
1.000 UL
LT0
3604 2775 M
-143 84 V
1.000 UL
LT0
2037 2825 M
84 45 V
1.000 UL
LT0
2264 2841 M
-143 29 V
1.000 UL
LT0
3521 2728 M
83 47 V
1.000 UL
LT0
3748 2677 M
-144 98 V
1.000 UL
LT0
3664 2664 M
84 13 V
1.000 UL
LT0
3891 2616 M
-143 61 V
1.000 UL
LT0
2408 2812 M
84 47 V
1.000 UL
LT0
2635 2830 M
-143 29 V
1.000 UL
LT0
4406 2598 M
84 40 V
1.000 UL
LT0
4634 2631 M
-144 7 V
1.000 UL
LT0
2779 2799 M
84 51 V
1.000 UL
LT0
3006 2817 M
-143 33 V
1.000 UL
LT0
5005 2647 M
83 48 V
1.000 UL
LT0
5232 2675 M
-144 20 V
1.000 UL
LT0
3150 2779 M
84 59 V
1.000 UL
LT0
3378 2790 M
-144 48 V
1.000 UL
LT0
3808 2613 M
83 3 V
1.000 UL
LT0
4035 2590 M
-144 26 V
1.000 UL
LT0
1810 2810 M
83 44 V
1.000 UL
LT0
2037 2825 M
-144 29 V
1.000 UL
LT0
4179 2577 M
83 24 V
1.000 UL
LT0
4406 2598 M
-144 3 V
1.000 UL
LT0
2181 2796 M
83 45 V
1.000 UL
LT0
2408 2812 M
-144 29 V
1.000 UL
LT0
4777 2618 M
84 46 V
1.000 UL
LT0
5005 2647 M
-144 17 V
1.000 UL
LT0
2552 2781 M
83 49 V
1.000 UL
LT0
2779 2799 M
-144 31 V
1.000 UL
LT0
3853 3502 M
-83 -297 V
1.000 UL
LT0
3294 2735 M
84 55 V
1.000 UL
LT0
3521 2728 M
-143 62 V
1.000 UL
LT0
2923 2765 M
83 52 V
1.000 UL
LT0
3150 2779 M
-144 38 V
1.000 UL
LT0
1583 2796 M
83 43 V
1.000 UL
LT0
1810 2810 M
-144 29 V
1.000 UL
LT0
5148 2628 M
84 47 V
1.000 UL
LT0
4550 2588 M
84 43 V
1.000 UL
LT0
4777 2618 M
-143 13 V
1.000 UL
LT0
3952 2578 M
83 12 V
1.000 UL
LT0
4179 2577 M
-144 13 V
1.000 UL
LT0
1954 2781 M
83 44 V
1.000 UL
LT0
2181 2796 M
-144 29 V
1.000 UL
LT0
3438 2685 M
83 43 V
1.000 UL
LT0
3664 2664 M
-143 64 V
1.000 UL
LT0
2325 2766 M
83 46 V
1.000 UL
LT0
2552 2781 M
-144 31 V
1.000 UL
LT0
2696 2749 M
83 50 V
1.000 UL
LT0
2923 2765 M
-144 34 V
1.000 UL
LT0
4323 2564 M
83 34 V
1.000 UL
LT0
4550 2588 M
-144 10 V
1.000 UL
LT0
3067 2727 M
83 52 V
1.000 UL
LT0
3294 2735 M
-144 44 V
1.000 UL
LT0
4921 2601 M
84 46 V
1.000 UL
LT0
5148 2628 M
-143 19 V
1.000 UL
LT0
3582 2635 M
82 29 V
1.000 UL
LT0
3808 2613 M
-144 51 V
1.000 UL
LT0
1727 2767 M
83 43 V
1.000 UL
LT0
1954 2781 M
-144 29 V
1.000 UL
LT0
2098 2751 M
83 45 V
1.000 UL
LT0
2325 2766 M
-144 30 V
1.000 UL
LT0
4694 2574 M
83 44 V
1.000 UL
LT0
4921 2601 M
-144 17 V
1.000 UL
LT0
2469 2735 M
83 46 V
1.000 UL
LT0
2696 2749 M
-144 32 V
1.000 UL
LT0
4096 2553 M
83 24 V
1.000 UL
LT0
4323 2564 M
-144 13 V
1.000 UL
LT0
3211 2687 M
83 48 V
1.000 UL
LT0
3438 2685 M
-144 50 V
1.000 UL
LT0
2840 2715 M
83 50 V
1.000 UL
LT0
3067 2727 M
-144 38 V
1.000 UL
LT0
3725 2591 M
83 22 V
1.000 UL
LT0
3952 2578 M
-144 35 V
1.000 UL
LT0
1500 2753 M
83 43 V
1.000 UL
LT0
1727 2767 M
-144 29 V
1.000 UL
LT0
5065 2583 M
83 45 V
1.000 UL
LT0
4467 2550 M
83 38 V
1.000 UL
LT0
4694 2574 M
-144 14 V
1.000 UL
LT0
1871 2737 M
83 44 V
1.000 UL
LT0
2098 2751 M
-144 30 V
1.000 UL
LT0
2242 2721 M
83 45 V
1.000 UL
LT0
2469 2735 M
-144 31 V
1.000 UL
LT0
3355 2643 M
83 42 V
1.000 UL
LT0
3582 2635 M
-144 50 V
1.000 UL
LT0
2613 2702 M
83 47 V
1.000 UL
LT0
2840 2715 M
-144 34 V
1.000 UL
LT0
2984 2679 M
83 48 V
1.000 UL
LT0
3211 2687 M
-144 40 V
1.000 UL
LT0
3869 2555 M
83 23 V
1.000 UL
LT0
4096 2553 M
-144 25 V
1.000 UL
LT0
4838 2557 M
83 44 V
1.000 UL
LT0
5065 2583 M
-144 18 V
1.000 UL
LT0
4240 2533 M
83 31 V
1.000 UL
LT0
4467 2550 M
-144 14 V
1.000 UL
LT0
1644 2723 M
83 44 V
1.000 UL
LT0
1871 2737 M
-144 30 V
1.000 UL
LT0
3499 2600 M
83 35 V
1.000 UL
LT0
3725 2591 M
-143 44 V
1.000 UL
LT0
2015 2707 M
83 44 V
1.000 UL
LT0
2242 2721 M
-144 30 V
1.000 UL
LT0
2386 2689 M
83 46 V
1.000 UL
LT0
2613 2702 M
-144 33 V
1.000 UL
LT0
4611 2533 M
83 41 V
1.000 UL
LT0
4838 2557 M
-144 17 V
1.000 UL
LT0
3128 2641 M
83 46 V
1.000 UL
LT0
3355 2643 M
-144 44 V
1.000 UL
LT0
2757 2668 M
83 47 V
1.000 UL
LT0
2984 2679 M
-144 36 V
1.000 UL
LT0
4013 2526 M
83 27 V
1.000 UL
LT0
4240 2533 M
-144 20 V
1.000 UL
LT0
4982 2538 M
83 45 V
1.000 UL
LT0
3642 2560 M
83 31 V
1.000 UL
LT0
3869 2555 M
-144 36 V
1.000 UL
LT0
1644 2723 M
-144 30 V
1.000 UL
LT0
1788 2694 M
83 43 V
1.000 UL
LT0
2015 2707 M
-144 30 V
1.000 UL
LT0
4384 2514 M
83 36 V
1.000 UL
LT0
4611 2533 M
-144 17 V
1.000 UL
LT0
2159 2676 M
83 45 V
1.000 UL
LT0
2386 2689 M
-144 32 V
1.000 UL
LT0
3272 2601 M
83 42 V
1.000 UL
LT0
3499 2600 M
-144 43 V
1.000 UL
LT0
2530 2657 M
83 45 V
1.000 UL
LT0
2757 2668 M
-144 34 V
1.000 UL
LT0
2901 2633 M
83 46 V
1.000 UL
LT0
3128 2641 M
-144 38 V
1.000 UL
LT0
4755 2516 M
83 41 V
1.000 UL
LT0
4982 2538 M
-144 19 V
1.000 UL
LT0
3786 2525 M
83 30 V
1.000 UL
LT0
4013 2526 M
-144 29 V
1.000 UL
LT0
4157 2502 M
83 31 V
1.000 UL
LT0
4384 2514 M
-144 19 V
1.000 UL
LT0
1788 2694 M
-144 29 V
1.000 UL
LT0
1932 2664 M
83 43 V
1.000 UL
LT0
2159 2676 M
-144 31 V
1.000 UL
LT0
3416 2562 M
83 38 V
1.000 UL
LT0
3642 2560 M
-143 40 V
1.000 UL
LT0
2303 2645 M
83 44 V
1.000 UL
LT0
2530 2657 M
-144 32 V
1.000 UL
LT0
4528 2495 M
83 38 V
1.000 UL
LT0
4755 2516 M
-144 17 V
1.000 UL
LT0
3045 2596 M
83 45 V
1.000 UL
LT0
3272 2601 M
-144 40 V
1.000 UL
LT0
2674 2623 M
83 45 V
1.000 UL
LT0
2901 2633 M
-144 35 V
1.000 UL
LT0
4899 2496 M
83 42 V
1.000 UL
LT0
3930 2495 M
83 31 V
1.000 UL
LT0
4157 2502 M
-144 24 V
1.000 UL
LT0
1932 2664 M
-144 30 V
1.000 UL
LT0
3560 2525 M
82 35 V
1.000 UL
LT0
3786 2525 M
-144 35 V
1.000 UL
LT0
4301 2479 M
83 35 V
1.000 UL
LT0
4528 2495 M
-144 19 V
1.000 UL
LT0
2076 2633 M
83 43 V
1.000 UL
LT0
2303 2645 M
-144 31 V
1.000 UL
LT0
3189 2559 M
83 42 V
1.000 UL
LT0
3416 2562 M
-144 39 V
1.000 UL
LT0
2447 2612 M
83 45 V
1.000 UL
LT0
2674 2623 M
-144 34 V
1.000 UL
LT0
2818 2588 M
83 45 V
1.000 UL
LT0
3045 2596 M
-144 37 V
1.000 UL
LT0
4672 2475 M
83 41 V
1.000 UL
LT0
4899 2496 M
-144 20 V
1.000 UL
LT0
3703 2491 M
83 34 V
1.000 UL
LT0
3930 2495 M
-144 30 V
1.000 UL
LT0
4074 2467 M
83 35 V
1.000 UL
LT0
4301 2479 M
-144 23 V
1.000 UL
LT0
2076 2633 M
-144 31 V
1.000 UL
LT0
3333 2522 M
83 40 V
1.000 UL
LT0
3560 2525 M
-144 37 V
1.000 UL
LT0
2220 2602 M
83 43 V
1.000 UL
LT0
2447 2612 M
-144 33 V
1.000 UL
LT0
2591 2579 M
83 44 V
1.000 UL
LT0
2818 2588 M
-144 35 V
1.000 UL
LT0
2962 2552 M
83 44 V
1.000 UL
LT0
3189 2559 M
-144 37 V
1.000 UL
LT0
4445 2457 M
83 38 V
1.000 UL
LT0
4672 2475 M
-144 20 V
1.000 UL
LT0
4816 2454 M
83 42 V
1.000 UL
LT0
3847 2460 M
83 35 V
1.000 UL
LT0
4074 2467 M
-144 28 V
1.000 UL
LT0
3477 2487 M
83 38 V
1.000 UL
LT0
3703 2491 M
-143 34 V
1.000 UL
LT0
2220 2602 M
-144 31 V
1.000 UL
LT0
4218 2442 M
83 37 V
1.000 UL
LT0
4445 2457 M
-144 22 V
1.000 UL
LT0
2364 2569 M
83 43 V
1.000 UL
LT0
2591 2579 M
-144 33 V
1.000 UL
LT0
3106 2517 M
83 42 V
1.000 UL
LT0
3333 2522 M
-144 37 V
1.000 UL
LT0
2735 2544 M
83 44 V
1.000 UL
LT0
2962 2552 M
-144 36 V
1.000 UL
LT0
4589 2435 M
83 40 V
1.000 UL
LT0
4816 2454 M
-144 21 V
1.000 UL
LT0
3620 2454 M
83 37 V
1.000 UL
LT0
3847 2460 M
-144 31 V
1.000 UL
LT0
3991 2431 M
83 36 V
1.000 UL
LT0
4218 2442 M
-144 25 V
1.000 UL
LT0
2364 2569 M
-144 33 V
1.000 UL
LT0
3250 2482 M
83 40 V
1.000 UL
LT0
3477 2487 M
-144 35 V
1.000 UL
LT0
2508 2535 M
83 44 V
1.000 UL
LT0
2735 2544 M
-144 35 V
1.000 UL
LT0
2879 2510 M
83 42 V
1.000 UL
LT0
3106 2517 M
-144 35 V
1.000 UL
LT0
4362 2418 M
83 39 V
1.000 UL
LT0
4589 2435 M
-144 22 V
1.000 UL
LT0
4733 2413 M
83 41 V
1.000 UL
LT0
3764 2422 M
83 38 V
1.000 UL
LT0
3991 2431 M
-144 29 V
1.000 UL
LT0
3394 2447 M
83 40 V
1.000 UL
LT0
3620 2454 M
-143 33 V
1.000 UL
LT0
2508 2535 M
-144 34 V
1.000 UL
LT0
3023 2474 M
83 43 V
1.000 UL
LT0
3250 2482 M
-144 35 V
1.000 UL
LT0
2652 2502 M
83 42 V
1.000 UL
LT0
2879 2510 M
-144 34 V
1.000 UL
LT0
4135 2404 M
83 38 V
1.000 UL
LT0
4362 2418 M
-144 24 V
1.000 UL
LT0
4506 2395 M
83 40 V
1.000 UL
LT0
4733 2413 M
-144 22 V
1.000 UL
LT0
3538 2414 M
82 40 V
1.000 UL
LT0
3764 2422 M
-144 32 V
1.000 UL
LT0
3167 2439 M
83 43 V
1.000 UL
LT0
3394 2447 M
-144 35 V
1.000 UL
LT0
2652 2502 M
-144 33 V
1.000 UL
LT0
2796 2467 M
83 43 V
1.000 UL
LT0
3023 2474 M
-144 36 V
1.000 UL
LT0
3908 2393 M
83 38 V
1.000 UL
LT0
4135 2404 M
-144 27 V
1.000 UL
LT0
4279 2379 M
83 39 V
1.000 UL
LT0
4506 2395 M
-144 23 V
1.000 UL
LT0
4650 2372 M
83 41 V
1.000 UL
LT0
3311 2405 M
83 42 V
1.000 UL
LT0
3538 2414 M
-144 33 V
1.000 UL
LT0
2940 2431 M
83 43 V
1.000 UL
LT0
3167 2439 M
-144 35 V
1.000 UL
LT0
2796 2467 M
-144 35 V
1.000 UL
LT0
3681 2382 M
83 40 V
1.000 UL
LT0
3908 2393 M
-144 29 V
1.000 UL
LT0
4052 2365 M
83 39 V
1.000 UL
LT0
4279 2379 M
-144 25 V
1.000 UL
LT0
4423 2354 M
83 41 V
1.000 UL
LT0
4650 2372 M
-144 23 V
1.000 UL
LT0
3084 2396 M
83 43 V
1.000 UL
LT0
3311 2405 M
-144 34 V
1.000 UL
LT0
2940 2431 M
-144 36 V
1.000 UL
LT0
3455 2372 M
83 42 V
1.000 UL
LT0
3681 2382 M
-143 32 V
1.000 UL
LT0
3825 2352 M
83 41 V
1.000 UL
LT0
4052 2365 M
-144 28 V
1.000 UL
LT0
4196 2338 M
83 41 V
1.000 UL
LT0
4423 2354 M
-144 25 V
1.000 UL
LT0
4567 2330 M
83 42 V
1.000 UL
LT0
3084 2396 M
-144 35 V
1.000 UL
LT0
3228 2362 M
83 43 V
1.000 UL
LT0
3455 2372 M
-144 33 V
1.000 UL
LT0
3599 2340 M
82 42 V
1.000 UL
LT0
3825 2352 M
-144 30 V
1.000 UL
LT0
3969 2324 M
83 41 V
1.000 UL
LT0
4196 2338 M
-144 27 V
1.000 UL
LT0
4340 2313 M
83 41 V
1.000 UL
LT0
4567 2330 M
-144 24 V
1.000 UL
LT0
3228 2362 M
-144 34 V
1.000 UL
LT0
3372 2329 M
83 43 V
1.000 UL
LT0
3599 2340 M
-144 32 V
1.000 UL
LT0
3742 2311 M
83 41 V
1.000 UL
LT0
3969 2324 M
-144 28 V
1.000 UL
LT0
4113 2297 M
83 41 V
1.000 UL
LT0
4340 2313 M
-144 25 V
1.000 UL
LT0
4484 2289 M
83 41 V
1.000 UL
LT0
3372 2329 M
-144 33 V
1.000 UL
LT0
3515 2297 M
84 43 V
1.000 UL
LT0
3742 2311 M
-143 29 V
1.000 UL
LT0
3886 2282 M
83 42 V
1.000 UL
LT0
4113 2297 M
-144 27 V
1.000 UL
LT0
4257 2271 M
83 42 V
1.000 UL
LT0
4484 2289 M
-144 24 V
1.000 UL
LT0
3515 2297 M
-143 32 V
1.000 UL
LT0
3658 2267 M
84 44 V
1.000 UL
LT0
3886 2282 M
-144 29 V
1.000 UL
LT0
4029 2255 M
84 42 V
1.000 UL
LT0
4257 2271 M
-144 26 V
1.000 UL
LT0
4400 2246 M
84 43 V
1.000 UL
LT0
3658 2267 M
-143 30 V
1.000 UL
LT0
3802 2239 M
84 43 V
1.000 UL
LT0
4029 2255 M
-143 27 V
1.000 UL
LT0
4173 2229 M
84 42 V
1.000 UL
LT0
4400 2246 M
-143 25 V
1.000 UL
LT0
3802 2239 M
-144 28 V
1.000 UL
LT0
3946 2212 M
83 43 V
1.000 UL
LT0
4173 2229 M
-144 26 V
1.000 UL
LT0
4317 2204 M
83 42 V
1.000 UL
LT0
3946 2212 M
-144 27 V
1.000 UL
LT0
4090 2186 M
83 43 V
1.000 UL
LT0
4317 2204 M
-144 25 V
1.000 UL
LT0
4090 2186 M
-144 26 V
1.000 UL
LT0
4234 2160 M
83 44 V
1.000 UL
LT0
4234 2160 M
-144 26 V
1.000 UL
LT0
1.000 UL
LT1
LT2
1.000 UL
LT2
3848 1601 M
7 2 V
1.000 UL
LT2
3848 1601 M
-3 4 V
1.000 UL
LT2
3845 1605 M
11 0 V
1.000 UL
LT2
3855 1603 M
1 2 V
LT3
1.000 UL
LT3
3826 1589 M
40 12 V
1.000 UL
LT3
3826 1589 M
-14 21 V
1.000 UL
LT3
3812 1610 M
57 2 V
1.000 UL
LT3
3866 1601 M
3 11 V
LT4
1.000 UL
LT4
3805 1578 M
71 21 V
1.000 UL
LT4
3805 1578 M
-26 38 V
1.000 UL
LT4
3779 1616 M
103 2 V
1.000 UL
LT4
3876 1599 M
6 19 V
LT5
1.000 UL
LT5
3784 1567 M
102 30 V
1.000 UL
LT5
3784 1567 M
-38 55 V
1.000 UL
LT5
3746 1622 M
149 3 V
1.000 UL
LT5
3886 1597 M
9 28 V
LT6
1.000 UL
LT6
3764 1557 M
9 2 V
1.000 UL
LT6
3764 1557 M
-34 10 V
1.000 UL
LT6
3730 1567 M
-17 61 V
1.000 UL
LT6
3713 1628 M
195 4 V
1.000 UL
LT6
3896 1596 M
12 36 V
1.000 UL
LT6
3773 1559 M
123 37 V
LT7
1.000 UL
LT7
3747 1548 M
36 10 V
1.000 UL
LT7
3747 1548 M
-126 35 V
1.000 UL
LT7
3621 1583 M
-8 4 V
1.000 UL
LT7
3613 1587 M
22 54 V
1.000 UL
LT7
3635 1641 M
119 11 V
1.000 UL
LT7
3921 1639 M
-167 13 V
1.000 UL
LT7
3906 1594 M
15 45 V
1.000 UL
LT7
3783 1558 M
123 36 V
LT8
1.000 UL
LT8
3730 1539 M
64 17 V
1.000 UL
LT8
3730 1539 M
-147 23 V
1.000 UL
LT8
3583 1562 M
-85 45 V
1.000 UL
LT8
3498 1607 M
23 23 V
1.000 UL
LT8
3521 1630 M
16 28 V
1.000 UL
LT8
3537 1658 M
58 10 V
1.000 UL
LT8
3595 1668 M
129 15 V
1.000 UL
LT8
3811 1681 M
-87 2 V
1.000 UL
LT8
3879 1657 M
-68 24 V
1.000 UL
LT8
3934 1645 M
-55 12 V
1.000 UL
LT8
3917 1592 M
17 53 V
1.000 UL
LT8
3794 1556 M
123 36 V
LT0
1.000 UL
LT0
3713 1530 M
91 24 V
1.000 UL
LT0
3713 1530 M
-169 12 V
1.000 UL
LT0
3544 1542 M
-33 5 V
1.000 UL
LT0
3511 1547 M
-117 17 V
1.000 UL
LT0
3394 1564 M
-29 9 V
1.000 UL
LT0
3365 1573 M
-77 35 V
1.000 UL
LT0
3288 1608 M
-40 43 V
1.000 UL
LT0
3248 1651 M
49 49 V
1.000 UL
LT0
3297 1700 M
118 37 V
1.000 UL
LT0
3415 1737 M
146 14 V
1.000 UL
LT0
3670 1750 M
-109 1 V
1.000 UL
LT0
3744 1747 M
-74 3 V
1.000 UL
LT0
3885 1720 M
-141 27 V
1.000 UL
LT0
3895 1711 M
-10 9 V
1.000 UL
LT0
3989 1674 M
-94 37 V
1.000 UL
LT0
3978 1639 M
11 35 V
1.000 UL
LT0
3927 1590 M
51 49 V
1.000 UL
LT0
3804 1554 M
123 36 V
LT1
1.000 UL
LT1
1901 1307 M
84 44 V
1.000 UL
LT1
1985 1351 M
101 40 V
1.000 UL
LT1
2086 1391 M
36 10 V
1.000 UL
LT1
2122 1401 M
87 26 V
1.000 UL
LT1
2209 1427 M
159 30 V
1.000 UL
LT1
2368 1457 M
66 6 V
1.000 UL
LT1
2434 1463 M
148 15 V
1.000 UL
LT1
2582 1478 M
73 1 V
1.000 UL
LT1
2655 1479 M
202 5 V
1.000 UL
LT1
2857 1484 M
16 1 V
1.000 UL
LT1
3049 1484 M
-176 1 V
1.000 UL
LT1
3049 1484 M
127 6 V
1.000 UL
LT1
3248 1488 M
-72 2 V
1.000 UL
LT1
3248 1488 M
200 13 V
1.000 UL
LT1
3463 1500 M
-15 1 V
1.000 UL
LT1
3463 1500 M
175 25 V
1.000 UL
LT1
3695 1521 M
-57 4 V
1.000 UL
LT1
3695 1521 M
119 31 V
1.000 UL
LT1
3814 1552 M
123 37 V
1.000 UL
LT1
3937 1589 M
92 41 V
1.000 UL
LT1
4029 1630 M
59 48 V
1.000 UL
LT1
4088 1678 M
29 53 V
1.000 UL
LT1
4117 1731 M
7 13 V
1.000 UL
LT1
4124 1744 M
-30 48 V
1.000 UL
LT1
4094 1792 M
-13 30 V
1.000 UL
LT1
4081 1822 M
-75 43 V
1.000 UL
LT1
4006 1865 M
-13 11 V
1.000 UL
LT1
3993 1876 M
-107 44 V
1.000 UL
LT1
3886 1920 M
-127 35 V
1.000 UL
LT1
3759 1955 M
-139 27 V
1.000 UL
LT1
3620 1982 M
-151 21 V
1.000 UL
LT1
3469 2003 M
-165 14 V
1.000 UL
LT1
3304 2017 M
-178 7 V
1.000 UL
LT1
3126 2024 M
-37 1 V
1.000 UL
LT1
2934 2024 M
155 1 V
1.000 UL
LT1
2784 2020 M
150 4 V
1.000 UL
LT1
2728 2017 M
56 3 V
LT2
1.000 UL
LT2
5029 1803 M
175 28 V
1.000 UL
LT2
4997 1799 M
32 4 V
1.000 UL
LT2
4861 1775 M
136 24 V
1.000 UL
LT2
4713 1752 M
148 23 V
1.000 UL
LT2
4691 1746 M
22 6 V
1.000 UL
LT2
4534 1716 M
157 30 V
1.000 UL
LT2
4419 1698 M
115 18 V
1.000 UL
LT2
4374 1686 M
45 12 V
1.000 UL
LT2
4232 1653 M
142 33 V
1.000 UL
LT2
4082 1623 M
150 30 V
1.000 UL
LT2
4079 1622 M
3 1 V
1.000 UL
LT2
3947 1587 M
132 35 V
1.000 UL
LT2
3824 1550 M
123 37 V
1.000 UL
LT2
3712 1512 M
112 38 V
1.000 UL
LT2
3610 1472 M
102 40 V
1.000 UL
LT2
3522 1430 M
88 42 V
1.000 UL
LT2
3442 1386 M
80 44 V
1.000 UL
LT2
3371 1341 M
71 45 V
1.000 UL
LT2
3304 1295 M
67 46 V
1.000 UL
LT2
3239 1248 M
65 47 V
1.000 UL
LT2
3170 1202 M
69 46 V
1.000 UL
LT2
3095 1158 M
75 44 V
1.000 UL
LT2
3012 1114 M
83 44 V
LT3
1.000 UL
LT3
4670 1329 M
37 10 V
1.000 UL
LT3
4582 1303 M
88 26 V
1.000 UL
LT3
4388 1282 M
194 21 V
1.000 UL
LT3
4375 1282 M
13 0 V
1.000 UL
LT3
4375 1282 M
-175 2 V
1.000 UL
LT3
4200 1284 M
-157 18 V
1.000 UL
LT3
4043 1302 M
-133 31 V
1.000 UL
LT3
3910 1333 M
-103 46 V
1.000 UL
LT3
3807 1379 M
-1 1 V
1.000 UL
LT3
3806 1380 M
-70 62 V
1.000 UL
LT3
3736 1442 M
3 8 V
1.000 UL
LT3
3739 1450 M
23 54 V
1.000 UL
LT3
3762 1504 M
72 45 V
1.000 UL
LT3
3834 1549 M
123 36 V
1.000 UL
LT3
3957 1585 M
106 28 V
1.000 UL
LT3
4176 1605 M
-113 8 V
1.000 UL
LT3
4176 1605 M
88 12 V
1.000 UL
LT3
4432 1605 M
-168 12 V
1.000 UL
LT3
4577 1580 M
-145 25 V
1.000 UL
LT3
4698 1543 M
-121 37 V
1.000 UL
LT3
4779 1500 M
-81 43 V
1.000 UL
LT3
4786 1490 M
-7 10 V
1.000 UL
LT3
4819 1435 M
-33 55 V
1.000 UL
LT3
4787 1390 M
32 45 V
1.000 UL
LT3
4784 1384 M
3 6 V
1.000 UL
LT3
4707 1339 M
77 45 V
LT4
1.000 UL
LT4
4086 1425 M
104 4 V
1.000 UL
LT4
4086 1425 M
-168 12 V
1.000 UL
LT4
3918 1437 M
-110 43 V
1.000 UL
LT4
3808 1480 M
5 15 V
1.000 UL
LT4
3813 1495 M
32 52 V
1.000 UL
LT4
3845 1547 M
123 36 V
1.000 UL
LT4
3968 1583 M
78 21 V
1.000 UL
LT4
4204 1586 M
-158 18 V
1.000 UL
LT4
4322 1548 M
-118 38 V
1.000 UL
LT4
4369 1514 M
-47 34 V
1.000 UL
LT4
4326 1463 M
43 51 V
1.000 UL
LT4
4190 1429 M
136 34 V
LT5
1.000 UL
LT5
3985 1472 M
190 18 V
1.000 UL
LT5
3985 1472 M
-146 24 V
1.000 UL
LT5
3839 1496 M
16 49 V
1.000 UL
LT5
3855 1545 M
123 37 V
1.000 UL
LT5
3978 1582 M
51 13 V
1.000 UL
LT5
4165 1566 M
-136 29 V
1.000 UL
LT5
4213 1541 M
-48 25 V
1.000 UL
LT5
4175 1490 M
38 51 V
LT6
1.000 UL
LT6
4037 1499 M
55 5 V
1.000 UL
LT6
4037 1499 M
-185 4 V
1.000 UL
LT6
3852 1503 M
13 40 V
1.000 UL
LT6
3865 1543 M
123 37 V
1.000 UL
LT6
3988 1580 M
24 6 V
1.000 UL
LT6
4097 1561 M
-85 25 V
1.000 UL
LT6
4101 1533 M
-4 28 V
1.000 UL
LT6
4092 1504 M
9 29 V
LT7
1.000 UL
LT7
3865 1510 M
173 3 V
1.000 UL
LT7
3865 1510 M
10 32 V
1.000 UL
LT7
3875 1542 M
119 35 V
1.000 UL
LT7
4038 1513 M
-44 64 V
LT8
1.000 UL
LT8
3878 1516 M
127 3 V
1.000 UL
LT8
3878 1516 M
8 24 V
1.000 UL
LT8
3886 1540 M
87 26 V
1.000 UL
LT8
4005 1519 M
-32 47 V
LT0
1.000 UL
LT0
3891 1523 M
81 2 V
1.000 UL
LT0
3891 1523 M
5 15 V
1.000 UL
LT0
3896 1538 M
55 17 V
1.000 UL
LT0
3972 1525 M
-21 30 V
LT1
1.000 UL
LT1
3904 1530 M
35 1 V
1.000 UL
LT1
3904 1530 M
2 6 V
1.000 UL
LT1
3906 1536 M
24 7 V
1.000 UL
LT1
3939 1531 M
-9 12 V
1.000 UL
LTb
4284 778 M
1870 974 V
1.000 UL
LTb
4284 778 M
1046 1340 L
1.000 UL
LTb
1046 1340 M
1870 975 V
1.000 UL
LTb
6154 1752 M
2916 2315 L
1.000 UL
LTb
1046 3288 M
0 -1948 V
1.000 UL
LTb
1046 1340 M
52 28 V
1.000 UL
LTb
936 1245 M
gsave 0 setgray
[ [(Times) 220.0 0.0 true true 0 (-2.5)]
] -73.3 MCshow
grestore
1.000 UL
LTb
1.000 UL
LTb
2864 2287 M
52 28 V
1.000 UL
LTb
1406 1278 M
52 27 V
1.000 UL
LTb
1296 1183 M
gsave 0 setgray
[ [(Times) 220.0 0.0 true true 0 (-2)]
] -73.3 MCshow
grestore
1.000 UL
LTb
1.000 UL
LTb
3224 2225 M
52 27 V
1.000 UL
LTb
1766 1215 M
52 28 V
1.000 UL
LTb
1656 1120 M
gsave 0 setgray
[ [(Times) 220.0 0.0 true true 0 (-1.5)]
] -73.3 MCshow
grestore
1.000 UL
LTb
1.000 UL
LTb
3583 2162 M
52 28 V
1.000 UL
LTb
2126 1153 M
52 27 V
1.000 UL
LTb
2016 1058 M
gsave 0 setgray
[ [(Times) 220.0 0.0 true true 0 (-1)]
] -73.3 MCshow
grestore
1.000 UL
LTb
1.000 UL
LTb
3942 2100 M
53 27 V
1.000 UL
LTb
2486 1090 M
52 28 V
1.000 UL
LTb
2376 995 M
gsave 0 setgray
[ [(Times) 220.0 0.0 true true 0 (-0.5)]
] -73.3 MCshow
grestore
1.000 UL
LTb
1.000 UL
LTb
4302 2037 M
53 28 V
1.000 UL
LTb
2845 1028 M
53 27 V
1.000 UL
LTb
2736 933 M
gsave 0 setgray
[ [(Times) 220.0 0.0 true true 0 ( 0)]
] -73.3 MCshow
grestore
1.000 UL
LTb
1.000 UL
LTb
4662 1975 M
52 27 V
1.000 UL
LTb
3205 965 M
53 28 V
1.000 UL
LTb
3096 870 M
gsave 0 setgray
[ [(Times) 220.0 0.0 true true 0 ( 0.5)]
] -73.3 MCshow
grestore
1.000 UL
LTb
1.000 UL
LTb
5022 1912 M
52 28 V
1.000 UL
LTb
3565 903 M
52 27 V
1.000 UL
LTb
3455 808 M
gsave 0 setgray
[ [(Times) 220.0 0.0 true true 0 ( 1)]
] -73.3 MCshow
grestore
1.000 UL
LTb
1.000 UL
LTb
5382 1850 M
52 27 V
1.000 UL
LTb
3924 840 M
52 28 V
1.000 UL
LTb
3814 745 M
gsave 0 setgray
[ [(Times) 220.0 0.0 true true 0 ( 1.5)]
] -73.3 MCshow
grestore
1.000 UL
LTb
1.000 UL
LTb
5742 1787 M
52 28 V
1.000 UL
LTb
4284 778 M
52 27 V
1.000 UL
LTb
4174 683 M
gsave 0 setgray
[ [(Times) 220.0 0.0 true true 0 ( 2)]
] -73.3 MCshow
grestore
1.000 UL
LTb
1.000 UL
LTb
6102 1725 M
52 27 V
LTb
2198 816 M
gsave 0 setgray
[ [(Times) 220.0 0.0 true true 0 (Re\(p\))]
] -73.3 MCshow
grestore
1.000 UL
LTb
4284 778 M
-55 9 V
stroke
4398 745 M
gsave 0 setgray
[ [(Times) 220.0 0.0 true true 0 (-0.5)]
] -73.3 MCshow
grestore
1.000 UL
LTb
1.000 UL
LTb
1101 1331 M
-55 9 V
1.000 UL
LTb
4492 886 M
-55 10 V
stroke
4606 853 M
gsave 0 setgray
[ [(Times) 220.0 0.0 true true 0 ( 0)]
] -73.3 MCshow
grestore
1.000 UL
LTb
1.000 UL
LTb
1308 1439 M
-54 10 V
1.000 UL
LTb
4700 994 M
-55 10 V
stroke
4814 961 M
gsave 0 setgray
[ [(Times) 220.0 0.0 true true 0 ( 0.5)]
] -73.3 MCshow
grestore
1.000 UL
LTb
1.000 UL
LTb
1516 1547 M
-54 10 V
1.000 UL
LTb
4907 1103 M
-54 9 V
stroke
5022 1070 M
gsave 0 setgray
[ [(Times) 220.0 0.0 true true 0 ( 1)]
] -73.3 MCshow
grestore
1.000 UL
LTb
1.000 UL
LTb
1724 1656 M
-55 9 V
1.000 UL
LTb
5115 1211 M
-54 9 V
stroke
5229 1178 M
gsave 0 setgray
[ [(Times) 220.0 0.0 true true 0 ( 1.5)]
] -73.3 MCshow
grestore
1.000 UL
LTb
1.000 UL
LTb
1932 1764 M
-55 9 V
1.000 UL
LTb
5323 1319 M
-55 10 V
stroke
5437 1286 M
gsave 0 setgray
[ [(Times) 220.0 0.0 true true 0 ( 2)]
] -73.3 MCshow
grestore
1.000 UL
LTb
1.000 UL
LTb
2139 1872 M
-54 10 V
1.000 UL
LTb
5531 1427 M
-55 10 V
stroke
5645 1394 M
gsave 0 setgray
[ [(Times) 220.0 0.0 true true 0 ( 2.5)]
] -73.3 MCshow
grestore
1.000 UL
LTb
1.000 UL
LTb
2347 1980 M
-54 10 V
1.000 UL
LTb
5738 1536 M
-54 9 V
stroke
5853 1503 M
gsave 0 setgray
[ [(Times) 220.0 0.0 true true 0 ( 3)]
] -73.3 MCshow
grestore
1.000 UL
LTb
1.000 UL
LTb
2555 2089 M
-55 9 V
1.000 UL
LTb
5946 1644 M
-54 9 V
stroke
6061 1611 M
gsave 0 setgray
[ [(Times) 220.0 0.0 true true 0 ( 3.5)]
] -73.3 MCshow
grestore
1.000 UL
LTb
1.000 UL
LTb
2763 2197 M
-55 9 V
1.000 UL
LTb
6154 1752 M
-55 10 V
stroke
6268 1719 M
gsave 0 setgray
[ [(Times) 220.0 0.0 true true 0 ( 4)]
] -73.3 MCshow
grestore
1.000 UL
LTb
1.000 UL
LTb
2971 2305 M
-55 10 V
LTb
6029 1124 M
gsave 0 setgray
[ [(Times) 220.0 0.0 true true 0 (Im\(p\))]
] -73.3 MCshow
grestore
1.000 UL
LTb
1109 1990 M
-63 0 V
stroke
920 1990 M
gsave 0 setgray
[ [(Times) 220.0 0.0 true true 0 (-5)]
] -73.3 MRshow
grestore
1.000 UL
LTb
1.000 UL
LTb
1109 2120 M
-63 0 V
stroke
920 2120 M
gsave 0 setgray
[ [(Times) 220.0 0.0 true true 0 (-4)]
] -73.3 MRshow
grestore
1.000 UL
LTb
1.000 UL
LTb
1109 2250 M
-63 0 V
stroke
920 2250 M
gsave 0 setgray
[ [(Times) 220.0 0.0 true true 0 (-3)]
] -73.3 MRshow
grestore
1.000 UL
LTb
1.000 UL
LTb
1109 2380 M
-63 0 V
stroke
920 2380 M
gsave 0 setgray
[ [(Times) 220.0 0.0 true true 0 (-2)]
] -73.3 MRshow
grestore
1.000 UL
LTb
1.000 UL
LTb
1109 2509 M
-63 0 V
stroke
920 2509 M
gsave 0 setgray
[ [(Times) 220.0 0.0 true true 0 (-1)]
] -73.3 MRshow
grestore
1.000 UL
LTb
1.000 UL
LTb
1109 2638 M
-63 0 V
stroke
920 2638 M
gsave 0 setgray
[ [(Times) 220.0 0.0 true true 0 ( 0)]
] -73.3 MRshow
grestore
1.000 UL
LTb
1.000 UL
LTb
1109 2768 M
-63 0 V
stroke
920 2768 M
gsave 0 setgray
[ [(Times) 220.0 0.0 true true 0 ( 1)]
] -73.3 MRshow
grestore
1.000 UL
LTb
1.000 UL
LTb
1109 2898 M
-63 0 V
stroke
920 2898 M
gsave 0 setgray
[ [(Times) 220.0 0.0 true true 0 ( 2)]
] -73.3 MRshow
grestore
1.000 UL
LTb
1.000 UL
LTb
1109 3028 M
-63 0 V
stroke
920 3028 M
gsave 0 setgray
[ [(Times) 220.0 0.0 true true 0 ( 3)]
] -73.3 MRshow
grestore
1.000 UL
LTb
1.000 UL
LTb
1109 3158 M
-63 0 V
stroke
920 3158 M
gsave 0 setgray
[ [(Times) 220.0 0.0 true true 0 ( 4)]
] -73.3 MRshow
grestore
1.000 UL
LTb
1.000 UL
LTb
1109 3288 M
-63 0 V
stroke
920 3288 M
gsave 0 setgray
[ [(Times) 220.0 0.0 true true 0 ( 5)]
] -73.3 MRshow
grestore
1.000 UL
LTb
1.000 UP
stroke
grestore
end
showpage
%%Trailer
%%DocumentFonts: Times
