%!PS-Adobe-2.0 EPSF-2.0
%%Title: flux_imag_pulsebc.eps
%%Creator: gnuplot 4.0 patchlevel 0
%%CreationDate: Fri Nov 17 17:03:45 2006
%%DocumentFonts: (atend)
%%BoundingBox: 50 50 410 302
%%Orientation: Portrait
%%EndComments
/gnudict 256 dict def
gnudict begin
/Color false def
/Solid false def
/gnulinewidth 5.000 def
/userlinewidth gnulinewidth def
/vshift -73 def
/dl {10.0 mul} def
/hpt_ 31.5 def
/vpt_ 31.5 def
/hpt hpt_ def
/vpt vpt_ def
/Rounded false def
/M {moveto} bind def
/L {lineto} bind def
/R {rmoveto} bind def
/V {rlineto} bind def
/N {newpath moveto} bind def
/C {setrgbcolor} bind def
/f {rlineto fill} bind def
/vpt2 vpt 2 mul def
/hpt2 hpt 2 mul def
/Lshow { currentpoint stroke M
  0 vshift R show } def
/Rshow { currentpoint stroke M
  dup stringwidth pop neg vshift R show } def
/Cshow { currentpoint stroke M
  dup stringwidth pop -2 div vshift R show } def
/UP { dup vpt_ mul /vpt exch def hpt_ mul /hpt exch def
  /hpt2 hpt 2 mul def /vpt2 vpt 2 mul def } def
/DL { Color {setrgbcolor Solid {pop []} if 0 setdash }
 {pop pop pop 0 setgray Solid {pop []} if 0 setdash} ifelse } def
/BL { stroke userlinewidth 2 mul setlinewidth
      Rounded { 1 setlinejoin 1 setlinecap } if } def
/AL { stroke userlinewidth 2 div setlinewidth
      Rounded { 1 setlinejoin 1 setlinecap } if } def
/UL { dup gnulinewidth mul /userlinewidth exch def
      dup 1 lt {pop 1} if 10 mul /udl exch def } def
/PL { stroke userlinewidth setlinewidth
      Rounded { 1 setlinejoin 1 setlinecap } if } def
/LTw { PL [] 1 setgray } def
/LTb { BL [] 0 0 0 DL } def
/LTa { AL [1 udl mul 2 udl mul] 0 setdash 0 0 0 setrgbcolor } def
/LT0 { PL [] 1 0 0 DL } def
/LT1 { PL [4 dl 2 dl] 0 1 0 DL } def
/LT2 { PL [2 dl 3 dl] 0 0 1 DL } def
/LT3 { PL [1 dl 1.5 dl] 1 0 1 DL } def
/LT4 { PL [5 dl 2 dl 1 dl 2 dl] 0 1 1 DL } def
/LT5 { PL [4 dl 3 dl 1 dl 3 dl] 1 1 0 DL } def
/LT6 { PL [2 dl 2 dl 2 dl 4 dl] 0 0 0 DL } def
/LT7 { PL [2 dl 2 dl 2 dl 2 dl 2 dl 4 dl] 1 0.3 0 DL } def
/LT8 { PL [2 dl 2 dl 2 dl 2 dl 2 dl 2 dl 2 dl 4 dl] 0.5 0.5 0.5 DL } def
/Pnt { stroke [] 0 setdash
   gsave 1 setlinecap M 0 0 V stroke grestore } def
/Dia { stroke [] 0 setdash 2 copy vpt add M
  hpt neg vpt neg V hpt vpt neg V
  hpt vpt V hpt neg vpt V closepath stroke
  Pnt } def
/Pls { stroke [] 0 setdash vpt sub M 0 vpt2 V
  currentpoint stroke M
  hpt neg vpt neg R hpt2 0 V stroke
  } def
/Box { stroke [] 0 setdash 2 copy exch hpt sub exch vpt add M
  0 vpt2 neg V hpt2 0 V 0 vpt2 V
  hpt2 neg 0 V closepath stroke
  Pnt } def
/Crs { stroke [] 0 setdash exch hpt sub exch vpt add M
  hpt2 vpt2 neg V currentpoint stroke M
  hpt2 neg 0 R hpt2 vpt2 V stroke } def
/TriU { stroke [] 0 setdash 2 copy vpt 1.12 mul add M
  hpt neg vpt -1.62 mul V
  hpt 2 mul 0 V
  hpt neg vpt 1.62 mul V closepath stroke
  Pnt  } def
/Star { 2 copy Pls Crs } def
/BoxF { stroke [] 0 setdash exch hpt sub exch vpt add M
  0 vpt2 neg V  hpt2 0 V  0 vpt2 V
  hpt2 neg 0 V  closepath fill } def
/TriUF { stroke [] 0 setdash vpt 1.12 mul add M
  hpt neg vpt -1.62 mul V
  hpt 2 mul 0 V
  hpt neg vpt 1.62 mul V closepath fill } def
/TriD { stroke [] 0 setdash 2 copy vpt 1.12 mul sub M
  hpt neg vpt 1.62 mul V
  hpt 2 mul 0 V
  hpt neg vpt -1.62 mul V closepath stroke
  Pnt  } def
/TriDF { stroke [] 0 setdash vpt 1.12 mul sub M
  hpt neg vpt 1.62 mul V
  hpt 2 mul 0 V
  hpt neg vpt -1.62 mul V closepath fill} def
/DiaF { stroke [] 0 setdash vpt add M
  hpt neg vpt neg V hpt vpt neg V
  hpt vpt V hpt neg vpt V closepath fill } def
/Pent { stroke [] 0 setdash 2 copy gsave
  translate 0 hpt M 4 {72 rotate 0 hpt L} repeat
  closepath stroke grestore Pnt } def
/PentF { stroke [] 0 setdash gsave
  translate 0 hpt M 4 {72 rotate 0 hpt L} repeat
  closepath fill grestore } def
/Circle { stroke [] 0 setdash 2 copy
  hpt 0 360 arc stroke Pnt } def
/CircleF { stroke [] 0 setdash hpt 0 360 arc fill } def
/C0 { BL [] 0 setdash 2 copy moveto vpt 90 450  arc } bind def
/C1 { BL [] 0 setdash 2 copy        moveto
       2 copy  vpt 0 90 arc closepath fill
               vpt 0 360 arc closepath } bind def
/C2 { BL [] 0 setdash 2 copy moveto
       2 copy  vpt 90 180 arc closepath fill
               vpt 0 360 arc closepath } bind def
/C3 { BL [] 0 setdash 2 copy moveto
       2 copy  vpt 0 180 arc closepath fill
               vpt 0 360 arc closepath } bind def
/C4 { BL [] 0 setdash 2 copy moveto
       2 copy  vpt 180 270 arc closepath fill
               vpt 0 360 arc closepath } bind def
/C5 { BL [] 0 setdash 2 copy moveto
       2 copy  vpt 0 90 arc
       2 copy moveto
       2 copy  vpt 180 270 arc closepath fill
               vpt 0 360 arc } bind def
/C6 { BL [] 0 setdash 2 copy moveto
      2 copy  vpt 90 270 arc closepath fill
              vpt 0 360 arc closepath } bind def
/C7 { BL [] 0 setdash 2 copy moveto
      2 copy  vpt 0 270 arc closepath fill
              vpt 0 360 arc closepath } bind def
/C8 { BL [] 0 setdash 2 copy moveto
      2 copy vpt 270 360 arc closepath fill
              vpt 0 360 arc closepath } bind def
/C9 { BL [] 0 setdash 2 copy moveto
      2 copy  vpt 270 450 arc closepath fill
              vpt 0 360 arc closepath } bind def
/C10 { BL [] 0 setdash 2 copy 2 copy moveto vpt 270 360 arc closepath fill
       2 copy moveto
       2 copy vpt 90 180 arc closepath fill
               vpt 0 360 arc closepath } bind def
/C11 { BL [] 0 setdash 2 copy moveto
       2 copy  vpt 0 180 arc closepath fill
       2 copy moveto
       2 copy  vpt 270 360 arc closepath fill
               vpt 0 360 arc closepath } bind def
/C12 { BL [] 0 setdash 2 copy moveto
       2 copy  vpt 180 360 arc closepath fill
               vpt 0 360 arc closepath } bind def
/C13 { BL [] 0 setdash  2 copy moveto
       2 copy  vpt 0 90 arc closepath fill
       2 copy moveto
       2 copy  vpt 180 360 arc closepath fill
               vpt 0 360 arc closepath } bind def
/C14 { BL [] 0 setdash 2 copy moveto
       2 copy  vpt 90 360 arc closepath fill
               vpt 0 360 arc } bind def
/C15 { BL [] 0 setdash 2 copy vpt 0 360 arc closepath fill
               vpt 0 360 arc closepath } bind def
/Rec   { newpath 4 2 roll moveto 1 index 0 rlineto 0 exch rlineto
       neg 0 rlineto closepath } bind def
/Square { dup Rec } bind def
/Bsquare { vpt sub exch vpt sub exch vpt2 Square } bind def
/S0 { BL [] 0 setdash 2 copy moveto 0 vpt rlineto BL Bsquare } bind def
/S1 { BL [] 0 setdash 2 copy vpt Square fill Bsquare } bind def
/S2 { BL [] 0 setdash 2 copy exch vpt sub exch vpt Square fill Bsquare } bind def
/S3 { BL [] 0 setdash 2 copy exch vpt sub exch vpt2 vpt Rec fill Bsquare } bind def
/S4 { BL [] 0 setdash 2 copy exch vpt sub exch vpt sub vpt Square fill Bsquare } bind def
/S5 { BL [] 0 setdash 2 copy 2 copy vpt Square fill
       exch vpt sub exch vpt sub vpt Square fill Bsquare } bind def
/S6 { BL [] 0 setdash 2 copy exch vpt sub exch vpt sub vpt vpt2 Rec fill Bsquare } bind def
/S7 { BL [] 0 setdash 2 copy exch vpt sub exch vpt sub vpt vpt2 Rec fill
       2 copy vpt Square fill
       Bsquare } bind def
/S8 { BL [] 0 setdash 2 copy vpt sub vpt Square fill Bsquare } bind def
/S9 { BL [] 0 setdash 2 copy vpt sub vpt vpt2 Rec fill Bsquare } bind def
/S10 { BL [] 0 setdash 2 copy vpt sub vpt Square fill 2 copy exch vpt sub exch vpt Square fill
       Bsquare } bind def
/S11 { BL [] 0 setdash 2 copy vpt sub vpt Square fill 2 copy exch vpt sub exch vpt2 vpt Rec fill
       Bsquare } bind def
/S12 { BL [] 0 setdash 2 copy exch vpt sub exch vpt sub vpt2 vpt Rec fill Bsquare } bind def
/S13 { BL [] 0 setdash 2 copy exch vpt sub exch vpt sub vpt2 vpt Rec fill
       2 copy vpt Square fill Bsquare } bind def
/S14 { BL [] 0 setdash 2 copy exch vpt sub exch vpt sub vpt2 vpt Rec fill
       2 copy exch vpt sub exch vpt Square fill Bsquare } bind def
/S15 { BL [] 0 setdash 2 copy Bsquare fill Bsquare } bind def
/D0 { gsave translate 45 rotate 0 0 S0 stroke grestore } bind def
/D1 { gsave translate 45 rotate 0 0 S1 stroke grestore } bind def
/D2 { gsave translate 45 rotate 0 0 S2 stroke grestore } bind def
/D3 { gsave translate 45 rotate 0 0 S3 stroke grestore } bind def
/D4 { gsave translate 45 rotate 0 0 S4 stroke grestore } bind def
/D5 { gsave translate 45 rotate 0 0 S5 stroke grestore } bind def
/D6 { gsave translate 45 rotate 0 0 S6 stroke grestore } bind def
/D7 { gsave translate 45 rotate 0 0 S7 stroke grestore } bind def
/D8 { gsave translate 45 rotate 0 0 S8 stroke grestore } bind def
/D9 { gsave translate 45 rotate 0 0 S9 stroke grestore } bind def
/D10 { gsave translate 45 rotate 0 0 S10 stroke grestore } bind def
/D11 { gsave translate 45 rotate 0 0 S11 stroke grestore } bind def
/D12 { gsave translate 45 rotate 0 0 S12 stroke grestore } bind def
/D13 { gsave translate 45 rotate 0 0 S13 stroke grestore } bind def
/D14 { gsave translate 45 rotate 0 0 S14 stroke grestore } bind def
/D15 { gsave translate 45 rotate 0 0 S15 stroke grestore } bind def
/DiaE { stroke [] 0 setdash vpt add M
  hpt neg vpt neg V hpt vpt neg V
  hpt vpt V hpt neg vpt V closepath stroke } def
/BoxE { stroke [] 0 setdash exch hpt sub exch vpt add M
  0 vpt2 neg V hpt2 0 V 0 vpt2 V
  hpt2 neg 0 V closepath stroke } def
/TriUE { stroke [] 0 setdash vpt 1.12 mul add M
  hpt neg vpt -1.62 mul V
  hpt 2 mul 0 V
  hpt neg vpt 1.62 mul V closepath stroke } def
/TriDE { stroke [] 0 setdash vpt 1.12 mul sub M
  hpt neg vpt 1.62 mul V
  hpt 2 mul 0 V
  hpt neg vpt -1.62 mul V closepath stroke } def
/PentE { stroke [] 0 setdash gsave
  translate 0 hpt M 4 {72 rotate 0 hpt L} repeat
  closepath stroke grestore } def
/CircE { stroke [] 0 setdash 
  hpt 0 360 arc stroke } def
/Opaque { gsave closepath 1 setgray fill grestore 0 setgray closepath } def
/DiaW { stroke [] 0 setdash vpt add M
  hpt neg vpt neg V hpt vpt neg V
  hpt vpt V hpt neg vpt V Opaque stroke } def
/BoxW { stroke [] 0 setdash exch hpt sub exch vpt add M
  0 vpt2 neg V hpt2 0 V 0 vpt2 V
  hpt2 neg 0 V Opaque stroke } def
/TriUW { stroke [] 0 setdash vpt 1.12 mul add M
  hpt neg vpt -1.62 mul V
  hpt 2 mul 0 V
  hpt neg vpt 1.62 mul V Opaque stroke } def
/TriDW { stroke [] 0 setdash vpt 1.12 mul sub M
  hpt neg vpt 1.62 mul V
  hpt 2 mul 0 V
  hpt neg vpt -1.62 mul V Opaque stroke } def
/PentW { stroke [] 0 setdash gsave
  translate 0 hpt M 4 {72 rotate 0 hpt L} repeat
  Opaque stroke grestore } def
/CircW { stroke [] 0 setdash 
  hpt 0 360 arc Opaque stroke } def
/BoxFill { gsave Rec 1 setgray fill grestore } def
/BoxColFill {
  gsave Rec
  /Fillden exch def
  currentrgbcolor
  /ColB exch def /ColG exch def /ColR exch def
  /ColR ColR Fillden mul Fillden sub 1 add def
  /ColG ColG Fillden mul Fillden sub 1 add def
  /ColB ColB Fillden mul Fillden sub 1 add def
  ColR ColG ColB setrgbcolor
  fill grestore } def
%
% PostScript Level 1 Pattern Fill routine
% Usage: x y w h s a XX PatternFill
%	x,y = lower left corner of box to be filled
%	w,h = width and height of box
%	  a = angle in degrees between lines and x-axis
%	 XX = 0/1 for no/yes cross-hatch
%
/PatternFill { gsave /PFa [ 9 2 roll ] def
    PFa 0 get PFa 2 get 2 div add PFa 1 get PFa 3 get 2 div add translate
    PFa 2 get -2 div PFa 3 get -2 div PFa 2 get PFa 3 get Rec
    gsave 1 setgray fill grestore clip
    currentlinewidth 0.5 mul setlinewidth
    /PFs PFa 2 get dup mul PFa 3 get dup mul add sqrt def
    0 0 M PFa 5 get rotate PFs -2 div dup translate
	0 1 PFs PFa 4 get div 1 add floor cvi
	{ PFa 4 get mul 0 M 0 PFs V } for
    0 PFa 6 get ne {
	0 1 PFs PFa 4 get div 1 add floor cvi
	{ PFa 4 get mul 0 2 1 roll M PFs 0 V } for
    } if
    stroke grestore } def
%
/Symbol-Oblique /Symbol findfont [1 0 .167 1 0 0] makefont
dup length dict begin {1 index /FID eq {pop pop} {def} ifelse} forall
currentdict end definefont pop
/MFshow {
   { dup 5 get 3 ge
     { 5 get 3 eq {gsave} {grestore} ifelse }
     {dup dup 0 get findfont exch 1 get scalefont setfont
     [ currentpoint ] exch dup 2 get 0 exch R dup 5 get 2 ne {dup dup 6
     get exch 4 get {show} {stringwidth pop 0 R} ifelse }if dup 5 get 0 eq
     {dup 3 get {2 get neg 0 exch R pop} {pop aload pop M} ifelse} {dup 5
     get 1 eq {dup 2 get exch dup 3 get exch 6 get stringwidth pop -2 div
     dup 0 R} {dup 6 get stringwidth pop -2 div 0 R 6 get
     show 2 index {aload pop M neg 3 -1 roll neg R pop pop} {pop pop pop
     pop aload pop M} ifelse }ifelse }ifelse }
     ifelse }
   forall} bind def
/MFwidth {0 exch {dup 3 get{dup dup 0 get findfont exch 1 get scalefont
     setfont 6 get stringwidth pop add} {pop} ifelse} forall} bind def
/MLshow { currentpoint stroke M
  0 exch R MFshow } bind def
/MRshow { currentpoint stroke M
  exch dup MFwidth neg 3 -1 roll R MFshow } def
/MCshow { currentpoint stroke M
  exch dup MFwidth -2 div 3 -1 roll R MFshow } def
end
%%EndProlog
gnudict begin
gsave
50 50 translate
0.050 0.050 scale
0 setgray
newpath
(Times) findfont 220 scalefont setfont
1.000 UL
LTb
LTb
3600 4621 M
gsave 0 setgray
[ [(Times) 220.0 0.0 true true 0 (Im\(LT-BEM x-flux\))]
] -73.3 MCshow
grestore
3600 4401 M
gsave 0 setgray
[ [(Times) 220.0 0.0 true true 0 (pulse [e)]
[(Times) 176.0 110.0 true true 0 (-0.5p)]
[(Times) 220.0 0.0 true true 0 (\(1-e)]
[(Times) 176.0 110.0 true true 0 (-1.5p)]
[(Times) 220.0 0.0 true true 0 (\)/p)]
[(Times) 176.0 110.0 true true 0 (2)]
[(Times) 220.0 0.0 true true 0 (] boundary condition)]
] -95.3 MCshow
grestore
1.000 UP
1.000 UL
LT0
3284 3653 M
83 54 V
1.000 UL
LT0
3511 3624 M
-144 83 V
1.000 UL
LT0
3223 3818 M
144 -111 V
1.000 UL
LT0
3140 3765 M
83 53 V
1.000 UL
LT0
3079 3967 M
144 -149 V
1.000 UL
LT0
3428 3569 M
83 55 V
1.000 UL
LT0
3654 3560 M
-143 64 V
1.000 UL
LT0
2581 2939 M
-18 -45 V
1.000 UL
LT0
3572 3506 M
82 54 V
1.000 UL
LT0
3798 3508 M
-144 52 V
1.000 UL
LT0
2996 3921 M
83 46 V
1.000 UL
LT0
LT1
2331 2527 M
83 59 V
1.000 UL
LT0
LT1
2424 2597 M
-10 -11 V
1.000 UL
LT0
2725 3012 M
-144 -73 V
1.000 UL
LT0
2664 3181 M
-83 -242 V
1.000 UL
LT0
3715 3456 M
83 52 V
1.000 UL
LT0
3942 3466 M
-144 42 V
1.000 UL
LT0
3201 3569 M
83 84 V
1.000 UL
LT0
3428 3569 M
-144 84 V
1.000 UL
LT0
3140 3765 M
144 -112 V
1.000 UL
LT0
3057 3670 M
83 95 V
1.000 UL
LT0
2996 3921 M
144 -156 V
1.000 UL
LT0
3345 3495 M
83 74 V
1.000 UL
LT0
3572 3506 M
-144 63 V
1.000 UL
LT0
2808 3189 M
-144 -8 V
1.000 UL
LT0
2747 3425 M
-83 -244 V
1.000 UL
LT0
3859 3415 M
83 51 V
1.000 UL
LT0
4086 3429 M
-144 37 V
1.000 UL
LT0
3489 3439 M
83 67 V
1.000 UL
LT0
3715 3456 M
-143 50 V
1.000 UL
LT0
LT1
2248 2564 M
83 -37 V
1.000 UL
LT0
LT1
2394 2603 M
-63 -76 V
1.000 UL
LT0
2913 3812 M
83 109 V
1.000 UL
LT0
3118 3460 M
83 109 V
1.000 UL
LT0
3345 3495 M
-144 74 V
1.000 UL
LT0
3057 3670 M
144 -101 V
1.000 UL
LT0
2974 3535 M
83 135 V
1.000 UL
LT0
2913 3812 M
144 -142 V
1.000 UL
LT0
2891 3370 M
-144 55 V
1.000 UL
LT0
2830 3643 M
-83 -218 V
1.000 UL
LT0
4003 3380 M
83 49 V
1.000 UL
LT0
4230 3397 M
-144 32 V
1.000 UL
LT0
3632 3395 M
83 61 V
1.000 UL
LT0
3859 3415 M
-144 41 V
1.000 UL
LT0
3262 3404 M
83 91 V
1.000 UL
LT0
3489 3439 M
-144 56 V
1.000 UL
LT0
2658 2890 M
67 122 V
1.000 UL
LT0
2869 3059 M
-144 -47 V
1.000 UL
LT0
2808 3189 M
-83 -177 V
1.000 UL
LT0
2952 3192 M
-144 -3 V
1.000 UL
LT0
2891 3370 M
-83 -181 V
1.000 UL
LT0
2891 3370 M
83 165 V
1.000 UL
LT0
3118 3460 M
-144 75 V
1.000 UL
LT0
2830 3643 M
144 -108 V
1.000 UL
LT0
2830 3643 M
83 169 V
1.000 UL
LT0
3035 3330 M
-144 40 V
1.000 UL
LT0
2785 2944 M
-92 -54 V
1.000 UL
LT0
3035 3330 M
83 130 V
1.000 UL
LT0
3262 3404 M
-144 56 V
1.000 UL
LT0
3406 3361 M
83 78 V
1.000 UL
LT0
3632 3395 M
-143 44 V
1.000 UL
LT0
3776 3358 M
83 57 V
1.000 UL
LT0
4003 3380 M
-144 35 V
1.000 UL
LT0
4147 3349 M
83 48 V
1.000 UL
LT0
4374 3367 M
-144 30 V
1.000 UL
LT0
2952 3192 M
83 138 V
1.000 UL
LT0
3179 3300 M
-144 30 V
1.000 UL
LT0
3179 3300 M
83 104 V
1.000 UL
LT0
3406 3361 M
-144 43 V
1.000 UL
LT0
3550 3327 M
82 68 V
1.000 UL
LT0
3776 3358 M
-144 37 V
1.000 UL
LT0
3920 3327 M
83 53 V
1.000 UL
LT0
4147 3349 M
-144 31 V
1.000 UL
LT0
2869 3059 M
83 133 V
1.000 UL
LT0
3096 3192 M
-144 0 V
1.000 UL
LT0
4291 3320 M
83 47 V
1.000 UL
LT0
4518 3339 M
-144 28 V
1.000 UL
LT0
3323 3276 M
83 85 V
1.000 UL
LT0
3550 3327 M
-144 34 V
1.000 UL
LT0
3096 3192 M
83 108 V
1.000 UL
LT0
3323 3276 M
-144 24 V
1.000 UL
LT0
LT1
2199 2637 M
49 -73 V
1.000 UL
LT0
LT1
2302 2620 M
-54 -56 V
1.000 UL
LT0
2785 2944 M
84 115 V
1.000 UL
LT0
3012 3087 M
-143 -28 V
1.000 UL
LT0
3693 3297 M
83 61 V
1.000 UL
LT0
3920 3327 M
-144 31 V
1.000 UL
LT0
4064 3298 M
83 51 V
1.000 UL
LT0
4291 3320 M
-144 29 V
1.000 UL
LT0
4435 3293 M
83 46 V
1.000 UL
LT0
4662 3313 M
-144 26 V
1.000 UL
LT0
3467 3253 M
83 74 V
1.000 UL
LT0
3693 3297 M
-143 30 V
1.000 UL
LT0
2732 2890 M
53 54 V
1.000 UL
LT0
2929 2996 M
-144 -52 V
1.000 UL
LT0
3012 3087 M
84 105 V
1.000 UL
LT0
3240 3187 M
-144 5 V
1.000 UL
LT0
3240 3187 M
83 89 V
1.000 UL
LT0
3467 3253 M
-144 23 V
1.000 UL
LT0
3837 3270 M
83 57 V
1.000 UL
LT0
4064 3298 M
-144 29 V
1.000 UL
LT0
4208 3272 M
83 48 V
1.000 UL
LT0
4435 3293 M
-144 27 V
1.000 UL
LT0
4579 3268 M
83 45 V
1.000 UL
LT0
4806 3287 M
-144 26 V
1.000 UL
LT0
3610 3233 M
83 64 V
1.000 UL
LT0
3837 3270 M
-144 27 V
1.000 UL
LT0
2929 2996 M
83 91 V
1.000 UL
LT0
3156 3102 M
-144 -15 V
1.000 UL
LT0
3981 3245 M
83 53 V
1.000 UL
LT0
4208 3272 M
-144 26 V
1.000 UL
LT0
2846 2926 M
-70 -32 V
1.000 UL
LT0
3383 3179 M
84 74 V
1.000 UL
LT0
3610 3233 M
-143 20 V
1.000 UL
LT0
3156 3102 M
84 85 V
1.000 UL
LT0
3383 3179 M
-143 8 V
1.000 UL
LT0
4352 3246 M
83 47 V
1.000 UL
LT0
4579 3268 M
-144 25 V
1.000 UL
LT0
4723 3242 M
83 45 V
1.000 UL
LT0
4950 3262 M
-144 25 V
1.000 UL
LT0
3753 3212 M
84 58 V
1.000 UL
LT0
3981 3245 M
-144 25 V
1.000 UL
LT0
2846 2926 M
83 70 V
1.000 UL
LT0
3073 3027 M
-144 -31 V
1.000 UL
LT0
4125 3222 M
83 50 V
1.000 UL
LT0
4352 3246 M
-144 26 V
1.000 UL
LT0
3527 3168 M
83 65 V
1.000 UL
LT0
3753 3212 M
-143 21 V
1.000 UL
LT0
4496 3222 M
83 46 V
1.000 UL
LT0
4723 3242 M
-144 26 V
1.000 UL
LT0
3073 3027 M
83 75 V
1.000 UL
LT0
3300 3108 M
-144 -6 V
1.000 UL
LT0
3300 3108 M
83 71 V
1.000 UL
LT0
3527 3168 M
-144 11 V
1.000 UL
LT0
4867 3218 M
83 44 V
1.000 UL
LT0
5094 3237 M
-144 25 V
1.000 UL
LT0
3897 3192 M
84 53 V
1.000 UL
LT0
4125 3222 M
-144 23 V
1.000 UL
LT0
4268 3198 M
84 48 V
1.000 UL
LT0
4496 3222 M
-144 24 V
1.000 UL
LT0
3670 3154 M
83 58 V
1.000 UL
LT0
3897 3192 M
-144 20 V
1.000 UL
LT0
2786 2895 M
60 31 V
1.000 UL
LT0
2990 2967 M
-144 -41 V
1.000 UL
LT0
4639 3197 M
84 45 V
1.000 UL
LT0
4867 3218 M
-144 24 V
1.000 UL
LT0
3444 3106 M
83 62 V
1.000 UL
LT0
3670 3154 M
-143 14 V
1.000 UL
LT0
5010 3193 M
84 44 V
1.000 UL
LT0
5238 3213 M
-144 24 V
1.000 UL
LT0
2990 2967 M
83 60 V
1.000 UL
LT0
3217 3043 M
-144 -16 V
1.000 UL
LT0
4041 3171 M
84 51 V
1.000 UL
LT0
4268 3198 M
-143 24 V
1.000 UL
LT0
3217 3043 M
83 65 V
1.000 UL
LT0
3444 3106 M
-144 2 V
1.000 UL
LT0
4412 3175 M
84 47 V
1.000 UL
LT0
4639 3197 M
-143 25 V
1.000 UL
LT0
3814 3139 M
83 53 V
1.000 UL
LT0
4041 3171 M
-144 21 V
1.000 UL
LT0
4783 3173 M
84 45 V
1.000 UL
LT0
5010 3193 M
-143 25 V
1.000 UL
LT0
5154 3169 M
84 44 V
1.000 UL
LT0
5382 3188 M
-144 25 V
1.000 UL
LT0
4185 3150 M
83 48 V
1.000 UL
LT0
4412 3175 M
-144 23 V
1.000 UL
LT0
3588 3098 M
82 56 V
1.000 UL
LT0
3814 3139 M
-144 15 V
1.000 UL
LT0
2907 2924 M
-88 -25 V
1.000 UL
LT0
4556 3152 M
83 45 V
1.000 UL
LT0
4783 3173 M
-144 24 V
1.000 UL
LT0
3361 3048 M
83 58 V
1.000 UL
LT0
3588 3098 M
-144 8 V
1.000 UL
LT0
2907 2924 M
83 43 V
1.000 UL
LT0
3134 2989 M
-144 -22 V
1.000 UL
LT0
3134 2989 M
83 54 V
1.000 UL
LT0
3361 3048 M
-144 -5 V
1.000 UL
LT0
3958 3122 M
83 49 V
1.000 UL
LT0
4185 3150 M
-144 21 V
1.000 UL
LT0
4927 3149 M
83 44 V
1.000 UL
LT0
5154 3169 M
-144 24 V
1.000 UL
LT0
5298 3144 M
84 44 V
1.000 UL
LT0
5525 3163 M
-143 25 V
1.000 UL
LT0
4329 3129 M
83 46 V
1.000 UL
LT0
4556 3152 M
-144 23 V
1.000 UL
LT0
3731 3087 M
83 52 V
1.000 UL
LT0
3958 3122 M
-144 17 V
1.000 UL
LT0
4700 3129 M
83 44 V
1.000 UL
LT0
4927 3149 M
-144 24 V
1.000 UL
LT0
3505 3046 M
83 52 V
1.000 UL
LT0
3731 3087 M
-143 11 V
1.000 UL
LT0
5071 3125 M
83 44 V
1.000 UL
LT0
5298 3144 M
-144 25 V
1.000 UL
LT0
4102 3103 M
83 47 V
1.000 UL
LT0
4329 3129 M
-144 21 V
1.000 UL
LT0
3278 2998 M
83 50 V
1.000 UL
LT0
3505 3046 M
-144 2 V
1.000 UL
LT0
5442 3120 M
83 43 V
1.000 UL
LT0
5669 3139 M
-144 24 V
1.000 UL
LT0
4473 3107 M
83 45 V
1.000 UL
LT0
4700 3129 M
-144 23 V
1.000 UL
LT0
3051 2947 M
83 42 V
1.000 UL
LT0
3278 2998 M
-144 -9 V
1.000 UL
LT0
2824 2899 M
83 25 V
1.000 UL
LT0
3051 2947 M
-144 -23 V
1.000 UL
LT0
3875 3073 M
83 49 V
1.000 UL
LT0
4102 3103 M
-144 19 V
1.000 UL
LT0
4844 3105 M
83 44 V
1.000 UL
LT0
5071 3125 M
-144 24 V
1.000 UL
LT0
5215 3101 M
83 43 V
1.000 UL
LT0
5442 3120 M
-144 24 V
1.000 UL
LT0
4246 3083 M
83 46 V
1.000 UL
LT0
4473 3107 M
-144 22 V
1.000 UL
LT0
3648 3039 M
83 48 V
1.000 UL
LT0
3875 3073 M
-144 14 V
1.000 UL
LT0
5586 3095 M
83 44 V
1.000 UL
LT0
5813 3114 M
-144 25 V
1.000 UL
LT0
4617 3084 M
83 45 V
1.000 UL
LT0
4844 3105 M
-144 24 V
1.000 UL
LT0
3422 2999 M
83 47 V
1.000 UL
LT0
3648 3039 M
-143 7 V
1.000 UL
LT0
4019 3057 M
83 46 V
1.000 UL
LT0
4246 3083 M
-144 20 V
1.000 UL
LT0
4988 3081 M
83 44 V
1.000 UL
LT0
5215 3101 M
-144 24 V
1.000 UL
LT0
3195 2957 M
83 41 V
1.000 UL
LT0
3422 2999 M
-144 -1 V
1.000 UL
LT0
5359 3077 M
83 43 V
1.000 UL
LT0
5586 3095 M
-144 25 V
1.000 UL
LT0
4390 3062 M
83 45 V
1.000 UL
LT0
4617 3084 M
-144 23 V
1.000 UL
LT0
2968 2917 M
83 30 V
1.000 UL
LT0
3195 2957 M
-144 -10 V
1.000 UL
LT0
3792 3027 M
83 46 V
1.000 UL
LT0
4019 3057 M
-144 16 V
1.000 UL
LT0
5730 3071 M
83 43 V
1.000 UL
LT0
4761 3061 M
83 44 V
1.000 UL
LT0
4988 3081 M
-144 24 V
1.000 UL
LT0
2741 2890 M
83 9 V
1.000 UL
LT0
2968 2917 M
-144 -18 V
1.000 UL
LT0
5132 3057 M
83 44 V
1.000 UL
LT0
5359 3077 M
-144 24 V
1.000 UL
LT0
4163 3038 M
83 45 V
1.000 UL
LT0
4390 3062 M
-144 21 V
1.000 UL
LT0
3566 2994 M
82 45 V
1.000 UL
LT0
3792 3027 M
-144 12 V
1.000 UL
LT0
5503 3052 M
83 43 V
1.000 UL
LT0
5730 3071 M
-144 24 V
1.000 UL
LT0
4534 3040 M
83 44 V
1.000 UL
LT0
4761 3061 M
-144 23 V
1.000 UL
LT0
3339 2959 M
83 40 V
1.000 UL
LT0
3566 2994 M
-144 5 V
1.000 UL
LT0
3936 3012 M
83 45 V
1.000 UL
LT0
4163 3038 M
-144 19 V
1.000 UL
LT0
4905 3038 M
83 43 V
1.000 UL
LT0
5132 3057 M
-144 24 V
1.000 UL
LT0
3112 2924 M
83 33 V
1.000 UL
LT0
3339 2959 M
-144 -2 V
1.000 UL
LT0
5276 3033 M
83 44 V
1.000 UL
LT0
5503 3052 M
-144 25 V
1.000 UL
LT0
4307 3018 M
83 44 V
1.000 UL
LT0
4534 3040 M
-144 22 V
1.000 UL
LT0
3709 2984 M
83 43 V
1.000 UL
LT0
3936 3012 M
-144 15 V
1.000 UL
LT0
5647 3028 M
83 43 V
1.000 UL
LT0
2885 2898 M
83 19 V
1.000 UL
LT0
3112 2924 M
-48 -2 V
1.000 UL
LT0
3018 2920 M
-50 -3 V
1.000 UL
LT0
4678 3018 M
83 43 V
1.000 UL
LT0
4905 3038 M
-144 23 V
1.000 UL
LT0
5049 3014 M
83 43 V
1.000 UL
LT0
5276 3033 M
-144 24 V
1.000 UL
LT0
4080 2995 M
83 43 V
1.000 UL
LT0
4307 3018 M
-144 20 V
1.000 UL
LT0
3483 2954 M
83 40 V
1.000 UL
LT0
3709 2984 M
-143 10 V
1.000 UL
LT0
2658 2890 M
83 0 V
1.000 UL
LT0
2885 2898 M
-144 -8 V
1.000 UL
LT0
5420 3009 M
83 43 V
1.000 UL
LT0
5647 3028 M
-144 24 V
1.000 UL
LT0
4451 2997 M
83 43 V
1.000 UL
LT0
4678 3018 M
-144 22 V
1.000 UL
LT0
3256 2924 M
83 35 V
1.000 UL
LT0
3483 2954 M
-144 5 V
1.000 UL
LT0
3853 2970 M
83 42 V
1.000 UL
LT0
4080 2995 M
-144 17 V
1.000 UL
LT0
4822 2995 M
83 43 V
1.000 UL
LT0
5049 3014 M
-144 24 V
1.000 UL
LT0
5193 2990 M
83 43 V
1.000 UL
LT0
5420 3009 M
-144 24 V
1.000 UL
LT0
3090 2917 M
22 7 V
1.000 UL
LT0
3256 2924 M
-144 0 V
1.000 UL
LT0
4224 2976 M
83 42 V
1.000 UL
LT0
4451 2997 M
-144 21 V
1.000 UL
LT0
3626 2944 M
83 40 V
1.000 UL
LT0
3853 2970 M
-144 14 V
1.000 UL
LT0
5564 2984 M
83 44 V
1.000 UL
LT0
4595 2975 M
83 43 V
1.000 UL
LT0
4822 2995 M
-144 23 V
1.000 UL
LT0
2802 2885 M
83 13 V
1.000 UL
LT0
3007 2899 M
-122 -1 V
1.000 UL
LT0
4966 2971 M
83 43 V
1.000 UL
LT0
5193 2990 M
-144 24 V
1.000 UL
LT0
3997 2954 M
83 41 V
1.000 UL
LT0
4224 2976 M
-144 19 V
1.000 UL
LT0
3400 2918 M
83 36 V
1.000 UL
LT0
3626 2944 M
-143 10 V
1.000 UL
LT0
5337 2966 M
83 43 V
1.000 UL
LT0
5564 2984 M
-144 25 V
1.000 UL
LT0
4368 2955 M
83 42 V
1.000 UL
LT0
4595 2975 M
-144 22 V
1.000 UL
LT0
3770 2931 M
83 39 V
1.000 UL
LT0
3997 2954 M
-144 16 V
1.000 UL
LT0
3173 2895 M
83 29 V
1.000 UL
LT0
3400 2918 M
-144 6 V
1.000 UL
LT0
4739 2952 M
83 43 V
1.000 UL
LT0
4966 2971 M
-144 24 V
1.000 UL
LT0
2575 2892 M
83 -2 V
1.000 UL
LT0
2802 2885 M
-144 5 V
1.000 UL
LT0
5110 2947 M
83 43 V
1.000 UL
LT0
5337 2966 M
-144 24 V
1.000 UL
LT0
4141 2935 M
83 41 V
1.000 UL
LT0
4368 2955 M
-144 21 V
1.000 UL
LT0
2431 2916 M
-113 28 V
1.000 UL
LT0
3544 2908 M
82 36 V
1.000 UL
LT0
3770 2931 M
-144 13 V
1.000 UL
LT0
2946 2878 M
57 14 V
1.000 UL
LT0
5481 2941 M
83 43 V
1.000 UL
LT0
4512 2933 M
83 42 V
1.000 UL
LT0
4739 2952 M
-144 23 V
1.000 UL
LT0
4883 2929 M
83 42 V
1.000 UL
LT0
5110 2947 M
-144 24 V
1.000 UL
LT0
3914 2914 M
83 40 V
1.000 UL
LT0
4141 2935 M
-144 19 V
1.000 UL
LT0
3317 2887 M
83 31 V
1.000 UL
LT0
3544 2908 M
-144 10 V
1.000 UL
LT0
5254 2923 M
83 43 V
1.000 UL
LT0
5481 2941 M
-144 25 V
1.000 UL
LT0
2719 2873 M
83 12 V
1.000 UL
LT0
2946 2878 M
-144 7 V
1.000 UL
LT0
4285 2914 M
83 41 V
1.000 UL
LT0
4512 2933 M
-144 22 V
1.000 UL
LT0
2348 2931 M
83 -15 V
1.000 UL
LT0
2575 2892 M
-144 24 V
1.000 UL
LT0
3687 2895 M
83 36 V
1.000 UL
LT0
3914 2914 M
-144 17 V
1.000 UL
LT0
4656 2910 M
83 42 V
1.000 UL
LT0
4883 2929 M
-144 23 V
1.000 UL
LT0
3317 2887 M
-143 8 V
1.000 UL
LT0
5027 2905 M
83 42 V
1.000 UL
LT0
5254 2923 M
-144 24 V
1.000 UL
LT0
4058 2895 M
83 40 V
1.000 UL
LT0
4285 2914 M
-144 21 V
1.000 UL
LT0
5398 2899 M
83 42 V
1.000 UL
LT0
3461 2876 M
83 32 V
1.000 UL
LT0
3687 2895 M
-143 13 V
1.000 UL
LT0
2492 2887 M
83 5 V
1.000 UL
LT0
2719 2873 M
-144 19 V
1.000 UL
LT0
4429 2892 M
83 41 V
1.000 UL
LT0
4656 2910 M
-144 23 V
1.000 UL
LT0
2863 2858 M
83 20 V
1.000 UL
LT0
2994 2875 M
-48 3 V
1.000 UL
LT0
4800 2887 M
83 42 V
1.000 UL
LT0
5027 2905 M
-144 24 V
1.000 UL
LT0
3831 2878 M
83 36 V
1.000 UL
LT0
4058 2895 M
-144 19 V
1.000 UL
LT0
5171 2881 M
83 42 V
1.000 UL
LT0
5398 2899 M
-144 24 V
1.000 UL
LT0
3234 2860 M
83 27 V
1.000 UL
LT0
3461 2876 M
-144 11 V
1.000 UL
LT0
4202 2875 M
83 39 V
1.000 UL
LT0
4429 2892 M
-144 22 V
1.000 UL
LT0
1977 3131 M
83 -39 V
1.000 UL
LT0
2204 2995 M
-144 97 V
1.000 UL
LT0
1916 3243 M
144 -151 V
1.000 UL
LT0
2121 3006 M
83 -11 V
1.000 UL
LT0
2348 2931 M
-144 64 V
1.000 UL
LT0
4573 2869 M
83 41 V
1.000 UL
LT0
4800 2887 M
-144 23 V
1.000 UL
LT0
2635 2858 M
84 15 V
1.000 UL
LT0
2863 2858 M
-144 15 V
1.000 UL
LT0
3604 2862 M
83 33 V
1.000 UL
LT0
3831 2878 M
-144 17 V
1.000 UL
LT0
4944 2863 M
83 42 V
1.000 UL
LT0
5171 2881 M
-144 24 V
1.000 UL
LT0
3234 2860 M
-36 2 V
1.000 UL
LT0
3975 2858 M
83 37 V
1.000 UL
LT0
4202 2875 M
-144 20 V
1.000 UL
LT0
2264 2925 M
84 6 V
1.000 UL
LT0
2492 2887 M
-144 44 V
1.000 UL
LT0
5315 2856 M
83 43 V
1.000 UL
LT0
1833 3329 M
83 -86 V
1.000 UL
LT0
4346 2852 M
83 40 V
1.000 UL
LT0
4573 2869 M
-144 23 V
1.000 UL
LT0
3378 2847 M
83 29 V
1.000 UL
LT0
3604 2862 M
-143 14 V
1.000 UL
LT0
4717 2845 M
83 42 V
1.000 UL
LT0
4944 2863 M
-144 24 V
1.000 UL
LT0
3748 2844 M
83 34 V
1.000 UL
LT0
3975 2858 M
-144 20 V
1.000 UL
LT0
2779 2837 M
84 21 V
1.000 UL
LT0
2980 2848 M
-117 10 V
1.000 UL
LT0
2408 2870 M
84 17 V
1.000 UL
LT0
2635 2858 M
-143 29 V
1.000 UL
LT0
5088 2838 M
83 43 V
1.000 UL
LT0
5315 2856 M
-144 25 V
1.000 UL
LT0
4119 2837 M
83 38 V
1.000 UL
LT0
4346 2852 M
-144 23 V
1.000 UL
LT0
3206 2851 M
28 9 V
1.000 UL
LT0
3378 2847 M
-144 13 V
1.000 UL
LT0
4490 2829 M
83 40 V
1.000 UL
LT0
4717 2845 M
-144 24 V
1.000 UL
LT0
3521 2832 M
83 30 V
1.000 UL
LT0
3748 2844 M
-144 18 V
1.000 UL
LT0
4861 2821 M
83 42 V
1.000 UL
LT0
5088 2838 M
-144 25 V
1.000 UL
LT0
2552 2834 M
83 24 V
1.000 UL
LT0
2779 2837 M
-144 21 V
1.000 UL
LT0
3891 2823 M
84 35 V
1.000 UL
LT0
4119 2837 M
-144 21 V
1.000 UL
LT0
5232 2814 M
83 42 V
1.000 UL
LT0
2923 2821 M
51 15 V
1.000 UL
LT0
2037 2975 M
84 31 V
1.000 UL
LT0
2264 2925 M
-143 81 V
1.000 UL
LT0
1977 3131 M
144 -125 V
1.000 UL
LT0
4262 2813 M
84 39 V
1.000 UL
LT0
4490 2829 M
-144 23 V
1.000 UL
LT0
2181 2892 M
83 33 V
1.000 UL
LT0
2408 2870 M
-144 55 V
1.000 UL
LT0
3294 2822 M
84 25 V
1.000 UL
LT0
3521 2832 M
-143 15 V
1.000 UL
LT0
1893 3102 M
84 29 V
1.000 UL
LT0
1833 3329 M
144 -198 V
1.000 UL
LT0
4634 2804 M
83 41 V
1.000 UL
LT0
4861 2821 M
-144 24 V
1.000 UL
LT0
3664 2813 M
84 31 V
1.000 UL
LT0
3891 2823 M
-143 21 V
1.000 UL
LT0
5005 2796 M
83 42 V
1.000 UL
LT0
5232 2814 M
-144 24 V
1.000 UL
LT0
2696 2809 M
83 28 V
1.000 UL
LT0
2923 2821 M
-144 16 V
1.000 UL
LT0
2325 2837 M
83 33 V
1.000 UL
LT0
2552 2834 M
-144 36 V
1.000 UL
LT0
4035 2800 M
84 37 V
1.000 UL
LT0
4262 2813 M
-143 24 V
1.000 UL
LT0
3294 2822 M
-70 6 V
1.000 UL
LT0
4406 2789 M
84 40 V
1.000 UL
LT0
4634 2804 M
-144 25 V
1.000 UL
LT0
4777 2779 M
84 42 V
1.000 UL
LT0
5005 2796 M
-144 25 V
1.000 UL
LT0
3438 2806 M
83 26 V
1.000 UL
LT0
3664 2813 M
-143 19 V
1.000 UL
LT0
5148 2771 M
84 43 V
1.000 UL
LT0
1749 3301 M
84 28 V
1.000 UL
LT0
3808 2790 M
83 33 V
1.000 UL
LT0
4035 2800 M
-144 23 V
1.000 UL
LT0
2469 2798 M
83 36 V
1.000 UL
LT0
2696 2809 M
-144 25 V
1.000 UL
LT0
1644 2677 M
-144 -24 V
1.000 UL
LT0
1583 2926 M
-83 -273 V
1.000 UL
LT0
4179 2775 M
83 38 V
1.000 UL
LT0
4406 2789 M
-144 24 V
1.000 UL
LT0
2840 2793 M
83 28 V
1.000 UL
LT0
2964 2818 M
-41 3 V
1.000 UL
LT0
1954 2902 M
83 73 V
1.000 UL
LT0
2181 2892 M
-144 83 V
1.000 UL
LT0
1893 3102 M
144 -127 V
1.000 UL
LT0
4550 2764 M
84 40 V
1.000 UL
LT0
4777 2779 M
-143 25 V
1.000 UL
LT0
2098 2834 M
83 58 V
1.000 UL
LT0
2325 2837 M
-144 55 V
1.000 UL
LT0
1810 3003 M
83 99 V
1.000 UL
LT0
1749 3301 M
144 -199 V
1.000 UL
LT0
3240 2807 M
54 15 V
1.000 UL
LT0
3438 2806 M
-144 16 V
1.000 UL
LT0
4921 2754 M
84 42 V
1.000 UL
LT0
5148 2771 M
-143 25 V
1.000 UL
LT0
3582 2785 M
82 28 V
1.000 UL
LT0
3808 2790 M
-144 23 V
1.000 UL
LT0
3952 2765 M
83 35 V
1.000 UL
LT0
4179 2775 M
-144 25 V
1.000 UL
LT0
2613 2773 M
83 36 V
1.000 UL
LT0
2840 2793 M
-144 16 V
1.000 UL
LT0
2242 2786 M
83 51 V
1.000 UL
LT0
2469 2798 M
-144 39 V
1.000 UL
LT0
4323 2750 M
83 39 V
1.000 UL
LT0
4550 2764 M
-144 25 V
1.000 UL
LT0
4694 2738 M
83 41 V
1.000 UL
LT0
4921 2754 M
-144 25 V
1.000 UL
LT0
1727 2852 M
-144 74 V
1.000 UL
LT0
1666 3157 M
-83 -231 V
1.000 UL
LT0
1871 2798 M
83 104 V
1.000 UL
LT0
2098 2834 M
-144 68 V
1.000 UL
LT0
1810 3003 M
144 -101 V
1.000 UL
LT0
1727 2852 M
83 151 V
1.000 UL
LT0
1666 3157 M
144 -154 V
1.000 UL
LT0
5065 2729 M
83 42 V
1.000 UL
LT0
3355 2785 M
83 21 V
1.000 UL
LT0
3582 2785 M
-144 21 V
1.000 UL
LT0
1788 2681 M
-144 -4 V
1.000 UL
LT0
1727 2852 M
-83 -175 V
1.000 UL
LT0
3725 2760 M
83 30 V
1.000 UL
LT0
3952 2765 M
-144 25 V
1.000 UL
LT0
1871 2798 M
-144 54 V
1.000 UL
LT0
2386 2751 M
83 47 V
1.000 UL
LT0
2613 2773 M
-144 25 V
1.000 UL
LT0
1666 3157 M
83 144 V
1.000 UL
LT0
2015 2757 M
83 77 V
1.000 UL
LT0
2242 2786 M
-144 48 V
1.000 UL
LT0
4096 2739 M
83 36 V
1.000 UL
LT0
4323 2750 M
-144 25 V
1.000 UL
LT0
2757 2758 M
83 35 V
1.000 UL
LT0
2948 2787 M
-108 6 V
1.000 UL
LT0
4467 2724 M
83 40 V
1.000 UL
LT0
4694 2738 M
-144 26 V
1.000 UL
LT0
4838 2713 M
83 41 V
1.000 UL
LT0
5065 2729 M
-144 25 V
1.000 UL
LT0
1788 2681 M
83 117 V
1.000 UL
LT0
2015 2757 M
-144 41 V
1.000 UL
LT0
3355 2785 M
-107 10 V
1.000 UL
LT0
2159 2723 M
83 63 V
1.000 UL
LT0
2386 2751 M
-144 35 V
1.000 UL
LT0
3499 2763 M
83 22 V
1.000 UL
LT0
3725 2760 M
-143 25 V
1.000 UL
LT0
3869 2732 M
83 33 V
1.000 UL
LT0
4096 2739 M
-144 26 V
1.000 UL
LT0
2530 2726 M
83 47 V
1.000 UL
LT0
2757 2758 M
-144 15 V
1.000 UL
LT0
4240 2711 M
83 39 V
1.000 UL
LT0
4467 2724 M
-144 26 V
1.000 UL
LT0
4611 2697 M
83 41 V
1.000 UL
LT0
4838 2713 M
-144 25 V
1.000 UL
LT0
1932 2672 M
-144 9 V
1.000 UL
LT0
1932 2672 M
83 85 V
1.000 UL
LT0
2159 2723 M
-144 34 V
1.000 UL
LT0
2901 2755 M
37 13 V
1.000 UL
LT0
4982 2687 M
83 42 V
1.000 UL
LT0
2303 2695 M
83 56 V
1.000 UL
LT0
2530 2726 M
-144 25 V
1.000 UL
LT0
3287 2774 M
68 11 V
1.000 UL
LT0
3499 2763 M
-144 22 V
1.000 UL
LT0
3642 2734 M
83 26 V
1.000 UL
LT0
3869 2732 M
-144 28 V
1.000 UL
LT0
4013 2702 M
83 37 V
1.000 UL
LT0
4240 2711 M
-144 28 V
1.000 UL
LT0
4384 2684 M
83 40 V
1.000 UL
LT0
4611 2697 M
-144 27 V
1.000 UL
LT0
2674 2710 M
83 48 V
1.000 UL
LT0
2901 2755 M
-144 3 V
1.000 UL
LT0
2076 2655 M
83 68 V
1.000 UL
LT0
2303 2695 M
-144 28 V
1.000 UL
LT0
4755 2671 M
83 42 V
1.000 UL
LT0
4982 2687 M
-144 26 V
1.000 UL
LT0
2076 2655 M
-144 17 V
1.000 UL
LT0
2447 2669 M
83 57 V
1.000 UL
LT0
2674 2710 M
-144 16 V
1.000 UL
LT0
3786 2700 M
83 32 V
1.000 UL
LT0
4013 2702 M
-144 30 V
1.000 UL
LT0
3416 2748 M
83 15 V
1.000 UL
LT0
3642 2734 M
-143 29 V
1.000 UL
LT0
4157 2673 M
83 38 V
1.000 UL
LT0
4384 2684 M
-144 27 V
1.000 UL
LT0
4528 2656 M
83 41 V
1.000 UL
LT0
4755 2671 M
-144 26 V
1.000 UL
LT0
2220 2634 M
83 61 V
1.000 UL
LT0
2447 2669 M
-144 26 V
1.000 UL
LT0
4899 2645 M
83 42 V
1.000 UL
LT0
2818 2710 M
83 45 V
1.000 UL
LT0
2932 2757 M
-31 -2 V
1.000 UL
LT0
2220 2634 M
-144 21 V
1.000 UL
LT0
3930 2666 M
83 36 V
1.000 UL
LT0
4157 2673 M
-144 29 V
1.000 UL
LT0
2591 2649 M
83 61 V
1.000 UL
LT0
2818 2710 M
-144 0 V
1.000 UL
LT0
3560 2711 M
82 23 V
1.000 UL
LT0
3786 2700 M
-144 34 V
1.000 UL
LT0
4301 2643 M
83 41 V
1.000 UL
LT0
4528 2656 M
-144 28 V
1.000 UL
LT0
3416 2748 M
-115 19 V
1.000 UL
LT0
4672 2629 M
83 42 V
1.000 UL
LT0
4899 2645 M
-144 26 V
1.000 UL
LT0
2364 2609 M
83 60 V
1.000 UL
LT0
2591 2649 M
-144 20 V
1.000 UL
LT0
4074 2633 M
83 40 V
1.000 UL
LT0
4301 2643 M
-144 30 V
1.000 UL
LT0
2364 2609 M
-144 25 V
1.000 UL
LT0
3703 2669 M
83 31 V
1.000 UL
LT0
3930 2666 M
-144 34 V
1.000 UL
LT0
4445 2615 M
83 41 V
1.000 UL
LT0
4672 2629 M
-144 27 V
1.000 UL
LT0
3084 2126 M
-144 25 V
1.000 UL
LT0
3023 2929 M
-83 -778 V
1.000 UL
LT0
2796 2473 M
144 -322 V
1.000 UL
LT0
3333 2750 M
83 -2 V
1.000 UL
LT0
3560 2711 M
-144 37 V
1.000 UL
LT0
4816 2602 M
83 43 V
1.000 UL
LT0
2735 2637 M
83 73 V
1.000 UL
LT0
2919 2733 M
-101 -23 V
1.000 UL
LT0
2508 2580 M
83 69 V
1.000 UL
LT0
2735 2637 M
-144 12 V
1.000 UL
LT0
3847 2629 M
83 37 V
1.000 UL
LT0
4074 2633 M
-144 33 V
1.000 UL
LT0
4218 2602 M
83 41 V
1.000 UL
LT0
4445 2615 M
-144 28 V
1.000 UL
LT0
2508 2580 M
-144 29 V
1.000 UL
LT0
4589 2587 M
83 42 V
1.000 UL
LT0
4816 2602 M
-144 27 V
1.000 UL
LT0
3477 2693 M
83 18 V
1.000 UL
LT0
3703 2669 M
-143 42 V
1.000 UL
LT0
3228 2397 M
3084 2126 L
1.000 UL
LT0
3167 2904 M
-83 -778 V
1.000 UL
LT0
2652 2542 M
83 95 V
1.000 UL
LT0
2879 2657 M
-144 -20 V
1.000 UL
LT0
3991 2592 M
83 41 V
1.000 UL
LT0
4218 2602 M
-144 31 V
1.000 UL
LT0
4362 2573 M
83 42 V
1.000 UL
LT0
4589 2587 M
-144 28 V
1.000 UL
LT0
3620 2634 M
83 35 V
1.000 UL
LT0
3847 2629 M
-144 40 V
1.000 UL
LT0
2652 2542 M
-144 38 V
1.000 UL
LT0
4733 2560 M
83 42 V
1.000 UL
LT0
3250 2793 M
83 -43 V
1.000 UL
LT0
3477 2693 M
-144 57 V
1.000 UL
LT0
3764 2587 M
83 42 V
1.000 UL
LT0
3991 2592 M
-144 37 V
1.000 UL
LT0
4135 2559 M
83 43 V
1.000 UL
LT0
4362 2573 M
-144 29 V
1.000 UL
LT0
2796 2473 M
-144 69 V
1.000 UL
LT0
4506 2544 M
83 43 V
1.000 UL
LT0
4733 2560 M
-144 27 V
1.000 UL
LT0
2879 2657 M
-83 -184 V
1.000 UL
LT0
3394 2670 M
83 23 V
1.000 UL
LT0
3620 2634 M
-143 59 V
1.000 UL
LT0
3023 2929 M
2879 2657 L
1.000 UL
LT0
3908 2548 M
83 44 V
1.000 UL
LT0
4135 2559 M
-144 33 V
1.000 UL
LT0
4279 2529 M
83 44 V
1.000 UL
LT0
4506 2544 M
-144 29 V
1.000 UL
LT0
3538 2587 M
82 47 V
1.000 UL
LT0
3764 2587 M
-144 47 V
1.000 UL
LT0
4650 2518 M
83 42 V
1.000 UL
LT0
4052 2515 M
83 44 V
1.000 UL
LT0
4279 2529 M
-144 30 V
1.000 UL
LT0
3681 2536 M
83 51 V
1.000 UL
LT0
3908 2548 M
-144 39 V
1.000 UL
LT0
4423 2501 M
83 43 V
1.000 UL
LT0
4650 2518 M
-144 26 V
1.000 UL
LT0
3311 2583 M
83 87 V
1.000 UL
LT0
3538 2587 M
-144 83 V
1.000 UL
LT0
3250 2793 M
144 -123 V
1.000 UL
LT0
3825 2499 M
83 49 V
1.000 UL
LT0
4052 2515 M
-144 33 V
1.000 UL
LT0
4196 2485 M
83 44 V
1.000 UL
LT0
4423 2501 M
-144 28 V
1.000 UL
LT0
3455 2513 M
83 74 V
1.000 UL
LT0
3681 2536 M
-143 51 V
1.000 UL
LT0
3167 2904 M
83 -111 V
1.000 UL
LT0
4567 2474 M
83 44 V
1.000 UL
LT0
3599 2475 M
82 61 V
1.000 UL
LT0
3825 2499 M
-144 37 V
1.000 UL
LT0
3969 2467 M
83 48 V
1.000 UL
LT0
4196 2485 M
-144 30 V
1.000 UL
LT0
3372 2418 M
-144 -21 V
1.000 UL
LT0
3311 2583 M
-83 -186 V
1.000 UL
LT0
4340 2457 M
83 44 V
1.000 UL
LT0
4567 2474 M
-144 27 V
1.000 UL
LT0
3455 2513 M
-144 70 V
1.000 UL
LT0
3167 2904 M
144 -321 V
1.000 UL
LT0
3372 2418 M
83 95 V
1.000 UL
LT0
3599 2475 M
-144 38 V
1.000 UL
LT0
3742 2444 M
83 55 V
1.000 UL
LT0
3969 2467 M
-144 32 V
1.000 UL
LT0
4113 2438 M
83 47 V
1.000 UL
LT0
4340 2457 M
-144 28 V
1.000 UL
LT0
4484 2429 M
83 45 V
1.000 UL
LT0
3515 2406 M
84 69 V
1.000 UL
LT0
3742 2444 M
-143 31 V
1.000 UL
LT0
3515 2406 M
-143 12 V
1.000 UL
LT0
3886 2416 M
83 51 V
1.000 UL
LT0
4113 2438 M
-144 29 V
1.000 UL
LT0
4257 2411 M
83 46 V
1.000 UL
LT0
4484 2429 M
-144 28 V
1.000 UL
LT0
3167 2904 M
-144 25 V
1.000 UL
LT0
3658 2387 M
84 57 V
1.000 UL
LT0
3886 2416 M
-144 28 V
1.000 UL
LT0
4029 2390 M
84 48 V
1.000 UL
LT0
4257 2411 M
-144 27 V
1.000 UL
LT0
3658 2387 M
-143 19 V
1.000 UL
LT0
4400 2384 M
84 45 V
1.000 UL
LT0
3802 2364 M
84 52 V
1.000 UL
LT0
4029 2390 M
-143 26 V
1.000 UL
LT0
4173 2364 M
84 47 V
1.000 UL
LT0
4400 2384 M
-143 27 V
1.000 UL
LT0
3802 2364 M
-144 23 V
1.000 UL
LT0
3946 2341 M
83 49 V
1.000 UL
LT0
4173 2364 M
-144 26 V
1.000 UL
LT0
4317 2338 M
83 46 V
1.000 UL
LT0
3946 2341 M
-144 23 V
1.000 UL
LT0
4090 2317 M
83 47 V
1.000 UL
LT0
4317 2338 M
-144 26 V
1.000 UL
LT0
4090 2317 M
-144 24 V
1.000 UL
LT0
4234 2292 M
83 46 V
1.000 UL
LT0
4234 2292 M
-144 25 V
1.000 UL
LT0
1.000 UL
LT1
LT2
1.000 UL
LT2
1723 1493 M
53 9 V
1.000 UL
LT2
1776 1502 M
70 46 V
1.000 UL
LT2
1846 1548 M
-3 8 V
LT3
1.000 UL
LT3
3201 1139 M
-42 2 V
1.000 UL
LT3
3159 1141 M
-144 25 V
1.000 UL
LT3
3015 1166 M
-27 10 V
1.000 UL
LT3
2988 1176 M
73 14 V
1.000 UL
LT3
3205 1165 M
-144 25 V
1.000 UL
LT3
3201 1139 M
4 26 V
1.000 UL
LT3
1664 1462 M
9 0 V
1.000 UL
LT3
1673 1462 M
164 30 V
1.000 UL
LT3
1837 1492 M
71 45 V
1.000 UL
LT3
1908 1537 M
-17 44 V
1.000 UL
LT3
3096 2149 M
76 35 V
1.000 UL
LT3
2926 2111 M
113 22 V
1.000 UL
LT3
2906 2109 M
20 2 V
LT4
1.000 UL
LT4
3237 1133 M
-87 4 V
1.000 UL
LT4
3150 1137 M
-144 25 V
1.000 UL
LT4
3006 1162 M
-54 20 V
1.000 UL
LT4
2952 1182 M
149 29 V
1.000 UL
LT4
3245 1186 M
-144 25 V
1.000 UL
LT4
3237 1133 M
8 53 V
1.000 UL
LT4
1631 1445 M
124 3 V
1.000 UL
LT4
1755 1448 M
129 29 V
1.000 UL
LT4
1884 1477 M
19 3 V
1.000 UL
LT4
1903 1480 M
29 22 V
1.000 UL
LT4
1932 1502 M
38 24 V
1.000 UL
LT4
1970 1526 M
-13 60 V
1.000 UL
LT4
1957 1586 M
-27 15 V
1.000 UL
LT4
3173 2126 M
100 40 V
1.000 UL
LT4
3108 2115 M
65 11 V
1.000 UL
LT4
3018 2095 M
90 20 V
1.000 UL
LT4
2857 2084 M
161 11 V
LT5
1.000 UL
LT5
3273 1127 M
-131 5 V
1.000 UL
LT5
3142 1132 M
-144 25 V
1.000 UL
LT5
2998 1157 M
-82 32 V
1.000 UL
LT5
2916 1189 M
96 41 V
1.000 UL
LT5
3012 1230 M
156 16 V
1.000 UL
LT5
3313 1221 M
-145 25 V
1.000 UL
LT5
3345 1172 M
-32 49 V
1.000 UL
LT5
3273 1127 M
72 45 V
1.000 UL
LT5
1598 1428 M
193 1 V
1.000 UL
LT5
1791 1429 M
67 1 V
1.000 UL
LT5
1858 1430 M
150 32 V
1.000 UL
LT5
2008 1462 M
65 46 V
1.000 UL
LT5
2073 1508 M
-29 52 V
1.000 UL
LT5
2044 1560 M
-2 12 V
1.000 UL
LT5
2042 1572 M
-83 44 V
1.000 UL
LT5
3301 2103 M
112 39 V
1.000 UL
LT5
3270 2099 M
31 4 V
1.000 UL
LT5
3138 2074 M
132 25 V
1.000 UL
LT5
3018 2068 M
120 6 V
1.000 UL
LT5
2889 2060 M
129 8 V
1.000 UL
LT5
2889 2060 M
-75 1 V
LT6
1.000 UL
LT6
3316 1123 M
181 23 V
1.000 UL
LT6
3309 1120 M
7 3 V
1.000 UL
LT6
3309 1120 M
-175 8 V
1.000 UL
LT6
3134 1128 M
-144 25 V
1.000 UL
LT6
2990 1153 M
-110 42 V
1.000 UL
LT6
2880 1195 M
5 3 V
1.000 UL
LT6
2885 1198 M
-22 58 V
1.000 UL
LT6
2863 1256 M
109 39 V
1.000 UL
LT6
2972 1295 M
126 14 V
1.000 UL
LT6
3098 1309 M
121 0 V
1.000 UL
LT6
3289 1309 M
-70 0 V
1.000 UL
LT6
3440 1287 M
-151 22 V
1.000 UL
LT6
3512 1258 M
-72 29 V
1.000 UL
LT6
3547 1243 M
-35 15 V
1.000 UL
LT6
3568 1191 M
-21 52 V
1.000 UL
LT6
3497 1146 M
71 45 V
1.000 UL
LT6
1702 1400 M
-133 13 V
1.000 UL
LT6
1734 1399 M
-32 1 V
1.000 UL
LT6
1922 1397 M
-188 2 V
1.000 UL
LT6
1922 1397 M
111 3 V
1.000 UL
LT6
2033 1400 M
137 34 V
1.000 UL
LT6
2170 1434 M
55 48 V
1.000 UL
LT6
2225 1482 M
-42 50 V
1.000 UL
LT6
2183 1532 M
-7 16 V
1.000 UL
LT6
2176 1548 M
-80 39 V
1.000 UL
LT6
2096 1587 M
-108 44 V
1.000 UL
LT6
3514 2066 M
122 37 V
1.000 UL
LT6
3366 2049 M
148 17 V
1.000 UL
LT6
3322 2042 M
44 7 V
1.000 UL
LT6
3149 2036 M
173 6 V
1.000 UL
LT6
3046 2032 M
103 4 V
1.000 UL
LT6
3046 2032 M
-89 4 V
1.000 UL
LT6
2957 2036 M
-179 7 V
LT7
1.000 UL
LT7
4336 1955 M
127 4 V
1.000 UL
LT7
4208 1946 M
128 9 V
1.000 UL
LT7
4208 1946 M
-78 2 V
1.000 UL
LT7
4130 1948 M
-191 0 V
1.000 UL
LT7
3871 1946 M
68 2 V
1.000 UL
LT7
3871 1946 M
-116 6 V
1.000 UL
LT7
3755 1952 M
-176 8 V
1.000 UL
LT7
3579 1960 M
-162 8 V
1.000 UL
LT7
3417 1968 M
-13 1 V
1.000 UL
LT7
3404 1969 M
-168 12 V
1.000 UL
LT7
3236 1981 M
-166 14 V
1.000 UL
LT7
3070 1995 M
-164 14 V
1.000 UL
LT7
2906 2009 M
-121 11 V
1.000 UL
LT7
2785 2020 M
-42 5 V
1.000 UL
LT7
5208 1483 M
148 4 V
1.000 UL
LT7
5208 1483 M
-47 2 V
1.000 UL
LT7
4967 1484 M
194 1 V
1.000 UL
LT7
4893 1480 M
74 4 V
1.000 UL
LT7
4893 1480 M
-121 2 V
1.000 UL
LT7
4573 1478 M
199 4 V
1.000 UL
LT7
4572 1478 M
1 0 V
1.000 UL
LT7
4380 1478 M
192 0 V
1.000 UL
LT7
4269 1473 M
111 5 V
1.000 UL
LT7
4269 1473 M
-86 2 V
1.000 UL
LT7
3985 1472 M
198 3 V
1.000 UL
LT7
3955 1470 M
30 2 V
1.000 UL
LT7
3789 1470 M
166 0 V
1.000 UL
LT7
3655 1464 M
134 6 V
1.000 UL
LT7
3655 1464 M
-66 1 V
1.000 UL
LT7
3386 1459 M
203 6 V
1.000 UL
LT7
3362 1458 M
24 1 V
1.000 UL
LT7
3181 1453 M
181 5 V
1.000 UL
LT7
3078 1449 M
103 4 V
1.000 UL
LT7
2977 1446 M
101 3 V
1.000 UL
LT7
2977 1446 M
-189 2 V
1.000 UL
LT7
2788 1448 M
-92 10 V
1.000 UL
LT7
2696 1458 M
-68 7 V
1.000 UL
LT7
2628 1465 M
-42 12 V
1.000 UL
LT7
2586 1477 M
-88 20 V
1.000 UL
LT7
2498 1497 M
-120 38 V
1.000 UL
LT7
2378 1535 M
-117 39 V
1.000 UL
LT7
2261 1574 M
-119 37 V
1.000 UL
LT7
2142 1611 M
-3 1 V
1.000 UL
LT7
2139 1612 M
-124 33 V
1.000 UL
LT7
4276 924 M
-144 25 V
1.000 UL
LT7
4132 949 M
-144 25 V
1.000 UL
LT7
3988 974 M
-144 25 V
1.000 UL
LT7
3844 999 M
-144 25 V
1.000 UL
LT7
3700 1024 M
-143 25 V
1.000 UL
LT7
3557 1049 M
-144 25 V
1.000 UL
LT7
3413 1074 M
-144 25 V
1.000 UL
LT7
3269 1099 M
-144 25 V
1.000 UL
LT7
3125 1124 M
-144 25 V
1.000 UL
LT7
2981 1149 M
-144 25 V
1.000 UL
LT7
2837 1174 M
-144 25 V
1.000 UL
LT7
2693 1199 M
-144 25 V
1.000 UL
LT7
2549 1224 M
-144 25 V
1.000 UL
LT7
2405 1249 M
-144 25 V
1.000 UL
LT7
2261 1274 M
-143 25 V
1.000 UL
LT7
2118 1299 M
-144 25 V
1.000 UL
LT7
1974 1324 M
-144 25 V
1.000 UL
LT7
1830 1349 M
-144 25 V
1.000 UL
LT7
1686 1374 M
-144 25 V
LT8
1.000 UL
LT8
2181 1632 M
-141 26 V
1.000 UL
LT8
2326 1607 M
-145 25 V
1.000 UL
LT8
2478 1586 M
-152 21 V
1.000 UL
LT8
2645 1573 M
-167 13 V
1.000 UL
LT8
2708 1571 M
-63 2 V
1.000 UL
LT8
2708 1571 M
129 3 V
1.000 UL
LT8
2837 1574 M
144 8 V
1.000 UL
LT8
2981 1582 M
89 13 V
1.000 UL
LT8
3070 1595 M
94 13 V
1.000 UL
LT8
3164 1608 M
136 34 V
1.000 UL
LT8
3300 1642 M
97 41 V
1.000 UL
LT8
3397 1683 M
58 47 V
1.000 UL
LT8
3455 1730 M
-3 59 V
1.000 UL
LT8
3452 1789 M
-4 3 V
1.000 UL
LT8
3448 1792 M
-77 60 V
1.000 UL
LT8
3371 1852 M
-24 13 V
1.000 UL
LT8
3347 1865 M
-84 30 V
1.000 UL
LT8
3263 1895 M
-126 35 V
1.000 UL
LT8
3137 1930 M
-135 29 V
1.000 UL
LT8
3002 1959 M
-142 26 V
1.000 UL
LT8
2860 1985 M
-147 24 V
1.000 UL
LT8
1619 1356 M
-104 29 V
1.000 UL
LT8
3226 1077 M
-109 42 V
1.000 UL
LT8
3117 1119 M
-144 25 V
1.000 UL
LT8
2973 1144 M
-176 8 V
LT0
1.000 UL
LT0
2221 1652 M
-156 19 V
1.000 UL
LT0
2272 1647 M
-51 5 V
1.000 UL
LT0
2387 1639 M
-115 8 V
1.000 UL
LT0
2573 1636 M
-186 3 V
1.000 UL
LT0
2573 1636 M
86 1 V
1.000 UL
LT0
2659 1637 M
141 17 V
1.000 UL
LT0
2800 1654 M
56 7 V
1.000 UL
LT0
2856 1661 M
136 34 V
1.000 UL
LT0
2992 1695 M
86 43 V
1.000 UL
LT0
3078 1738 M
36 51 V
1.000 UL
LT0
3114 1789 M
-10 23 V
1.000 UL
LT0
3104 1812 M
-20 40 V
1.000 UL
LT0
3084 1852 M
-45 27 V
1.000 UL
LT0
3039 1879 M
-103 46 V
1.000 UL
LT0
2936 1925 M
-69 23 V
1.000 UL
LT0
2867 1948 M
-52 14 V
1.000 UL
LT0
2815 1962 M
-133 31 V
1.000 UL
LT0
3190 1083 M
-82 32 V
1.000 UL
LT0
3108 1115 M
-144 25 V
1.000 UL
LT0
2964 1140 M
-131 5 V
LT1
1.000 UL
LT1
2262 1674 M
-171 11 V
1.000 UL
LT1
2451 1672 M
-189 2 V
1.000 UL
LT1
2451 1672 M
7 0 V
1.000 UL
LT1
2458 1672 M
211 22 V
1.000 UL
LT1
2669 1694 M
30 8 V
1.000 UL
LT1
2699 1702 M
108 25 V
1.000 UL
LT1
2807 1727 M
83 44 V
1.000 UL
LT1
2890 1771 M
18 40 V
1.000 UL
LT1
2908 1811 M
9 13 V
1.000 UL
LT1
2917 1824 M
-50 65 V
1.000 UL
LT1
2867 1889 M
0 1 V
1.000 UL
LT1
2867 1890 M
-98 48 V
1.000 UL
LT1
2769 1938 M
-118 39 V
1.000 UL
LT1
3154 1090 M
-54 20 V
1.000 UL
LT1
3100 1110 M
-144 25 V
1.000 UL
LT1
2956 1135 M
-87 4 V
LT2
1.000 UL
LT2
2304 1696 M
-186 3 V
1.000 UL
LT2
2325 1696 M
-21 0 V
1.000 UL
LT2
2325 1696 M
209 20 V
1.000 UL
LT2
2534 1716 M
5 0 V
1.000 UL
LT2
2539 1716 M
142 33 V
1.000 UL
LT2
2681 1749 M
80 44 V
1.000 UL
LT2
2761 1793 M
18 50 V
1.000 UL
LT2
2779 1843 M
2 4 V
1.000 UL
LT2
2781 1847 M
-59 67 V
1.000 UL
LT2
2722 1914 M
-2 2 V
1.000 UL
LT2
2720 1916 M
-100 44 V
1.000 UL
LT2
3118 1096 M
-26 10 V
1.000 UL
LT2
3092 1106 M
-144 25 V
1.000 UL
LT2
2948 1131 M
-43 2 V
LT3
1.000 UL
LT3
2231 1712 M
-86 1 V
1.000 UL
LT3
2231 1712 M
127 12 V
1.000 UL
LT3
2358 1724 M
90 8 V
1.000 UL
LT3
2448 1732 M
135 34 V
1.000 UL
LT3
2583 1766 M
80 44 V
1.000 UL
LT3
2663 1810 M
20 54 V
1.000 UL
LT3
2683 1864 M
-18 20 V
1.000 UL
LT3
2665 1884 M
-54 51 V
1.000 UL
LT3
2611 1935 M
-22 9 V
LT4
1.000 UL
LT4
2175 1728 M
194 18 V
1.000 UL
LT4
2369 1746 M
65 17 V
1.000 UL
LT4
2434 1763 M
71 17 V
1.000 UL
LT4
2505 1780 M
77 44 V
1.000 UL
LT4
2582 1824 M
4 19 V
1.000 UL
LT4
2586 1843 M
16 35 V
1.000 UL
LT4
2602 1878 M
-48 48 V
LT5
1.000 UL
LT5
2212 1748 M
97 8 V
1.000 UL
LT5
2309 1756 M
133 35 V
1.000 UL
LT5
2442 1791 M
77 44 V
1.000 UL
LT5
2519 1835 M
13 56 V
1.000 UL
LT5
2532 1891 M
-16 15 V
LT6
1.000 UL
LT6
2249 1767 M
140 33 V
1.000 UL
LT6
2389 1800 M
74 45 V
1.000 UL
LT6
2463 1845 M
4 36 V
LT7
1.000 UL
LT7
2325 1807 M
10 2 V
1.000 UL
LT7
2335 1809 M
27 17 V
1.000 UL
LTb
4284 778 M
1870 974 V
1.000 UL
LTb
4284 778 M
1046 1340 L
1.000 UL
LTb
1046 1340 M
1830 954 V
1.000 UL
LTb
6154 1752 M
3161 2272 L
1.000 UL
LTb
1046 3288 M
0 -1948 V
1.000 UL
LTb
1046 1340 M
52 28 V
1.000 UL
LTb
936 1245 M
gsave 0 setgray
[ [(Times) 220.0 0.0 true true 0 (-2.5)]
] -73.3 MCshow
grestore
1.000 UL
LTb
1.000 UL
LTb
2864 2287 M
12 7 V
1.000 UL
LTb
1406 1278 M
52 27 V
1.000 UL
LTb
1296 1183 M
gsave 0 setgray
[ [(Times) 220.0 0.0 true true 0 (-2)]
] -73.3 MCshow
grestore
1.000 UL
LTb
1.000 UL
LTb
3224 2225 M
52 27 V
1.000 UL
LTb
1766 1215 M
52 28 V
1.000 UL
LTb
1656 1120 M
gsave 0 setgray
[ [(Times) 220.0 0.0 true true 0 (-1.5)]
] -73.3 MCshow
grestore
1.000 UL
LTb
1.000 UL
LTb
3583 2162 M
52 28 V
1.000 UL
LTb
2126 1153 M
52 27 V
1.000 UL
LTb
2016 1058 M
gsave 0 setgray
[ [(Times) 220.0 0.0 true true 0 (-1)]
] -73.3 MCshow
grestore
1.000 UL
LTb
1.000 UL
LTb
3942 2100 M
53 27 V
1.000 UL
LTb
2486 1090 M
52 28 V
1.000 UL
LTb
2376 995 M
gsave 0 setgray
[ [(Times) 220.0 0.0 true true 0 (-0.5)]
] -73.3 MCshow
grestore
1.000 UL
LTb
1.000 UL
LTb
4302 2037 M
53 28 V
1.000 UL
LTb
2845 1028 M
53 27 V
1.000 UL
LTb
2736 933 M
gsave 0 setgray
[ [(Times) 220.0 0.0 true true 0 ( 0)]
] -73.3 MCshow
grestore
1.000 UL
LTb
1.000 UL
LTb
4662 1975 M
52 27 V
1.000 UL
LTb
3205 965 M
53 28 V
1.000 UL
LTb
3096 870 M
gsave 0 setgray
[ [(Times) 220.0 0.0 true true 0 ( 0.5)]
] -73.3 MCshow
grestore
1.000 UL
LTb
1.000 UL
LTb
5022 1912 M
52 28 V
1.000 UL
LTb
3565 903 M
52 27 V
1.000 UL
LTb
3455 808 M
gsave 0 setgray
[ [(Times) 220.0 0.0 true true 0 ( 1)]
] -73.3 MCshow
grestore
1.000 UL
LTb
1.000 UL
LTb
5382 1850 M
52 27 V
1.000 UL
LTb
3924 840 M
52 28 V
1.000 UL
LTb
3814 745 M
gsave 0 setgray
[ [(Times) 220.0 0.0 true true 0 ( 1.5)]
] -73.3 MCshow
grestore
1.000 UL
LTb
1.000 UL
LTb
5742 1787 M
52 28 V
1.000 UL
LTb
4284 778 M
52 27 V
1.000 UL
LTb
4174 683 M
gsave 0 setgray
[ [(Times) 220.0 0.0 true true 0 ( 2)]
] -73.3 MCshow
grestore
1.000 UL
LTb
1.000 UL
LTb
6102 1725 M
52 27 V
LTb
2198 816 M
gsave 0 setgray
[ [(Times) 220.0 0.0 true true 0 (Re\(p\))]
] -73.3 MCshow
grestore
1.000 UL
LTb
4284 778 M
-55 9 V
stroke
4398 745 M
gsave 0 setgray
[ [(Times) 220.0 0.0 true true 0 (-0.5)]
] -73.3 MCshow
grestore
1.000 UL
LTb
1.000 UL
LTb
1101 1331 M
-55 9 V
1.000 UL
LTb
4492 886 M
-55 10 V
stroke
4606 853 M
gsave 0 setgray
[ [(Times) 220.0 0.0 true true 0 ( 0)]
] -73.3 MCshow
grestore
1.000 UL
LTb
1.000 UL
LTb
1308 1439 M
-54 10 V
1.000 UL
LTb
4700 994 M
-55 10 V
stroke
4814 961 M
gsave 0 setgray
[ [(Times) 220.0 0.0 true true 0 ( 0.5)]
] -73.3 MCshow
grestore
1.000 UL
LTb
1.000 UL
LTb
1516 1547 M
-54 10 V
1.000 UL
LTb
4907 1103 M
-54 9 V
stroke
5022 1070 M
gsave 0 setgray
[ [(Times) 220.0 0.0 true true 0 ( 1)]
] -73.3 MCshow
grestore
1.000 UL
LTb
1.000 UL
LTb
1724 1656 M
-55 9 V
1.000 UL
LTb
5115 1211 M
-54 9 V
stroke
5229 1178 M
gsave 0 setgray
[ [(Times) 220.0 0.0 true true 0 ( 1.5)]
] -73.3 MCshow
grestore
1.000 UL
LTb
1.000 UL
LTb
1932 1764 M
-55 9 V
1.000 UL
LTb
5323 1319 M
-55 10 V
stroke
5437 1286 M
gsave 0 setgray
[ [(Times) 220.0 0.0 true true 0 ( 2)]
] -73.3 MCshow
grestore
1.000 UL
LTb
1.000 UL
LTb
2139 1872 M
-54 10 V
1.000 UL
LTb
5531 1427 M
-55 10 V
stroke
5645 1394 M
gsave 0 setgray
[ [(Times) 220.0 0.0 true true 0 ( 2.5)]
] -73.3 MCshow
grestore
1.000 UL
LTb
1.000 UL
LTb
2347 1980 M
-54 10 V
1.000 UL
LTb
5738 1536 M
-54 9 V
stroke
5853 1503 M
gsave 0 setgray
[ [(Times) 220.0 0.0 true true 0 ( 3)]
] -73.3 MCshow
grestore
1.000 UL
LTb
1.000 UL
LTb
2555 2089 M
-55 9 V
1.000 UL
LTb
5946 1644 M
-54 9 V
stroke
6061 1611 M
gsave 0 setgray
[ [(Times) 220.0 0.0 true true 0 ( 3.5)]
] -73.3 MCshow
grestore
1.000 UL
LTb
1.000 UL
LTb
2763 2197 M
-55 9 V
1.000 UL
LTb
6154 1752 M
-55 10 V
stroke
6268 1719 M
gsave 0 setgray
[ [(Times) 220.0 0.0 true true 0 ( 4)]
] -73.3 MCshow
grestore
1.000 UL
LTb
LTb
6029 1124 M
gsave 0 setgray
[ [(Times) 220.0 0.0 true true 0 (Im\(p\))]
] -73.3 MCshow
grestore
1.000 UL
LTb
1109 1990 M
-63 0 V
stroke
920 1990 M
gsave 0 setgray
[ [(Times) 220.0 0.0 true true 0 (-20)]
] -73.3 MRshow
grestore
1.000 UL
LTb
1.000 UL
LTb
1109 2175 M
-63 0 V
stroke
920 2175 M
gsave 0 setgray
[ [(Times) 220.0 0.0 true true 0 (-15)]
] -73.3 MRshow
grestore
1.000 UL
LTb
1.000 UL
LTb
1109 2361 M
-63 0 V
stroke
920 2361 M
gsave 0 setgray
[ [(Times) 220.0 0.0 true true 0 (-10)]
] -73.3 MRshow
grestore
1.000 UL
LTb
1.000 UL
LTb
1109 2546 M
-63 0 V
stroke
920 2546 M
gsave 0 setgray
[ [(Times) 220.0 0.0 true true 0 (-5)]
] -73.3 MRshow
grestore
1.000 UL
LTb
1.000 UL
LTb
1109 2731 M
-63 0 V
stroke
920 2731 M
gsave 0 setgray
[ [(Times) 220.0 0.0 true true 0 ( 0)]
] -73.3 MRshow
grestore
1.000 UL
LTb
1.000 UL
LTb
1109 2917 M
-63 0 V
stroke
920 2917 M
gsave 0 setgray
[ [(Times) 220.0 0.0 true true 0 ( 5)]
] -73.3 MRshow
grestore
1.000 UL
LTb
1.000 UL
LTb
1109 3102 M
-63 0 V
stroke
920 3102 M
gsave 0 setgray
[ [(Times) 220.0 0.0 true true 0 ( 10)]
] -73.3 MRshow
grestore
1.000 UL
LTb
1.000 UL
LTb
1109 3288 M
-63 0 V
stroke
920 3288 M
gsave 0 setgray
[ [(Times) 220.0 0.0 true true 0 ( 15)]
] -73.3 MRshow
grestore
1.000 UL
LTb
1.000 UP
stroke
grestore
end
showpage
%%Trailer
%%DocumentFonts: Times
