%!PS-Adobe-2.0 EPSF-2.0
%%Title: flux_real_pulsebc.eps
%%Creator: gnuplot 4.0 patchlevel 0
%%CreationDate: Fri Nov 17 17:03:45 2006
%%DocumentFonts: (atend)
%%BoundingBox: 50 50 410 302
%%Orientation: Portrait
%%EndComments
/gnudict 256 dict def
gnudict begin
/Color false def
/Solid false def
/gnulinewidth 5.000 def
/userlinewidth gnulinewidth def
/vshift -73 def
/dl {10.0 mul} def
/hpt_ 31.5 def
/vpt_ 31.5 def
/hpt hpt_ def
/vpt vpt_ def
/Rounded false def
/M {moveto} bind def
/L {lineto} bind def
/R {rmoveto} bind def
/V {rlineto} bind def
/N {newpath moveto} bind def
/C {setrgbcolor} bind def
/f {rlineto fill} bind def
/vpt2 vpt 2 mul def
/hpt2 hpt 2 mul def
/Lshow { currentpoint stroke M
  0 vshift R show } def
/Rshow { currentpoint stroke M
  dup stringwidth pop neg vshift R show } def
/Cshow { currentpoint stroke M
  dup stringwidth pop -2 div vshift R show } def
/UP { dup vpt_ mul /vpt exch def hpt_ mul /hpt exch def
  /hpt2 hpt 2 mul def /vpt2 vpt 2 mul def } def
/DL { Color {setrgbcolor Solid {pop []} if 0 setdash }
 {pop pop pop 0 setgray Solid {pop []} if 0 setdash} ifelse } def
/BL { stroke userlinewidth 2 mul setlinewidth
      Rounded { 1 setlinejoin 1 setlinecap } if } def
/AL { stroke userlinewidth 2 div setlinewidth
      Rounded { 1 setlinejoin 1 setlinecap } if } def
/UL { dup gnulinewidth mul /userlinewidth exch def
      dup 1 lt {pop 1} if 10 mul /udl exch def } def
/PL { stroke userlinewidth setlinewidth
      Rounded { 1 setlinejoin 1 setlinecap } if } def
/LTw { PL [] 1 setgray } def
/LTb { BL [] 0 0 0 DL } def
/LTa { AL [1 udl mul 2 udl mul] 0 setdash 0 0 0 setrgbcolor } def
/LT0 { PL [] 1 0 0 DL } def
/LT1 { PL [4 dl 2 dl] 0 1 0 DL } def
/LT2 { PL [2 dl 3 dl] 0 0 1 DL } def
/LT3 { PL [1 dl 1.5 dl] 1 0 1 DL } def
/LT4 { PL [5 dl 2 dl 1 dl 2 dl] 0 1 1 DL } def
/LT5 { PL [4 dl 3 dl 1 dl 3 dl] 1 1 0 DL } def
/LT6 { PL [2 dl 2 dl 2 dl 4 dl] 0 0 0 DL } def
/LT7 { PL [2 dl 2 dl 2 dl 2 dl 2 dl 4 dl] 1 0.3 0 DL } def
/LT8 { PL [2 dl 2 dl 2 dl 2 dl 2 dl 2 dl 2 dl 4 dl] 0.5 0.5 0.5 DL } def
/Pnt { stroke [] 0 setdash
   gsave 1 setlinecap M 0 0 V stroke grestore } def
/Dia { stroke [] 0 setdash 2 copy vpt add M
  hpt neg vpt neg V hpt vpt neg V
  hpt vpt V hpt neg vpt V closepath stroke
  Pnt } def
/Pls { stroke [] 0 setdash vpt sub M 0 vpt2 V
  currentpoint stroke M
  hpt neg vpt neg R hpt2 0 V stroke
  } def
/Box { stroke [] 0 setdash 2 copy exch hpt sub exch vpt add M
  0 vpt2 neg V hpt2 0 V 0 vpt2 V
  hpt2 neg 0 V closepath stroke
  Pnt } def
/Crs { stroke [] 0 setdash exch hpt sub exch vpt add M
  hpt2 vpt2 neg V currentpoint stroke M
  hpt2 neg 0 R hpt2 vpt2 V stroke } def
/TriU { stroke [] 0 setdash 2 copy vpt 1.12 mul add M
  hpt neg vpt -1.62 mul V
  hpt 2 mul 0 V
  hpt neg vpt 1.62 mul V closepath stroke
  Pnt  } def
/Star { 2 copy Pls Crs } def
/BoxF { stroke [] 0 setdash exch hpt sub exch vpt add M
  0 vpt2 neg V  hpt2 0 V  0 vpt2 V
  hpt2 neg 0 V  closepath fill } def
/TriUF { stroke [] 0 setdash vpt 1.12 mul add M
  hpt neg vpt -1.62 mul V
  hpt 2 mul 0 V
  hpt neg vpt 1.62 mul V closepath fill } def
/TriD { stroke [] 0 setdash 2 copy vpt 1.12 mul sub M
  hpt neg vpt 1.62 mul V
  hpt 2 mul 0 V
  hpt neg vpt -1.62 mul V closepath stroke
  Pnt  } def
/TriDF { stroke [] 0 setdash vpt 1.12 mul sub M
  hpt neg vpt 1.62 mul V
  hpt 2 mul 0 V
  hpt neg vpt -1.62 mul V closepath fill} def
/DiaF { stroke [] 0 setdash vpt add M
  hpt neg vpt neg V hpt vpt neg V
  hpt vpt V hpt neg vpt V closepath fill } def
/Pent { stroke [] 0 setdash 2 copy gsave
  translate 0 hpt M 4 {72 rotate 0 hpt L} repeat
  closepath stroke grestore Pnt } def
/PentF { stroke [] 0 setdash gsave
  translate 0 hpt M 4 {72 rotate 0 hpt L} repeat
  closepath fill grestore } def
/Circle { stroke [] 0 setdash 2 copy
  hpt 0 360 arc stroke Pnt } def
/CircleF { stroke [] 0 setdash hpt 0 360 arc fill } def
/C0 { BL [] 0 setdash 2 copy moveto vpt 90 450  arc } bind def
/C1 { BL [] 0 setdash 2 copy        moveto
       2 copy  vpt 0 90 arc closepath fill
               vpt 0 360 arc closepath } bind def
/C2 { BL [] 0 setdash 2 copy moveto
       2 copy  vpt 90 180 arc closepath fill
               vpt 0 360 arc closepath } bind def
/C3 { BL [] 0 setdash 2 copy moveto
       2 copy  vpt 0 180 arc closepath fill
               vpt 0 360 arc closepath } bind def
/C4 { BL [] 0 setdash 2 copy moveto
       2 copy  vpt 180 270 arc closepath fill
               vpt 0 360 arc closepath } bind def
/C5 { BL [] 0 setdash 2 copy moveto
       2 copy  vpt 0 90 arc
       2 copy moveto
       2 copy  vpt 180 270 arc closepath fill
               vpt 0 360 arc } bind def
/C6 { BL [] 0 setdash 2 copy moveto
      2 copy  vpt 90 270 arc closepath fill
              vpt 0 360 arc closepath } bind def
/C7 { BL [] 0 setdash 2 copy moveto
      2 copy  vpt 0 270 arc closepath fill
              vpt 0 360 arc closepath } bind def
/C8 { BL [] 0 setdash 2 copy moveto
      2 copy vpt 270 360 arc closepath fill
              vpt 0 360 arc closepath } bind def
/C9 { BL [] 0 setdash 2 copy moveto
      2 copy  vpt 270 450 arc closepath fill
              vpt 0 360 arc closepath } bind def
/C10 { BL [] 0 setdash 2 copy 2 copy moveto vpt 270 360 arc closepath fill
       2 copy moveto
       2 copy vpt 90 180 arc closepath fill
               vpt 0 360 arc closepath } bind def
/C11 { BL [] 0 setdash 2 copy moveto
       2 copy  vpt 0 180 arc closepath fill
       2 copy moveto
       2 copy  vpt 270 360 arc closepath fill
               vpt 0 360 arc closepath } bind def
/C12 { BL [] 0 setdash 2 copy moveto
       2 copy  vpt 180 360 arc closepath fill
               vpt 0 360 arc closepath } bind def
/C13 { BL [] 0 setdash  2 copy moveto
       2 copy  vpt 0 90 arc closepath fill
       2 copy moveto
       2 copy  vpt 180 360 arc closepath fill
               vpt 0 360 arc closepath } bind def
/C14 { BL [] 0 setdash 2 copy moveto
       2 copy  vpt 90 360 arc closepath fill
               vpt 0 360 arc } bind def
/C15 { BL [] 0 setdash 2 copy vpt 0 360 arc closepath fill
               vpt 0 360 arc closepath } bind def
/Rec   { newpath 4 2 roll moveto 1 index 0 rlineto 0 exch rlineto
       neg 0 rlineto closepath } bind def
/Square { dup Rec } bind def
/Bsquare { vpt sub exch vpt sub exch vpt2 Square } bind def
/S0 { BL [] 0 setdash 2 copy moveto 0 vpt rlineto BL Bsquare } bind def
/S1 { BL [] 0 setdash 2 copy vpt Square fill Bsquare } bind def
/S2 { BL [] 0 setdash 2 copy exch vpt sub exch vpt Square fill Bsquare } bind def
/S3 { BL [] 0 setdash 2 copy exch vpt sub exch vpt2 vpt Rec fill Bsquare } bind def
/S4 { BL [] 0 setdash 2 copy exch vpt sub exch vpt sub vpt Square fill Bsquare } bind def
/S5 { BL [] 0 setdash 2 copy 2 copy vpt Square fill
       exch vpt sub exch vpt sub vpt Square fill Bsquare } bind def
/S6 { BL [] 0 setdash 2 copy exch vpt sub exch vpt sub vpt vpt2 Rec fill Bsquare } bind def
/S7 { BL [] 0 setdash 2 copy exch vpt sub exch vpt sub vpt vpt2 Rec fill
       2 copy vpt Square fill
       Bsquare } bind def
/S8 { BL [] 0 setdash 2 copy vpt sub vpt Square fill Bsquare } bind def
/S9 { BL [] 0 setdash 2 copy vpt sub vpt vpt2 Rec fill Bsquare } bind def
/S10 { BL [] 0 setdash 2 copy vpt sub vpt Square fill 2 copy exch vpt sub exch vpt Square fill
       Bsquare } bind def
/S11 { BL [] 0 setdash 2 copy vpt sub vpt Square fill 2 copy exch vpt sub exch vpt2 vpt Rec fill
       Bsquare } bind def
/S12 { BL [] 0 setdash 2 copy exch vpt sub exch vpt sub vpt2 vpt Rec fill Bsquare } bind def
/S13 { BL [] 0 setdash 2 copy exch vpt sub exch vpt sub vpt2 vpt Rec fill
       2 copy vpt Square fill Bsquare } bind def
/S14 { BL [] 0 setdash 2 copy exch vpt sub exch vpt sub vpt2 vpt Rec fill
       2 copy exch vpt sub exch vpt Square fill Bsquare } bind def
/S15 { BL [] 0 setdash 2 copy Bsquare fill Bsquare } bind def
/D0 { gsave translate 45 rotate 0 0 S0 stroke grestore } bind def
/D1 { gsave translate 45 rotate 0 0 S1 stroke grestore } bind def
/D2 { gsave translate 45 rotate 0 0 S2 stroke grestore } bind def
/D3 { gsave translate 45 rotate 0 0 S3 stroke grestore } bind def
/D4 { gsave translate 45 rotate 0 0 S4 stroke grestore } bind def
/D5 { gsave translate 45 rotate 0 0 S5 stroke grestore } bind def
/D6 { gsave translate 45 rotate 0 0 S6 stroke grestore } bind def
/D7 { gsave translate 45 rotate 0 0 S7 stroke grestore } bind def
/D8 { gsave translate 45 rotate 0 0 S8 stroke grestore } bind def
/D9 { gsave translate 45 rotate 0 0 S9 stroke grestore } bind def
/D10 { gsave translate 45 rotate 0 0 S10 stroke grestore } bind def
/D11 { gsave translate 45 rotate 0 0 S11 stroke grestore } bind def
/D12 { gsave translate 45 rotate 0 0 S12 stroke grestore } bind def
/D13 { gsave translate 45 rotate 0 0 S13 stroke grestore } bind def
/D14 { gsave translate 45 rotate 0 0 S14 stroke grestore } bind def
/D15 { gsave translate 45 rotate 0 0 S15 stroke grestore } bind def
/DiaE { stroke [] 0 setdash vpt add M
  hpt neg vpt neg V hpt vpt neg V
  hpt vpt V hpt neg vpt V closepath stroke } def
/BoxE { stroke [] 0 setdash exch hpt sub exch vpt add M
  0 vpt2 neg V hpt2 0 V 0 vpt2 V
  hpt2 neg 0 V closepath stroke } def
/TriUE { stroke [] 0 setdash vpt 1.12 mul add M
  hpt neg vpt -1.62 mul V
  hpt 2 mul 0 V
  hpt neg vpt 1.62 mul V closepath stroke } def
/TriDE { stroke [] 0 setdash vpt 1.12 mul sub M
  hpt neg vpt 1.62 mul V
  hpt 2 mul 0 V
  hpt neg vpt -1.62 mul V closepath stroke } def
/PentE { stroke [] 0 setdash gsave
  translate 0 hpt M 4 {72 rotate 0 hpt L} repeat
  closepath stroke grestore } def
/CircE { stroke [] 0 setdash 
  hpt 0 360 arc stroke } def
/Opaque { gsave closepath 1 setgray fill grestore 0 setgray closepath } def
/DiaW { stroke [] 0 setdash vpt add M
  hpt neg vpt neg V hpt vpt neg V
  hpt vpt V hpt neg vpt V Opaque stroke } def
/BoxW { stroke [] 0 setdash exch hpt sub exch vpt add M
  0 vpt2 neg V hpt2 0 V 0 vpt2 V
  hpt2 neg 0 V Opaque stroke } def
/TriUW { stroke [] 0 setdash vpt 1.12 mul add M
  hpt neg vpt -1.62 mul V
  hpt 2 mul 0 V
  hpt neg vpt 1.62 mul V Opaque stroke } def
/TriDW { stroke [] 0 setdash vpt 1.12 mul sub M
  hpt neg vpt 1.62 mul V
  hpt 2 mul 0 V
  hpt neg vpt -1.62 mul V Opaque stroke } def
/PentW { stroke [] 0 setdash gsave
  translate 0 hpt M 4 {72 rotate 0 hpt L} repeat
  Opaque stroke grestore } def
/CircW { stroke [] 0 setdash 
  hpt 0 360 arc Opaque stroke } def
/BoxFill { gsave Rec 1 setgray fill grestore } def
/BoxColFill {
  gsave Rec
  /Fillden exch def
  currentrgbcolor
  /ColB exch def /ColG exch def /ColR exch def
  /ColR ColR Fillden mul Fillden sub 1 add def
  /ColG ColG Fillden mul Fillden sub 1 add def
  /ColB ColB Fillden mul Fillden sub 1 add def
  ColR ColG ColB setrgbcolor
  fill grestore } def
%
% PostScript Level 1 Pattern Fill routine
% Usage: x y w h s a XX PatternFill
%	x,y = lower left corner of box to be filled
%	w,h = width and height of box
%	  a = angle in degrees between lines and x-axis
%	 XX = 0/1 for no/yes cross-hatch
%
/PatternFill { gsave /PFa [ 9 2 roll ] def
    PFa 0 get PFa 2 get 2 div add PFa 1 get PFa 3 get 2 div add translate
    PFa 2 get -2 div PFa 3 get -2 div PFa 2 get PFa 3 get Rec
    gsave 1 setgray fill grestore clip
    currentlinewidth 0.5 mul setlinewidth
    /PFs PFa 2 get dup mul PFa 3 get dup mul add sqrt def
    0 0 M PFa 5 get rotate PFs -2 div dup translate
	0 1 PFs PFa 4 get div 1 add floor cvi
	{ PFa 4 get mul 0 M 0 PFs V } for
    0 PFa 6 get ne {
	0 1 PFs PFa 4 get div 1 add floor cvi
	{ PFa 4 get mul 0 2 1 roll M PFs 0 V } for
    } if
    stroke grestore } def
%
/Symbol-Oblique /Symbol findfont [1 0 .167 1 0 0] makefont
dup length dict begin {1 index /FID eq {pop pop} {def} ifelse} forall
currentdict end definefont pop
/MFshow {
   { dup 5 get 3 ge
     { 5 get 3 eq {gsave} {grestore} ifelse }
     {dup dup 0 get findfont exch 1 get scalefont setfont
     [ currentpoint ] exch dup 2 get 0 exch R dup 5 get 2 ne {dup dup 6
     get exch 4 get {show} {stringwidth pop 0 R} ifelse }if dup 5 get 0 eq
     {dup 3 get {2 get neg 0 exch R pop} {pop aload pop M} ifelse} {dup 5
     get 1 eq {dup 2 get exch dup 3 get exch 6 get stringwidth pop -2 div
     dup 0 R} {dup 6 get stringwidth pop -2 div 0 R 6 get
     show 2 index {aload pop M neg 3 -1 roll neg R pop pop} {pop pop pop
     pop aload pop M} ifelse }ifelse }ifelse }
     ifelse }
   forall} bind def
/MFwidth {0 exch {dup 3 get{dup dup 0 get findfont exch 1 get scalefont
     setfont 6 get stringwidth pop add} {pop} ifelse} forall} bind def
/MLshow { currentpoint stroke M
  0 exch R MFshow } bind def
/MRshow { currentpoint stroke M
  exch dup MFwidth neg 3 -1 roll R MFshow } def
/MCshow { currentpoint stroke M
  exch dup MFwidth -2 div 3 -1 roll R MFshow } def
end
%%EndProlog
gnudict begin
gsave
50 50 translate
0.050 0.050 scale
0 setgray
newpath
(Times) findfont 220 scalefont setfont
1.000 UL
LTb
LTb
3600 4621 M
gsave 0 setgray
[ [(Times) 220.0 0.0 true true 0 (Re\(LT-BEM x-flux\))]
] -73.3 MCshow
grestore
3600 4401 M
gsave 0 setgray
[ [(Times) 220.0 0.0 true true 0 (pulse [e)]
[(Times) 176.0 110.0 true true 0 (-0.5p)]
[(Times) 220.0 0.0 true true 0 (\(1-e)]
[(Times) 176.0 110.0 true true 0 (-1.5p)]
[(Times) 220.0 0.0 true true 0 (\)/p)]
[(Times) 176.0 110.0 true true 0 (2)]
[(Times) 220.0 0.0 true true 0 (] boundary condition)]
] -95.3 MCshow
grestore
1.000 UP
1.000 UL
LT0
2906 2989 M
7 14 V
1.000 UL
LT0
3057 3062 M
-144 -59 V
1.000 UL
LT0
2996 3199 M
-83 -196 V
1.000 UL
LT0
3140 3207 M
-144 -8 V
1.000 UL
LT0
3079 3398 M
-83 -199 V
1.000 UL
LT0
3223 3356 M
-144 42 V
1.000 UL
LT0
3140 3207 M
83 149 V
1.000 UL
LT0
3367 3324 M
-144 32 V
1.000 UL
LT0
3057 3062 M
83 145 V
1.000 UL
LT0
3284 3210 M
-144 -3 V
1.000 UL
LT0
2999 2975 M
58 87 V
1.000 UL
LT0
3201 3100 M
-144 -38 V
1.000 UL
LT0
3284 3210 M
83 114 V
1.000 UL
LT0
3511 3299 M
-144 25 V
1.000 UL
LT0
3118 3006 M
-75 -35 V
1.000 UL
LT0
3201 3100 M
83 110 V
1.000 UL
LT0
3428 3208 M
-144 2 V
1.000 UL
LT0
3428 3208 M
83 91 V
1.000 UL
LT0
3654 3278 M
-143 21 V
1.000 UL
LT0
3118 3006 M
83 94 V
1.000 UL
LT0
3345 3121 M
-144 -21 V
1.000 UL
LT0
3572 3202 M
82 76 V
1.000 UL
LT0
3798 3257 M
-144 21 V
1.000 UL
LT0
3345 3121 M
83 87 V
1.000 UL
LT0
3572 3202 M
-144 6 V
1.000 UL
LT0
3071 2967 M
47 39 V
1.000 UL
LT0
3262 3047 M
-144 -41 V
1.000 UL
LT0
3715 3192 M
83 65 V
1.000 UL
LT0
3942 3236 M
-144 21 V
1.000 UL
LT0
3262 3047 M
83 74 V
1.000 UL
LT0
3489 3131 M
-144 -10 V
1.000 UL
LT0
3489 3131 M
83 71 V
1.000 UL
LT0
3715 3192 M
-143 10 V
1.000 UL
LT0
3179 2991 M
-60 -22 V
1.000 UL
LT0
3859 3179 M
83 57 V
1.000 UL
LT0
4086 3216 M
-144 20 V
1.000 UL
LT0
3632 3131 M
83 61 V
1.000 UL
LT0
3859 3179 M
-144 13 V
1.000 UL
LT0
3179 2991 M
83 56 V
1.000 UL
LT0
3406 3069 M
-144 -22 V
1.000 UL
LT0
3406 3069 M
83 62 V
1.000 UL
LT0
3632 3131 M
-143 0 V
1.000 UL
LT0
4003 3164 M
83 52 V
1.000 UL
LT0
4230 3194 M
-144 22 V
1.000 UL
LT0
3776 3125 M
83 54 V
1.000 UL
LT0
4003 3164 M
-144 15 V
1.000 UL
LT0
3550 3077 M
82 54 V
1.000 UL
LT0
3776 3125 M
-144 6 V
1.000 UL
LT0
3124 2969 M
55 22 V
1.000 UL
LT0
3323 3019 M
-144 -28 V
1.000 UL
LT0
3323 3019 M
83 50 V
1.000 UL
LT0
3550 3077 M
-144 -8 V
1.000 UL
LT0
4147 3146 M
83 48 V
1.000 UL
LT0
4374 3172 M
-144 22 V
1.000 UL
LT0
3920 3114 M
83 50 V
1.000 UL
LT0
4147 3146 M
-144 18 V
1.000 UL
LT0
3693 3076 M
83 49 V
1.000 UL
LT0
3920 3114 M
-144 11 V
1.000 UL
LT0
4291 3126 M
83 46 V
1.000 UL
LT0
4518 3150 M
-144 22 V
1.000 UL
LT0
3467 3032 M
83 45 V
1.000 UL
LT0
3693 3076 M
-143 1 V
1.000 UL
LT0
3240 2986 M
83 33 V
1.000 UL
LT0
3467 3032 M
-144 -13 V
1.000 UL
LT0
4064 3099 M
83 47 V
1.000 UL
LT0
4291 3126 M
-144 20 V
1.000 UL
LT0
4435 3105 M
83 45 V
1.000 UL
LT0
4662 3127 M
-144 23 V
1.000 UL
LT0
3837 3068 M
83 46 V
1.000 UL
LT0
4064 3099 M
-144 15 V
1.000 UL
LT0
3610 3033 M
83 43 V
1.000 UL
LT0
3837 3068 M
-144 8 V
1.000 UL
LT0
4208 3081 M
83 45 V
1.000 UL
LT0
4435 3105 M
-144 21 V
1.000 UL
LT0
3383 2998 M
84 34 V
1.000 UL
LT0
3610 3033 M
-143 -1 V
1.000 UL
LT0
4579 3083 M
83 44 V
1.000 UL
LT0
4806 3103 M
-144 24 V
1.000 UL
LT0
3981 3054 M
83 45 V
1.000 UL
LT0
4208 3081 M
-144 18 V
1.000 UL
LT0
3156 2970 M
84 16 V
1.000 UL
LT0
3383 2998 M
-143 -12 V
1.000 UL
LT0
4352 3061 M
83 44 V
1.000 UL
LT0
4579 3083 M
-144 22 V
1.000 UL
LT0
3753 3026 M
84 42 V
1.000 UL
LT0
3981 3054 M
-144 14 V
1.000 UL
LT0
4723 3060 M
83 43 V
1.000 UL
LT0
4950 3079 M
-144 24 V
1.000 UL
LT0
3527 2998 M
83 35 V
1.000 UL
LT0
3753 3026 M
-143 7 V
1.000 UL
LT0
4125 3038 M
83 43 V
1.000 UL
LT0
4352 3061 M
-144 20 V
1.000 UL
LT0
4496 3040 M
83 43 V
1.000 UL
LT0
4723 3060 M
-144 23 V
1.000 UL
LT0
3300 2976 M
83 22 V
1.000 UL
LT0
3527 2998 M
-144 0 V
1.000 UL
LT0
3897 3014 M
84 40 V
1.000 UL
LT0
4125 3038 M
-144 16 V
1.000 UL
LT0
4867 3036 M
83 43 V
1.000 UL
LT0
5094 3055 M
-144 24 V
1.000 UL
LT0
4268 3019 M
84 42 V
1.000 UL
LT0
4496 3040 M
-144 21 V
1.000 UL
LT0
3073 2968 M
83 2 V
1.000 UL
LT0
3300 2976 M
-144 -6 V
1.000 UL
LT0
3670 2991 M
83 35 V
1.000 UL
LT0
3897 3014 M
-144 12 V
1.000 UL
LT0
4639 3017 M
84 43 V
1.000 UL
LT0
4867 3036 M
-144 24 V
1.000 UL
LT0
5010 3012 M
84 43 V
1.000 UL
LT0
5238 3031 M
-144 24 V
1.000 UL
LT0
4041 2997 M
84 41 V
1.000 UL
LT0
4268 3019 M
-143 19 V
1.000 UL
LT0
3444 2971 M
83 27 V
1.000 UL
LT0
3670 2991 M
-143 7 V
1.000 UL
LT0
4412 2997 M
84 43 V
1.000 UL
LT0
4639 3017 M
-143 23 V
1.000 UL
LT0
3814 2977 M
83 37 V
1.000 UL
LT0
4041 2997 M
-144 17 V
1.000 UL
LT0
4783 2994 M
84 42 V
1.000 UL
LT0
5010 3012 M
-143 24 V
1.000 UL
LT0
3217 2963 M
83 13 V
1.000 UL
LT0
3444 2971 M
-144 5 V
1.000 UL
LT0
5154 2988 M
84 43 V
1.000 UL
LT0
5382 3006 M
-144 25 V
1.000 UL
LT0
4185 2978 M
83 41 V
1.000 UL
LT0
4412 2997 M
-144 22 V
1.000 UL
LT0
3588 2960 M
82 31 V
1.000 UL
LT0
3814 2977 M
-144 14 V
1.000 UL
LT0
4556 2975 M
83 42 V
1.000 UL
LT0
4783 2994 M
-144 23 V
1.000 UL
LT0
2990 2976 M
83 -8 V
1.000 UL
LT0
3217 2963 M
-144 5 V
1.000 UL
LT0
4927 2970 M
83 42 V
1.000 UL
LT0
5154 2988 M
-144 24 V
1.000 UL
LT0
3958 2960 M
83 37 V
1.000 UL
LT0
4185 2978 M
-144 19 V
1.000 UL
LT0
5298 2963 M
84 43 V
1.000 UL
LT0
5525 2981 M
-143 25 V
1.000 UL
LT0
3361 2951 M
83 20 V
1.000 UL
LT0
3588 2960 M
-144 11 V
1.000 UL
LT0
4329 2957 M
83 40 V
1.000 UL
LT0
4556 2975 M
-144 22 V
1.000 UL
LT0
4700 2952 M
83 42 V
1.000 UL
LT0
4927 2970 M
-144 24 V
1.000 UL
LT0
3731 2944 M
83 33 V
1.000 UL
LT0
3958 2960 M
-144 17 V
1.000 UL
LT0
5071 2945 M
83 43 V
1.000 UL
LT0
5298 2963 M
-144 25 V
1.000 UL
LT0
4102 2939 M
83 39 V
1.000 UL
LT0
4329 2957 M
-144 21 V
1.000 UL
LT0
3134 2958 M
83 5 V
1.000 UL
LT0
3361 2951 M
-144 12 V
1.000 UL
LT0
5442 2938 M
83 43 V
1.000 UL
LT0
5669 2956 M
-144 25 V
1.000 UL
LT0
4473 2934 M
83 41 V
1.000 UL
LT0
4700 2952 M
-144 23 V
1.000 UL
LT0
3505 2935 M
83 25 V
1.000 UL
LT0
3731 2944 M
-143 16 V
1.000 UL
LT0
4844 2927 M
83 43 V
1.000 UL
LT0
5071 2945 M
-144 25 V
1.000 UL
LT0
3875 2925 M
83 35 V
1.000 UL
LT0
4102 2939 M
-144 21 V
1.000 UL
LT0
5215 2920 M
83 43 V
1.000 UL
LT0
5442 2938 M
-144 25 V
1.000 UL
LT0
4246 2917 M
83 40 V
1.000 UL
LT0
4473 2934 M
-144 23 V
1.000 UL
LT0
5586 2913 M
83 43 V
1.000 UL
LT0
5813 2931 M
-144 25 V
1.000 UL
LT0
2907 2989 M
83 -13 V
1.000 UL
LT0
3134 2958 M
-144 18 V
1.000 UL
LT0
3278 2936 M
83 15 V
1.000 UL
LT0
3505 2935 M
-144 16 V
1.000 UL
LT0
4617 2910 M
83 42 V
1.000 UL
LT0
4844 2927 M
-144 25 V
1.000 UL
LT0
3648 2915 M
83 29 V
1.000 UL
LT0
3875 2925 M
-144 19 V
1.000 UL
LT0
4988 2903 M
83 42 V
1.000 UL
LT0
5215 2920 M
-144 25 V
1.000 UL
LT0
4019 2903 M
83 36 V
1.000 UL
LT0
4246 2917 M
-144 22 V
1.000 UL
LT0
5359 2896 M
83 42 V
1.000 UL
LT0
5586 2913 M
-144 25 V
1.000 UL
LT0
4390 2894 M
83 40 V
1.000 UL
LT0
4617 2910 M
-144 24 V
1.000 UL
LT0
5730 2888 M
83 43 V
1.000 UL
LT0
3051 2955 M
83 3 V
1.000 UL
LT0
3278 2936 M
-144 22 V
1.000 UL
LT0
4761 2886 M
83 41 V
1.000 UL
LT0
4988 2903 M
-144 24 V
1.000 UL
LT0
3422 2913 M
83 22 V
1.000 UL
LT0
3648 2915 M
-143 20 V
1.000 UL
LT0
3792 2892 M
83 33 V
1.000 UL
LT0
4019 2903 M
-144 22 V
1.000 UL
LT0
5132 2878 M
83 42 V
1.000 UL
LT0
5359 2896 M
-144 24 V
1.000 UL
LT0
4163 2879 M
83 38 V
1.000 UL
LT0
4390 2894 M
-144 23 V
1.000 UL
LT0
2680 3056 M
83 -31 V
1.000 UL
LT0
2907 2989 M
-144 36 V
1.000 UL
LT0
5503 2871 M
83 42 V
1.000 UL
LT0
5730 2888 M
-144 25 V
1.000 UL
LT0
4534 2869 M
83 41 V
1.000 UL
LT0
4761 2886 M
-144 24 V
1.000 UL
LT0
3195 2923 M
83 13 V
1.000 UL
LT0
3422 2913 M
-144 23 V
1.000 UL
LT0
4905 2861 M
83 42 V
1.000 UL
LT0
5132 2878 M
-144 25 V
1.000 UL
LT0
3566 2888 M
82 27 V
1.000 UL
LT0
3792 2892 M
-144 23 V
1.000 UL
LT0
5276 2853 M
83 43 V
1.000 UL
LT0
5503 2871 M
-144 25 V
1.000 UL
LT0
3936 2868 M
83 35 V
1.000 UL
LT0
4163 2879 M
-144 24 V
1.000 UL
LT0
2824 2999 M
83 -10 V
1.000 UL
LT0
3051 2955 M
-144 34 V
1.000 UL
LT0
4307 2855 M
83 39 V
1.000 UL
LT0
4534 2869 M
-144 25 V
1.000 UL
LT0
5647 2845 M
83 43 V
1.000 UL
LT0
4678 2844 M
83 42 V
1.000 UL
LT0
4905 2861 M
-144 25 V
1.000 UL
LT0
5049 2836 M
83 42 V
1.000 UL
LT0
5276 2853 M
-144 25 V
1.000 UL
LT0
3339 2892 M
83 21 V
1.000 UL
LT0
3566 2888 M
-144 25 V
1.000 UL
LT0
3709 2861 M
83 31 V
1.000 UL
LT0
3936 2868 M
-144 24 V
1.000 UL
LT0
2968 2951 M
83 4 V
1.000 UL
LT0
3195 2923 M
-144 32 V
1.000 UL
LT0
5420 2828 M
83 43 V
1.000 UL
LT0
5647 2845 M
-144 26 V
1.000 UL
LT0
4080 2842 M
83 37 V
1.000 UL
LT0
4307 2855 M
-144 24 V
1.000 UL
LT0
4451 2829 M
83 40 V
1.000 UL
LT0
4678 2844 M
-144 25 V
1.000 UL
LT0
4822 2819 M
83 42 V
1.000 UL
LT0
5049 2836 M
-144 25 V
1.000 UL
LT0
2536 3129 M
-138 92 V
1.000 UL
LT0
2453 3170 M
83 -41 V
1.000 UL
LT0
2680 3056 M
-144 73 V
1.000 UL
LT0
5193 2810 M
83 43 V
1.000 UL
LT0
5420 2828 M
-144 25 V
1.000 UL
LT0
3483 2862 M
83 26 V
1.000 UL
LT0
3709 2861 M
-143 27 V
1.000 UL
LT0
3853 2834 M
83 34 V
1.000 UL
LT0
4080 2842 M
-144 26 V
1.000 UL
LT0
3112 2909 M
83 14 V
1.000 UL
LT0
3339 2892 M
-144 31 V
1.000 UL
LT0
2597 3073 M
83 -17 V
1.000 UL
LT0
2824 2999 M
-144 57 V
1.000 UL
LT0
5564 2802 M
83 43 V
1.000 UL
LT0
4224 2816 M
83 39 V
1.000 UL
LT0
4451 2829 M
-144 26 V
1.000 UL
LT0
4595 2804 M
83 40 V
1.000 UL
LT0
4822 2819 M
-144 25 V
1.000 UL
LT0
4966 2794 M
83 42 V
1.000 UL
LT0
5193 2810 M
-144 26 V
1.000 UL
LT0
2741 2999 M
83 0 V
1.000 UL
LT0
2968 2951 M
-144 48 V
1.000 UL
LT0
3626 2831 M
83 30 V
1.000 UL
LT0
3853 2834 M
-144 27 V
1.000 UL
LT0
5337 2785 M
83 43 V
1.000 UL
LT0
5564 2802 M
-144 26 V
1.000 UL
LT0
3256 2872 M
83 20 V
1.000 UL
LT0
3483 2862 M
-144 30 V
1.000 UL
LT0
3997 2806 M
83 36 V
1.000 UL
LT0
4224 2816 M
-144 26 V
1.000 UL
LT0
4368 2790 M
83 39 V
1.000 UL
LT0
4595 2804 M
-144 25 V
1.000 UL
LT0
2885 2941 M
83 10 V
1.000 UL
LT0
3112 2909 M
-144 42 V
1.000 UL
LT0
4739 2778 M
83 41 V
1.000 UL
LT0
4966 2794 M
-144 25 V
1.000 UL
LT0
5110 2768 M
83 42 V
1.000 UL
LT0
5337 2785 M
-144 25 V
1.000 UL
LT0
3770 2801 M
83 33 V
1.000 UL
LT0
3997 2806 M
-144 28 V
1.000 UL
LT0
3400 2836 M
83 26 V
1.000 UL
LT0
3626 2831 M
-143 31 V
1.000 UL
LT0
5481 2760 M
83 42 V
1.000 UL
LT0
4141 2778 M
83 38 V
1.000 UL
LT0
4368 2790 M
-144 26 V
1.000 UL
LT0
3029 2892 M
83 17 V
1.000 UL
LT0
3256 2872 M
-144 37 V
1.000 UL
LT0
4512 2763 M
83 41 V
1.000 UL
LT0
4739 2778 M
-144 26 V
1.000 UL
LT0
4883 2752 M
83 42 V
1.000 UL
LT0
5110 2768 M
-144 26 V
1.000 UL
LT0
2370 3174 M
83 -4 V
1.000 UL
LT0
2597 3073 M
-144 97 V
1.000 UL
LT0
2309 3304 M
144 -134 V
1.000 UL
LT0
2514 3066 M
83 7 V
1.000 UL
LT0
2741 2999 M
-144 74 V
1.000 UL
LT0
5254 2742 M
83 43 V
1.000 UL
LT0
5481 2760 M
-144 25 V
1.000 UL
LT0
3544 2801 M
82 30 V
1.000 UL
LT0
3770 2801 M
-144 30 V
1.000 UL
LT0
3914 2770 M
83 36 V
1.000 UL
LT0
4141 2778 M
-144 28 V
1.000 UL
LT0
4285 2750 M
83 40 V
1.000 UL
LT0
4512 2763 M
-144 27 V
1.000 UL
LT0
3173 2849 M
83 23 V
1.000 UL
LT0
3400 2836 M
-144 36 V
1.000 UL
LT0
2658 2985 M
83 14 V
1.000 UL
LT0
2885 2941 M
-144 58 V
1.000 UL
LT0
2226 3327 M
83 -23 V
1.000 UL
LT0
2165 3495 M
144 -191 V
1.000 UL
LT0
4656 2736 M
83 42 V
1.000 UL
LT0
4883 2752 M
-144 26 V
1.000 UL
LT0
5027 2726 M
83 42 V
1.000 UL
LT0
5254 2742 M
-144 26 V
1.000 UL
LT0
2802 2922 M
83 19 V
1.000 UL
LT0
3029 2892 M
-144 49 V
1.000 UL
LT0
5398 2717 M
83 43 V
1.000 UL
LT0
3687 2767 M
83 34 V
1.000 UL
LT0
3914 2770 M
-144 31 V
1.000 UL
LT0
4058 2740 M
83 38 V
1.000 UL
LT0
4285 2750 M
-144 28 V
1.000 UL
LT0
3317 2809 M
83 27 V
1.000 UL
LT0
3544 2801 M
-144 35 V
1.000 UL
LT0
4429 2722 M
83 41 V
1.000 UL
LT0
4656 2736 M
-144 27 V
1.000 UL
LT0
4800 2709 M
83 43 V
1.000 UL
LT0
5027 2726 M
-144 26 V
1.000 UL
LT0
2946 2869 M
83 23 V
1.000 UL
LT0
3173 2849 M
-144 43 V
1.000 UL
LT0
2082 3550 M
83 -55 V
1.000 UL
LT0
5171 2700 M
83 42 V
1.000 UL
LT0
5398 2717 M
-144 25 V
1.000 UL
LT0
3831 2734 M
83 36 V
1.000 UL
LT0
4058 2740 M
-144 30 V
1.000 UL
LT0
3461 2770 M
83 31 V
1.000 UL
LT0
3687 2767 M
-143 34 V
1.000 UL
LT0
4202 2710 M
83 40 V
1.000 UL
LT0
4429 2722 M
-144 28 V
1.000 UL
LT0
2431 3032 M
83 34 V
1.000 UL
LT0
2658 2985 M
-144 81 V
1.000 UL
LT0
2370 3174 M
144 -108 V
1.000 UL
LT0
4573 2694 M
83 42 V
1.000 UL
LT0
4800 2709 M
-144 27 V
1.000 UL
LT0
2287 3136 M
83 38 V
1.000 UL
LT0
2226 3327 M
144 -153 V
1.000 UL
LT0
3090 2823 M
83 26 V
1.000 UL
LT0
3317 2809 M
-144 40 V
1.000 UL
LT0
2575 2954 M
83 31 V
1.000 UL
LT0
2802 2922 M
-144 63 V
1.000 UL
LT0
4944 2683 M
83 43 V
1.000 UL
LT0
5171 2700 M
-144 26 V
1.000 UL
LT0
5315 2674 M
83 43 V
1.000 UL
LT0
3975 2701 M
83 39 V
1.000 UL
LT0
4202 2710 M
-144 30 V
1.000 UL
LT0
3604 2733 M
83 34 V
1.000 UL
LT0
3831 2734 M
-144 33 V
1.000 UL
LT0
2719 2892 M
83 30 V
1.000 UL
LT0
2946 2869 M
-144 53 V
1.000 UL
LT0
2143 3283 M
83 44 V
1.000 UL
LT0
2082 3550 M
144 -223 V
1.000 UL
LT0
4346 2681 M
83 41 V
1.000 UL
LT0
4573 2694 M
-144 28 V
1.000 UL
LT0
3234 2780 M
83 29 V
1.000 UL
LT0
3461 2770 M
-144 39 V
1.000 UL
LT0
4717 2667 M
83 42 V
1.000 UL
LT0
4944 2683 M
-144 26 V
1.000 UL
LT0
1622 2500 M
44 85 V
1.000 UL
LT0
1810 2676 M
-144 -91 V
1.000 UL
LT0
1749 2830 M
-83 -245 V
1.000 UL
LT0
5088 2657 M
83 43 V
1.000 UL
LT0
5315 2674 M
-144 26 V
1.000 UL
LT0
LT1
1500 2381 M
83 44 V
1.000 UL
LT0
LT1
1721 2558 M
1583 2425 L
1.000 UL
LT0
2863 2841 M
83 28 V
1.000 UL
LT0
3090 2823 M
-144 46 V
1.000 UL
LT0
3748 2697 M
83 37 V
1.000 UL
LT0
3975 2701 M
-144 33 V
1.000 UL
LT0
4119 2670 M
83 40 V
1.000 UL
LT0
4346 2681 M
-144 29 V
1.000 UL
LT0
3378 2739 M
83 31 V
1.000 UL
LT0
3604 2733 M
-143 37 V
1.000 UL
LT0
4490 2652 M
83 42 V
1.000 UL
LT0
4717 2667 M
-144 27 V
1.000 UL
LT0
2348 2972 M
83 60 V
1.000 UL
LT0
2575 2954 M
-144 78 V
1.000 UL
LT0
2287 3136 M
144 -104 V
1.000 UL
LT0
2204 3057 M
83 79 V
1.000 UL
LT0
2143 3283 M
144 -147 V
1.000 UL
LT0
4861 2640 M
83 43 V
1.000 UL
LT0
5088 2657 M
-144 26 V
1.000 UL
LT0
1893 2837 M
-144 -7 V
1.000 UL
LT0
1833 3102 M
-84 -272 V
1.000 UL
LT0
3029 2802 M
61 21 V
1.000 UL
LT0
3234 2780 M
-144 43 V
1.000 UL
LT0
2492 2907 M
83 47 V
1.000 UL
LT0
2719 2892 M
-144 62 V
1.000 UL
LT0
5232 2631 M
83 43 V
1.000 UL
LT0
1999 3499 M
83 51 V
1.000 UL
LT0
3891 2662 M
84 39 V
1.000 UL
LT0
4119 2670 M
-144 31 V
1.000 UL
LT0
2060 3173 M
83 110 V
1.000 UL
LT0
1999 3499 M
144 -216 V
1.000 UL
LT0
3521 2698 M
83 35 V
1.000 UL
LT0
3748 2697 M
-144 36 V
1.000 UL
LT0
4262 2639 M
84 42 V
1.000 UL
LT0
4490 2652 M
-144 29 V
1.000 UL
LT0
2635 2853 M
84 39 V
1.000 UL
LT0
2863 2841 M
-144 51 V
1.000 UL
LT0
4634 2625 M
83 42 V
1.000 UL
LT0
4861 2640 M
-144 27 V
1.000 UL
LT0
3150 2750 M
84 30 V
1.000 UL
LT0
3378 2739 M
-144 41 V
1.000 UL
LT0
5005 2614 M
83 43 V
1.000 UL
LT0
5232 2631 M
-144 26 V
1.000 UL
LT0
LT1
1644 2521 M
1500 2381 L
1.000 UL
LT0
2121 2948 M
83 109 V
1.000 UL
LT0
2348 2972 M
-144 85 V
1.000 UL
LT0
2060 3173 M
144 -116 V
1.000 UL
LT0
2779 2807 M
84 34 V
1.000 UL
LT0
2986 2801 M
-123 40 V
1.000 UL
LT0
2264 2894 M
84 78 V
1.000 UL
LT0
2492 2907 M
-144 65 V
1.000 UL
LT0
1977 3015 M
83 158 V
1.000 UL
LT0
1916 3341 M
144 -168 V
1.000 UL
LT0
1977 3015 M
-144 87 V
1.000 UL
LT0
1916 3341 M
-83 -239 V
1.000 UL
LT0
4035 2628 M
84 42 V
1.000 UL
LT0
4262 2639 M
-143 31 V
1.000 UL
LT0
3664 2658 M
84 39 V
1.000 UL
LT0
3891 2662 M
-143 35 V
1.000 UL
LT0
1810 2676 M
83 161 V
1.000 UL
LT0
2037 2828 M
-144 9 V
1.000 UL
LT0
1977 3015 M
-84 -178 V
1.000 UL
LT0
4406 2610 M
84 42 V
1.000 UL
LT0
4634 2625 M
-144 27 V
1.000 UL
LT0
2121 2948 M
-144 67 V
1.000 UL
LT0
3294 2706 M
84 33 V
1.000 UL
LT0
3521 2698 M
-143 41 V
1.000 UL
LT0
1727 2564 M
83 112 V
1.000 UL
LT0
1954 2717 M
-144 -41 V
1.000 UL
LT0
4777 2597 M
84 43 V
1.000 UL
LT0
5005 2614 M
-144 26 V
1.000 UL
LT0
2408 2848 M
84 59 V
1.000 UL
LT0
2635 2853 M
-143 54 V
1.000 UL
LT0
5148 2588 M
84 43 V
1.000 UL
LT0
3150 2750 M
-116 36 V
1.000 UL
LT0
2037 2828 M
84 120 V
1.000 UL
LT0
2264 2894 M
-143 54 V
1.000 UL
LT0
1916 3341 M
83 158 V
1.000 UL
LT0
3808 2620 M
83 42 V
1.000 UL
LT0
4035 2628 M
-144 34 V
1.000 UL
LT0
4179 2596 M
83 43 V
1.000 UL
LT0
4406 2610 M
-144 29 V
1.000 UL
LT0
3438 2662 M
83 36 V
1.000 UL
LT0
3664 2658 M
-143 40 V
1.000 UL
LT0
2552 2807 M
83 46 V
1.000 UL
LT0
2779 2807 M
-144 46 V
1.000 UL
LT0
1644 2521 M
83 43 V
1.000 UL
LT0
1871 2634 M
-144 -70 V
1.000 UL
LT0
4550 2581 M
84 44 V
1.000 UL
LT0
4777 2597 M
-143 28 V
1.000 UL
LT0
2181 2808 M
83 86 V
1.000 UL
LT0
2408 2848 M
-144 46 V
1.000 UL
LT0
1954 2717 M
83 111 V
1.000 UL
LT0
2181 2808 M
-144 20 V
1.000 UL
LT0
4921 2571 M
84 43 V
1.000 UL
LT0
5148 2588 M
-143 26 V
1.000 UL
LT0
3067 2721 M
83 29 V
1.000 UL
LT0
3294 2706 M
-144 44 V
1.000 UL
LT0
2696 2769 M
83 38 V
1.000 UL
LT0
2923 2764 M
-144 43 V
1.000 UL
LT0
3952 2585 M
83 43 V
1.000 UL
LT0
4179 2596 M
-144 32 V
1.000 UL
LT0
3582 2618 M
82 40 V
1.000 UL
LT0
3808 2620 M
-144 38 V
1.000 UL
LT0
4323 2566 M
83 44 V
1.000 UL
LT0
4550 2581 M
-144 29 V
1.000 UL
LT0
2325 2784 M
83 64 V
1.000 UL
LT0
2552 2807 M
-144 41 V
1.000 UL
LT0
4694 2554 M
83 43 V
1.000 UL
LT0
4921 2571 M
-144 26 V
1.000 UL
LT0
3211 2675 M
83 31 V
1.000 UL
LT0
3438 2662 M
-144 44 V
1.000 UL
LT0
1871 2634 M
83 83 V
1.000 UL
LT0
2098 2727 M
-144 -10 V
1.000 UL
LT0
5065 2544 M
83 44 V
1.000 UL
LT0
2098 2727 M
83 81 V
1.000 UL
LT0
2325 2784 M
-144 24 V
1.000 UL
LT0
2840 2733 M
83 31 V
1.000 UL
LT0
3067 2721 M
-13 4 V
1.000 UL
LT0
3725 2577 M
83 43 V
1.000 UL
LT0
3952 2585 M
-144 35 V
1.000 UL
LT0
4096 2552 M
83 44 V
1.000 UL
LT0
4323 2566 M
-144 30 V
1.000 UL
LT0
2469 2758 M
83 49 V
1.000 UL
LT0
2696 2769 M
-144 38 V
1.000 UL
LT0
1788 2590 M
-144 -69 V
1.000 UL
LT0
4467 2537 M
83 44 V
1.000 UL
LT0
4694 2554 M
-144 27 V
1.000 UL
LT0
3355 2626 M
83 36 V
1.000 UL
LT0
3582 2618 M
-144 44 V
1.000 UL
LT0
4838 2527 M
83 44 V
1.000 UL
LT0
5065 2544 M
-144 27 V
1.000 UL
LT0
3056 2717 M
11 4 V
1.000 UL
LT0
3211 2675 M
-144 46 V
1.000 UL
LT0
1788 2590 M
83 44 V
1.000 UL
LT0
2015 2662 M
-144 -28 V
1.000 UL
LT0
2242 2722 M
83 62 V
1.000 UL
LT0
2469 2758 M
-144 26 V
1.000 UL
LT0
3869 2539 M
83 46 V
1.000 UL
LT0
4096 2552 M
-144 33 V
1.000 UL
LT0
2613 2731 M
83 38 V
1.000 UL
LT0
2840 2733 M
-144 36 V
1.000 UL
LT0
3499 2576 M
83 42 V
1.000 UL
LT0
3725 2577 M
-143 41 V
1.000 UL
LT0
4240 2521 M
83 45 V
1.000 UL
LT0
4467 2537 M
-144 29 V
1.000 UL
LT0
2015 2662 M
83 65 V
1.000 UL
LT0
2242 2722 M
-144 5 V
1.000 UL
LT0
4611 2510 M
83 44 V
1.000 UL
LT0
4838 2527 M
-144 27 V
1.000 UL
LT0
3128 2648 M
83 27 V
1.000 UL
LT0
3355 2626 M
-144 49 V
1.000 UL
LT0
4982 2501 M
83 43 V
1.000 UL
LT0
3642 2529 M
83 48 V
1.000 UL
LT0
3869 2539 M
-144 38 V
1.000 UL
LT0
2386 2708 M
83 50 V
1.000 UL
LT0
2613 2731 M
-144 27 V
1.000 UL
LT0
4013 2506 M
83 46 V
1.000 UL
LT0
4240 2521 M
-144 31 V
1.000 UL
LT0
2757 2704 M
83 29 V
1.000 UL
LT0
2874 2724 M
-34 9 V
1.000 UL
LT0
4384 2493 M
83 44 V
1.000 UL
LT0
4611 2510 M
-144 27 V
1.000 UL
LT0
3272 2591 M
83 35 V
1.000 UL
LT0
3499 2576 M
-144 50 V
1.000 UL
LT0
4755 2484 M
83 43 V
1.000 UL
LT0
4982 2501 M
-144 26 V
1.000 UL
LT0
2159 2667 M
83 55 V
1.000 UL
LT0
2386 2708 M
-144 14 V
1.000 UL
LT0
1932 2619 M
83 43 V
1.000 UL
LT0
2159 2667 M
-144 -5 V
1.000 UL
LT0
1932 2619 M
-144 -29 V
1.000 UL
LT0
3786 2490 M
83 49 V
1.000 UL
LT0
4013 2506 M
-144 33 V
1.000 UL
LT0
3128 2648 M
-55 17 V
1.000 UL
LT0
4157 2475 M
83 46 V
1.000 UL
LT0
4384 2493 M
-144 28 V
1.000 UL
LT0
3416 2529 M
83 47 V
1.000 UL
LT0
3642 2529 M
-143 47 V
1.000 UL
LT0
2530 2692 M
83 39 V
1.000 UL
LT0
2757 2704 M
-144 27 V
1.000 UL
LT0
4528 2465 M
83 45 V
1.000 UL
LT0
4755 2484 M
-144 26 V
1.000 UL
LT0
4899 2457 M
83 44 V
1.000 UL
LT0
3082 2639 M
46 9 V
1.000 UL
LT0
3272 2591 M
-144 57 V
1.000 UL
LT0
2303 2661 M
83 47 V
1.000 UL
LT0
2530 2692 M
-144 16 V
1.000 UL
LT0
3560 2476 M
82 53 V
1.000 UL
LT0
3786 2490 M
-144 39 V
1.000 UL
LT0
3930 2456 M
83 50 V
1.000 UL
LT0
4157 2475 M
-144 31 V
1.000 UL
LT0
4301 2447 M
83 46 V
1.000 UL
LT0
4528 2465 M
-144 28 V
1.000 UL
LT0
2674 2677 M
83 27 V
1.000 UL
LT0
2831 2689 M
-74 15 V
1.000 UL
LT0
2076 2624 M
83 43 V
1.000 UL
LT0
2303 2661 M
-144 6 V
1.000 UL
LT0
4672 2439 M
83 45 V
1.000 UL
LT0
4899 2457 M
-144 27 V
1.000 UL
LT0
3189 2563 M
83 28 V
1.000 UL
LT0
3416 2529 M
-144 62 V
1.000 UL
LT0
2076 2624 M
-144 -5 V
1.000 UL
LT0
3703 2434 M
83 56 V
1.000 UL
LT0
3930 2456 M
-144 34 V
1.000 UL
LT0
4074 2426 M
83 49 V
1.000 UL
LT0
4301 2447 M
-144 28 V
1.000 UL
LT0
3333 2475 M
83 54 V
1.000 UL
LT0
3560 2476 M
-144 53 V
1.000 UL
LT0
2447 2652 M
83 40 V
1.000 UL
LT0
2674 2677 M
-144 15 V
1.000 UL
LT0
4445 2419 M
83 46 V
1.000 UL
LT0
4672 2439 M
-144 26 V
1.000 UL
LT0
4816 2413 M
83 44 V
1.000 UL
LT0
LT1
3084 2004 M
83 43 V
1.000 UL
LT0
LT1
3280 2140 M
-113 -93 V
1.000 UL
LT0
3250 2387 M
-76 -309 V
1.000 UL
LT0
3023 2820 M
140 -751 V
1.000 UL
LT0
3477 2407 M
83 69 V
1.000 UL
LT0
3703 2434 M
-143 42 V
1.000 UL
LT0
2220 2618 M
83 43 V
1.000 UL
LT0
2447 2652 M
-144 9 V
1.000 UL
LT0
3847 2402 M
83 54 V
1.000 UL
LT0
4074 2426 M
-144 30 V
1.000 UL
LT0
4218 2399 M
83 48 V
1.000 UL
LT0
4445 2419 M
-144 28 V
1.000 UL
LT0
3189 2563 M
-97 47 V
1.000 UL
LT0
2220 2618 M
-144 6 V
1.000 UL
LT0
4589 2393 M
83 46 V
1.000 UL
LT0
4816 2413 M
-144 26 V
1.000 UL
LT0
2591 2646 M
83 31 V
1.000 UL
LT0
2776 2668 M
-102 9 V
1.000 UL
LT0
3620 2368 M
83 66 V
1.000 UL
LT0
3847 2402 M
-144 32 V
1.000 UL
LT0
3106 2566 M
83 -3 V
1.000 UL
LT0
3333 2475 M
-144 88 V
1.000 UL
LT0
3250 2387 M
83 88 V
1.000 UL
LT0
3477 2407 M
-144 68 V
1.000 UL
LT0
3991 2374 M
83 52 V
1.000 UL
LT0
4218 2399 M
-144 27 V
1.000 UL
LT0
2364 2609 M
83 43 V
1.000 UL
LT0
2591 2646 M
-144 6 V
1.000 UL
LT0
4362 2373 M
83 46 V
1.000 UL
LT0
4589 2393 M
-144 26 V
1.000 UL
LT0
3394 2307 M
83 100 V
1.000 UL
LT0
3620 2368 M
-143 39 V
1.000 UL
LT0
4733 2368 M
83 45 V
1.000 UL
LT0
LT1
3228 2122 M
3084 2004 L
1.000 UL
LT0
2940 2777 M
144 -773 V
1.000 UL
LT0
3764 2343 M
83 59 V
1.000 UL
LT0
3991 2374 M
-144 28 V
1.000 UL
LT0
2364 2609 M
-144 9 V
1.000 UL
LT0
LT1
2802 2663 M
16 2 V
1.000 UL
LT0
LT1
2962 2647 M
-144 18 V
1.000 UL
LT0
4135 2349 M
83 50 V
1.000 UL
LT0
4362 2373 M
-144 26 V
1.000 UL
LT0
3394 2307 M
-144 80 V
1.000 UL
LT0
3106 2566 M
144 -179 V
1.000 UL
LT0
3538 2291 M
82 77 V
1.000 UL
LT0
3764 2343 M
-144 25 V
1.000 UL
LT0
4506 2347 M
83 46 V
1.000 UL
LT0
4733 2368 M
-144 25 V
1.000 UL
LT0
3311 2165 M
83 142 V
1.000 UL
LT0
3538 2291 M
-144 16 V
1.000 UL
LT0
2508 2603 M
83 43 V
1.000 UL
LT0
2735 2654 M
-144 -8 V
1.000 UL
LT0
3908 2321 M
83 53 V
1.000 UL
LT0
4135 2349 M
-144 25 V
1.000 UL
LT0
3228 2122 M
83 43 V
1.000 UL
LT0
3455 2215 M
-144 -50 V
1.000 UL
LT0
LT1
2879 2703 M
83 -56 V
1.000 UL
LT0
LT1
2964 2646 M
-2 1 V
1.000 UL
LT0
4279 2325 M
83 48 V
1.000 UL
LT0
4506 2347 M
-144 26 V
1.000 UL
LT0
2508 2603 M
-144 6 V
1.000 UL
LT0
3023 2820 M
83 -254 V
1.000 UL
LT0
3681 2281 M
83 62 V
1.000 UL
LT0
3908 2321 M
-144 22 V
1.000 UL
LT0
4650 2322 M
83 46 V
1.000 UL
LT0
3455 2215 M
83 76 V
1.000 UL
LT0
3681 2281 M
-143 10 V
1.000 UL
LT0
4052 2299 M
83 50 V
1.000 UL
LT0
4279 2325 M
-144 24 V
1.000 UL
LT0
4423 2301 M
83 46 V
1.000 UL
LT0
4650 2322 M
-144 25 V
1.000 UL
LT0
2652 2611 M
83 43 V
1.000 UL
LT0
2828 2686 M
-93 -32 V
1.000 UL
LT0
3825 2267 M
83 54 V
1.000 UL
LT0
4052 2299 M
-144 22 V
1.000 UL
LT0
2652 2611 M
-144 -8 V
1.000 UL
LT0
3372 2172 M
-144 -50 V
1.000 UL
LT0
4196 2277 M
83 48 V
1.000 UL
LT0
4423 2301 M
-144 24 V
1.000 UL
LT0
3599 2224 M
82 57 V
1.000 UL
LT0
3825 2267 M
-144 14 V
1.000 UL
LT0
3372 2172 M
83 43 V
1.000 UL
LT0
3599 2224 M
-144 -9 V
1.000 UL
LT0
4567 2277 M
83 45 V
1.000 UL
LT0
3969 2250 M
83 49 V
1.000 UL
LT0
4196 2277 M
-144 22 V
1.000 UL
LT0
4340 2255 M
83 46 V
1.000 UL
LT0
4567 2277 M
-144 24 V
1.000 UL
LT0
2796 2660 M
-144 -49 V
1.000 UL
LT0
3742 2217 M
83 50 V
1.000 UL
LT0
3969 2250 M
-144 17 V
1.000 UL
LT0
LT1
2796 2660 M
83 43 V
1.000 UL
LT0
LT1
2944 2756 M
-65 -53 V
1.000 UL
LT0
3515 2181 M
84 43 V
1.000 UL
LT0
3742 2217 M
-143 7 V
1.000 UL
LT0
4113 2230 M
83 47 V
1.000 UL
LT0
4340 2255 M
-144 22 V
1.000 UL
LT0
3515 2181 M
-143 -9 V
1.000 UL
LT0
4484 2232 M
83 45 V
1.000 UL
LT0
3886 2203 M
83 47 V
1.000 UL
LT0
4113 2230 M
-144 20 V
1.000 UL
LT0
4257 2209 M
83 46 V
1.000 UL
LT0
4484 2232 M
-144 23 V
1.000 UL
LT0
3658 2174 M
84 43 V
1.000 UL
LT0
3886 2203 M
-144 14 V
1.000 UL
LT0
LT1
2940 2777 M
2796 2660 L
1.000 UL
LT0
3658 2174 M
-143 7 V
1.000 UL
LT0
4029 2185 M
84 45 V
1.000 UL
LT0
4257 2209 M
-144 21 V
1.000 UL
LT0
4400 2187 M
84 45 V
1.000 UL
LT0
3802 2160 M
84 43 V
1.000 UL
LT0
4029 2185 M
-143 18 V
1.000 UL
LT0
2940 2777 M
83 43 V
1.000 UL
LT0
4173 2164 M
84 45 V
1.000 UL
LT0
4400 2187 M
-143 22 V
1.000 UL
LT0
3802 2160 M
-144 14 V
1.000 UL
LT0
3946 2142 M
83 43 V
1.000 UL
LT0
4173 2164 M
-144 21 V
1.000 UL
LT0
4317 2142 M
83 45 V
1.000 UL
LT0
3946 2142 M
-144 18 V
1.000 UL
LT0
4090 2121 M
83 43 V
1.000 UL
LT0
4317 2142 M
-144 22 V
1.000 UL
LT0
4090 2121 M
-144 21 V
1.000 UL
LT0
4234 2099 M
83 43 V
1.000 UL
LT0
4234 2099 M
-144 22 V
1.000 UL
LT0
1.000 UL
LT1
LT2
1.000 UL
LT2
1953 1613 M
93 15 V
1.000 UL
LT2
2046 1628 M
88 43 V
1.000 UL
LT2
2134 1671 M
8 40 V
LT3
1.000 UL
LT3
1906 1589 M
32 1 V
1.000 UL
LT3
1938 1590 M
164 29 V
1.000 UL
LT3
2102 1619 M
86 43 V
1.000 UL
LT3
2188 1662 M
18 54 V
1.000 UL
LT3
2206 1716 M
-20 18 V
LT4
1.000 UL
LT4
1875 1572 M
138 4 V
1.000 UL
LT4
2013 1576 M
104 22 V
1.000 UL
LT4
2117 1598 M
50 9 V
1.000 UL
LT4
2167 1607 M
83 44 V
1.000 UL
LT4
2250 1651 M
3 18 V
1.000 UL
LT4
2253 1669 M
17 36 V
1.000 UL
LT4
2270 1705 M
-50 47 V
LT5
1.000 UL
LT5
1843 1556 M
196 2 V
1.000 UL
LT5
2039 1558 M
66 3 V
1.000 UL
LT5
2105 1561 M
150 31 V
1.000 UL
LT5
2255 1592 M
79 44 V
1.000 UL
LT5
2334 1636 M
13 56 V
1.000 UL
LT5
2347 1692 M
-18 17 V
1.000 UL
LT5
2329 1709 M
-65 55 V
1.000 UL
LT5
2264 1764 M
-12 5 V
1.000 UL
LT5
2954 1124 M
83 44 V
1.000 UL
LT5
3037 1168 M
6 13 V
1.000 UL
LT5
3043 1181 M
-95 2 V
1.000 UL
LT5
2865 1140 M
83 43 V
LT6
1.000 UL
LT6
1948 1530 M
-133 11 V
1.000 UL
LT6
1985 1530 M
-37 0 V
1.000 UL
LT6
1985 1530 M
204 6 V
1.000 UL
LT6
2189 1536 M
43 3 V
1.000 UL
LT6
2232 1539 M
140 33 V
1.000 UL
LT6
2372 1572 M
70 45 V
1.000 UL
LT6
2442 1617 M
1 51 V
1.000 UL
LT6
2443 1668 M
2 7 V
1.000 UL
LT6
2445 1675 M
-66 60 V
1.000 UL
LT6
2379 1735 M
-13 11 V
1.000 UL
LT6
2366 1746 M
-87 37 V
1.000 UL
LT6
2968 1122 M
83 43 V
1.000 UL
LT6
3051 1165 M
13 27 V
1.000 UL
LT6
3064 1192 M
-181 6 V
1.000 UL
LT6
2868 1197 M
15 1 V
1.000 UL
LT6
2785 1154 M
83 43 V
LT7
1.000 UL
LT7
1938 1505 M
-150 22 V
1.000 UL
LT7
2099 1489 M
-161 16 V
1.000 UL
LT7
2221 1483 M
-122 6 V
1.000 UL
LT7
2221 1483 M
65 3 V
1.000 UL
LT7
2286 1486 M
154 16 V
1.000 UL
LT7
2440 1502 M
105 40 V
1.000 UL
LT7
2545 1542 M
53 48 V
1.000 UL
LT7
2598 1590 M
-10 54 V
1.000 UL
LT7
2588 1644 M
1 6 V
1.000 UL
LT7
2589 1650 M
-68 59 V
1.000 UL
LT7
2521 1709 M
-17 13 V
1.000 UL
LT7
2504 1722 M
-82 35 V
1.000 UL
LT7
2422 1757 M
-116 40 V
1.000 UL
LT7
2982 1120 M
83 43 V
1.000 UL
LT7
3065 1163 M
20 40 V
1.000 UL
LT7
3085 1203 M
-139 27 V
1.000 UL
LT7
2750 1228 M
196 2 V
1.000 UL
LT7
2708 1225 M
42 3 V
1.000 UL
LT7
2625 1182 M
83 43 V
LT8
1.000 UL
LT8
2125 1268 M
83 44 V
1.000 UL
LT8
2208 1312 M
-1 33 V
1.000 UL
LT8
2207 1345 M
1 25 V
1.000 UL
LT8
2208 1370 M
-77 36 V
1.000 UL
LT8
2131 1406 M
-115 40 V
1.000 UL
LT8
2016 1446 M
-124 35 V
1.000 UL
LT8
1892 1481 M
-7 2 V
1.000 UL
LT8
1885 1483 M
-124 30 V
1.000 UL
LT8
2997 1117 M
83 43 V
1.000 UL
LT8
3080 1160 M
26 53 V
1.000 UL
LT8
3106 1213 M
-3 1 V
1.000 UL
LT8
3103 1214 M
-63 65 V
1.000 UL
LT8
3040 1279 M
-23 8 V
1.000 UL
LT8
3017 1287 M
-68 45 V
1.000 UL
LT8
2949 1332 M
-69 36 V
1.000 UL
LT8
2880 1368 M
-14 21 V
1.000 UL
LT8
2866 1389 M
-11 41 V
1.000 UL
LT8
2855 1430 M
9 57 V
1.000 UL
LT8
2864 1487 M
-1 0 V
1.000 UL
LT8
2863 1487 M
7 56 V
1.000 UL
LT8
2870 1543 M
-23 35 V
1.000 UL
LT8
2847 1578 M
-10 29 V
1.000 UL
LT8
2837 1607 M
-54 38 V
1.000 UL
LT8
2783 1645 M
-55 38 V
1.000 UL
LT8
2728 1683 M
-36 15 V
1.000 UL
LT8
2692 1698 M
-110 43 V
1.000 UL
LT8
2582 1741 M
-121 37 V
1.000 UL
LT8
2461 1778 M
-117 30 V
1.000 UL
LT8
2344 1808 M
-12 2 V
LT0
1.000 UL
LT0
1832 1319 M
83 44 V
1.000 UL
LT0
1915 1363 M
-10 25 V
1.000 UL
LT0
1905 1388 M
-3 35 V
1.000 UL
LT0
1902 1423 M
-62 31 V
1.000 UL
LT0
1840 1454 M
-108 43 V
1.000 UL
LT0
3011 1115 M
83 43 V
1.000 UL
LT0
3094 1158 M
80 44 V
1.000 UL
LT0
3174 1202 M
75 44 V
1.000 UL
LT0
3249 1246 M
68 46 V
1.000 UL
LT0
3317 1292 M
55 48 V
1.000 UL
LT0
3372 1340 M
18 22 V
1.000 UL
LT0
3390 1362 M
18 30 V
1.000 UL
LT0
3408 1392 M
8 56 V
1.000 UL
LT0
3416 1448 M
-8 23 V
1.000 UL
LT0
3408 1471 M
-27 41 V
1.000 UL
LT0
3381 1512 M
-34 27 V
1.000 UL
LT0
3347 1539 M
-85 52 V
1.000 UL
LT0
3262 1591 M
-4 2 V
1.000 UL
LT0
3258 1593 M
-108 43 V
1.000 UL
LT0
3150 1636 M
-119 39 V
1.000 UL
LT0
3031 1675 M
-125 34 V
1.000 UL
LT0
2906 1709 M
-7 2 V
1.000 UL
LT0
2899 1711 M
-124 30 V
1.000 UL
LT0
2775 1741 M
-136 29 V
1.000 UL
LT0
2639 1770 M
-139 28 V
1.000 UL
LT0
2500 1798 M
-142 26 V
LT1
1.000 UL
LT1
1700 1342 M
83 44 V
1.000 UL
LT1
1783 1386 M
-12 32 V
1.000 UL
LT1
1771 1418 M
-1 28 V
1.000 UL
LT1
1770 1446 M
-69 35 V
1.000 UL
LT1
4923 1822 M
130 35 V
1.000 UL
LT1
4820 1807 M
103 15 V
1.000 UL
LT1
4758 1793 M
62 14 V
1.000 UL
LT1
4559 1769 M
199 24 V
1.000 UL
LT1
4555 1769 M
4 0 V
1.000 UL
LT1
4331 1751 M
224 18 V
1.000 UL
LT1
4331 1751 M
-2 0 V
1.000 UL
LT1
4121 1743 M
208 8 V
1.000 UL
LT1
4070 1739 M
51 4 V
1.000 UL
LT1
4070 1739 M
-149 0 V
1.000 UL
LT1
3754 1736 M
167 3 V
1.000 UL
LT1
3754 1736 M
-28 1 V
1.000 UL
LT1
3726 1737 M
-183 4 V
1.000 UL
LT1
3543 1741 M
-176 5 V
1.000 UL
LT1
3367 1746 M
-7 0 V
1.000 UL
LT1
3360 1746 M
-173 10 V
1.000 UL
LT1
3187 1756 M
-169 12 V
1.000 UL
LT1
3018 1768 M
-164 14 V
1.000 UL
LT1
2854 1782 M
-60 5 V
1.000 UL
LT1
2794 1787 M
-100 12 V
1.000 UL
LT1
2694 1799 M
-156 18 V
1.000 UL
LT1
2538 1817 M
-154 20 V
1.000 UL
LT1
4752 1172 M
-109 5 V
1.000 UL
LT1
4643 1177 M
-61 6 V
1.000 UL
LT1
4582 1183 M
-170 12 V
1.000 UL
LT1
4412 1195 M
-174 9 V
1.000 UL
LT1
4238 1204 M
-88 1 V
1.000 UL
LT1
4150 1205 M
-89 7 V
1.000 UL
LT1
4061 1212 M
-178 7 V
1.000 UL
LT1
3755 1216 M
128 3 V
1.000 UL
LT1
3755 1216 M
-62 4 V
1.000 UL
LT1
3496 1217 M
197 3 V
1.000 UL
LT1
3458 1210 M
38 7 V
1.000 UL
LT1
3264 1196 M
194 14 V
1.000 UL
LT1
3243 1190 M
21 6 V
1.000 UL
LT1
3108 1155 M
135 35 V
1.000 UL
LT1
3025 1112 M
83 43 V
LT2
1.000 UL
LT2
2458 1846 M
-49 5 V
1.000 UL
LT2
2578 1838 M
-120 8 V
1.000 UL
LT2
2754 1830 M
-176 8 V
1.000 UL
LT2
2903 1826 M
-149 4 V
1.000 UL
LT2
2903 1826 M
39 2 V
1.000 UL
LT2
2942 1828 M
212 10 V
1.000 UL
LT2
3154 1838 M
8 1 V
1.000 UL
LT2
3162 1839 M
187 25 V
1.000 UL
LT2
3349 1864 M
113 35 V
1.000 UL
LT2
3462 1899 M
7 2 V
1.000 UL
LT2
3469 1901 M
22 13 V
1.000 UL
LT2
3491 1914 M
54 32 V
1.000 UL
LT2
3545 1946 M
18 54 V
1.000 UL
LT2
3563 2000 M
-35 33 V
1.000 UL
LT2
3528 2033 M
-69 43 V
1.000 UL
LT2
3459 2076 M
-24 9 V
1.000 UL
LT2
3435 2085 M
-119 38 V
1.000 UL
LT2
3316 2123 M
-44 11 V
1.000 UL
LT2
3051 2179 M
-8 2 V
1.000 UL
LT2
1611 1358 M
83 43 V
1.000 UL
LT2
1694 1401 M
-16 61 V
1.000 UL
LT2
1678 1462 M
-8 4 V
1.000 UL
LT2
3424 1043 M
83 43 V
1.000 UL
LT2
3507 1086 M
-21 25 V
1.000 UL
LT2
3486 1111 M
-102 48 V
1.000 UL
LT2
3384 1159 M
-153 20 V
1.000 UL
LT2
3123 1153 M
108 26 V
1.000 UL
LT2
3039 1110 M
84 43 V
LT3
1.000 UL
LT3
2620 1860 M
-182 6 V
1.000 UL
LT3
2715 1859 M
-95 1 V
1.000 UL
LT3
2715 1859 M
108 7 V
1.000 UL
LT3
2823 1866 M
133 9 V
1.000 UL
LT3
2956 1875 M
121 24 V
1.000 UL
LT3
3077 1899 M
39 6 V
1.000 UL
LT3
3116 1905 M
110 38 V
1.000 UL
LT3
3226 1943 M
51 49 V
1.000 UL
LT3
3277 1992 M
-2 9 V
1.000 UL
LT3
3275 2001 M
-12 51 V
1.000 UL
LT3
3263 2052 M
-37 24 V
1.000 UL
LT3
3226 2076 M
-15 7 V
1.000 UL
LT3
3057 2146 M
-53 14 V
1.000 UL
LT3
1547 1369 M
83 43 V
1.000 UL
LT3
1630 1412 M
-9 28 V
1.000 UL
LT3
3252 1073 M
83 43 V
1.000 UL
LT3
3335 1116 M
-13 10 V
1.000 UL
LT3
3322 1126 M
-112 42 V
1.000 UL
LT3
3137 1150 M
73 18 V
1.000 UL
LT3
3054 1107 M
83 43 V
LT4
1.000 UL
LT4
2594 1880 M
-126 1 V
1.000 UL
LT4
2594 1880 M
76 6 V
1.000 UL
LT4
2670 1886 M
153 12 V
1.000 UL
LT4
2823 1898 M
106 23 V
1.000 UL
LT4
2929 1921 M
45 8 V
1.000 UL
LT4
2974 1929 M
100 41 V
1.000 UL
LT4
3074 1970 M
31 43 V
1.000 UL
LT4
3105 2013 M
4 4 V
1.000 UL
LT4
3068 2090 M
-4 2 V
1.000 UL
LT4
3064 2092 M
-101 47 V
1.000 UL
LT4
3166 1088 M
83 43 V
1.000 UL
LT4
3249 1131 M
-59 26 V
1.000 UL
LT4
3151 1148 M
39 9 V
1.000 UL
LT4
3068 1105 M
83 43 V
LT5
1.000 UL
LT5
2498 1896 M
-1 0 V
1.000 UL
LT5
2498 1896 M
223 19 V
1.000 UL
LT5
2721 1915 M
9 3 V
1.000 UL
LT5
2730 1918 M
144 29 V
1.000 UL
LT5
2874 1947 M
92 41 V
1.000 UL
LT5
2966 1988 M
30 53 V
1.000 UL
LT5
2996 2041 M
-7 12 V
1.000 UL
LT5
2989 2053 M
-44 55 V
1.000 UL
LT5
2945 2108 M
-22 10 V
1.000 UL
LT5
3091 1101 M
83 43 V
1.000 UL
LT5
3174 1144 M
-5 2 V
1.000 UL
LT5
3165 1145 M
4 1 V
1.000 UL
LT5
3082 1102 M
83 43 V
LT6
1.000 UL
LT6
2538 1918 M
113 10 V
1.000 UL
LT6
2651 1928 M
139 33 V
1.000 UL
LT6
2790 1961 M
86 43 V
1.000 UL
LT6
2876 2004 M
31 52 V
1.000 UL
LT6
2907 2056 M
-31 38 V
LT7
1.000 UL
LT7
2580 1939 M
2 1 V
1.000 UL
LT7
2582 1940 M
145 32 V
1.000 UL
LT7
2727 1972 M
83 44 V
1.000 UL
LT7
2810 2016 M
15 51 V
LT8
1.000 UL
LT8
2663 1983 M
1 0 V
1.000 UL
LT8
2664 1983 M
13 7 V
1.000 UL
LTb
4284 778 M
1870 974 V
1.000 UL
LTb
4284 778 M
1046 1340 L
1.000 UL
LTb
1046 1340 M
1870 975 V
1.000 UL
LTb
6154 1752 M
3819 2158 L
1.000 UL
LTb
3030 2295 M
-114 20 V
1.000 UL
LTb
1046 3288 M
0 -1948 V
1.000 UL
LTb
1046 1340 M
52 28 V
1.000 UL
LTb
936 1245 M
gsave 0 setgray
[ [(Times) 220.0 0.0 true true 0 (-2.5)]
] -73.3 MCshow
grestore
1.000 UL
LTb
1.000 UL
LTb
2864 2287 M
52 28 V
1.000 UL
LTb
1406 1278 M
52 27 V
1.000 UL
LTb
1296 1183 M
gsave 0 setgray
[ [(Times) 220.0 0.0 true true 0 (-2)]
] -73.3 MCshow
grestore
1.000 UL
LTb
1.000 UL
LTb
1766 1215 M
52 28 V
1.000 UL
LTb
1656 1120 M
gsave 0 setgray
[ [(Times) 220.0 0.0 true true 0 (-1.5)]
] -73.3 MCshow
grestore
1.000 UL
LTb
1.000 UL
LTb
3583 2162 M
26 14 V
1.000 UL
LTb
2126 1153 M
52 27 V
1.000 UL
LTb
2016 1058 M
gsave 0 setgray
[ [(Times) 220.0 0.0 true true 0 (-1)]
] -73.3 MCshow
grestore
1.000 UL
LTb
1.000 UL
LTb
3942 2100 M
53 27 V
1.000 UL
LTb
2486 1090 M
52 28 V
1.000 UL
LTb
2376 995 M
gsave 0 setgray
[ [(Times) 220.0 0.0 true true 0 (-0.5)]
] -73.3 MCshow
grestore
1.000 UL
LTb
1.000 UL
LTb
4302 2037 M
53 28 V
1.000 UL
LTb
2845 1028 M
53 27 V
1.000 UL
LTb
2736 933 M
gsave 0 setgray
[ [(Times) 220.0 0.0 true true 0 ( 0)]
] -73.3 MCshow
grestore
1.000 UL
LTb
1.000 UL
LTb
4662 1975 M
52 27 V
1.000 UL
LTb
3205 965 M
53 28 V
1.000 UL
LTb
3096 870 M
gsave 0 setgray
[ [(Times) 220.0 0.0 true true 0 ( 0.5)]
] -73.3 MCshow
grestore
1.000 UL
LTb
1.000 UL
LTb
5022 1912 M
52 28 V
1.000 UL
LTb
3565 903 M
52 27 V
1.000 UL
LTb
3455 808 M
gsave 0 setgray
[ [(Times) 220.0 0.0 true true 0 ( 1)]
] -73.3 MCshow
grestore
1.000 UL
LTb
1.000 UL
LTb
5382 1850 M
52 27 V
1.000 UL
LTb
3924 840 M
52 28 V
1.000 UL
LTb
3814 745 M
gsave 0 setgray
[ [(Times) 220.0 0.0 true true 0 ( 1.5)]
] -73.3 MCshow
grestore
1.000 UL
LTb
1.000 UL
LTb
5742 1787 M
52 28 V
1.000 UL
LTb
4284 778 M
52 27 V
1.000 UL
LTb
4174 683 M
gsave 0 setgray
[ [(Times) 220.0 0.0 true true 0 ( 2)]
] -73.3 MCshow
grestore
1.000 UL
LTb
1.000 UL
LTb
6102 1725 M
52 27 V
LTb
2198 816 M
gsave 0 setgray
[ [(Times) 220.0 0.0 true true 0 (Re\(p\))]
] -73.3 MCshow
grestore
1.000 UL
LTb
4284 778 M
-55 9 V
stroke
4398 745 M
gsave 0 setgray
[ [(Times) 220.0 0.0 true true 0 (-0.5)]
] -73.3 MCshow
grestore
1.000 UL
LTb
1.000 UL
LTb
1101 1331 M
-55 9 V
1.000 UL
LTb
4492 886 M
-55 10 V
stroke
4606 853 M
gsave 0 setgray
[ [(Times) 220.0 0.0 true true 0 ( 0)]
] -73.3 MCshow
grestore
1.000 UL
LTb
1.000 UL
LTb
1308 1439 M
-54 10 V
1.000 UL
LTb
4700 994 M
-55 10 V
stroke
4814 961 M
gsave 0 setgray
[ [(Times) 220.0 0.0 true true 0 ( 0.5)]
] -73.3 MCshow
grestore
1.000 UL
LTb
1.000 UL
LTb
1516 1547 M
-54 10 V
1.000 UL
LTb
4907 1103 M
-54 9 V
stroke
5022 1070 M
gsave 0 setgray
[ [(Times) 220.0 0.0 true true 0 ( 1)]
] -73.3 MCshow
grestore
1.000 UL
LTb
1.000 UL
LTb
1724 1656 M
-55 9 V
1.000 UL
LTb
5115 1211 M
-54 9 V
stroke
5229 1178 M
gsave 0 setgray
[ [(Times) 220.0 0.0 true true 0 ( 1.5)]
] -73.3 MCshow
grestore
1.000 UL
LTb
1.000 UL
LTb
1932 1764 M
-55 9 V
1.000 UL
LTb
5323 1319 M
-55 10 V
stroke
5437 1286 M
gsave 0 setgray
[ [(Times) 220.0 0.0 true true 0 ( 2)]
] -73.3 MCshow
grestore
1.000 UL
LTb
1.000 UL
LTb
2139 1872 M
-54 10 V
1.000 UL
LTb
5531 1427 M
-55 10 V
stroke
5645 1394 M
gsave 0 setgray
[ [(Times) 220.0 0.0 true true 0 ( 2.5)]
] -73.3 MCshow
grestore
1.000 UL
LTb
1.000 UL
LTb
2347 1980 M
-54 10 V
1.000 UL
LTb
5738 1536 M
-54 9 V
stroke
5853 1503 M
gsave 0 setgray
[ [(Times) 220.0 0.0 true true 0 ( 3)]
] -73.3 MCshow
grestore
1.000 UL
LTb
1.000 UL
LTb
2555 2089 M
-55 9 V
1.000 UL
LTb
5946 1644 M
-54 9 V
stroke
6061 1611 M
gsave 0 setgray
[ [(Times) 220.0 0.0 true true 0 ( 3.5)]
] -73.3 MCshow
grestore
1.000 UL
LTb
1.000 UL
LTb
2763 2197 M
-55 9 V
1.000 UL
LTb
6154 1752 M
-55 10 V
stroke
6268 1719 M
gsave 0 setgray
[ [(Times) 220.0 0.0 true true 0 ( 4)]
] -73.3 MCshow
grestore
1.000 UL
LTb
1.000 UL
LTb
2971 2305 M
-55 10 V
LTb
6029 1124 M
gsave 0 setgray
[ [(Times) 220.0 0.0 true true 0 (Im\(p\))]
] -73.3 MCshow
grestore
1.000 UL
LTb
1109 1990 M
-63 0 V
stroke
920 1990 M
gsave 0 setgray
[ [(Times) 220.0 0.0 true true 0 (-15)]
] -73.3 MRshow
grestore
1.000 UL
LTb
1.000 UL
LTb
1109 2175 M
-63 0 V
stroke
920 2175 M
gsave 0 setgray
[ [(Times) 220.0 0.0 true true 0 (-10)]
] -73.3 MRshow
grestore
1.000 UL
LTb
1.000 UL
LTb
1109 2361 M
-63 0 V
stroke
920 2361 M
gsave 0 setgray
[ [(Times) 220.0 0.0 true true 0 (-5)]
] -73.3 MRshow
grestore
1.000 UL
LTb
1.000 UL
LTb
1109 2546 M
-63 0 V
stroke
920 2546 M
gsave 0 setgray
[ [(Times) 220.0 0.0 true true 0 ( 0)]
] -73.3 MRshow
grestore
1.000 UL
LTb
1.000 UL
LTb
1109 2731 M
-63 0 V
stroke
920 2731 M
gsave 0 setgray
[ [(Times) 220.0 0.0 true true 0 ( 5)]
] -73.3 MRshow
grestore
1.000 UL
LTb
1.000 UL
LTb
1109 2917 M
-63 0 V
stroke
920 2917 M
gsave 0 setgray
[ [(Times) 220.0 0.0 true true 0 ( 10)]
] -73.3 MRshow
grestore
1.000 UL
LTb
1.000 UL
LTb
1109 3102 M
-63 0 V
stroke
920 3102 M
gsave 0 setgray
[ [(Times) 220.0 0.0 true true 0 ( 15)]
] -73.3 MRshow
grestore
1.000 UL
LTb
1.000 UL
LTb
1109 3288 M
-63 0 V
stroke
920 3288 M
gsave 0 setgray
[ [(Times) 220.0 0.0 true true 0 ( 20)]
] -73.3 MRshow
grestore
1.000 UL
LTb
1.000 UP
stroke
grestore
end
showpage
%%Trailer
%%DocumentFonts: Times
