%!PS-Adobe-2.0 EPSF-2.0
%%Title: potential_real_pulsebc.eps
%%Creator: gnuplot 4.0 patchlevel 0
%%CreationDate: Fri Nov 17 17:03:45 2006
%%DocumentFonts: (atend)
%%BoundingBox: 50 50 410 302
%%Orientation: Portrait
%%EndComments
/gnudict 256 dict def
gnudict begin
/Color false def
/Solid false def
/gnulinewidth 5.000 def
/userlinewidth gnulinewidth def
/vshift -73 def
/dl {10.0 mul} def
/hpt_ 31.5 def
/vpt_ 31.5 def
/hpt hpt_ def
/vpt vpt_ def
/Rounded false def
/M {moveto} bind def
/L {lineto} bind def
/R {rmoveto} bind def
/V {rlineto} bind def
/N {newpath moveto} bind def
/C {setrgbcolor} bind def
/f {rlineto fill} bind def
/vpt2 vpt 2 mul def
/hpt2 hpt 2 mul def
/Lshow { currentpoint stroke M
  0 vshift R show } def
/Rshow { currentpoint stroke M
  dup stringwidth pop neg vshift R show } def
/Cshow { currentpoint stroke M
  dup stringwidth pop -2 div vshift R show } def
/UP { dup vpt_ mul /vpt exch def hpt_ mul /hpt exch def
  /hpt2 hpt 2 mul def /vpt2 vpt 2 mul def } def
/DL { Color {setrgbcolor Solid {pop []} if 0 setdash }
 {pop pop pop 0 setgray Solid {pop []} if 0 setdash} ifelse } def
/BL { stroke userlinewidth 2 mul setlinewidth
      Rounded { 1 setlinejoin 1 setlinecap } if } def
/AL { stroke userlinewidth 2 div setlinewidth
      Rounded { 1 setlinejoin 1 setlinecap } if } def
/UL { dup gnulinewidth mul /userlinewidth exch def
      dup 1 lt {pop 1} if 10 mul /udl exch def } def
/PL { stroke userlinewidth setlinewidth
      Rounded { 1 setlinejoin 1 setlinecap } if } def
/LTw { PL [] 1 setgray } def
/LTb { BL [] 0 0 0 DL } def
/LTa { AL [1 udl mul 2 udl mul] 0 setdash 0 0 0 setrgbcolor } def
/LT0 { PL [] 1 0 0 DL } def
/LT1 { PL [4 dl 2 dl] 0 1 0 DL } def
/LT2 { PL [2 dl 3 dl] 0 0 1 DL } def
/LT3 { PL [1 dl 1.5 dl] 1 0 1 DL } def
/LT4 { PL [5 dl 2 dl 1 dl 2 dl] 0 1 1 DL } def
/LT5 { PL [4 dl 3 dl 1 dl 3 dl] 1 1 0 DL } def
/LT6 { PL [2 dl 2 dl 2 dl 4 dl] 0 0 0 DL } def
/LT7 { PL [2 dl 2 dl 2 dl 2 dl 2 dl 4 dl] 1 0.3 0 DL } def
/LT8 { PL [2 dl 2 dl 2 dl 2 dl 2 dl 2 dl 2 dl 4 dl] 0.5 0.5 0.5 DL } def
/Pnt { stroke [] 0 setdash
   gsave 1 setlinecap M 0 0 V stroke grestore } def
/Dia { stroke [] 0 setdash 2 copy vpt add M
  hpt neg vpt neg V hpt vpt neg V
  hpt vpt V hpt neg vpt V closepath stroke
  Pnt } def
/Pls { stroke [] 0 setdash vpt sub M 0 vpt2 V
  currentpoint stroke M
  hpt neg vpt neg R hpt2 0 V stroke
  } def
/Box { stroke [] 0 setdash 2 copy exch hpt sub exch vpt add M
  0 vpt2 neg V hpt2 0 V 0 vpt2 V
  hpt2 neg 0 V closepath stroke
  Pnt } def
/Crs { stroke [] 0 setdash exch hpt sub exch vpt add M
  hpt2 vpt2 neg V currentpoint stroke M
  hpt2 neg 0 R hpt2 vpt2 V stroke } def
/TriU { stroke [] 0 setdash 2 copy vpt 1.12 mul add M
  hpt neg vpt -1.62 mul V
  hpt 2 mul 0 V
  hpt neg vpt 1.62 mul V closepath stroke
  Pnt  } def
/Star { 2 copy Pls Crs } def
/BoxF { stroke [] 0 setdash exch hpt sub exch vpt add M
  0 vpt2 neg V  hpt2 0 V  0 vpt2 V
  hpt2 neg 0 V  closepath fill } def
/TriUF { stroke [] 0 setdash vpt 1.12 mul add M
  hpt neg vpt -1.62 mul V
  hpt 2 mul 0 V
  hpt neg vpt 1.62 mul V closepath fill } def
/TriD { stroke [] 0 setdash 2 copy vpt 1.12 mul sub M
  hpt neg vpt 1.62 mul V
  hpt 2 mul 0 V
  hpt neg vpt -1.62 mul V closepath stroke
  Pnt  } def
/TriDF { stroke [] 0 setdash vpt 1.12 mul sub M
  hpt neg vpt 1.62 mul V
  hpt 2 mul 0 V
  hpt neg vpt -1.62 mul V closepath fill} def
/DiaF { stroke [] 0 setdash vpt add M
  hpt neg vpt neg V hpt vpt neg V
  hpt vpt V hpt neg vpt V closepath fill } def
/Pent { stroke [] 0 setdash 2 copy gsave
  translate 0 hpt M 4 {72 rotate 0 hpt L} repeat
  closepath stroke grestore Pnt } def
/PentF { stroke [] 0 setdash gsave
  translate 0 hpt M 4 {72 rotate 0 hpt L} repeat
  closepath fill grestore } def
/Circle { stroke [] 0 setdash 2 copy
  hpt 0 360 arc stroke Pnt } def
/CircleF { stroke [] 0 setdash hpt 0 360 arc fill } def
/C0 { BL [] 0 setdash 2 copy moveto vpt 90 450  arc } bind def
/C1 { BL [] 0 setdash 2 copy        moveto
       2 copy  vpt 0 90 arc closepath fill
               vpt 0 360 arc closepath } bind def
/C2 { BL [] 0 setdash 2 copy moveto
       2 copy  vpt 90 180 arc closepath fill
               vpt 0 360 arc closepath } bind def
/C3 { BL [] 0 setdash 2 copy moveto
       2 copy  vpt 0 180 arc closepath fill
               vpt 0 360 arc closepath } bind def
/C4 { BL [] 0 setdash 2 copy moveto
       2 copy  vpt 180 270 arc closepath fill
               vpt 0 360 arc closepath } bind def
/C5 { BL [] 0 setdash 2 copy moveto
       2 copy  vpt 0 90 arc
       2 copy moveto
       2 copy  vpt 180 270 arc closepath fill
               vpt 0 360 arc } bind def
/C6 { BL [] 0 setdash 2 copy moveto
      2 copy  vpt 90 270 arc closepath fill
              vpt 0 360 arc closepath } bind def
/C7 { BL [] 0 setdash 2 copy moveto
      2 copy  vpt 0 270 arc closepath fill
              vpt 0 360 arc closepath } bind def
/C8 { BL [] 0 setdash 2 copy moveto
      2 copy vpt 270 360 arc closepath fill
              vpt 0 360 arc closepath } bind def
/C9 { BL [] 0 setdash 2 copy moveto
      2 copy  vpt 270 450 arc closepath fill
              vpt 0 360 arc closepath } bind def
/C10 { BL [] 0 setdash 2 copy 2 copy moveto vpt 270 360 arc closepath fill
       2 copy moveto
       2 copy vpt 90 180 arc closepath fill
               vpt 0 360 arc closepath } bind def
/C11 { BL [] 0 setdash 2 copy moveto
       2 copy  vpt 0 180 arc closepath fill
       2 copy moveto
       2 copy  vpt 270 360 arc closepath fill
               vpt 0 360 arc closepath } bind def
/C12 { BL [] 0 setdash 2 copy moveto
       2 copy  vpt 180 360 arc closepath fill
               vpt 0 360 arc closepath } bind def
/C13 { BL [] 0 setdash  2 copy moveto
       2 copy  vpt 0 90 arc closepath fill
       2 copy moveto
       2 copy  vpt 180 360 arc closepath fill
               vpt 0 360 arc closepath } bind def
/C14 { BL [] 0 setdash 2 copy moveto
       2 copy  vpt 90 360 arc closepath fill
               vpt 0 360 arc } bind def
/C15 { BL [] 0 setdash 2 copy vpt 0 360 arc closepath fill
               vpt 0 360 arc closepath } bind def
/Rec   { newpath 4 2 roll moveto 1 index 0 rlineto 0 exch rlineto
       neg 0 rlineto closepath } bind def
/Square { dup Rec } bind def
/Bsquare { vpt sub exch vpt sub exch vpt2 Square } bind def
/S0 { BL [] 0 setdash 2 copy moveto 0 vpt rlineto BL Bsquare } bind def
/S1 { BL [] 0 setdash 2 copy vpt Square fill Bsquare } bind def
/S2 { BL [] 0 setdash 2 copy exch vpt sub exch vpt Square fill Bsquare } bind def
/S3 { BL [] 0 setdash 2 copy exch vpt sub exch vpt2 vpt Rec fill Bsquare } bind def
/S4 { BL [] 0 setdash 2 copy exch vpt sub exch vpt sub vpt Square fill Bsquare } bind def
/S5 { BL [] 0 setdash 2 copy 2 copy vpt Square fill
       exch vpt sub exch vpt sub vpt Square fill Bsquare } bind def
/S6 { BL [] 0 setdash 2 copy exch vpt sub exch vpt sub vpt vpt2 Rec fill Bsquare } bind def
/S7 { BL [] 0 setdash 2 copy exch vpt sub exch vpt sub vpt vpt2 Rec fill
       2 copy vpt Square fill
       Bsquare } bind def
/S8 { BL [] 0 setdash 2 copy vpt sub vpt Square fill Bsquare } bind def
/S9 { BL [] 0 setdash 2 copy vpt sub vpt vpt2 Rec fill Bsquare } bind def
/S10 { BL [] 0 setdash 2 copy vpt sub vpt Square fill 2 copy exch vpt sub exch vpt Square fill
       Bsquare } bind def
/S11 { BL [] 0 setdash 2 copy vpt sub vpt Square fill 2 copy exch vpt sub exch vpt2 vpt Rec fill
       Bsquare } bind def
/S12 { BL [] 0 setdash 2 copy exch vpt sub exch vpt sub vpt2 vpt Rec fill Bsquare } bind def
/S13 { BL [] 0 setdash 2 copy exch vpt sub exch vpt sub vpt2 vpt Rec fill
       2 copy vpt Square fill Bsquare } bind def
/S14 { BL [] 0 setdash 2 copy exch vpt sub exch vpt sub vpt2 vpt Rec fill
       2 copy exch vpt sub exch vpt Square fill Bsquare } bind def
/S15 { BL [] 0 setdash 2 copy Bsquare fill Bsquare } bind def
/D0 { gsave translate 45 rotate 0 0 S0 stroke grestore } bind def
/D1 { gsave translate 45 rotate 0 0 S1 stroke grestore } bind def
/D2 { gsave translate 45 rotate 0 0 S2 stroke grestore } bind def
/D3 { gsave translate 45 rotate 0 0 S3 stroke grestore } bind def
/D4 { gsave translate 45 rotate 0 0 S4 stroke grestore } bind def
/D5 { gsave translate 45 rotate 0 0 S5 stroke grestore } bind def
/D6 { gsave translate 45 rotate 0 0 S6 stroke grestore } bind def
/D7 { gsave translate 45 rotate 0 0 S7 stroke grestore } bind def
/D8 { gsave translate 45 rotate 0 0 S8 stroke grestore } bind def
/D9 { gsave translate 45 rotate 0 0 S9 stroke grestore } bind def
/D10 { gsave translate 45 rotate 0 0 S10 stroke grestore } bind def
/D11 { gsave translate 45 rotate 0 0 S11 stroke grestore } bind def
/D12 { gsave translate 45 rotate 0 0 S12 stroke grestore } bind def
/D13 { gsave translate 45 rotate 0 0 S13 stroke grestore } bind def
/D14 { gsave translate 45 rotate 0 0 S14 stroke grestore } bind def
/D15 { gsave translate 45 rotate 0 0 S15 stroke grestore } bind def
/DiaE { stroke [] 0 setdash vpt add M
  hpt neg vpt neg V hpt vpt neg V
  hpt vpt V hpt neg vpt V closepath stroke } def
/BoxE { stroke [] 0 setdash exch hpt sub exch vpt add M
  0 vpt2 neg V hpt2 0 V 0 vpt2 V
  hpt2 neg 0 V closepath stroke } def
/TriUE { stroke [] 0 setdash vpt 1.12 mul add M
  hpt neg vpt -1.62 mul V
  hpt 2 mul 0 V
  hpt neg vpt 1.62 mul V closepath stroke } def
/TriDE { stroke [] 0 setdash vpt 1.12 mul sub M
  hpt neg vpt 1.62 mul V
  hpt 2 mul 0 V
  hpt neg vpt -1.62 mul V closepath stroke } def
/PentE { stroke [] 0 setdash gsave
  translate 0 hpt M 4 {72 rotate 0 hpt L} repeat
  closepath stroke grestore } def
/CircE { stroke [] 0 setdash 
  hpt 0 360 arc stroke } def
/Opaque { gsave closepath 1 setgray fill grestore 0 setgray closepath } def
/DiaW { stroke [] 0 setdash vpt add M
  hpt neg vpt neg V hpt vpt neg V
  hpt vpt V hpt neg vpt V Opaque stroke } def
/BoxW { stroke [] 0 setdash exch hpt sub exch vpt add M
  0 vpt2 neg V hpt2 0 V 0 vpt2 V
  hpt2 neg 0 V Opaque stroke } def
/TriUW { stroke [] 0 setdash vpt 1.12 mul add M
  hpt neg vpt -1.62 mul V
  hpt 2 mul 0 V
  hpt neg vpt 1.62 mul V Opaque stroke } def
/TriDW { stroke [] 0 setdash vpt 1.12 mul sub M
  hpt neg vpt 1.62 mul V
  hpt 2 mul 0 V
  hpt neg vpt -1.62 mul V Opaque stroke } def
/PentW { stroke [] 0 setdash gsave
  translate 0 hpt M 4 {72 rotate 0 hpt L} repeat
  Opaque stroke grestore } def
/CircW { stroke [] 0 setdash 
  hpt 0 360 arc Opaque stroke } def
/BoxFill { gsave Rec 1 setgray fill grestore } def
/BoxColFill {
  gsave Rec
  /Fillden exch def
  currentrgbcolor
  /ColB exch def /ColG exch def /ColR exch def
  /ColR ColR Fillden mul Fillden sub 1 add def
  /ColG ColG Fillden mul Fillden sub 1 add def
  /ColB ColB Fillden mul Fillden sub 1 add def
  ColR ColG ColB setrgbcolor
  fill grestore } def
%
% PostScript Level 1 Pattern Fill routine
% Usage: x y w h s a XX PatternFill
%	x,y = lower left corner of box to be filled
%	w,h = width and height of box
%	  a = angle in degrees between lines and x-axis
%	 XX = 0/1 for no/yes cross-hatch
%
/PatternFill { gsave /PFa [ 9 2 roll ] def
    PFa 0 get PFa 2 get 2 div add PFa 1 get PFa 3 get 2 div add translate
    PFa 2 get -2 div PFa 3 get -2 div PFa 2 get PFa 3 get Rec
    gsave 1 setgray fill grestore clip
    currentlinewidth 0.5 mul setlinewidth
    /PFs PFa 2 get dup mul PFa 3 get dup mul add sqrt def
    0 0 M PFa 5 get rotate PFs -2 div dup translate
	0 1 PFs PFa 4 get div 1 add floor cvi
	{ PFa 4 get mul 0 M 0 PFs V } for
    0 PFa 6 get ne {
	0 1 PFs PFa 4 get div 1 add floor cvi
	{ PFa 4 get mul 0 2 1 roll M PFs 0 V } for
    } if
    stroke grestore } def
%
/Symbol-Oblique /Symbol findfont [1 0 .167 1 0 0] makefont
dup length dict begin {1 index /FID eq {pop pop} {def} ifelse} forall
currentdict end definefont pop
/MFshow {
   { dup 5 get 3 ge
     { 5 get 3 eq {gsave} {grestore} ifelse }
     {dup dup 0 get findfont exch 1 get scalefont setfont
     [ currentpoint ] exch dup 2 get 0 exch R dup 5 get 2 ne {dup dup 6
     get exch 4 get {show} {stringwidth pop 0 R} ifelse }if dup 5 get 0 eq
     {dup 3 get {2 get neg 0 exch R pop} {pop aload pop M} ifelse} {dup 5
     get 1 eq {dup 2 get exch dup 3 get exch 6 get stringwidth pop -2 div
     dup 0 R} {dup 6 get stringwidth pop -2 div 0 R 6 get
     show 2 index {aload pop M neg 3 -1 roll neg R pop pop} {pop pop pop
     pop aload pop M} ifelse }ifelse }ifelse }
     ifelse }
   forall} bind def
/MFwidth {0 exch {dup 3 get{dup dup 0 get findfont exch 1 get scalefont
     setfont 6 get stringwidth pop add} {pop} ifelse} forall} bind def
/MLshow { currentpoint stroke M
  0 exch R MFshow } bind def
/MRshow { currentpoint stroke M
  exch dup MFwidth neg 3 -1 roll R MFshow } def
/MCshow { currentpoint stroke M
  exch dup MFwidth -2 div 3 -1 roll R MFshow } def
end
%%EndProlog
gnudict begin
gsave
50 50 translate
0.050 0.050 scale
0 setgray
newpath
(Times) findfont 220 scalefont setfont
1.000 UL
LTb
LTb
3600 4621 M
gsave 0 setgray
[ [(Times) 220.0 0.0 true true 0 (Re\(LT-BEM potential\))]
] -73.3 MCshow
grestore
3600 4401 M
gsave 0 setgray
[ [(Times) 220.0 0.0 true true 0 (pulse [e)]
[(Times) 176.0 110.0 true true 0 (-0.5p)]
[(Times) 220.0 0.0 true true 0 (\(1-e)]
[(Times) 176.0 110.0 true true 0 (-1.5p)]
[(Times) 220.0 0.0 true true 0 (\)/p)]
[(Times) 176.0 110.0 true true 0 (2)]
[(Times) 220.0 0.0 true true 0 (] boundary condition)]
] -95.3 MCshow
grestore
1.000 UP
1.000 UL
LT0
2996 3333 M
83 56 V
1.000 UL
LT0
3223 3326 M
-144 63 V
1.000 UL
LT0
3140 3270 M
83 56 V
1.000 UL
LT0
3367 3275 M
-144 51 V
1.000 UL
LT0
3284 3220 M
83 55 V
1.000 UL
LT0
3511 3233 M
-144 42 V
1.000 UL
LT0
2913 3258 M
83 75 V
1.000 UL
LT0
3140 3270 M
-144 63 V
1.000 UL
LT0
3428 3180 M
83 53 V
1.000 UL
LT0
3654 3196 M
-143 37 V
1.000 UL
LT0
3057 3201 M
83 69 V
1.000 UL
LT0
3284 3220 M
-144 50 V
1.000 UL
LT0
3201 3157 M
83 63 V
1.000 UL
LT0
3428 3180 M
-144 40 V
1.000 UL
LT0
3572 3145 M
82 51 V
1.000 UL
LT0
3798 3164 M
-144 32 V
1.000 UL
LT0
2830 3165 M
83 93 V
1.000 UL
LT0
3057 3201 M
-144 57 V
1.000 UL
LT0
2974 3120 M
83 81 V
1.000 UL
LT0
3201 3157 M
-144 44 V
1.000 UL
LT0
3345 3121 M
83 59 V
1.000 UL
LT0
3572 3145 M
-144 35 V
1.000 UL
LT0
3715 3114 M
83 50 V
1.000 UL
LT0
3942 3134 M
-144 30 V
1.000 UL
LT0
2747 3056 M
83 109 V
1.000 UL
LT0
2974 3120 M
-144 45 V
1.000 UL
LT0
3118 3085 M
83 72 V
1.000 UL
LT0
3345 3121 M
-144 36 V
1.000 UL
LT0
3489 3090 M
83 55 V
1.000 UL
LT0
3715 3114 M
-143 31 V
1.000 UL
LT0
3859 3086 M
83 48 V
1.000 UL
LT0
4086 3107 M
-144 27 V
1.000 UL
LT0
2891 3029 M
83 91 V
1.000 UL
LT0
3118 3085 M
-144 35 V
1.000 UL
LT0
2664 2938 M
83 118 V
1.000 UL
LT0
2891 3029 M
-144 27 V
1.000 UL
LT0
3262 3057 M
83 64 V
1.000 UL
LT0
3489 3090 M
-144 31 V
1.000 UL
LT0
3632 3062 M
83 52 V
1.000 UL
LT0
3859 3086 M
-144 28 V
1.000 UL
LT0
2581 2818 M
83 120 V
1.000 UL
LT0
2808 2933 M
-144 5 V
1.000 UL
LT0
3035 3008 M
83 77 V
1.000 UL
LT0
3262 3057 M
-144 28 V
1.000 UL
LT0
4003 3060 M
83 47 V
1.000 UL
LT0
4230 3080 M
-144 27 V
1.000 UL
LT0
2808 2933 M
83 96 V
1.000 UL
LT0
3035 3008 M
-144 21 V
1.000 UL
LT0
3406 3032 M
83 58 V
1.000 UL
LT0
3632 3062 M
-143 28 V
1.000 UL
LT0
2497 2706 M
84 112 V
1.000 UL
LT0
2725 2838 M
-144 -20 V
1.000 UL
LT0
3776 3037 M
83 49 V
1.000 UL
LT0
4003 3060 M
-144 26 V
1.000 UL
LT0
3179 2989 M
83 68 V
1.000 UL
LT0
3406 3032 M
-144 25 V
1.000 UL
LT0
4147 3035 M
83 45 V
1.000 UL
LT0
4374 3055 M
-144 25 V
1.000 UL
LT0
2725 2838 M
83 95 V
1.000 UL
LT0
2952 2928 M
-144 5 V
1.000 UL
LT0
2952 2928 M
83 80 V
1.000 UL
LT0
3179 2989 M
-144 19 V
1.000 UL
LT0
3550 3008 M
82 54 V
1.000 UL
LT0
3776 3037 M
-144 25 V
1.000 UL
LT0
2641 2750 M
-144 -44 V
1.000 UL
LT0
3920 3012 M
83 48 V
1.000 UL
LT0
4147 3035 M
-144 25 V
1.000 UL
LT0
3323 2972 M
83 60 V
1.000 UL
LT0
3550 3008 M
-144 24 V
1.000 UL
LT0
4291 3010 M
83 45 V
1.000 UL
LT0
4518 3030 M
-144 25 V
1.000 UL
LT0
2641 2750 M
84 88 V
1.000 UL
LT0
2869 2850 M
-144 -12 V
1.000 UL
LT0
3096 2921 M
83 68 V
1.000 UL
LT0
3323 2972 M
-144 17 V
1.000 UL
LT0
3693 2986 M
83 51 V
1.000 UL
LT0
3920 3012 M
-144 25 V
1.000 UL
LT0
2869 2850 M
83 78 V
1.000 UL
LT0
3096 2921 M
-144 7 V
1.000 UL
LT0
4064 2988 M
83 47 V
1.000 UL
LT0
4291 3010 M
-144 25 V
1.000 UL
LT0
3467 2954 M
83 54 V
1.000 UL
LT0
3693 2986 M
-143 22 V
1.000 UL
LT0
4435 2985 M
83 45 V
1.000 UL
LT0
4662 3005 M
-144 25 V
1.000 UL
LT0
3837 2964 M
83 48 V
1.000 UL
LT0
4064 2988 M
-144 24 V
1.000 UL
LT0
2578 2695 M
63 55 V
1.000 UL
LT0
2785 2779 M
-144 -29 V
1.000 UL
LT0
3240 2912 M
83 60 V
1.000 UL
LT0
3467 2954 M
-144 18 V
1.000 UL
LT0
4208 2965 M
83 45 V
1.000 UL
LT0
4435 2985 M
-144 25 V
1.000 UL
LT0
3012 2855 M
84 66 V
1.000 UL
LT0
3240 2912 M
-144 9 V
1.000 UL
LT0
2785 2779 M
84 71 V
1.000 UL
LT0
3012 2855 M
-143 -5 V
1.000 UL
LT0
4579 2961 M
83 44 V
1.000 UL
LT0
4806 2980 M
-144 25 V
1.000 UL
LT0
LT1
2248 2520 M
67 21 V
1.000 UL
LT0
3610 2935 M
83 51 V
1.000 UL
LT0
3837 2964 M
-144 22 V
1.000 UL
LT0
3981 2942 M
83 46 V
1.000 UL
LT0
4208 2965 M
-144 23 V
1.000 UL
LT0
3383 2900 M
84 54 V
1.000 UL
LT0
3610 2935 M
-143 19 V
1.000 UL
LT0
4352 2941 M
83 44 V
1.000 UL
LT0
4579 2961 M
-144 24 V
1.000 UL
LT0
2702 2720 M
-94 -28 V
1.000 UL
LT0
3156 2854 M
84 58 V
1.000 UL
LT0
3383 2900 M
-143 12 V
1.000 UL
LT0
4723 2936 M
83 44 V
1.000 UL
LT0
4950 2955 M
-144 25 V
1.000 UL
LT0
3753 2916 M
84 48 V
1.000 UL
LT0
3981 2942 M
-144 22 V
1.000 UL
LT0
2702 2720 M
83 59 V
1.000 UL
LT0
2929 2795 M
-144 -16 V
1.000 UL
LT0
2929 2795 M
83 60 V
1.000 UL
LT0
3156 2854 M
-144 1 V
1.000 UL
LT0
4125 2919 M
83 46 V
1.000 UL
LT0
4352 2941 M
-144 24 V
1.000 UL
LT0
3527 2885 M
83 50 V
1.000 UL
LT0
3753 2916 M
-143 19 V
1.000 UL
LT0
4496 2917 M
83 44 V
1.000 UL
LT0
4723 2936 M
-144 25 V
1.000 UL
LT0
LT1
2165 2539 M
83 -19 V
1.000 UL
LT0
LT1
2296 2548 M
-48 -28 V
1.000 UL
LT0
4867 2912 M
83 43 V
1.000 UL
LT0
5094 2931 M
-144 24 V
1.000 UL
LT0
3897 2896 M
84 46 V
1.000 UL
LT0
4125 2919 M
-144 23 V
1.000 UL
LT0
3300 2848 M
83 52 V
1.000 UL
LT0
3527 2885 M
-144 15 V
1.000 UL
LT0
4268 2896 M
84 45 V
1.000 UL
LT0
4496 2917 M
-144 24 V
1.000 UL
LT0
3073 2802 M
83 52 V
1.000 UL
LT0
3300 2848 M
-144 6 V
1.000 UL
LT0
2641 2689 M
61 31 V
1.000 UL
LT0
2846 2745 M
-144 -25 V
1.000 UL
LT0
2846 2745 M
83 50 V
1.000 UL
LT0
3073 2802 M
-144 -7 V
1.000 UL
LT0
3670 2869 M
83 47 V
1.000 UL
LT0
3897 2896 M
-144 20 V
1.000 UL
LT0
4639 2893 M
84 43 V
1.000 UL
LT0
4867 2912 M
-144 24 V
1.000 UL
LT0
5010 2887 M
84 44 V
1.000 UL
LT0
5238 2906 M
-144 25 V
1.000 UL
LT0
4041 2875 M
84 44 V
1.000 UL
LT0
4268 2896 M
-143 23 V
1.000 UL
LT0
3444 2838 M
83 47 V
1.000 UL
LT0
3670 2869 M
-143 16 V
1.000 UL
LT0
4412 2873 M
84 44 V
1.000 UL
LT0
4639 2893 M
-143 24 V
1.000 UL
LT0
4783 2868 M
84 44 V
1.000 UL
LT0
5010 2887 M
-143 25 V
1.000 UL
LT0
3217 2801 M
83 47 V
1.000 UL
LT0
3444 2838 M
-144 10 V
1.000 UL
LT0
3814 2851 M
83 45 V
1.000 UL
LT0
4041 2875 M
-144 21 V
1.000 UL
LT0
5154 2863 M
84 43 V
1.000 UL
LT0
5382 2881 M
-144 25 V
1.000 UL
LT0
2990 2758 M
83 44 V
1.000 UL
LT0
3217 2801 M
-144 1 V
1.000 UL
LT0
4185 2852 M
83 44 V
1.000 UL
LT0
4412 2873 M
-144 23 V
1.000 UL
LT0
2763 2709 M
83 36 V
1.000 UL
LT0
2990 2758 M
-144 -13 V
1.000 UL
LT0
3588 2824 M
82 45 V
1.000 UL
LT0
3814 2851 M
-144 18 V
1.000 UL
LT0
2763 2709 M
-100 -21 V
1.000 UL
LT0
4556 2849 M
83 44 V
1.000 UL
LT0
4783 2868 M
-144 25 V
1.000 UL
LT0
LT1
2082 2604 M
83 -65 V
1.000 UL
LT0
LT1
2229 2573 M
-64 -34 V
1.000 UL
LT0
4927 2844 M
83 43 V
1.000 UL
LT0
5154 2863 M
-144 24 V
1.000 UL
LT0
3958 2831 M
83 44 V
1.000 UL
LT0
4185 2852 M
-144 23 V
1.000 UL
LT0
3361 2794 M
83 44 V
1.000 UL
LT0
3588 2824 M
-144 14 V
1.000 UL
LT0
5298 2838 M
84 43 V
1.000 UL
LT0
5525 2856 M
-143 25 V
1.000 UL
LT0
4329 2830 M
83 43 V
1.000 UL
LT0
4556 2849 M
-144 24 V
1.000 UL
LT0
3134 2760 M
83 41 V
1.000 UL
LT0
3361 2794 M
-144 7 V
1.000 UL
LT0
4700 2825 M
83 43 V
1.000 UL
LT0
4927 2844 M
-144 24 V
1.000 UL
LT0
3731 2807 M
83 44 V
1.000 UL
LT0
3958 2831 M
-144 20 V
1.000 UL
LT0
5071 2819 M
83 44 V
1.000 UL
LT0
5298 2838 M
-144 25 V
1.000 UL
LT0
2907 2723 M
83 35 V
1.000 UL
LT0
3134 2760 M
-144 -2 V
1.000 UL
LT0
4102 2809 M
83 43 V
1.000 UL
LT0
4329 2830 M
-144 22 V
1.000 UL
LT0
5442 2813 M
83 43 V
1.000 UL
LT0
5669 2831 M
-144 25 V
1.000 UL
LT0
3505 2782 M
83 42 V
1.000 UL
LT0
3731 2807 M
-143 17 V
1.000 UL
LT0
2680 2687 M
83 22 V
1.000 UL
LT0
2907 2723 M
-144 -14 V
1.000 UL
LT0
4473 2806 M
83 43 V
1.000 UL
LT0
4700 2825 M
-144 24 V
1.000 UL
LT0
4844 2801 M
83 43 V
1.000 UL
LT0
5071 2819 M
-144 25 V
1.000 UL
LT0
3875 2788 M
83 43 V
1.000 UL
LT0
4102 2809 M
-144 22 V
1.000 UL
LT0
3278 2754 M
83 40 V
1.000 UL
LT0
3505 2782 M
-144 12 V
1.000 UL
LT0
5215 2795 M
83 43 V
1.000 UL
LT0
5442 2813 M
-144 25 V
1.000 UL
LT0
4246 2787 M
83 43 V
1.000 UL
LT0
4473 2806 M
-144 24 V
1.000 UL
LT0
5586 2788 M
83 43 V
1.000 UL
LT0
5813 2806 M
-144 25 V
1.000 UL
LT0
4617 2782 M
83 43 V
1.000 UL
LT0
4844 2801 M
-144 24 V
1.000 UL
LT0
3051 2726 M
83 34 V
1.000 UL
LT0
3278 2754 M
-144 6 V
1.000 UL
LT0
3648 2766 M
83 41 V
1.000 UL
LT0
3875 2788 M
-144 19 V
1.000 UL
LT0
4988 2776 M
83 43 V
1.000 UL
LT0
5215 2795 M
-144 24 V
1.000 UL
LT0
4019 2767 M
83 42 V
1.000 UL
LT0
4246 2787 M
-144 22 V
1.000 UL
LT0
2824 2700 M
83 23 V
1.000 UL
LT0
3051 2726 M
-144 -3 V
1.000 UL
LT0
LT1
2025 2677 M
57 -73 V
1.000 UL
LT0
LT1
2127 2621 M
-45 -17 V
1.000 UL
LT0
5359 2770 M
83 43 V
1.000 UL
LT0
5586 2788 M
-144 25 V
1.000 UL
LT0
3422 2743 M
83 39 V
1.000 UL
LT0
3648 2766 M
-143 16 V
1.000 UL
LT0
4390 2764 M
83 42 V
1.000 UL
LT0
4617 2782 M
-144 24 V
1.000 UL
LT0
5730 2763 M
83 43 V
1.000 UL
LT0
2824 2700 M
-144 -13 V
1.000 UL
LT0
4761 2758 M
83 43 V
1.000 UL
LT0
4988 2776 M
-144 25 V
1.000 UL
LT0
3792 2747 M
83 41 V
1.000 UL
LT0
4019 2767 M
-144 21 V
1.000 UL
LT0
3195 2720 M
83 34 V
1.000 UL
LT0
3422 2743 M
-144 11 V
1.000 UL
LT0
5132 2752 M
83 43 V
1.000 UL
LT0
5359 2770 M
-144 25 V
1.000 UL
LT0
4163 2745 M
83 42 V
1.000 UL
LT0
4390 2764 M
-144 23 V
1.000 UL
LT0
5503 2745 M
83 43 V
1.000 UL
LT0
5730 2763 M
-144 25 V
1.000 UL
LT0
4534 2740 M
83 42 V
1.000 UL
LT0
4761 2758 M
-144 24 V
1.000 UL
LT0
3566 2727 M
82 39 V
1.000 UL
LT0
3792 2747 M
-144 19 V
1.000 UL
LT0
2968 2701 M
83 25 V
1.000 UL
LT0
3195 2720 M
-144 6 V
1.000 UL
LT0
4905 2733 M
83 43 V
1.000 UL
LT0
5132 2752 M
-144 24 V
1.000 UL
LT0
3936 2726 M
83 41 V
1.000 UL
LT0
4163 2745 M
-144 22 V
1.000 UL
LT0
5276 2727 M
83 43 V
1.000 UL
LT0
5503 2745 M
-144 25 V
1.000 UL
LT0
3339 2709 M
83 34 V
1.000 UL
LT0
3566 2727 M
-144 16 V
1.000 UL
LT0
4307 2721 M
83 43 V
1.000 UL
LT0
4534 2740 M
-144 24 V
1.000 UL
LT0
2741 2689 M
83 11 V
1.000 UL
LT0
2968 2701 M
-144 -1 V
1.000 UL
LT0
5647 2720 M
83 43 V
1.000 UL
LT0
4678 2715 M
83 43 V
1.000 UL
LT0
4905 2733 M
-144 25 V
1.000 UL
LT0
3709 2708 M
83 39 V
1.000 UL
LT0
3936 2726 M
-144 21 V
1.000 UL
LT0
5049 2709 M
83 43 V
1.000 UL
LT0
5276 2727 M
-144 25 V
1.000 UL
LT0
3112 2693 M
83 27 V
1.000 UL
LT0
3339 2709 M
-144 11 V
1.000 UL
LT0
4080 2704 M
83 41 V
1.000 UL
LT0
4307 2721 M
-144 24 V
1.000 UL
LT0
5420 2702 M
83 43 V
1.000 UL
LT0
5647 2720 M
-144 25 V
1.000 UL
LT0
4451 2697 M
83 43 V
1.000 UL
LT0
4678 2715 M
-144 25 V
1.000 UL
LT0
3483 2692 M
83 35 V
1.000 UL
LT0
3709 2708 M
-143 19 V
1.000 UL
LT0
4822 2691 M
83 42 V
1.000 UL
LT0
5049 2709 M
-144 24 V
1.000 UL
LT0
2885 2684 M
83 17 V
1.000 UL
LT0
3112 2693 M
-144 8 V
1.000 UL
LT0
3853 2687 M
83 39 V
1.000 UL
LT0
4080 2704 M
-144 22 V
1.000 UL
LT0
5193 2684 M
83 43 V
1.000 UL
LT0
5420 2702 M
-144 25 V
1.000 UL
LT0
4224 2680 M
83 41 V
1.000 UL
LT0
4451 2697 M
-144 24 V
1.000 UL
LT0
5564 2677 M
83 43 V
1.000 UL
LT0
3256 2679 M
83 30 V
1.000 UL
LT0
3483 2692 M
-144 17 V
1.000 UL
LT0
4595 2673 M
83 42 V
1.000 UL
LT0
4822 2691 M
-144 24 V
1.000 UL
LT0
2658 2688 M
83 1 V
1.000 UL
LT0
2885 2684 M
-144 5 V
1.000 UL
LT0
3626 2672 M
83 36 V
1.000 UL
LT0
3853 2687 M
-144 21 V
1.000 UL
LT0
4966 2666 M
83 43 V
1.000 UL
LT0
5193 2684 M
-144 25 V
1.000 UL
LT0
3997 2664 M
83 40 V
1.000 UL
LT0
4224 2680 M
-144 24 V
1.000 UL
LT0
5337 2659 M
83 43 V
1.000 UL
LT0
5564 2677 M
-144 25 V
1.000 UL
LT0
3029 2672 M
83 21 V
1.000 UL
LT0
3256 2679 M
-144 14 V
1.000 UL
LT0
4368 2656 M
83 41 V
1.000 UL
LT0
4595 2673 M
-144 24 V
1.000 UL
LT0
3400 2660 M
83 32 V
1.000 UL
LT0
3626 2672 M
-143 20 V
1.000 UL
LT0
4739 2648 M
83 43 V
1.000 UL
LT0
4966 2666 M
-144 25 V
1.000 UL
LT0
3770 2649 M
83 38 V
1.000 UL
LT0
3997 2664 M
-144 23 V
1.000 UL
LT0
5110 2641 M
83 43 V
1.000 UL
LT0
5337 2659 M
-144 25 V
1.000 UL
LT0
2802 2675 M
83 9 V
1.000 UL
LT0
3029 2672 M
-144 12 V
1.000 UL
LT0
4141 2640 M
83 40 V
1.000 UL
LT0
4368 2656 M
-144 24 V
1.000 UL
LT0
5481 2634 M
83 43 V
1.000 UL
LT0
3173 2654 M
83 25 V
1.000 UL
LT0
3400 2660 M
-144 19 V
1.000 UL
LT0
4512 2631 M
83 42 V
1.000 UL
LT0
4739 2648 M
-144 25 V
1.000 UL
LT0
3544 2638 M
82 34 V
1.000 UL
LT0
3770 2649 M
-144 23 V
1.000 UL
LT0
4883 2623 M
83 43 V
1.000 UL
LT0
5110 2641 M
-144 25 V
1.000 UL
LT0
3914 2625 M
83 39 V
1.000 UL
LT0
4141 2640 M
-144 24 V
1.000 UL
LT0
5254 2616 M
83 43 V
1.000 UL
LT0
5481 2634 M
-144 25 V
1.000 UL
LT0
2575 2695 M
83 -7 V
1.000 UL
LT0
2802 2675 M
-144 13 V
1.000 UL
LT0
4285 2615 M
83 41 V
1.000 UL
LT0
4512 2631 M
-144 25 V
1.000 UL
LT0
2946 2656 M
83 16 V
1.000 UL
LT0
3173 2654 M
-144 18 V
1.000 UL
LT0
4656 2606 M
83 42 V
1.000 UL
LT0
4883 2623 M
-144 25 V
1.000 UL
LT0
3317 2632 M
83 28 V
1.000 UL
LT0
3544 2638 M
-144 22 V
1.000 UL
LT0
5027 2598 M
83 43 V
1.000 UL
LT0
5254 2616 M
-144 25 V
1.000 UL
LT0
3687 2614 M
83 35 V
1.000 UL
LT0
3914 2625 M
-144 24 V
1.000 UL
LT0
4058 2600 M
83 40 V
1.000 UL
LT0
4285 2615 M
-144 25 V
1.000 UL
LT0
5398 2591 M
83 43 V
1.000 UL
LT0
4429 2589 M
83 42 V
1.000 UL
LT0
4656 2606 M
-144 25 V
1.000 UL
LT0
2719 2671 M
83 4 V
1.000 UL
LT0
2946 2656 M
-144 19 V
1.000 UL
LT0
3090 2633 M
83 21 V
1.000 UL
LT0
3317 2632 M
-144 22 V
1.000 UL
LT0
4800 2581 M
83 42 V
1.000 UL
LT0
5027 2598 M
-144 25 V
1.000 UL
LT0
3461 2607 M
83 31 V
1.000 UL
LT0
3687 2614 M
-143 24 V
1.000 UL
LT0
5171 2573 M
83 43 V
1.000 UL
LT0
5398 2591 M
-144 25 V
1.000 UL
LT0
3831 2587 M
83 38 V
1.000 UL
LT0
4058 2600 M
-144 25 V
1.000 UL
LT0
4202 2574 M
83 41 V
1.000 UL
LT0
4429 2589 M
-144 26 V
1.000 UL
LT0
4573 2564 M
83 42 V
1.000 UL
LT0
4800 2581 M
-144 25 V
1.000 UL
LT0
2863 2644 M
83 12 V
1.000 UL
LT0
3090 2633 M
-144 23 V
1.000 UL
LT0
3234 2606 M
83 26 V
1.000 UL
LT0
3461 2607 M
-144 25 V
1.000 UL
LT0
4944 2555 M
83 43 V
1.000 UL
LT0
5171 2573 M
-144 25 V
1.000 UL
LT0
3604 2579 M
83 35 V
1.000 UL
LT0
3831 2587 M
-144 27 V
1.000 UL
LT0
2492 2706 M
83 -11 V
1.000 UL
LT0
2719 2671 M
-144 24 V
1.000 UL
LT0
5315 2548 M
83 43 V
1.000 UL
LT0
3975 2561 M
83 39 V
1.000 UL
LT0
4202 2574 M
-144 26 V
1.000 UL
LT0
4346 2548 M
83 41 V
1.000 UL
LT0
4573 2564 M
-144 25 V
1.000 UL
LT0
4717 2538 M
83 43 V
1.000 UL
LT0
4944 2555 M
-144 26 V
1.000 UL
LT0
3006 2615 M
84 18 V
1.000 UL
LT0
3234 2606 M
-144 27 V
1.000 UL
LT0
3378 2577 M
83 30 V
1.000 UL
LT0
3604 2579 M
-143 28 V
1.000 UL
LT0
5088 2530 M
83 43 V
1.000 UL
LT0
5315 2548 M
-144 25 V
1.000 UL
LT0
3748 2551 M
83 36 V
1.000 UL
LT0
3975 2561 M
-144 26 V
1.000 UL
LT0
2635 2671 M
84 0 V
1.000 UL
LT0
2863 2644 M
-144 27 V
1.000 UL
LT0
4119 2533 M
83 41 V
1.000 UL
LT0
4346 2548 M
-144 26 V
1.000 UL
LT0
4490 2522 M
83 42 V
1.000 UL
LT0
4717 2538 M
-144 26 V
1.000 UL
LT0
4861 2513 M
83 42 V
1.000 UL
LT0
5088 2530 M
-144 25 V
1.000 UL
LT0
2264 2771 M
84 -28 V
1.000 UL
LT0
2492 2706 M
-144 37 V
1.000 UL
LT0
3521 2546 M
83 33 V
1.000 UL
LT0
3748 2551 M
-144 28 V
1.000 UL
LT0
3150 2584 M
84 22 V
1.000 UL
LT0
3378 2577 M
-144 29 V
1.000 UL
LT0
5232 2506 M
83 42 V
1.000 UL
LT0
3891 2522 M
84 39 V
1.000 UL
LT0
4119 2533 M
-144 28 V
1.000 UL
LT0
2779 2635 M
84 9 V
1.000 UL
LT0
3006 2615 M
-143 29 V
1.000 UL
LT0
4262 2507 M
84 41 V
1.000 UL
LT0
4490 2522 M
-144 26 V
1.000 UL
LT0
4634 2496 M
83 42 V
1.000 UL
LT0
4861 2513 M
-144 25 V
1.000 UL
LT0
2408 2717 M
84 -11 V
1.000 UL
LT0
2635 2671 M
-143 35 V
1.000 UL
LT0
5005 2488 M
83 42 V
1.000 UL
LT0
5232 2506 M
-144 24 V
1.000 UL
LT0
3294 2550 M
84 27 V
1.000 UL
LT0
3521 2546 M
-143 31 V
1.000 UL
LT0
3664 2515 M
84 36 V
1.000 UL
LT0
3891 2522 M
-143 29 V
1.000 UL
LT0
4035 2494 M
84 39 V
1.000 UL
LT0
4262 2507 M
-143 26 V
1.000 UL
LT0
2923 2600 M
83 15 V
1.000 UL
LT0
3150 2584 M
-144 31 V
1.000 UL
LT0
4406 2480 M
84 42 V
1.000 UL
LT0
4634 2496 M
-144 26 V
1.000 UL
LT0
2552 2669 M
83 2 V
1.000 UL
LT0
2779 2635 M
-144 36 V
1.000 UL
LT0
4777 2471 M
84 42 V
1.000 UL
LT0
5005 2488 M
-144 25 V
1.000 UL
LT0
5148 2462 M
84 44 V
1.000 UL
LT0
3438 2515 M
83 31 V
1.000 UL
LT0
3664 2515 M
-143 31 V
1.000 UL
LT0
3808 2483 M
83 39 V
1.000 UL
LT0
4035 2494 M
-144 28 V
1.000 UL
LT0
2037 2877 M
84 -43 V
1.000 UL
LT0
2264 2771 M
-143 63 V
1.000 UL
LT0
3067 2563 M
83 21 V
1.000 UL
LT0
3294 2550 M
-144 34 V
1.000 UL
LT0
4179 2465 M
83 42 V
1.000 UL
LT0
4406 2480 M
-144 27 V
1.000 UL
LT0
4550 2454 M
84 42 V
1.000 UL
LT0
4777 2471 M
-143 25 V
1.000 UL
LT0
2696 2626 M
83 9 V
1.000 UL
LT0
2923 2600 M
-144 35 V
1.000 UL
LT0
2181 2791 M
83 -20 V
1.000 UL
LT0
2408 2717 M
-144 54 V
1.000 UL
LT0
4921 2445 M
84 43 V
1.000 UL
LT0
5148 2462 M
-143 26 V
1.000 UL
LT0
3582 2479 M
82 36 V
1.000 UL
LT0
3808 2483 M
-144 32 V
1.000 UL
LT0
3952 2452 M
83 42 V
1.000 UL
LT0
4179 2465 M
-144 29 V
1.000 UL
LT0
3211 2524 M
83 26 V
1.000 UL
LT0
3438 2515 M
-144 35 V
1.000 UL
LT0
4323 2438 M
83 42 V
1.000 UL
LT0
4550 2454 M
-144 26 V
1.000 UL
LT0
2325 2721 M
83 -4 V
1.000 UL
LT0
2552 2669 M
-144 48 V
1.000 UL
LT0
2840 2586 M
83 14 V
1.000 UL
LT0
3067 2563 M
-41 11 V
1.000 UL
LT0
3015 2577 M
-92 23 V
1.000 UL
LT0
4694 2428 M
83 43 V
1.000 UL
LT0
4921 2445 M
-144 26 V
1.000 UL
LT0
5065 2419 M
83 43 V
1.000 UL
LT0
3725 2443 M
83 40 V
1.000 UL
LT0
3952 2452 M
-144 31 V
1.000 UL
LT0
3355 2484 M
83 31 V
1.000 UL
LT0
3582 2479 M
-144 36 V
1.000 UL
LT0
2469 2663 M
83 6 V
1.000 UL
LT0
2696 2626 M
-144 43 V
1.000 UL
LT0
4096 2423 M
83 42 V
1.000 UL
LT0
4323 2438 M
-144 27 V
1.000 UL
LT0
4467 2411 M
83 43 V
1.000 UL
LT0
4694 2428 M
-144 26 V
1.000 UL
LT0
3035 2557 M
32 6 V
1.000 UL
LT0
3211 2524 M
-144 39 V
1.000 UL
LT0
4838 2402 M
83 43 V
1.000 UL
LT0
5065 2419 M
-144 26 V
1.000 UL
LT0
2613 2614 M
83 12 V
1.000 UL
LT0
2840 2586 M
-144 40 V
1.000 UL
LT0
3499 2441 M
83 38 V
1.000 UL
LT0
3725 2443 M
-143 36 V
1.000 UL
LT0
3869 2410 M
83 42 V
1.000 UL
LT0
4096 2423 M
-144 29 V
1.000 UL
LT0
4240 2394 M
83 44 V
1.000 UL
LT0
4467 2411 M
-144 27 V
1.000 UL
LT0
1954 2900 M
83 -23 V
1.000 UL
LT0
2181 2791 M
-144 86 V
1.000 UL
LT0
1893 2985 M
144 -108 V
1.000 UL
LT0
3128 2503 M
83 21 V
1.000 UL
LT0
3355 2484 M
-144 40 V
1.000 UL
LT0
1810 3035 M
83 -50 V
1.000 UL
LT0
1749 3123 M
144 -138 V
1.000 UL
LT0
4611 2384 M
83 44 V
1.000 UL
LT0
4838 2402 M
-144 26 V
1.000 UL
LT0
2098 2795 M
83 -4 V
1.000 UL
LT0
2325 2721 M
-144 70 V
1.000 UL
LT0
4982 2376 M
83 43 V
1.000 UL
LT0
2757 2572 M
83 14 V
1.000 UL
LT0
2959 2553 M
-119 33 V
1.000 UL
LT0
2242 2713 M
83 8 V
1.000 UL
LT0
2469 2663 M
-144 58 V
1.000 UL
LT0
3642 2401 M
83 42 V
1.000 UL
LT0
3869 2410 M
-144 33 V
1.000 UL
LT0
1666 3214 M
83 -91 V
1.000 UL
LT0
4013 2379 M
83 44 V
1.000 UL
LT0
4240 2394 M
-144 29 V
1.000 UL
LT0
3272 2453 M
83 31 V
1.000 UL
LT0
3499 2441 M
-144 43 V
1.000 UL
LT0
4384 2367 M
83 44 V
1.000 UL
LT0
4611 2384 M
-144 27 V
1.000 UL
LT0
4755 2358 M
83 44 V
1.000 UL
LT0
4982 2376 M
-144 26 V
1.000 UL
LT0
2386 2648 M
83 15 V
1.000 UL
LT0
2613 2614 M
-144 49 V
1.000 UL
LT0
2901 2532 M
16 2 V
1.000 UL
LT0
3128 2503 M
-77 22 V
1.000 UL
LT0
3786 2365 M
83 45 V
1.000 UL
LT0
4013 2379 M
-144 31 V
1.000 UL
LT0
3416 2401 M
83 40 V
1.000 UL
LT0
3642 2401 M
-143 40 V
1.000 UL
LT0
4157 2350 M
83 44 V
1.000 UL
LT0
4384 2367 M
-144 27 V
1.000 UL
LT0
2530 2596 M
83 18 V
1.000 UL
LT0
2757 2572 M
-144 42 V
1.000 UL
LT0
4528 2340 M
83 44 V
1.000 UL
LT0
4755 2358 M
-144 26 V
1.000 UL
LT0
3069 2492 M
59 11 V
1.000 UL
LT0
3272 2453 M
-144 50 V
1.000 UL
LT0
4899 2332 M
83 44 V
1.000 UL
LT0
3560 2354 M
82 47 V
1.000 UL
LT0
3786 2365 M
-144 36 V
1.000 UL
LT0
3930 2333 M
83 46 V
1.000 UL
LT0
4157 2350 M
-144 29 V
1.000 UL
LT0
2015 2777 M
83 18 V
1.000 UL
LT0
2242 2713 M
-144 82 V
1.000 UL
LT0
1954 2900 M
144 -105 V
1.000 UL
LT0
2674 2554 M
83 18 V
1.000 UL
LT0
2901 2532 M
-144 40 V
1.000 UL
LT0
1871 2892 M
83 8 V
1.000 UL
LT0
1810 3035 M
144 -135 V
1.000 UL
LT0
4301 2323 M
83 44 V
1.000 UL
LT0
4528 2340 M
-144 27 V
1.000 UL
LT0
3189 2427 M
83 26 V
1.000 UL
LT0
3416 2401 M
-144 52 V
1.000 UL
LT0
2159 2689 M
83 24 V
1.000 UL
LT0
2386 2648 M
-144 65 V
1.000 UL
LT0
4672 2314 M
83 44 V
1.000 UL
LT0
4899 2332 M
-144 26 V
1.000 UL
LT0
1727 3042 M
83 -7 V
1.000 UL
LT0
1666 3214 M
144 -179 V
1.000 UL
LT0
3703 2316 M
83 49 V
1.000 UL
LT0
3930 2333 M
-144 32 V
1.000 UL
LT0
2303 2620 M
83 28 V
1.000 UL
LT0
2530 2596 M
-144 52 V
1.000 UL
LT0
3333 2354 M
83 47 V
1.000 UL
LT0
3560 2354 M
-144 47 V
1.000 UL
LT0
4074 2304 M
83 46 V
1.000 UL
LT0
4301 2323 M
-144 27 V
1.000 UL
LT0
2818 2522 M
83 10 V
1.000 UL
LT0
2907 2530 M
-6 2 V
1.000 UL
LT0
4445 2296 M
83 44 V
1.000 UL
LT0
4672 2314 M
-144 26 V
1.000 UL
LT0
4816 2289 M
83 43 V
1.000 UL
LT0
2447 2566 M
83 30 V
1.000 UL
LT0
2674 2554 M
-144 42 V
1.000 UL
LT0
3477 2296 M
83 58 V
1.000 UL
LT0
3703 2316 M
-143 38 V
1.000 UL
LT0
3847 2284 M
83 49 V
1.000 UL
LT0
4074 2304 M
-144 29 V
1.000 UL
LT0
3189 2427 M
-111 47 V
1.000 UL
LT0
1583 3244 M
83 -30 V
1.000 UL
LT0
4218 2277 M
83 46 V
1.000 UL
LT0
4445 2296 M
-144 27 V
1.000 UL
LT0
4589 2270 M
83 44 V
1.000 UL
LT0
4816 2289 M
-144 25 V
1.000 UL
LT0
1932 2734 M
83 43 V
1.000 UL
LT0
2159 2689 M
-144 88 V
1.000 UL
LT0
1871 2892 M
144 -115 V
1.000 UL
LT0
3106 2420 M
83 7 V
1.000 UL
LT0
3333 2354 M
-144 73 V
1.000 UL
LT0
2591 2527 M
83 27 V
1.000 UL
LT0
2818 2522 M
-144 32 V
1.000 UL
LT0
2076 2646 M
83 43 V
1.000 UL
LT0
2303 2620 M
-144 69 V
1.000 UL
LT0
1788 2848 M
83 44 V
1.000 UL
LT0
1727 3042 M
144 -150 V
1.000 UL
LT0
3620 2259 M
83 57 V
1.000 UL
LT0
3847 2284 M
-144 32 V
1.000 UL
LT0
3250 2284 M
83 70 V
1.000 UL
LT0
3477 2296 M
-144 58 V
1.000 UL
LT0
3991 2257 M
83 47 V
1.000 UL
LT0
4218 2277 M
-144 27 V
1.000 UL
LT0
2220 2576 M
83 44 V
1.000 UL
LT0
2447 2566 M
-144 54 V
1.000 UL
LT0
4362 2251 M
83 45 V
1.000 UL
LT0
4589 2270 M
-144 26 V
1.000 UL
LT0
3084 1997 M
83 43 V
1.000 UL
LT0
3311 2108 M
-144 -68 V
1.000 UL
LT0
3250 2284 M
-83 -244 V
1.000 UL
LT0
3023 2580 M
144 -540 V
1.000 UL
LT0
1644 2999 M
83 43 V
1.000 UL
LT0
1583 3244 M
144 -202 V
1.000 UL
LT0
4733 2245 M
83 44 V
1.000 UL
LT0
2735 2507 M
83 15 V
1.000 UL
LT0
LT1
2952 2494 M
-77 16 V
1.000 UL
LT0
2879 2519 M
-61 3 V
1.000 UL
LT0
3394 2217 M
83 79 V
1.000 UL
LT0
3620 2259 M
-143 37 V
1.000 UL
LT0
3764 2232 M
83 52 V
1.000 UL
LT0
3991 2257 M
-144 27 V
1.000 UL
LT0
2364 2523 M
83 43 V
1.000 UL
LT0
2591 2527 M
-144 39 V
1.000 UL
LT0
4135 2231 M
83 46 V
1.000 UL
LT0
4362 2251 M
-144 26 V
1.000 UL
LT0
4506 2226 M
83 44 V
1.000 UL
LT0
4733 2245 M
-144 25 V
1.000 UL
LT0
2076 2646 M
-144 88 V
1.000 UL
LT0
1788 2848 M
144 -114 V
1.000 UL
LT0
3394 2217 M
-144 67 V
1.000 UL
LT0
3106 2420 M
144 -136 V
1.000 UL
LT0
3538 2195 M
82 64 V
1.000 UL
LT0
3764 2232 M
-144 27 V
1.000 UL
LT0
LT1
2888 2516 M
63 -21 V
1.000 UL
LT0
2220 2576 M
-144 70 V
1.000 UL
LT0
1644 2999 M
144 -151 V
1.000 UL
LT0
2508 2485 M
83 42 V
1.000 UL
LT0
2735 2507 M
-144 20 V
1.000 UL
LT0
3908 2208 M
83 49 V
1.000 UL
LT0
4135 2231 M
-144 26 V
1.000 UL
LT0
3311 2108 M
83 109 V
1.000 UL
LT0
3538 2195 M
-144 22 V
1.000 UL
LT0
1500 3201 M
83 43 V
1.000 UL
LT0
3023 2580 M
83 -160 V
1.000 UL
LT0
2364 2523 M
-144 53 V
1.000 UL
LT0
4279 2206 M
83 45 V
1.000 UL
LT0
4506 2226 M
-144 25 V
1.000 UL
LT0
3228 2064 M
-144 -67 V
1.000 UL
LT0
2940 2537 M
144 -540 V
1.000 UL
LT0
1500 3201 M
144 -202 V
1.000 UL
LT0
4650 2201 M
83 44 V
1.000 UL
LT0
3681 2178 M
83 54 V
1.000 UL
LT0
3908 2208 M
-144 24 V
1.000 UL
LT0
2508 2485 M
-144 38 V
1.000 UL
LT0
2652 2464 M
83 43 V
1.000 UL
LT0
2879 2519 M
-144 -12 V
1.000 UL
LT0
3228 2064 M
83 44 V
1.000 UL
LT0
3455 2130 M
-144 -22 V
1.000 UL
LT0
4052 2184 M
83 47 V
1.000 UL
LT0
4279 2206 M
-144 25 V
1.000 UL
LT0
3455 2130 M
83 65 V
1.000 UL
LT0
3681 2178 M
-143 17 V
1.000 UL
LT0
4423 2181 M
83 45 V
1.000 UL
LT0
4650 2201 M
-144 25 V
1.000 UL
LT0
2652 2464 M
-144 21 V
1.000 UL
LT0
3825 2158 M
83 50 V
1.000 UL
LT0
4052 2184 M
-144 24 V
1.000 UL
LT0
4196 2160 M
83 46 V
1.000 UL
LT0
4423 2181 M
-144 25 V
1.000 UL
LT0
3599 2125 M
82 53 V
1.000 UL
LT0
3825 2158 M
-144 20 V
1.000 UL
LT0
4567 2156 M
83 45 V
1.000 UL
LT0
2796 2476 M
83 43 V
1.000 UL
LT0
3023 2580 M
-144 -61 V
1.000 UL
LT0
3372 2087 M
83 43 V
1.000 UL
LT0
3599 2125 M
-144 5 V
1.000 UL
LT0
2796 2476 M
-144 -12 V
1.000 UL
LT0
3372 2087 M
-144 -23 V
1.000 UL
LT0
3969 2137 M
83 47 V
1.000 UL
LT0
4196 2160 M
-144 24 V
1.000 UL
LT0
4340 2136 M
83 45 V
1.000 UL
LT0
4567 2156 M
-144 25 V
1.000 UL
LT0
3742 2111 M
83 47 V
1.000 UL
LT0
3969 2137 M
-144 21 V
1.000 UL
LT0
4113 2115 M
83 45 V
1.000 UL
LT0
4340 2136 M
-144 24 V
1.000 UL
LT0
3515 2082 M
84 43 V
1.000 UL
LT0
3742 2111 M
-143 14 V
1.000 UL
LT0
4484 2112 M
83 44 V
1.000 UL
LT0
2940 2537 M
-144 -61 V
1.000 UL
LT0
3515 2082 M
-143 5 V
1.000 UL
LT0
3886 2092 M
83 45 V
1.000 UL
LT0
4113 2115 M
-144 22 V
1.000 UL
LT0
2940 2537 M
83 43 V
1.000 UL
LT0
4257 2092 M
83 44 V
1.000 UL
LT0
4484 2112 M
-144 24 V
1.000 UL
LT0
3658 2068 M
84 43 V
1.000 UL
LT0
3886 2092 M
-144 19 V
1.000 UL
LT0
4029 2070 M
84 45 V
1.000 UL
LT0
4257 2092 M
-144 23 V
1.000 UL
LT0
3658 2068 M
-143 14 V
1.000 UL
LT0
4400 2068 M
84 44 V
1.000 UL
LT0
3802 2049 M
84 43 V
1.000 UL
LT0
4029 2070 M
-143 22 V
1.000 UL
LT0
4173 2048 M
84 44 V
1.000 UL
LT0
4400 2068 M
-143 24 V
1.000 UL
LT0
3802 2049 M
-144 19 V
1.000 UL
LT0
3946 2027 M
83 43 V
1.000 UL
LT0
4173 2048 M
-144 22 V
1.000 UL
LT0
4317 2024 M
83 44 V
1.000 UL
LT0
3946 2027 M
-144 22 V
1.000 UL
LT0
4090 2004 M
83 44 V
1.000 UL
LT0
4317 2024 M
-144 24 V
1.000 UL
LT0
4090 2004 M
-144 23 V
1.000 UL
LT0
4234 1981 M
83 43 V
1.000 UL
LT0
4234 1981 M
-144 23 V
1.000 UL
LT0
1.000 UL
LT1
LT2
1.000 UL
LT2
1576 1364 M
83 43 V
1.000 UL
LT2
1659 1407 M
26 53 V
1.000 UL
LT2
1685 1460 M
-7 10 V
LT3
1.000 UL
LT3
1672 1347 M
83 43 V
1.000 UL
LT3
1755 1390 M
12 26 V
1.000 UL
LT3
1767 1416 M
19 27 V
1.000 UL
LT3
1786 1443 M
-41 62 V
LT4
1.000 UL
LT4
1799 1325 M
83 43 V
1.000 UL
LT4
1882 1368 M
6 11 V
1.000 UL
LT4
1888 1379 M
29 41 V
1.000 UL
LT4
1917 1420 M
-33 57 V
1.000 UL
LT4
1884 1477 M
-5 7 V
1.000 UL
LT4
1879 1484 M
-81 48 V
LT5
1.000 UL
LT5
1991 1292 M
83 43 V
1.000 UL
LT5
2074 1335 M
25 53 V
1.000 UL
LT5
2099 1388 M
0 1 V
1.000 UL
LT5
2099 1389 M
-28 62 V
1.000 UL
LT5
2071 1451 M
-20 13 V
1.000 UL
LT5
2051 1464 M
-91 52 V
1.000 UL
LT5
1960 1516 M
-43 19 V
1.000 UL
LT5
1917 1535 M
-69 23 V
1.000 UL
LT5
2941 1127 M
83 43 V
1.000 UL
LT5
3024 1170 M
0 1 V
1.000 UL
LT5
3024 1171 M
-8 0 V
1.000 UL
LT5
2933 1128 M
83 43 V
LT6
1.000 UL
LT6
2353 1229 M
83 43 V
1.000 UL
LT6
2436 1272 M
9 56 V
1.000 UL
LT6
2445 1328 M
-26 28 V
1.000 UL
LT6
2419 1356 M
-23 39 V
1.000 UL
LT6
2396 1395 M
-42 27 V
1.000 UL
LT6
2354 1422 M
-92 52 V
1.000 UL
LT6
2262 1474 M
-5 2 V
1.000 UL
LT6
2257 1476 M
-106 40 V
1.000 UL
LT6
2151 1516 M
-123 36 V
1.000 UL
LT6
2028 1552 M
-132 31 V
1.000 UL
LT6
2971 1122 M
83 43 V
1.000 UL
LT6
3054 1165 M
14 29 V
1.000 UL
LT6
3068 1194 M
-160 16 V
1.000 UL
LT6
2908 1210 M
-126 2 V
1.000 UL
LT6
2699 1169 M
83 43 V
LT7
1.000 UL
LT7
3001 1116 M
83 44 V
1.000 UL
LT7
3084 1160 M
42 50 V
1.000 UL
LT7
3126 1210 M
15 22 V
1.000 UL
LT7
3141 1232 M
-35 39 V
1.000 UL
LT7
3106 1271 M
-16 34 V
1.000 UL
LT7
3090 1305 M
-61 37 V
1.000 UL
LT7
3029 1342 M
-26 18 V
1.000 UL
LT7
3003 1360 M
-103 46 V
1.000 UL
LT7
2900 1406 M
-92 32 V
1.000 UL
LT7
2808 1438 M
-24 8 V
1.000 UL
LT7
2784 1446 M
-125 35 V
1.000 UL
LT7
2659 1481 M
-132 31 V
1.000 UL
LT7
2527 1512 M
-139 27 V
1.000 UL
LT7
2388 1539 M
-144 25 V
1.000 UL
LT7
2244 1564 M
-148 23 V
1.000 UL
LT7
2096 1587 M
-151 22 V
LT8
1.000 UL
LT8
4006 2018 M
-121 2 V
1.000 UL
LT8
3788 2019 M
97 1 V
1.000 UL
LT8
3788 2019 M
-88 5 V
1.000 UL
LT8
3700 2024 M
-178 6 V
1.000 UL
LT8
3522 2030 M
-149 3 V
1.000 UL
LT8
3373 2033 M
-33 3 V
1.000 UL
LT8
3340 2036 M
-157 7 V
1.000 UL
LT8
3070 2048 M
-82 4 V
1.000 UL
LT8
2988 2052 M
-60 1 V
1.000 UL
LT8
2928 2053 M
-115 8 V
1.000 UL
LT8
5480 1751 M
129 9 V
1.000 UL
LT8
5399 1739 M
81 12 V
1.000 UL
LT8
5236 1724 M
163 15 V
1.000 UL
LT8
5195 1717 M
41 7 V
1.000 UL
LT8
4990 1696 M
205 21 V
1.000 UL
LT8
4987 1695 M
3 1 V
1.000 UL
LT8
4774 1674 M
213 21 V
1.000 UL
LT8
4756 1674 M
18 0 V
1.000 UL
LT8
4544 1656 M
212 18 V
1.000 UL
LT8
4531 1656 M
13 0 V
1.000 UL
LT8
4314 1643 M
217 13 V
1.000 UL
LT8
4299 1641 M
15 2 V
1.000 UL
LT8
4104 1634 M
195 7 V
1.000 UL
LT8
4042 1628 M
62 6 V
1.000 UL
LT8
3897 1626 M
145 2 V
1.000 UL
LT8
3768 1618 M
129 8 V
1.000 UL
LT8
3768 1618 M
-77 1 V
1.000 UL
LT8
3488 1613 M
203 6 V
1.000 UL
LT8
3474 1612 M
14 1 V
1.000 UL
LT8
3291 1610 M
183 2 V
1.000 UL
LT8
3180 1605 M
111 5 V
1.000 UL
LT8
3180 1605 M
-88 1 V
1.000 UL
LT8
2898 1605 M
194 1 V
1.000 UL
LT8
2856 1603 M
42 2 V
1.000 UL
LT8
2856 1603 M
-147 4 V
1.000 UL
LT8
2709 1607 M
-186 3 V
1.000 UL
LT8
2489 1609 M
34 1 V
1.000 UL
LT8
2489 1609 M
-145 7 V
1.000 UL
LT8
2344 1616 M
-176 9 V
1.000 UL
LT8
2168 1625 M
-144 7 V
1.000 UL
LT8
2024 1632 M
-29 3 V
1.000 UL
LT8
4688 1138 M
-168 13 V
1.000 UL
LT8
4520 1151 M
-75 3 V
1.000 UL
LT8
4445 1154 M
-94 9 V
1.000 UL
LT8
4351 1163 M
-169 12 V
1.000 UL
LT8
4182 1175 M
-174 9 V
1.000 UL
LT8
3940 1184 M
68 0 V
1.000 UL
LT8
3940 1184 M
-108 8 V
1.000 UL
LT8
3832 1192 M
-180 7 V
1.000 UL
LT8
3560 1192 M
92 7 V
1.000 UL
LT8
3560 1192 M
-99 7 V
1.000 UL
LT8
3293 1181 M
168 18 V
1.000 UL
LT8
3293 1181 M
-48 5 V
1.000 UL
LT8
3114 1154 M
131 32 V
1.000 UL
LT8
3031 1111 M
83 43 V
LT0
1.000 UL
LT0
2171 1665 M
-116 1 V
1.000 UL
LT0
2171 1665 M
84 5 V
1.000 UL
LT0
2255 1670 M
170 8 V
1.000 UL
LT0
2425 1678 M
53 8 V
1.000 UL
LT0
2478 1686 M
143 16 V
1.000 UL
LT0
2621 1702 M
141 33 V
1.000 UL
LT0
2762 1735 M
6 3 V
1.000 UL
LT0
2768 1738 M
102 36 V
1.000 UL
LT0
2870 1774 M
53 44 V
1.000 UL
LT0
2923 1818 M
5 4 V
1.000 UL
LT0
2928 1822 M
3 57 V
1.000 UL
LT0
2931 1879 M
-31 27 V
1.000 UL
LT0
2900 1906 M
-95 51 V
1.000 UL
LT0
2805 1957 M
-11 4 V
1.000 UL
LT0
2794 1961 M
-110 33 V
1.000 UL
LT0
3207 1080 M
83 44 V
1.000 UL
LT0
3290 1124 M
-90 38 V
1.000 UL
LT0
3145 1149 M
55 13 V
1.000 UL
LT0
3062 1106 M
83 43 V
LT1
1.000 UL
LT1
2127 1704 M
108 7 V
1.000 UL
LT1
2235 1711 M
155 30 V
1.000 UL
LT1
2390 1741 M
5 0 V
1.000 UL
LT1
2395 1741 M
124 36 V
1.000 UL
LT1
2519 1777 M
74 45 V
1.000 UL
LT1
2593 1822 M
11 30 V
1.000 UL
LT1
2604 1852 M
10 24 V
1.000 UL
LT1
2614 1876 M
-49 56 V
LT2
1.000 UL
LT2
2244 1764 M
9 2 V
1.000 UL
LT2
2253 1766 M
106 39 V
1.000 UL
LT2
2359 1805 M
51 46 V
1.000 UL
LTb
4284 778 M
1870 974 V
1.000 UL
LTb
4284 778 M
1046 1340 L
1.000 UL
LTb
1046 1340 M
1870 975 V
1.000 UL
LTb
6154 1752 M
4384 2059 L
1.000 UL
LTb
3003 2299 M
-87 16 V
1.000 UL
LTb
1046 3288 M
0 -1948 V
1.000 UL
LTb
1046 1340 M
52 28 V
1.000 UL
LTb
936 1245 M
gsave 0 setgray
[ [(Times) 220.0 0.0 true true 0 (-2.5)]
] -73.3 MCshow
grestore
1.000 UL
LTb
1.000 UL
LTb
2864 2287 M
52 28 V
1.000 UL
LTb
1406 1278 M
52 27 V
1.000 UL
LTb
1296 1183 M
gsave 0 setgray
[ [(Times) 220.0 0.0 true true 0 (-2)]
] -73.3 MCshow
grestore
1.000 UL
LTb
1.000 UL
LTb
1766 1215 M
52 28 V
1.000 UL
LTb
1656 1120 M
gsave 0 setgray
[ [(Times) 220.0 0.0 true true 0 (-1.5)]
] -73.3 MCshow
grestore
1.000 UL
LTb
1.000 UL
LTb
2126 1153 M
52 27 V
1.000 UL
LTb
2016 1058 M
gsave 0 setgray
[ [(Times) 220.0 0.0 true true 0 (-1)]
] -73.3 MCshow
grestore
1.000 UL
LTb
1.000 UL
LTb
2486 1090 M
52 28 V
1.000 UL
LTb
2376 995 M
gsave 0 setgray
[ [(Times) 220.0 0.0 true true 0 (-0.5)]
] -73.3 MCshow
grestore
1.000 UL
LTb
1.000 UL
LTb
2845 1028 M
53 27 V
1.000 UL
LTb
2736 933 M
gsave 0 setgray
[ [(Times) 220.0 0.0 true true 0 ( 0)]
] -73.3 MCshow
grestore
1.000 UL
LTb
1.000 UL
LTb
4662 1975 M
52 27 V
1.000 UL
LTb
3205 965 M
53 28 V
1.000 UL
LTb
3096 870 M
gsave 0 setgray
[ [(Times) 220.0 0.0 true true 0 ( 0.5)]
] -73.3 MCshow
grestore
1.000 UL
LTb
1.000 UL
LTb
5022 1912 M
52 28 V
1.000 UL
LTb
3565 903 M
52 27 V
1.000 UL
LTb
3455 808 M
gsave 0 setgray
[ [(Times) 220.0 0.0 true true 0 ( 1)]
] -73.3 MCshow
grestore
1.000 UL
LTb
1.000 UL
LTb
5382 1850 M
52 27 V
1.000 UL
LTb
3924 840 M
52 28 V
1.000 UL
LTb
3814 745 M
gsave 0 setgray
[ [(Times) 220.0 0.0 true true 0 ( 1.5)]
] -73.3 MCshow
grestore
1.000 UL
LTb
1.000 UL
LTb
5742 1787 M
52 28 V
1.000 UL
LTb
4284 778 M
52 27 V
1.000 UL
LTb
4174 683 M
gsave 0 setgray
[ [(Times) 220.0 0.0 true true 0 ( 2)]
] -73.3 MCshow
grestore
1.000 UL
LTb
1.000 UL
LTb
6102 1725 M
52 27 V
LTb
2198 816 M
gsave 0 setgray
[ [(Times) 220.0 0.0 true true 0 (Re\(p\))]
] -73.3 MCshow
grestore
1.000 UL
LTb
4284 778 M
-55 9 V
stroke
4398 745 M
gsave 0 setgray
[ [(Times) 220.0 0.0 true true 0 (-0.5)]
] -73.3 MCshow
grestore
1.000 UL
LTb
1.000 UL
LTb
1101 1331 M
-55 9 V
1.000 UL
LTb
4492 886 M
-55 10 V
stroke
4606 853 M
gsave 0 setgray
[ [(Times) 220.0 0.0 true true 0 ( 0)]
] -73.3 MCshow
grestore
1.000 UL
LTb
1.000 UL
LTb
1308 1439 M
-54 10 V
1.000 UL
LTb
4700 994 M
-55 10 V
stroke
4814 961 M
gsave 0 setgray
[ [(Times) 220.0 0.0 true true 0 ( 0.5)]
] -73.3 MCshow
grestore
1.000 UL
LTb
1.000 UL
LTb
1516 1547 M
-54 10 V
1.000 UL
LTb
4907 1103 M
-54 9 V
stroke
5022 1070 M
gsave 0 setgray
[ [(Times) 220.0 0.0 true true 0 ( 1)]
] -73.3 MCshow
grestore
1.000 UL
LTb
1.000 UL
LTb
1724 1656 M
-55 9 V
1.000 UL
LTb
5115 1211 M
-54 9 V
stroke
5229 1178 M
gsave 0 setgray
[ [(Times) 220.0 0.0 true true 0 ( 1.5)]
] -73.3 MCshow
grestore
1.000 UL
LTb
1.000 UL
LTb
1932 1764 M
-55 9 V
1.000 UL
LTb
5323 1319 M
-55 10 V
stroke
5437 1286 M
gsave 0 setgray
[ [(Times) 220.0 0.0 true true 0 ( 2)]
] -73.3 MCshow
grestore
1.000 UL
LTb
1.000 UL
LTb
2139 1872 M
-54 10 V
1.000 UL
LTb
5531 1427 M
-55 10 V
stroke
5645 1394 M
gsave 0 setgray
[ [(Times) 220.0 0.0 true true 0 ( 2.5)]
] -73.3 MCshow
grestore
1.000 UL
LTb
1.000 UL
LTb
2347 1980 M
-54 10 V
1.000 UL
LTb
5738 1536 M
-54 9 V
stroke
5853 1503 M
gsave 0 setgray
[ [(Times) 220.0 0.0 true true 0 ( 3)]
] -73.3 MCshow
grestore
1.000 UL
LTb
1.000 UL
LTb
2555 2089 M
-55 9 V
1.000 UL
LTb
5946 1644 M
-54 9 V
stroke
6061 1611 M
gsave 0 setgray
[ [(Times) 220.0 0.0 true true 0 ( 3.5)]
] -73.3 MCshow
grestore
1.000 UL
LTb
1.000 UL
LTb
2763 2197 M
-55 9 V
1.000 UL
LTb
6154 1752 M
-55 10 V
stroke
6268 1719 M
gsave 0 setgray
[ [(Times) 220.0 0.0 true true 0 ( 4)]
] -73.3 MCshow
grestore
1.000 UL
LTb
1.000 UL
LTb
2971 2305 M
-55 10 V
LTb
6029 1124 M
gsave 0 setgray
[ [(Times) 220.0 0.0 true true 0 (Im\(p\))]
] -73.3 MCshow
grestore
1.000 UL
LTb
1109 1990 M
-63 0 V
stroke
920 1990 M
gsave 0 setgray
[ [(Times) 220.0 0.0 true true 0 (-20)]
] -73.3 MRshow
grestore
1.000 UL
LTb
1.000 UL
LTb
1109 2206 M
-63 0 V
stroke
920 2206 M
gsave 0 setgray
[ [(Times) 220.0 0.0 true true 0 (-10)]
] -73.3 MRshow
grestore
1.000 UL
LTb
1.000 UL
LTb
1109 2423 M
-63 0 V
stroke
920 2423 M
gsave 0 setgray
[ [(Times) 220.0 0.0 true true 0 ( 0)]
] -73.3 MRshow
grestore
1.000 UL
LTb
1.000 UL
LTb
1109 2638 M
-63 0 V
stroke
920 2638 M
gsave 0 setgray
[ [(Times) 220.0 0.0 true true 0 ( 10)]
] -73.3 MRshow
grestore
1.000 UL
LTb
1.000 UL
LTb
1109 2855 M
-63 0 V
stroke
920 2855 M
gsave 0 setgray
[ [(Times) 220.0 0.0 true true 0 ( 20)]
] -73.3 MRshow
grestore
1.000 UL
LTb
1.000 UL
LTb
1109 3071 M
-63 0 V
stroke
920 3071 M
gsave 0 setgray
[ [(Times) 220.0 0.0 true true 0 ( 30)]
] -73.3 MRshow
grestore
1.000 UL
LTb
1.000 UL
LTb
1109 3288 M
-63 0 V
stroke
920 3288 M
gsave 0 setgray
[ [(Times) 220.0 0.0 true true 0 ( 40)]
] -73.3 MRshow
grestore
1.000 UL
LTb
1.000 UP
stroke
grestore
end
showpage
%%Trailer
%%DocumentFonts: Times
