%!PS-Adobe-2.0 EPSF-2.0
%%Title: potential_imag_pulsebc.eps
%%Creator: gnuplot 4.0 patchlevel 0
%%CreationDate: Fri Nov 17 17:03:45 2006
%%DocumentFonts: (atend)
%%BoundingBox: 50 50 410 302
%%Orientation: Portrait
%%EndComments
/gnudict 256 dict def
gnudict begin
/Color false def
/Solid false def
/gnulinewidth 5.000 def
/userlinewidth gnulinewidth def
/vshift -73 def
/dl {10.0 mul} def
/hpt_ 31.5 def
/vpt_ 31.5 def
/hpt hpt_ def
/vpt vpt_ def
/Rounded false def
/M {moveto} bind def
/L {lineto} bind def
/R {rmoveto} bind def
/V {rlineto} bind def
/N {newpath moveto} bind def
/C {setrgbcolor} bind def
/f {rlineto fill} bind def
/vpt2 vpt 2 mul def
/hpt2 hpt 2 mul def
/Lshow { currentpoint stroke M
  0 vshift R show } def
/Rshow { currentpoint stroke M
  dup stringwidth pop neg vshift R show } def
/Cshow { currentpoint stroke M
  dup stringwidth pop -2 div vshift R show } def
/UP { dup vpt_ mul /vpt exch def hpt_ mul /hpt exch def
  /hpt2 hpt 2 mul def /vpt2 vpt 2 mul def } def
/DL { Color {setrgbcolor Solid {pop []} if 0 setdash }
 {pop pop pop 0 setgray Solid {pop []} if 0 setdash} ifelse } def
/BL { stroke userlinewidth 2 mul setlinewidth
      Rounded { 1 setlinejoin 1 setlinecap } if } def
/AL { stroke userlinewidth 2 div setlinewidth
      Rounded { 1 setlinejoin 1 setlinecap } if } def
/UL { dup gnulinewidth mul /userlinewidth exch def
      dup 1 lt {pop 1} if 10 mul /udl exch def } def
/PL { stroke userlinewidth setlinewidth
      Rounded { 1 setlinejoin 1 setlinecap } if } def
/LTw { PL [] 1 setgray } def
/LTb { BL [] 0 0 0 DL } def
/LTa { AL [1 udl mul 2 udl mul] 0 setdash 0 0 0 setrgbcolor } def
/LT0 { PL [] 1 0 0 DL } def
/LT1 { PL [4 dl 2 dl] 0 1 0 DL } def
/LT2 { PL [2 dl 3 dl] 0 0 1 DL } def
/LT3 { PL [1 dl 1.5 dl] 1 0 1 DL } def
/LT4 { PL [5 dl 2 dl 1 dl 2 dl] 0 1 1 DL } def
/LT5 { PL [4 dl 3 dl 1 dl 3 dl] 1 1 0 DL } def
/LT6 { PL [2 dl 2 dl 2 dl 4 dl] 0 0 0 DL } def
/LT7 { PL [2 dl 2 dl 2 dl 2 dl 2 dl 4 dl] 1 0.3 0 DL } def
/LT8 { PL [2 dl 2 dl 2 dl 2 dl 2 dl 2 dl 2 dl 4 dl] 0.5 0.5 0.5 DL } def
/Pnt { stroke [] 0 setdash
   gsave 1 setlinecap M 0 0 V stroke grestore } def
/Dia { stroke [] 0 setdash 2 copy vpt add M
  hpt neg vpt neg V hpt vpt neg V
  hpt vpt V hpt neg vpt V closepath stroke
  Pnt } def
/Pls { stroke [] 0 setdash vpt sub M 0 vpt2 V
  currentpoint stroke M
  hpt neg vpt neg R hpt2 0 V stroke
  } def
/Box { stroke [] 0 setdash 2 copy exch hpt sub exch vpt add M
  0 vpt2 neg V hpt2 0 V 0 vpt2 V
  hpt2 neg 0 V closepath stroke
  Pnt } def
/Crs { stroke [] 0 setdash exch hpt sub exch vpt add M
  hpt2 vpt2 neg V currentpoint stroke M
  hpt2 neg 0 R hpt2 vpt2 V stroke } def
/TriU { stroke [] 0 setdash 2 copy vpt 1.12 mul add M
  hpt neg vpt -1.62 mul V
  hpt 2 mul 0 V
  hpt neg vpt 1.62 mul V closepath stroke
  Pnt  } def
/Star { 2 copy Pls Crs } def
/BoxF { stroke [] 0 setdash exch hpt sub exch vpt add M
  0 vpt2 neg V  hpt2 0 V  0 vpt2 V
  hpt2 neg 0 V  closepath fill } def
/TriUF { stroke [] 0 setdash vpt 1.12 mul add M
  hpt neg vpt -1.62 mul V
  hpt 2 mul 0 V
  hpt neg vpt 1.62 mul V closepath fill } def
/TriD { stroke [] 0 setdash 2 copy vpt 1.12 mul sub M
  hpt neg vpt 1.62 mul V
  hpt 2 mul 0 V
  hpt neg vpt -1.62 mul V closepath stroke
  Pnt  } def
/TriDF { stroke [] 0 setdash vpt 1.12 mul sub M
  hpt neg vpt 1.62 mul V
  hpt 2 mul 0 V
  hpt neg vpt -1.62 mul V closepath fill} def
/DiaF { stroke [] 0 setdash vpt add M
  hpt neg vpt neg V hpt vpt neg V
  hpt vpt V hpt neg vpt V closepath fill } def
/Pent { stroke [] 0 setdash 2 copy gsave
  translate 0 hpt M 4 {72 rotate 0 hpt L} repeat
  closepath stroke grestore Pnt } def
/PentF { stroke [] 0 setdash gsave
  translate 0 hpt M 4 {72 rotate 0 hpt L} repeat
  closepath fill grestore } def
/Circle { stroke [] 0 setdash 2 copy
  hpt 0 360 arc stroke Pnt } def
/CircleF { stroke [] 0 setdash hpt 0 360 arc fill } def
/C0 { BL [] 0 setdash 2 copy moveto vpt 90 450  arc } bind def
/C1 { BL [] 0 setdash 2 copy        moveto
       2 copy  vpt 0 90 arc closepath fill
               vpt 0 360 arc closepath } bind def
/C2 { BL [] 0 setdash 2 copy moveto
       2 copy  vpt 90 180 arc closepath fill
               vpt 0 360 arc closepath } bind def
/C3 { BL [] 0 setdash 2 copy moveto
       2 copy  vpt 0 180 arc closepath fill
               vpt 0 360 arc closepath } bind def
/C4 { BL [] 0 setdash 2 copy moveto
       2 copy  vpt 180 270 arc closepath fill
               vpt 0 360 arc closepath } bind def
/C5 { BL [] 0 setdash 2 copy moveto
       2 copy  vpt 0 90 arc
       2 copy moveto
       2 copy  vpt 180 270 arc closepath fill
               vpt 0 360 arc } bind def
/C6 { BL [] 0 setdash 2 copy moveto
      2 copy  vpt 90 270 arc closepath fill
              vpt 0 360 arc closepath } bind def
/C7 { BL [] 0 setdash 2 copy moveto
      2 copy  vpt 0 270 arc closepath fill
              vpt 0 360 arc closepath } bind def
/C8 { BL [] 0 setdash 2 copy moveto
      2 copy vpt 270 360 arc closepath fill
              vpt 0 360 arc closepath } bind def
/C9 { BL [] 0 setdash 2 copy moveto
      2 copy  vpt 270 450 arc closepath fill
              vpt 0 360 arc closepath } bind def
/C10 { BL [] 0 setdash 2 copy 2 copy moveto vpt 270 360 arc closepath fill
       2 copy moveto
       2 copy vpt 90 180 arc closepath fill
               vpt 0 360 arc closepath } bind def
/C11 { BL [] 0 setdash 2 copy moveto
       2 copy  vpt 0 180 arc closepath fill
       2 copy moveto
       2 copy  vpt 270 360 arc closepath fill
               vpt 0 360 arc closepath } bind def
/C12 { BL [] 0 setdash 2 copy moveto
       2 copy  vpt 180 360 arc closepath fill
               vpt 0 360 arc closepath } bind def
/C13 { BL [] 0 setdash  2 copy moveto
       2 copy  vpt 0 90 arc closepath fill
       2 copy moveto
       2 copy  vpt 180 360 arc closepath fill
               vpt 0 360 arc closepath } bind def
/C14 { BL [] 0 setdash 2 copy moveto
       2 copy  vpt 90 360 arc closepath fill
               vpt 0 360 arc } bind def
/C15 { BL [] 0 setdash 2 copy vpt 0 360 arc closepath fill
               vpt 0 360 arc closepath } bind def
/Rec   { newpath 4 2 roll moveto 1 index 0 rlineto 0 exch rlineto
       neg 0 rlineto closepath } bind def
/Square { dup Rec } bind def
/Bsquare { vpt sub exch vpt sub exch vpt2 Square } bind def
/S0 { BL [] 0 setdash 2 copy moveto 0 vpt rlineto BL Bsquare } bind def
/S1 { BL [] 0 setdash 2 copy vpt Square fill Bsquare } bind def
/S2 { BL [] 0 setdash 2 copy exch vpt sub exch vpt Square fill Bsquare } bind def
/S3 { BL [] 0 setdash 2 copy exch vpt sub exch vpt2 vpt Rec fill Bsquare } bind def
/S4 { BL [] 0 setdash 2 copy exch vpt sub exch vpt sub vpt Square fill Bsquare } bind def
/S5 { BL [] 0 setdash 2 copy 2 copy vpt Square fill
       exch vpt sub exch vpt sub vpt Square fill Bsquare } bind def
/S6 { BL [] 0 setdash 2 copy exch vpt sub exch vpt sub vpt vpt2 Rec fill Bsquare } bind def
/S7 { BL [] 0 setdash 2 copy exch vpt sub exch vpt sub vpt vpt2 Rec fill
       2 copy vpt Square fill
       Bsquare } bind def
/S8 { BL [] 0 setdash 2 copy vpt sub vpt Square fill Bsquare } bind def
/S9 { BL [] 0 setdash 2 copy vpt sub vpt vpt2 Rec fill Bsquare } bind def
/S10 { BL [] 0 setdash 2 copy vpt sub vpt Square fill 2 copy exch vpt sub exch vpt Square fill
       Bsquare } bind def
/S11 { BL [] 0 setdash 2 copy vpt sub vpt Square fill 2 copy exch vpt sub exch vpt2 vpt Rec fill
       Bsquare } bind def
/S12 { BL [] 0 setdash 2 copy exch vpt sub exch vpt sub vpt2 vpt Rec fill Bsquare } bind def
/S13 { BL [] 0 setdash 2 copy exch vpt sub exch vpt sub vpt2 vpt Rec fill
       2 copy vpt Square fill Bsquare } bind def
/S14 { BL [] 0 setdash 2 copy exch vpt sub exch vpt sub vpt2 vpt Rec fill
       2 copy exch vpt sub exch vpt Square fill Bsquare } bind def
/S15 { BL [] 0 setdash 2 copy Bsquare fill Bsquare } bind def
/D0 { gsave translate 45 rotate 0 0 S0 stroke grestore } bind def
/D1 { gsave translate 45 rotate 0 0 S1 stroke grestore } bind def
/D2 { gsave translate 45 rotate 0 0 S2 stroke grestore } bind def
/D3 { gsave translate 45 rotate 0 0 S3 stroke grestore } bind def
/D4 { gsave translate 45 rotate 0 0 S4 stroke grestore } bind def
/D5 { gsave translate 45 rotate 0 0 S5 stroke grestore } bind def
/D6 { gsave translate 45 rotate 0 0 S6 stroke grestore } bind def
/D7 { gsave translate 45 rotate 0 0 S7 stroke grestore } bind def
/D8 { gsave translate 45 rotate 0 0 S8 stroke grestore } bind def
/D9 { gsave translate 45 rotate 0 0 S9 stroke grestore } bind def
/D10 { gsave translate 45 rotate 0 0 S10 stroke grestore } bind def
/D11 { gsave translate 45 rotate 0 0 S11 stroke grestore } bind def
/D12 { gsave translate 45 rotate 0 0 S12 stroke grestore } bind def
/D13 { gsave translate 45 rotate 0 0 S13 stroke grestore } bind def
/D14 { gsave translate 45 rotate 0 0 S14 stroke grestore } bind def
/D15 { gsave translate 45 rotate 0 0 S15 stroke grestore } bind def
/DiaE { stroke [] 0 setdash vpt add M
  hpt neg vpt neg V hpt vpt neg V
  hpt vpt V hpt neg vpt V closepath stroke } def
/BoxE { stroke [] 0 setdash exch hpt sub exch vpt add M
  0 vpt2 neg V hpt2 0 V 0 vpt2 V
  hpt2 neg 0 V closepath stroke } def
/TriUE { stroke [] 0 setdash vpt 1.12 mul add M
  hpt neg vpt -1.62 mul V
  hpt 2 mul 0 V
  hpt neg vpt 1.62 mul V closepath stroke } def
/TriDE { stroke [] 0 setdash vpt 1.12 mul sub M
  hpt neg vpt 1.62 mul V
  hpt 2 mul 0 V
  hpt neg vpt -1.62 mul V closepath stroke } def
/PentE { stroke [] 0 setdash gsave
  translate 0 hpt M 4 {72 rotate 0 hpt L} repeat
  closepath stroke grestore } def
/CircE { stroke [] 0 setdash 
  hpt 0 360 arc stroke } def
/Opaque { gsave closepath 1 setgray fill grestore 0 setgray closepath } def
/DiaW { stroke [] 0 setdash vpt add M
  hpt neg vpt neg V hpt vpt neg V
  hpt vpt V hpt neg vpt V Opaque stroke } def
/BoxW { stroke [] 0 setdash exch hpt sub exch vpt add M
  0 vpt2 neg V hpt2 0 V 0 vpt2 V
  hpt2 neg 0 V Opaque stroke } def
/TriUW { stroke [] 0 setdash vpt 1.12 mul add M
  hpt neg vpt -1.62 mul V
  hpt 2 mul 0 V
  hpt neg vpt 1.62 mul V Opaque stroke } def
/TriDW { stroke [] 0 setdash vpt 1.12 mul sub M
  hpt neg vpt 1.62 mul V
  hpt 2 mul 0 V
  hpt neg vpt -1.62 mul V Opaque stroke } def
/PentW { stroke [] 0 setdash gsave
  translate 0 hpt M 4 {72 rotate 0 hpt L} repeat
  Opaque stroke grestore } def
/CircW { stroke [] 0 setdash 
  hpt 0 360 arc Opaque stroke } def
/BoxFill { gsave Rec 1 setgray fill grestore } def
/BoxColFill {
  gsave Rec
  /Fillden exch def
  currentrgbcolor
  /ColB exch def /ColG exch def /ColR exch def
  /ColR ColR Fillden mul Fillden sub 1 add def
  /ColG ColG Fillden mul Fillden sub 1 add def
  /ColB ColB Fillden mul Fillden sub 1 add def
  ColR ColG ColB setrgbcolor
  fill grestore } def
%
% PostScript Level 1 Pattern Fill routine
% Usage: x y w h s a XX PatternFill
%	x,y = lower left corner of box to be filled
%	w,h = width and height of box
%	  a = angle in degrees between lines and x-axis
%	 XX = 0/1 for no/yes cross-hatch
%
/PatternFill { gsave /PFa [ 9 2 roll ] def
    PFa 0 get PFa 2 get 2 div add PFa 1 get PFa 3 get 2 div add translate
    PFa 2 get -2 div PFa 3 get -2 div PFa 2 get PFa 3 get Rec
    gsave 1 setgray fill grestore clip
    currentlinewidth 0.5 mul setlinewidth
    /PFs PFa 2 get dup mul PFa 3 get dup mul add sqrt def
    0 0 M PFa 5 get rotate PFs -2 div dup translate
	0 1 PFs PFa 4 get div 1 add floor cvi
	{ PFa 4 get mul 0 M 0 PFs V } for
    0 PFa 6 get ne {
	0 1 PFs PFa 4 get div 1 add floor cvi
	{ PFa 4 get mul 0 2 1 roll M PFs 0 V } for
    } if
    stroke grestore } def
%
/Symbol-Oblique /Symbol findfont [1 0 .167 1 0 0] makefont
dup length dict begin {1 index /FID eq {pop pop} {def} ifelse} forall
currentdict end definefont pop
/MFshow {
   { dup 5 get 3 ge
     { 5 get 3 eq {gsave} {grestore} ifelse }
     {dup dup 0 get findfont exch 1 get scalefont setfont
     [ currentpoint ] exch dup 2 get 0 exch R dup 5 get 2 ne {dup dup 6
     get exch 4 get {show} {stringwidth pop 0 R} ifelse }if dup 5 get 0 eq
     {dup 3 get {2 get neg 0 exch R pop} {pop aload pop M} ifelse} {dup 5
     get 1 eq {dup 2 get exch dup 3 get exch 6 get stringwidth pop -2 div
     dup 0 R} {dup 6 get stringwidth pop -2 div 0 R 6 get
     show 2 index {aload pop M neg 3 -1 roll neg R pop pop} {pop pop pop
     pop aload pop M} ifelse }ifelse }ifelse }
     ifelse }
   forall} bind def
/MFwidth {0 exch {dup 3 get{dup dup 0 get findfont exch 1 get scalefont
     setfont 6 get stringwidth pop add} {pop} ifelse} forall} bind def
/MLshow { currentpoint stroke M
  0 exch R MFshow } bind def
/MRshow { currentpoint stroke M
  exch dup MFwidth neg 3 -1 roll R MFshow } def
/MCshow { currentpoint stroke M
  exch dup MFwidth -2 div 3 -1 roll R MFshow } def
end
%%EndProlog
gnudict begin
gsave
50 50 translate
0.050 0.050 scale
0 setgray
newpath
(Times) findfont 220 scalefont setfont
1.000 UL
LTb
LTb
3600 4621 M
gsave 0 setgray
[ [(Times) 220.0 0.0 true true 0 (Im\(LT-BEM potential\))]
] -73.3 MCshow
grestore
3600 4401 M
gsave 0 setgray
[ [(Times) 220.0 0.0 true true 0 (pulse [e)]
[(Times) 176.0 110.0 true true 0 (-0.5p)]
[(Times) 220.0 0.0 true true 0 (\(1-e)]
[(Times) 176.0 110.0 true true 0 (-1.5p)]
[(Times) 220.0 0.0 true true 0 (\)/p)]
[(Times) 176.0 110.0 true true 0 (2)]
[(Times) 220.0 0.0 true true 0 (] boundary condition)]
] -95.3 MCshow
grestore
1.000 UP
1.000 UL
LT0
2996 3794 M
83 -19 V
1.000 UL
LT0
3223 3742 M
-144 33 V
1.000 UL
LT0
3140 3741 M
83 1 V
1.000 UL
LT0
3367 3708 M
-144 34 V
1.000 UL
LT0
3284 3692 M
83 16 V
1.000 UL
LT0
3511 3674 M
-144 34 V
1.000 UL
LT0
2913 3808 M
83 -14 V
1.000 UL
LT0
3140 3741 M
-144 53 V
1.000 UL
LT0
3428 3648 M
83 26 V
1.000 UL
LT0
3654 3640 M
-143 34 V
1.000 UL
LT0
3057 3735 M
83 6 V
1.000 UL
LT0
3284 3692 M
-144 49 V
1.000 UL
LT0
3572 3608 M
82 32 V
1.000 UL
LT0
3798 3608 M
-144 32 V
1.000 UL
LT0
3201 3672 M
83 20 V
1.000 UL
LT0
3428 3648 M
-144 44 V
1.000 UL
LT0
3715 3572 M
83 36 V
1.000 UL
LT0
3942 3578 M
-144 30 V
1.000 UL
LT0
3345 3619 M
83 29 V
1.000 UL
LT0
3572 3608 M
-144 40 V
1.000 UL
LT0
2830 3809 M
83 -1 V
1.000 UL
LT0
3057 3735 M
-144 73 V
1.000 UL
LT0
3859 3538 M
83 40 V
1.000 UL
LT0
4086 3548 M
-144 30 V
1.000 UL
LT0
2974 3717 M
83 18 V
1.000 UL
LT0
3201 3672 M
-144 63 V
1.000 UL
LT0
3489 3573 M
83 35 V
1.000 UL
LT0
3715 3572 M
-143 36 V
1.000 UL
LT0
3118 3643 M
83 29 V
1.000 UL
LT0
3345 3619 M
-144 53 V
1.000 UL
LT0
3632 3532 M
83 40 V
1.000 UL
LT0
3859 3538 M
-144 34 V
1.000 UL
LT0
4003 3507 M
83 41 V
1.000 UL
LT0
4230 3520 M
-144 28 V
1.000 UL
LT0
3262 3582 M
83 37 V
1.000 UL
LT0
3489 3573 M
-144 46 V
1.000 UL
LT0
3776 3496 M
83 42 V
1.000 UL
LT0
4003 3507 M
-144 31 V
1.000 UL
LT0
3406 3531 M
83 42 V
1.000 UL
LT0
3632 3532 M
-143 41 V
1.000 UL
LT0
4147 3477 M
83 43 V
1.000 UL
LT0
4374 3492 M
-144 28 V
1.000 UL
LT0
2747 3789 M
83 20 V
1.000 UL
LT0
2974 3717 M
-144 92 V
1.000 UL
LT0
2891 3683 M
83 34 V
1.000 UL
LT0
3118 3643 M
-144 74 V
1.000 UL
LT0
3035 3601 M
83 42 V
1.000 UL
LT0
3262 3582 M
-144 61 V
1.000 UL
LT0
3550 3488 M
82 44 V
1.000 UL
LT0
3776 3496 M
-144 36 V
1.000 UL
LT0
3920 3463 M
83 44 V
1.000 UL
LT0
4147 3477 M
-144 30 V
1.000 UL
LT0
4291 3449 M
83 43 V
1.000 UL
LT0
4518 3466 M
-144 26 V
1.000 UL
LT0
3179 3535 M
83 47 V
1.000 UL
LT0
3406 3531 M
-144 51 V
1.000 UL
LT0
3693 3451 M
83 45 V
1.000 UL
LT0
3920 3463 M
-144 33 V
1.000 UL
LT0
4064 3433 M
83 44 V
1.000 UL
LT0
4291 3449 M
-144 28 V
1.000 UL
LT0
3323 3482 M
83 49 V
1.000 UL
LT0
3550 3488 M
-144 43 V
1.000 UL
LT0
4435 3422 M
83 44 V
1.000 UL
LT0
4662 3439 M
-144 27 V
1.000 UL
LT0
2808 3626 M
83 57 V
1.000 UL
LT0
3035 3601 M
-144 82 V
1.000 UL
LT0
2747 3789 M
144 -106 V
1.000 UL
LT0
2664 3737 M
83 52 V
1.000 UL
LT0
2952 3541 M
83 60 V
1.000 UL
LT0
3179 3535 M
-144 66 V
1.000 UL
LT0
3467 3439 M
83 49 V
1.000 UL
LT0
3693 3451 M
-143 37 V
1.000 UL
LT0
3837 3418 M
83 45 V
1.000 UL
LT0
4064 3433 M
-144 30 V
1.000 UL
LT0
4208 3405 M
83 44 V
1.000 UL
LT0
4435 3422 M
-144 27 V
1.000 UL
LT0
3096 3476 M
83 59 V
1.000 UL
LT0
3323 3482 M
-144 53 V
1.000 UL
LT0
4579 3396 M
83 43 V
1.000 UL
LT0
4806 3414 M
-144 25 V
1.000 UL
LT0
3610 3401 M
83 50 V
1.000 UL
LT0
3837 3418 M
-144 33 V
1.000 UL
LT0
3240 3425 M
83 57 V
1.000 UL
LT0
3467 3439 M
-144 43 V
1.000 UL
LT0
3981 3387 M
83 46 V
1.000 UL
LT0
4208 3405 M
-144 28 V
1.000 UL
LT0
2725 3542 M
83 84 V
1.000 UL
LT0
2952 3541 M
-144 85 V
1.000 UL
LT0
2664 3737 M
144 -111 V
1.000 UL
LT0
4352 3377 M
83 45 V
1.000 UL
LT0
4579 3396 M
-144 26 V
1.000 UL
LT0
2581 3649 M
83 88 V
1.000 UL
LT0
2869 3463 M
83 78 V
1.000 UL
LT0
3096 3476 M
-144 65 V
1.000 UL
LT0
4723 3370 M
83 44 V
1.000 UL
LT0
4950 3388 M
-144 26 V
1.000 UL
LT0
3383 3383 M
84 56 V
1.000 UL
LT0
3610 3401 M
-143 38 V
1.000 UL
LT0
2309 2810 M
-39 -21 V
1.000 UL
LT0
2248 2946 M
-57 -148 V
1.000 UL
LT0
3753 3369 M
84 49 V
1.000 UL
LT0
3981 3387 M
-144 31 V
1.000 UL
LT0
3012 3404 M
84 72 V
1.000 UL
LT0
3240 3425 M
-144 51 V
1.000 UL
LT0
LT1
1916 2314 M
83 80 V
1.000 UL
LT0
LT1
2143 2560 M
1999 2394 L
1.000 UL
LT0
4125 3359 M
83 46 V
1.000 UL
LT0
4352 3377 M
-144 28 V
1.000 UL
LT0
4496 3351 M
83 45 V
1.000 UL
LT0
4723 3370 M
-144 26 V
1.000 UL
LT0
2392 2972 M
-144 -26 V
1.000 UL
LT0
2331 3160 M
-83 -214 V
1.000 UL
LT0
2641 3430 M
84 112 V
1.000 UL
LT0
2869 3463 M
-144 79 V
1.000 UL
LT0
2581 3649 M
144 -107 V
1.000 UL
LT0
2497 3521 M
84 128 V
1.000 UL
LT0
4867 3344 M
83 44 V
1.000 UL
LT0
5094 3363 M
-144 25 V
1.000 UL
LT0
3156 3358 M
84 67 V
1.000 UL
LT0
3383 3383 M
-143 42 V
1.000 UL
LT0
3527 3348 M
83 53 V
1.000 UL
LT0
3753 3369 M
-143 32 V
1.000 UL
LT0
2785 3366 M
84 97 V
1.000 UL
LT0
3012 3404 M
-143 59 V
1.000 UL
LT0
3897 3339 M
84 48 V
1.000 UL
LT0
4125 3359 M
-144 28 V
1.000 UL
LT0
2475 3138 M
-144 22 V
1.000 UL
LT0
2414 3356 M
-83 -196 V
1.000 UL
LT0
4268 3332 M
84 45 V
1.000 UL
LT0
4496 3351 M
-144 26 V
1.000 UL
LT0
2414 3356 M
83 165 V
1.000 UL
LT0
2641 3430 M
-144 91 V
1.000 UL
LT0
LT1
1833 2317 M
83 -3 V
1.000 UL
LT0
LT1
2060 2502 M
1916 2314 L
1.000 UL
LT0
2558 3294 M
-144 62 V
1.000 UL
LT0
2929 3318 M
83 86 V
1.000 UL
LT0
3156 3358 M
-144 46 V
1.000 UL
LT0
2558 3294 M
83 136 V
1.000 UL
LT0
2785 3366 M
-144 64 V
1.000 UL
LT0
4639 3326 M
84 44 V
1.000 UL
LT0
4867 3344 M
-144 26 V
1.000 UL
LT0
3300 3321 M
83 62 V
1.000 UL
LT0
3527 3348 M
-144 35 V
1.000 UL
LT0
3670 3317 M
83 52 V
1.000 UL
LT0
3897 3339 M
-144 30 V
1.000 UL
LT0
5010 3319 M
84 44 V
1.000 UL
LT0
5238 3338 M
-144 25 V
1.000 UL
LT0
2702 3251 M
83 115 V
1.000 UL
LT0
2929 3318 M
-144 48 V
1.000 UL
LT0
4041 3312 M
84 47 V
1.000 UL
LT0
4268 3332 M
-143 27 V
1.000 UL
LT0
2475 3138 M
83 156 V
1.000 UL
LT0
2702 3251 M
-144 43 V
1.000 UL
LT0
2392 2972 M
83 166 V
1.000 UL
LT0
2619 3125 M
-144 13 V
1.000 UL
LT0
3073 3282 M
83 76 V
1.000 UL
LT0
3300 3321 M
-144 37 V
1.000 UL
LT0
4412 3306 M
84 45 V
1.000 UL
LT0
4639 3326 M
-143 25 V
1.000 UL
LT0
2309 2810 M
83 162 V
1.000 UL
LT0
2536 2995 M
-144 -23 V
1.000 UL
LT0
3444 3290 M
83 58 V
1.000 UL
LT0
3670 3317 M
-143 31 V
1.000 UL
LT0
2295 2786 M
14 24 V
1.000 UL
LT0
2453 2870 M
-144 -60 V
1.000 UL
LT0
4783 3300 M
84 44 V
1.000 UL
LT0
5010 3319 M
-143 25 V
1.000 UL
LT0
2846 3221 M
83 97 V
1.000 UL
LT0
3073 3282 M
-144 36 V
1.000 UL
LT0
3814 3289 M
83 50 V
1.000 UL
LT0
4041 3312 M
-144 27 V
1.000 UL
LT0
2619 3125 M
83 126 V
1.000 UL
LT0
2846 3221 M
-144 30 V
1.000 UL
LT0
5154 3294 M
84 44 V
1.000 UL
LT0
5382 3313 M
-144 25 V
1.000 UL
LT0
4185 3286 M
83 46 V
1.000 UL
LT0
4412 3306 M
-144 26 V
1.000 UL
LT0
3217 3252 M
83 69 V
1.000 UL
LT0
3444 3290 M
-144 31 V
1.000 UL
LT0
4556 3281 M
83 45 V
1.000 UL
LT0
4783 3300 M
-144 26 V
1.000 UL
LT0
3588 3262 M
82 55 V
1.000 UL
LT0
3814 3289 M
-144 28 V
1.000 UL
LT0
2536 2995 M
83 130 V
1.000 UL
LT0
2763 3118 M
-144 7 V
1.000 UL
LT0
4927 3276 M
83 43 V
1.000 UL
LT0
5154 3294 M
-144 25 V
1.000 UL
LT0
2990 3199 M
83 83 V
1.000 UL
LT0
3217 3252 M
-144 30 V
1.000 UL
LT0
3958 3264 M
83 48 V
1.000 UL
LT0
4185 3286 M
-144 26 V
1.000 UL
LT0
2763 3118 M
83 103 V
1.000 UL
LT0
2990 3199 M
-144 22 V
1.000 UL
LT0
LT1
2060 2502 M
83 58 V
1.000 UL
LT0
LT1
2287 2678 M
2143 2560 L
1.000 UL
LT0
5298 3270 M
84 43 V
1.000 UL
LT0
5525 3288 M
-143 25 V
1.000 UL
LT0
LT1
1749 2406 M
84 -89 V
1.000 UL
LT0
LT1
1977 2501 M
1833 2317 L
1.000 UL
LT0
4329 3261 M
83 45 V
1.000 UL
LT0
4556 3281 M
-144 25 V
1.000 UL
LT0
2453 2870 M
83 125 V
1.000 UL
LT0
2680 3013 M
-144 -18 V
1.000 UL
LT0
3361 3228 M
83 62 V
1.000 UL
LT0
3588 3262 M
-144 28 V
1.000 UL
LT0
4700 3256 M
83 44 V
1.000 UL
LT0
4927 3276 M
-144 24 V
1.000 UL
LT0
3731 3238 M
83 51 V
1.000 UL
LT0
3958 3264 M
-144 25 V
1.000 UL
LT0
3134 3180 M
83 72 V
1.000 UL
LT0
3361 3228 M
-144 24 V
1.000 UL
LT0
5071 3251 M
83 43 V
1.000 UL
LT0
5298 3270 M
-144 24 V
1.000 UL
LT0
2387 2783 M
66 87 V
1.000 UL
LT0
2597 2913 M
-144 -43 V
1.000 UL
LT0
2680 3013 M
83 105 V
1.000 UL
LT0
2907 3112 M
-144 6 V
1.000 UL
LT0
4102 3239 M
83 47 V
1.000 UL
LT0
4329 3261 M
-144 25 V
1.000 UL
LT0
2907 3112 M
83 87 V
1.000 UL
LT0
3134 3180 M
-144 19 V
1.000 UL
LT0
5442 3245 M
83 43 V
1.000 UL
LT0
5669 3263 M
-144 25 V
1.000 UL
LT0
4473 3236 M
83 45 V
1.000 UL
LT0
4700 3256 M
-144 25 V
1.000 UL
LT0
3505 3205 M
83 57 V
1.000 UL
LT0
3731 3238 M
-143 24 V
1.000 UL
LT0
4844 3232 M
83 44 V
1.000 UL
LT0
5071 3251 M
-144 25 V
1.000 UL
LT0
LT1
1977 2501 M
83 1 V
1.000 UL
LT0
LT1
2204 2630 M
2060 2502 L
1.000 UL
LT0
3875 3214 M
83 50 V
1.000 UL
LT0
4102 3239 M
-144 25 V
1.000 UL
LT0
2514 2827 M
-95 -44 V
1.000 UL
LT0
3278 3163 M
83 65 V
1.000 UL
LT0
3505 3205 M
-144 23 V
1.000 UL
LT0
5215 3226 M
83 44 V
1.000 UL
LT0
5442 3245 M
-144 25 V
1.000 UL
LT0
2597 2913 M
83 100 V
1.000 UL
LT0
2824 3025 M
-144 -12 V
1.000 UL
LT0
4246 3215 M
83 46 V
1.000 UL
LT0
4473 3236 M
-144 25 V
1.000 UL
LT0
5586 3220 M
83 43 V
1.000 UL
LT0
5813 3238 M
-144 25 V
1.000 UL
LT0
3051 3105 M
83 75 V
1.000 UL
LT0
3278 3163 M
-144 17 V
1.000 UL
LT0
2824 3025 M
83 87 V
1.000 UL
LT0
3051 3105 M
-144 7 V
1.000 UL
LT0
4617 3212 M
83 44 V
1.000 UL
LT0
4844 3232 M
-144 24 V
1.000 UL
LT0
3648 3184 M
83 54 V
1.000 UL
LT0
3875 3214 M
-144 24 V
1.000 UL
LT0
4988 3207 M
83 44 V
1.000 UL
LT0
5215 3226 M
-144 25 V
1.000 UL
LT0
4019 3191 M
83 48 V
1.000 UL
LT0
4246 3215 M
-144 24 V
1.000 UL
LT0
3422 3147 M
83 58 V
1.000 UL
LT0
3648 3184 M
-143 21 V
1.000 UL
LT0
5359 3201 M
83 44 V
1.000 UL
LT0
5586 3220 M
-144 25 V
1.000 UL
LT0
2514 2827 M
83 86 V
1.000 UL
LT0
2741 2944 M
-144 -31 V
1.000 UL
LT0
4390 3191 M
83 45 V
1.000 UL
LT0
4617 3212 M
-144 24 V
1.000 UL
LT0
LT1
2204 2630 M
83 48 V
1.000 UL
LT0
LT1
2387 2735 M
-100 -57 V
1.000 UL
LT0
5730 3195 M
83 43 V
1.000 UL
LT0
3195 3098 M
83 65 V
1.000 UL
LT0
3422 3147 M
-144 16 V
1.000 UL
LT0
4761 3188 M
83 44 V
1.000 UL
LT0
4988 3207 M
-144 25 V
1.000 UL
LT0
3792 3164 M
83 50 V
1.000 UL
LT0
4019 3191 M
-144 23 V
1.000 UL
LT0
2741 2944 M
83 81 V
1.000 UL
LT0
2968 3032 M
-144 -7 V
1.000 UL
LT0
2968 3032 M
83 73 V
1.000 UL
LT0
3195 3098 M
-144 7 V
1.000 UL
LT0
5132 3182 M
83 44 V
1.000 UL
LT0
5359 3201 M
-144 25 V
1.000 UL
LT0
LT1
1666 2572 M
83 -166 V
1.000 UL
LT0
LT1
1893 2557 M
1749 2406 L
1.000 UL
LT0
4163 3169 M
83 46 V
1.000 UL
LT0
4390 3191 M
-144 24 V
1.000 UL
LT0
5503 3176 M
83 44 V
1.000 UL
LT0
5730 3195 M
-144 25 V
1.000 UL
LT0
3566 3131 M
82 53 V
1.000 UL
LT0
3792 3164 M
-144 20 V
1.000 UL
LT0
LT1
1893 2557 M
84 -56 V
1.000 UL
LT0
LT1
2121 2623 M
1977 2501 L
1.000 UL
LT0
4534 3167 M
83 45 V
1.000 UL
LT0
4761 3188 M
-144 24 V
1.000 UL
LT0
2461 2784 M
53 43 V
1.000 UL
LT0
2658 2873 M
-144 -46 V
1.000 UL
LT0
4905 3163 M
83 44 V
1.000 UL
LT0
5132 3182 M
-144 25 V
1.000 UL
LT0
3936 3144 M
83 47 V
1.000 UL
LT0
4163 3169 M
-144 22 V
1.000 UL
LT0
3339 3089 M
83 58 V
1.000 UL
LT0
3566 3131 M
-144 16 V
1.000 UL
LT0
5276 3158 M
83 43 V
1.000 UL
LT0
5503 3176 M
-144 25 V
1.000 UL
LT0
2658 2873 M
83 71 V
1.000 UL
LT0
2885 2964 M
-144 -20 V
1.000 UL
LT0
LT1
2121 2623 M
83 7 V
1.000 UL
LT0
LT1
2348 2719 M
-144 -89 V
1.000 UL
LT0
3112 3035 M
83 63 V
1.000 UL
LT0
3339 3089 M
-144 9 V
1.000 UL
LT0
4307 3146 M
83 45 V
1.000 UL
LT0
4534 3167 M
-144 24 V
1.000 UL
LT0
2885 2964 M
83 68 V
1.000 UL
LT0
3112 3035 M
-144 -3 V
1.000 UL
LT0
5647 3152 M
83 43 V
1.000 UL
LT0
3709 3114 M
83 50 V
1.000 UL
LT0
3936 3144 M
-144 20 V
1.000 UL
LT0
4678 3144 M
83 44 V
1.000 UL
LT0
4905 3163 M
-144 25 V
1.000 UL
LT0
5049 3139 M
83 43 V
1.000 UL
LT0
5276 3158 M
-144 24 V
1.000 UL
LT0
4080 3123 M
83 46 V
1.000 UL
LT0
4307 3146 M
-144 23 V
1.000 UL
LT0
2575 2817 M
-70 -28 V
1.000 UL
LT0
3483 3078 M
83 53 V
1.000 UL
LT0
3709 3114 M
-143 17 V
1.000 UL
LT0
5420 3133 M
83 43 V
1.000 UL
LT0
5647 3152 M
-144 24 V
1.000 UL
LT0
4451 3123 M
83 44 V
1.000 UL
LT0
4678 3144 M
-144 23 V
1.000 UL
LT0
3256 3033 M
83 56 V
1.000 UL
LT0
3483 3078 M
-144 11 V
1.000 UL
LT0
2575 2817 M
83 56 V
1.000 UL
LT0
2802 2904 M
-144 -31 V
1.000 UL
LT0
3853 3096 M
83 48 V
1.000 UL
LT0
4080 3123 M
-144 21 V
1.000 UL
LT0
4822 3120 M
83 43 V
1.000 UL
LT0
5049 3139 M
-144 24 V
1.000 UL
LT0
3071 3006 M
41 29 V
1.000 UL
LT0
3256 3033 M
-144 2 V
1.000 UL
LT0
2802 2904 M
83 60 V
1.000 UL
LT0
2999 2973 M
-114 -9 V
1.000 UL
LT0
5193 3114 M
83 44 V
1.000 UL
LT0
5420 3133 M
-144 25 V
1.000 UL
LT0
4224 3101 M
83 45 V
1.000 UL
LT0
4451 3123 M
-144 23 V
1.000 UL
LT0
5564 3108 M
83 44 V
1.000 UL
LT0
3626 3065 M
83 49 V
1.000 UL
LT0
3853 3096 M
-144 18 V
1.000 UL
LT0
4595 3100 M
83 44 V
1.000 UL
LT0
4822 3120 M
-144 24 V
1.000 UL
LT0
LT1
2037 2656 M
84 -33 V
1.000 UL
LT0
LT1
2264 2706 M
-143 -83 V
1.000 UL
LT0
LT1
1810 2665 M
83 -108 V
1.000 UL
LT0
LT1
2037 2656 M
-144 -99 V
1.000 UL
LT0
4966 3095 M
83 44 V
1.000 UL
LT0
5193 3114 M
-144 25 V
1.000 UL
LT0
3997 3077 M
83 46 V
1.000 UL
LT0
4224 3101 M
-144 22 V
1.000 UL
LT0
3400 3027 M
83 51 V
1.000 UL
LT0
3626 3065 M
-143 13 V
1.000 UL
LT0
LT1
2264 2706 M
84 13 V
1.000 UL
LT0
LT1
2409 2744 M
-61 -25 V
1.000 UL
LT0
5337 3090 M
83 43 V
1.000 UL
LT0
5564 3108 M
-144 25 V
1.000 UL
LT0
4368 3079 M
83 44 V
1.000 UL
LT0
4595 3100 M
-144 23 V
1.000 UL
LT0
3174 2981 M
82 52 V
1.000 UL
LT0
3400 3027 M
-144 6 V
1.000 UL
LT0
2519 2791 M
56 26 V
1.000 UL
LT0
2719 2855 M
-144 -38 V
1.000 UL
LT0
2946 2923 M
39 25 V
1.000 UL
LT0
3770 3050 M
83 46 V
1.000 UL
LT0
3997 3077 M
-144 19 V
1.000 UL
LT0
2719 2855 M
83 49 V
1.000 UL
LT0
2946 2923 M
-144 -19 V
1.000 UL
LT0
4739 3076 M
83 44 V
1.000 UL
LT0
4966 3095 M
-144 25 V
1.000 UL
LT0
5110 3071 M
83 43 V
1.000 UL
LT0
5337 3090 M
-144 24 V
1.000 UL
LT0
4141 3057 M
83 44 V
1.000 UL
LT0
4368 3079 M
-144 22 V
1.000 UL
LT0
LT1
1583 2792 M
83 -220 V
1.000 UL
LT0
LT1
1810 2665 M
-144 -93 V
1.000 UL
LT0
3544 3018 M
82 47 V
1.000 UL
LT0
3770 3050 M
-144 15 V
1.000 UL
LT0
5481 3065 M
83 43 V
1.000 UL
LT0
4512 3056 M
83 44 V
1.000 UL
LT0
4739 3076 M
-144 24 V
1.000 UL
LT0
3317 2980 M
83 47 V
1.000 UL
LT0
3544 3018 M
-144 9 V
1.000 UL
LT0
4883 3052 M
83 43 V
1.000 UL
LT0
5110 3071 M
-144 24 V
1.000 UL
LT0
3914 3033 M
83 44 V
1.000 UL
LT0
4141 3057 M
-144 20 V
1.000 UL
LT0
5254 3047 M
83 43 V
1.000 UL
LT0
5481 3065 M
-144 25 V
1.000 UL
LT0
3317 2980 M
-143 1 V
1.000 UL
LT0
4285 3036 M
83 43 V
1.000 UL
LT0
4512 3056 M
-144 23 V
1.000 UL
LT0
2863 2879 M
83 44 V
1.000 UL
LT0
2971 2925 M
-25 -2 V
1.000 UL
LT0
LT1
2181 2720 M
83 -14 V
1.000 UL
LT0
LT1
2384 2751 M
-120 -45 V
1.000 UL
LT0
2635 2818 M
84 37 V
1.000 UL
LT0
2863 2879 M
-144 -24 V
1.000 UL
LT0
3687 3006 M
83 44 V
1.000 UL
LT0
3914 3033 M
-144 17 V
1.000 UL
LT0
4656 3033 M
83 43 V
1.000 UL
LT0
4883 3052 M
-144 24 V
1.000 UL
LT0
LT1
1954 2723 M
83 -67 V
1.000 UL
LT0
LT1
2181 2720 M
-144 -64 V
1.000 UL
LT0
5027 3028 M
83 43 V
1.000 UL
LT0
5254 3047 M
-144 24 V
1.000 UL
LT0
4058 3014 M
83 43 V
1.000 UL
LT0
4285 3036 M
-144 21 V
1.000 UL
LT0
3461 2975 M
83 43 V
1.000 UL
LT0
3687 3006 M
-143 12 V
1.000 UL
LT0
5398 3022 M
83 43 V
1.000 UL
LT0
4429 3013 M
83 43 V
1.000 UL
LT0
4656 3033 M
-144 23 V
1.000 UL
LT0
3234 2938 M
83 42 V
1.000 UL
LT0
3461 2975 M
-144 5 V
1.000 UL
LT0
4800 3009 M
83 43 V
1.000 UL
LT0
5027 3028 M
-144 24 V
1.000 UL
LT0
3831 2990 M
83 43 V
1.000 UL
LT0
4058 3014 M
-144 19 V
1.000 UL
LT0
LT1
1727 2809 M
83 -144 V
1.000 UL
LT0
LT1
1954 2723 M
-144 -58 V
1.000 UL
LT0
5171 3003 M
83 44 V
1.000 UL
LT0
5398 3022 M
-144 25 V
1.000 UL
LT0
3234 2938 M
-25 -1 V
1.000 UL
LT0
4202 2993 M
83 43 V
1.000 UL
LT0
4429 3013 M
-144 23 V
1.000 UL
LT0
2779 2845 M
84 34 V
1.000 UL
LT0
2950 2888 M
-87 -9 V
1.000 UL
LT0
3604 2965 M
83 41 V
1.000 UL
LT0
3831 2990 M
-144 16 V
1.000 UL
LT0
2552 2796 M
83 22 V
1.000 UL
LT0
2779 2845 M
-144 -27 V
1.000 UL
LT0
4573 2990 M
83 43 V
1.000 UL
LT0
4800 3009 M
-144 24 V
1.000 UL
LT0
LT1
2325 2760 M
22 0 V
1.000 UL
LT0
4944 2985 M
83 43 V
1.000 UL
LT0
5171 3003 M
-144 25 V
1.000 UL
LT0
3975 2972 M
83 42 V
1.000 UL
LT0
4202 2993 M
-144 21 V
1.000 UL
LT0
3378 2936 M
83 39 V
1.000 UL
LT0
3604 2965 M
-143 10 V
1.000 UL
LT0
5315 2979 M
83 43 V
1.000 UL
LT0
LT1
2098 2757 M
83 -37 V
1.000 UL
LT0
LT1
2325 2760 M
-144 -40 V
1.000 UL
LT0
4346 2971 M
83 42 V
1.000 UL
LT0
4573 2990 M
-144 23 V
1.000 UL
LT0
3215 2930 M
19 8 V
1.000 UL
LT0
3378 2936 M
-144 2 V
1.000 UL
LT0
4717 2966 M
83 43 V
1.000 UL
LT0
4944 2985 M
-144 24 V
1.000 UL
LT0
3748 2951 M
83 39 V
1.000 UL
LT0
3975 2972 M
-144 18 V
1.000 UL
LT0
5088 2960 M
83 43 V
1.000 UL
LT0
5315 2979 M
-144 24 V
1.000 UL
LT0
2923 2862 M
15 5 V
1.000 UL
LT0
4119 2952 M
83 41 V
1.000 UL
LT0
4346 2971 M
-144 22 V
1.000 UL
LT0
LT1
1871 2813 M
83 -90 V
1.000 UL
LT0
LT1
2098 2757 M
-144 -34 V
1.000 UL
LT0
2696 2819 M
83 26 V
1.000 UL
LT0
2923 2862 M
-144 -17 V
1.000 UL
LT0
3521 2928 M
83 37 V
1.000 UL
LT0
3748 2951 M
-144 14 V
1.000 UL
LT0
4490 2948 M
83 42 V
1.000 UL
LT0
4717 2966 M
-144 24 V
1.000 UL
LT0
2469 2785 M
83 11 V
1.000 UL
LT0
2696 2819 M
-144 -23 V
1.000 UL
LT0
4861 2942 M
83 43 V
1.000 UL
LT0
5088 2960 M
-144 25 V
1.000 UL
LT0
3891 2933 M
84 39 V
1.000 UL
LT0
4119 2952 M
-144 20 V
1.000 UL
LT0
LT1
1500 3034 M
83 -242 V
1.000 UL
LT0
LT1
1727 2809 M
-144 -17 V
1.000 UL
LT0
3294 2903 M
84 33 V
1.000 UL
LT0
3521 2928 M
-143 8 V
1.000 UL
LT0
5232 2936 M
83 43 V
1.000 UL
LT0
4262 2930 M
84 41 V
1.000 UL
LT0
4490 2948 M
-144 23 V
1.000 UL
LT0
LT1
2242 2775 M
83 -15 V
1.000 UL
LT0
LT1
2338 2762 M
-13 -2 V
1.000 UL
LT0
4634 2924 M
83 42 V
1.000 UL
LT0
4861 2942 M
-144 24 V
1.000 UL
LT0
3294 2903 M
-57 -1 V
1.000 UL
LT0
3664 2915 M
84 36 V
1.000 UL
LT0
3891 2933 M
-143 18 V
1.000 UL
LT0
5005 2918 M
83 42 V
1.000 UL
LT0
5232 2936 M
-144 24 V
1.000 UL
LT0
4035 2913 M
84 39 V
1.000 UL
LT0
4262 2930 M
-143 22 V
1.000 UL
LT0
2840 2836 M
83 26 V
1.000 UL
LT0
2935 2863 M
-12 -1 V
1.000 UL
LT0
LT1
2015 2809 M
83 -52 V
1.000 UL
LT0
LT1
2242 2775 M
-144 -18 V
1.000 UL
LT0
3438 2897 M
83 31 V
1.000 UL
LT0
3664 2915 M
-143 13 V
1.000 UL
LT0
4406 2907 M
84 41 V
1.000 UL
LT0
4634 2924 M
-144 24 V
1.000 UL
LT0
2613 2800 M
83 19 V
1.000 UL
LT0
2840 2836 M
-144 -17 V
1.000 UL
LT0
LT1
1644 2967 M
83 -158 V
1.000 UL
LT0
LT1
1871 2813 M
-144 -4 V
1.000 UL
LT0
4777 2900 M
84 42 V
1.000 UL
LT0
5005 2918 M
-144 24 V
1.000 UL
LT0
3808 2897 M
83 36 V
1.000 UL
LT0
4035 2913 M
-144 20 V
1.000 UL
LT0
5148 2893 M
84 43 V
1.000 UL
LT0
3248 2888 M
46 15 V
1.000 UL
LT0
3438 2897 M
-144 6 V
1.000 UL
LT0
2613 2800 M
-144 -15 V
1.000 UL
LT0
4179 2890 M
83 40 V
1.000 UL
LT0
4406 2907 M
-144 23 V
1.000 UL
LT0
4550 2882 M
84 42 V
1.000 UL
LT0
4777 2900 M
-143 24 V
1.000 UL
LT0
3582 2883 M
82 32 V
1.000 UL
LT0
3808 2897 M
-144 18 V
1.000 UL
LT0
4921 2875 M
84 43 V
1.000 UL
LT0
5148 2893 M
-143 25 V
1.000 UL
LT0
3952 2875 M
83 38 V
1.000 UL
LT0
4179 2890 M
-144 23 V
1.000 UL
LT0
LT1
2159 2799 M
83 -24 V
1.000 UL
LT0
LT1
2278 2777 M
-36 -2 V
1.000 UL
LT0
LT1
1788 2913 M
83 -100 V
1.000 UL
LT0
LT1
2015 2809 M
-144 4 V
1.000 UL
LT0
2757 2813 M
83 23 V
1.000 UL
LT0
2923 2843 M
-83 -7 V
1.000 UL
LT0
4323 2866 M
83 41 V
1.000 UL
LT0
4550 2882 M
-144 25 V
1.000 UL
LT0
3355 2872 M
83 25 V
1.000 UL
LT0
3582 2883 M
-144 14 V
1.000 UL
LT0
4694 2858 M
83 42 V
1.000 UL
LT0
4921 2875 M
-144 25 V
1.000 UL
LT0
2530 2785 M
83 15 V
1.000 UL
LT0
2757 2813 M
-144 -13 V
1.000 UL
LT0
3725 2864 M
83 33 V
1.000 UL
LT0
3952 2875 M
-144 22 V
1.000 UL
LT0
5065 2850 M
83 43 V
1.000 UL
LT0
4096 2851 M
83 39 V
1.000 UL
LT0
4323 2866 M
-144 24 V
1.000 UL
LT0
3355 2872 M
-82 3 V
1.000 UL
LT0
4467 2841 M
83 41 V
1.000 UL
LT0
4694 2858 M
-144 24 V
1.000 UL
LT0
LT1
1932 2867 M
83 -58 V
1.000 UL
LT0
LT1
2159 2799 M
-144 10 V
1.000 UL
LT0
2303 2786 M
83 -4 V
1.000 UL
LT0
2530 2785 M
-144 -3 V
1.000 UL
LT0
4838 2833 M
83 42 V
1.000 UL
LT0
5065 2850 M
-144 25 V
1.000 UL
LT0
3499 2859 M
83 24 V
1.000 UL
LT0
3725 2864 M
-143 19 V
1.000 UL
LT0
2901 2827 M
15 4 V
1.000 UL
LT0
3869 2840 M
83 35 V
1.000 UL
LT0
4096 2851 M
-144 24 V
1.000 UL
LT0
4240 2826 M
83 40 V
1.000 UL
LT0
4467 2841 M
-144 25 V
1.000 UL
LT0
2674 2788 M
83 25 V
1.000 UL
LT0
2901 2827 M
-144 -14 V
1.000 UL
LT0
4611 2816 M
83 42 V
1.000 UL
LT0
4838 2833 M
-144 25 V
1.000 UL
LT0
3297 2863 M
58 9 V
1.000 UL
LT0
3499 2859 M
-144 13 V
1.000 UL
LT0
4982 2808 M
83 42 V
1.000 UL
LT0
3642 2836 M
83 28 V
1.000 UL
LT0
3869 2840 M
-144 24 V
1.000 UL
LT0
LT1
2076 2827 M
83 -28 V
1.000 UL
LT0
2303 2786 M
-100 9 V
1.000 UL
LT0
LT1
2220 2791 M
-61 8 V
1.000 UL
LT0
LT1
1644 2967 M
-144 67 V
1.000 UL
LT0
2447 2771 M
83 14 V
1.000 UL
LT0
4013 2814 M
83 37 V
1.000 UL
LT0
4240 2826 M
-144 25 V
1.000 UL
LT0
4384 2800 M
83 41 V
1.000 UL
LT0
4611 2816 M
-144 25 V
1.000 UL
LT0
LT1
1788 2913 M
-144 54 V
1.000 UL
LT0
4755 2791 M
83 42 V
1.000 UL
LT0
4982 2808 M
-144 25 V
1.000 UL
LT0
3416 2843 M
83 16 V
1.000 UL
LT0
3642 2836 M
-143 23 V
1.000 UL
LT0
3786 2807 M
83 33 V
1.000 UL
LT0
4013 2814 M
-144 26 V
1.000 UL
LT0
2818 2799 M
83 28 V
1.000 UL
LT0
2915 2829 M
-14 -2 V
1.000 UL
LT0
2220 2791 M
83 -5 V
1.000 UL
LT0
2447 2771 M
-144 15 V
1.000 UL
LT0
LT1
1932 2867 M
-144 46 V
1.000 UL
LT0
4157 2787 M
83 39 V
1.000 UL
LT0
4384 2800 M
-144 26 V
1.000 UL
LT0
4528 2774 M
83 42 V
1.000 UL
LT0
4755 2791 M
-144 25 V
1.000 UL
LT0
2591 2756 M
83 32 V
1.000 UL
LT0
2818 2799 M
-144 -11 V
1.000 UL
LT0
4899 2765 M
83 43 V
1.000 UL
LT0
3416 2843 M
-101 11 V
1.000 UL
LT0
LT1
2076 2827 M
-144 40 V
1.000 UL
LT0
3560 2813 M
82 23 V
1.000 UL
LT0
3786 2807 M
-144 29 V
1.000 UL
LT0
3930 2777 M
83 37 V
1.000 UL
LT0
4157 2787 M
-144 27 V
1.000 UL
LT0
4301 2760 M
83 40 V
1.000 UL
LT0
4528 2774 M
-144 26 V
1.000 UL
LT0
2364 2756 M
83 15 V
1.000 UL
LT0
2591 2756 M
-144 15 V
1.000 UL
LT0
4672 2748 M
83 43 V
1.000 UL
LT0
4899 2765 M
-144 26 V
1.000 UL
LT0
LT1
2220 2791 M
-144 36 V
1.000 UL
LT0
3703 2776 M
83 31 V
1.000 UL
LT0
3930 2777 M
-144 30 V
1.000 UL
LT0
4074 2748 M
83 39 V
1.000 UL
LT0
4301 2760 M
-144 27 V
1.000 UL
LT0
3333 2845 M
83 -2 V
1.000 UL
LT0
3560 2813 M
-144 30 V
1.000 UL
LT0
2735 2747 M
83 52 V
1.000 UL
LT0
2911 2822 M
-93 -23 V
1.000 UL
LT0
4445 2733 M
83 41 V
1.000 UL
LT0
4672 2748 M
-144 26 V
1.000 UL
LT0
4816 2723 M
83 42 V
1.000 UL
LT0
2508 2720 M
83 36 V
1.000 UL
LT0
2735 2747 M
-144 9 V
1.000 UL
LT0
2364 2756 M
-144 35 V
1.000 UL
LT0
3847 2740 M
83 37 V
1.000 UL
LT0
4074 2748 M
-144 29 V
1.000 UL
LT0
3084 2287 M
-144 27 V
1.000 UL
LT0
3023 3013 M
-83 -699 V
1.000 UL
LT0
2796 2609 M
144 -295 V
1.000 UL
LT0
3477 2795 M
83 18 V
1.000 UL
LT0
3703 2776 M
-143 37 V
1.000 UL
LT0
4218 2719 M
83 41 V
1.000 UL
LT0
4445 2733 M
-144 27 V
1.000 UL
LT0
4589 2706 M
83 42 V
1.000 UL
LT0
4816 2723 M
-144 25 V
1.000 UL
LT0
2508 2720 M
-144 36 V
1.000 UL
LT0
2652 2679 M
83 68 V
1.000 UL
LT0
2879 2767 M
-144 -20 V
1.000 UL
LT0
3991 2707 M
83 41 V
1.000 UL
LT0
4218 2719 M
-144 29 V
1.000 UL
LT0
3620 2743 M
83 33 V
1.000 UL
LT0
3847 2740 M
-144 36 V
1.000 UL
LT0
3228 2529 M
3084 2287 L
1.000 UL
LT0
3167 2990 M
-83 -703 V
1.000 UL
LT0
4362 2691 M
83 42 V
1.000 UL
LT0
4589 2706 M
-144 27 V
1.000 UL
LT0
4733 2680 M
83 43 V
1.000 UL
LT0
2652 2679 M
-144 41 V
1.000 UL
LT0
3250 2886 M
83 -41 V
1.000 UL
LT0
3477 2795 M
-144 50 V
1.000 UL
LT0
3764 2700 M
83 40 V
1.000 UL
LT0
3991 2707 M
-144 33 V
1.000 UL
LT0
4135 2677 M
83 42 V
1.000 UL
LT0
4362 2691 M
-144 28 V
1.000 UL
LT0
4506 2664 M
83 42 V
1.000 UL
LT0
4733 2680 M
-144 26 V
1.000 UL
LT0
3394 2775 M
83 20 V
1.000 UL
LT0
3620 2743 M
-143 52 V
1.000 UL
LT0
2796 2609 M
-144 70 V
1.000 UL
LT0
2796 2609 M
83 158 V
1.000 UL
LT0
3023 3013 M
2879 2767 L
1.000 UL
LT0
3908 2664 M
83 43 V
1.000 UL
LT0
4135 2677 M
-144 30 V
1.000 UL
LT0
3538 2700 M
82 43 V
1.000 UL
LT0
3764 2700 M
-144 43 V
1.000 UL
LT0
4279 2648 M
83 43 V
1.000 UL
LT0
4506 2664 M
-144 27 V
1.000 UL
LT0
4650 2637 M
83 43 V
1.000 UL
LT0
3681 2653 M
83 47 V
1.000 UL
LT0
3908 2664 M
-144 36 V
1.000 UL
LT0
4052 2633 M
83 44 V
1.000 UL
LT0
4279 2648 M
-144 29 V
1.000 UL
LT0
4423 2620 M
83 44 V
1.000 UL
LT0
4650 2637 M
-144 27 V
1.000 UL
LT0
3311 2697 M
83 78 V
1.000 UL
LT0
3538 2700 M
-144 75 V
1.000 UL
LT0
3250 2886 M
144 -111 V
1.000 UL
LT0
3167 2990 M
83 -104 V
1.000 UL
LT0
3825 2617 M
83 47 V
1.000 UL
LT0
4052 2633 M
-144 31 V
1.000 UL
LT0
3455 2631 M
83 69 V
1.000 UL
LT0
3681 2653 M
-143 47 V
1.000 UL
LT0
4196 2604 M
83 44 V
1.000 UL
LT0
4423 2620 M
-144 28 V
1.000 UL
LT0
4567 2594 M
83 43 V
1.000 UL
LT0
3599 2595 M
82 58 V
1.000 UL
LT0
3825 2617 M
-144 36 V
1.000 UL
LT0
3969 2586 M
83 47 V
1.000 UL
LT0
4196 2604 M
-144 29 V
1.000 UL
LT0
3228 2529 M
83 168 V
1.000 UL
LT0
3455 2631 M
-144 66 V
1.000 UL
LT0
3167 2990 M
144 -293 V
1.000 UL
LT0
4340 2576 M
83 44 V
1.000 UL
LT0
4567 2594 M
-144 26 V
1.000 UL
LT0
3372 2545 M
-144 -16 V
1.000 UL
LT0
3372 2545 M
83 86 V
1.000 UL
LT0
3599 2595 M
-144 36 V
1.000 UL
LT0
3742 2565 M
83 52 V
1.000 UL
LT0
3969 2586 M
-144 31 V
1.000 UL
LT0
4113 2558 M
83 46 V
1.000 UL
LT0
4340 2576 M
-144 28 V
1.000 UL
LT0
4484 2550 M
83 44 V
1.000 UL
LT0
3515 2532 M
84 63 V
1.000 UL
LT0
3742 2565 M
-143 30 V
1.000 UL
LT0
3886 2538 M
83 48 V
1.000 UL
LT0
4113 2558 M
-144 28 V
1.000 UL
LT0
3167 2990 M
-144 23 V
1.000 UL
LT0
3515 2532 M
-143 13 V
1.000 UL
LT0
4257 2532 M
83 44 V
1.000 UL
LT0
4484 2550 M
-144 26 V
1.000 UL
LT0
3658 2512 M
84 53 V
1.000 UL
LT0
3886 2538 M
-144 27 V
1.000 UL
LT0
4029 2513 M
84 45 V
1.000 UL
LT0
4257 2532 M
-144 26 V
1.000 UL
LT0
4400 2506 M
84 44 V
1.000 UL
LT0
3658 2512 M
-143 20 V
1.000 UL
LT0
3802 2489 M
84 49 V
1.000 UL
LT0
4029 2513 M
-143 25 V
1.000 UL
LT0
4173 2487 M
84 45 V
1.000 UL
LT0
4400 2506 M
-143 26 V
1.000 UL
LT0
3802 2489 M
-144 23 V
1.000 UL
LT0
3946 2466 M
83 47 V
1.000 UL
LT0
4173 2487 M
-144 26 V
1.000 UL
LT0
4317 2462 M
83 44 V
1.000 UL
LT0
3946 2466 M
-144 23 V
1.000 UL
LT0
4090 2441 M
83 46 V
1.000 UL
LT0
4317 2462 M
-144 25 V
1.000 UL
LT0
4090 2441 M
-144 25 V
1.000 UL
LT0
4234 2417 M
83 45 V
1.000 UL
LT0
4234 2417 M
-144 24 V
1.000 UL
LT0
1.000 UL
LT1
LT2
1.000 UL
LT2
3189 1141 M
-27 2 V
1.000 UL
LT2
3162 1143 M
-144 25 V
1.000 UL
LT2
3018 1168 M
-16 6 V
1.000 UL
LT2
3002 1174 M
43 8 V
1.000 UL
LT2
3190 1157 M
-145 25 V
1.000 UL
LT2
3189 1141 M
1 16 V
LT3
1.000 UL
LT3
3220 1136 M
-66 3 V
1.000 UL
LT3
3154 1139 M
-144 25 V
1.000 UL
LT3
3010 1164 M
-39 15 V
1.000 UL
LT3
2971 1179 M
106 19 V
1.000 UL
LT3
3223 1174 M
-146 24 V
1.000 UL
LT3
3220 1136 M
3 38 V
1.000 UL
LT3
2648 1975 M
30 6 V
1.000 UL
LT3
2678 1981 M
98 40 V
1.000 UL
LT3
2776 2021 M
32 38 V
LT4
1.000 UL
LT4
3251 1131 M
-104 4 V
1.000 UL
LT4
3147 1135 M
-144 25 V
1.000 UL
LT4
3003 1160 M
-63 25 V
1.000 UL
LT4
2940 1185 M
159 30 V
1.000 UL
LT4
3099 1215 M
12 1 V
1.000 UL
LT4
3259 1194 M
-148 22 V
1.000 UL
LT4
3266 1186 M
-7 8 V
1.000 UL
LT4
3251 1131 M
15 55 V
1.000 UL
LT4
2560 1929 M
58 4 V
1.000 UL
LT4
2618 1933 M
156 31 V
1.000 UL
LT4
2774 1964 M
106 39 V
1.000 UL
LT4
2880 2003 M
62 47 V
1.000 UL
LT4
2942 2050 M
-7 59 V
1.000 UL
LT4
2935 2109 M
-11 10 V
LT5
1.000 UL
LT5
3282 1125 M
-142 6 V
1.000 UL
LT5
3140 1131 M
-144 25 V
1.000 UL
LT5
2996 1156 M
-86 34 V
1.000 UL
LT5
2910 1190 M
102 40 V
1.000 UL
LT5
3012 1230 M
154 15 V
1.000 UL
LT5
3316 1223 M
-150 22 V
1.000 UL
LT5
3363 1169 M
-47 54 V
1.000 UL
LT5
3282 1125 M
81 44 V
1.000 UL
LT5
2503 1899 M
216 17 V
1.000 UL
LT5
2719 1916 M
12 2 V
1.000 UL
LT5
2731 1918 M
168 24 V
1.000 UL
LT5
2899 1942 M
121 37 V
1.000 UL
LT5
3020 1979 M
78 44 V
1.000 UL
LT5
3098 2023 M
23 54 V
1.000 UL
LT5
3121 2077 M
-27 30 V
1.000 UL
LT5
3094 2107 M
-60 43 V
1.000 UL
LT5
3034 2150 M
-28 11 V
1.000 UL
LT5
1593 1361 M
-85 20 V
LT6
1.000 UL
LT6
3326 1118 M
-18 1 V
1.000 UL
LT6
3308 1119 M
-176 8 V
1.000 UL
LT6
3132 1127 M
-143 25 V
1.000 UL
LT6
2989 1152 M
-110 43 V
1.000 UL
LT6
2879 1195 M
2 2 V
1.000 UL
LT6
2881 1197 M
24 51 V
1.000 UL
LT6
2905 1248 M
121 24 V
1.000 UL
LT6
3026 1272 M
44 5 V
1.000 UL
LT6
3070 1277 M
178 10 V
1.000 UL
LT6
3409 1271 M
-161 16 V
1.000 UL
LT6
3529 1234 M
-120 37 V
1.000 UL
LT6
3564 1192 M
-35 42 V
1.000 UL
LT6
3506 1144 M
58 48 V
1.000 UL
LT6
3326 1118 M
180 26 V
1.000 UL
LT6
3214 2170 M
-74 19 V
1.000 UL
LT6
3325 2128 M
-111 42 V
1.000 UL
LT6
3387 2088 M
-62 40 V
1.000 UL
LT6
3396 2064 M
-9 24 V
1.000 UL
LT6
3402 2028 M
-6 36 V
1.000 UL
LT6
3346 1980 M
56 48 V
1.000 UL
LT6
3238 1941 M
108 39 V
1.000 UL
LT6
3118 1920 M
120 21 V
1.000 UL
LT6
3080 1911 M
38 9 V
1.000 UL
LT6
2872 1889 M
208 22 V
1.000 UL
LT6
2867 1889 M
5 0 V
1.000 UL
LT6
2658 1880 M
209 9 V
1.000 UL
LT6
2612 1877 M
46 3 V
1.000 UL
LT6
2612 1877 M
-150 1 V
1.000 UL
LT6
1883 1310 M
-87 21 V
1.000 UL
LT6
1796 1331 M
-134 30 V
1.000 UL
LT6
1662 1361 M
-137 29 V
LT7
1.000 UL
LT7
4632 1909 M
64 10 V
1.000 UL
LT7
4544 1887 M
88 22 V
1.000 UL
LT7
4360 1868 M
184 19 V
1.000 UL
LT7
4344 1864 M
16 4 V
1.000 UL
LT7
4136 1851 M
208 13 V
1.000 UL
LT7
4110 1847 M
26 4 V
1.000 UL
LT7
3928 1842 M
182 5 V
1.000 UL
LT7
3844 1836 M
84 6 V
1.000 UL
LT7
3844 1836 M
-118 1 V
1.000 UL
LT7
3528 1833 M
198 4 V
1.000 UL
LT7
3528 1833 M
-1 0 V
1.000 UL
LT7
3527 1833 M
-188 2 V
1.000 UL
LT7
3194 1833 M
145 2 V
1.000 UL
LT7
3194 1833 M
-46 3 V
1.000 UL
LT7
3148 1836 M
-183 4 V
1.000 UL
LT7
2965 1840 M
-151 2 V
1.000 UL
LT7
2814 1842 M
-34 2 V
1.000 UL
LT7
2780 1844 M
-178 7 V
1.000 UL
LT7
2602 1851 M
-180 6 V
1.000 UL
LT7
5043 1397 M
144 1 V
1.000 UL
LT7
5043 1397 M
-47 2 V
1.000 UL
LT7
4996 1399 M
-189 2 V
1.000 UL
LT7
4707 1397 M
100 4 V
1.000 UL
LT7
4707 1397 M
-92 3 V
1.000 UL
LT7
4422 1400 M
193 0 V
1.000 UL
LT7
4375 1397 M
47 3 V
1.000 UL
LT7
4375 1397 M
-145 3 V
1.000 UL
LT7
4056 1395 M
174 5 V
1.000 UL
LT7
4056 1395 M
-25 1 V
1.000 UL
LT7
3834 1394 M
197 2 V
1.000 UL
LT7
3764 1388 M
70 6 V
1.000 UL
LT7
3631 1387 M
133 1 V
1.000 UL
LT7
3496 1377 M
135 10 V
1.000 UL
LT7
3418 1376 M
78 1 V
1.000 UL
LT7
3257 1361 M
161 15 V
1.000 UL
LT7
3189 1357 M
68 4 V
1.000 UL
LT7
3052 1338 M
137 19 V
1.000 UL
LT7
2923 1318 M
129 20 V
1.000 UL
LT7
2880 1311 M
43 7 V
1.000 UL
LT7
2735 1278 M
145 33 V
1.000 UL
LT7
2623 1240 M
112 38 V
1.000 UL
LT7
2549 1224 M
74 16 V
1.000 UL
LT7
2549 1224 M
-144 25 V
1.000 UL
LT7
2405 1249 M
-144 25 V
1.000 UL
LT7
2261 1274 M
-143 25 V
1.000 UL
LT7
2118 1299 M
-144 25 V
1.000 UL
LT7
1974 1324 M
-144 25 V
1.000 UL
LT7
1830 1349 M
-144 25 V
1.000 UL
LT7
1686 1374 M
-144 25 V
1.000 UL
LT7
4276 924 M
-144 25 V
1.000 UL
LT7
4132 949 M
-144 25 V
1.000 UL
LT7
3988 974 M
-144 25 V
1.000 UL
LT7
3844 999 M
-144 25 V
1.000 UL
LT7
3700 1024 M
-143 25 V
1.000 UL
LT7
3557 1049 M
-144 25 V
1.000 UL
LT7
3413 1074 M
-144 25 V
1.000 UL
LT7
3269 1099 M
-144 25 V
1.000 UL
LT7
3125 1124 M
-144 25 V
1.000 UL
LT7
2981 1149 M
-144 25 V
1.000 UL
LT7
2837 1174 M
-144 25 V
1.000 UL
LT7
2540 1196 M
153 3 V
LT8
1.000 UL
LT8
1710 1386 M
-151 21 V
1.000 UL
LT8
1863 1366 M
-153 20 V
1.000 UL
LT8
1966 1354 M
-103 12 V
1.000 UL
LT8
2021 1348 M
-55 6 V
1.000 UL
LT8
2186 1334 M
-165 14 V
1.000 UL
LT8
2363 1327 M
-177 7 V
1.000 UL
LT8
2363 1327 M
90 0 V
1.000 UL
LT8
2453 1327 M
121 10 V
1.000 UL
LT8
2574 1337 M
90 11 V
1.000 UL
LT8
2664 1348 M
163 29 V
1.000 UL
LT8
2827 1377 M
32 8 V
1.000 UL
LT8
2859 1385 M
119 24 V
1.000 UL
LT8
2978 1409 M
136 34 V
1.000 UL
LT8
3114 1443 M
113 38 V
1.000 UL
LT8
3227 1481 M
89 43 V
1.000 UL
LT8
3316 1524 M
54 48 V
1.000 UL
LT8
3370 1572 M
-4 58 V
1.000 UL
LT8
3366 1630 M
-12 13 V
1.000 UL
LT8
3354 1643 M
-88 54 V
1.000 UL
LT8
3266 1697 M
-41 16 V
1.000 UL
LT8
3225 1713 M
-76 23 V
1.000 UL
LT8
3149 1736 M
-135 30 V
1.000 UL
LT8
3014 1766 M
-146 23 V
1.000 UL
LT8
2868 1789 M
-155 20 V
1.000 UL
LT8
2713 1809 M
-83 7 V
1.000 UL
LT8
2630 1816 M
-78 9 V
1.000 UL
LT8
2552 1825 M
-163 15 V
1.000 UL
LT8
3243 1074 M
-12 4 V
1.000 UL
LT8
3231 1078 M
-113 42 V
1.000 UL
LT8
3118 1120 M
-144 25 V
1.000 UL
LT8
2974 1145 M
-178 7 V
LT0
1.000 UL
LT0
1676 1404 M
-101 12 V
1.000 UL
LT0
1734 1399 M
-58 5 V
1.000 UL
LT0
1899 1385 M
-165 14 V
1.000 UL
LT0
2071 1375 M
-172 10 V
1.000 UL
LT0
2202 1370 M
-131 5 V
1.000 UL
LT0
2202 1370 M
57 2 V
1.000 UL
LT0
2259 1372 M
200 12 V
1.000 UL
LT0
2459 1384 M
20 3 V
1.000 UL
LT0
2479 1387 M
158 23 V
1.000 UL
LT0
2637 1410 M
136 35 V
1.000 UL
LT0
2773 1445 M
28 10 V
1.000 UL
LT0
2801 1455 M
85 28 V
1.000 UL
LT0
2886 1483 M
83 43 V
1.000 UL
LT0
2969 1526 M
30 32 V
1.000 UL
LT0
2999 1558 M
17 18 V
1.000 UL
LT0
3016 1576 M
-4 58 V
1.000 UL
LT0
3012 1634 M
-21 20 V
1.000 UL
LT0
2991 1654 M
-89 53 V
1.000 UL
LT0
2902 1707 M
-15 6 V
1.000 UL
LT0
2887 1713 M
-101 34 V
1.000 UL
LT0
2786 1747 M
-133 31 V
1.000 UL
LT0
2653 1778 M
-144 25 V
1.000 UL
LT0
2509 1803 M
-151 21 V
1.000 UL
LT0
3199 1082 M
-88 34 V
1.000 UL
LT0
3111 1116 M
-144 25 V
1.000 UL
LT0
2967 1141 M
-140 6 V
LT1
1.000 UL
LT1
1760 1412 M
-167 13 V
1.000 UL
LT1
1934 1403 M
-174 9 V
1.000 UL
LT1
2033 1400 M
-99 3 V
1.000 UL
LT1
2033 1400 M
93 3 V
1.000 UL
LT1
2126 1403 M
174 8 V
1.000 UL
LT1
2300 1411 M
48 7 V
1.000 UL
LT1
2348 1418 M
135 19 V
1.000 UL
LT1
2483 1437 M
133 35 V
1.000 UL
LT1
2616 1472 M
99 40 V
1.000 UL
LT1
2715 1512 M
68 46 V
1.000 UL
LT1
2783 1558 M
25 54 V
1.000 UL
LT1
2808 1612 M
-21 35 V
1.000 UL
LT1
2787 1647 M
-29 31 V
1.000 UL
LT1
2758 1678 M
-51 28 V
1.000 UL
LT1
2707 1706 M
-111 42 V
1.000 UL
LT1
2596 1748 M
-128 33 V
1.000 UL
LT1
2468 1781 M
-141 27 V
1.000 UL
LT1
3168 1087 M
-65 25 V
1.000 UL
LT1
3103 1112 M
-144 25 V
1.000 UL
LT1
2959 1137 M
-102 4 V
LT2
1.000 UL
LT2
1785 1425 M
-174 10 V
1.000 UL
LT2
1909 1421 M
-124 4 V
1.000 UL
LT2
1909 1421 M
65 3 V
1.000 UL
LT2
1974 1424 M
201 9 V
1.000 UL
LT2
2175 1433 M
12 2 V
1.000 UL
LT2
2187 1435 M
174 23 V
1.000 UL
LT2
2361 1458 M
128 36 V
1.000 UL
LT2
2489 1494 M
26 12 V
1.000 UL
LT2
2515 1506 M
68 29 V
1.000 UL
LT2
2583 1535 M
16 14 V
1.000 UL
LT2
2599 1549 M
40 34 V
1.000 UL
LT2
2639 1583 M
6 57 V
1.000 UL
LT2
2645 1640 M
-20 23 V
1.000 UL
LT2
2625 1663 M
-71 51 V
1.000 UL
LT2
2554 1714 M
-13 5 V
1.000 UL
LT2
2541 1719 M
-113 42 V
1.000 UL
LT2
2428 1761 M
-129 32 V
1.000 UL
LT2
3137 1093 M
-41 15 V
1.000 UL
LT2
3096 1108 M
-144 25 V
1.000 UL
LT2
2952 1133 M
-64 3 V
LT3
1.000 UL
LT3
1809 1439 M
-180 5 V
1.000 UL
LT3
1809 1439 M
2 0 V
1.000 UL
LT3
1811 1439 M
206 7 V
1.000 UL
LT3
2017 1446 M
64 3 V
1.000 UL
LT3
2081 1449 M
177 27 V
1.000 UL
LT3
2258 1476 M
19 6 V
1.000 UL
LT3
2277 1482 M
114 29 V
1.000 UL
LT3
2391 1511 M
88 42 V
1.000 UL
LT3
2479 1553 M
43 51 V
1.000 UL
LT3
2522 1604 M
0 5 V
1.000 UL
LT3
2522 1609 M
-7 54 V
1.000 UL
LT3
2515 1663 M
-32 26 V
1.000 UL
LT3
2483 1689 M
-94 51 V
1.000 UL
LT3
2389 1740 M
-10 4 V
1.000 UL
LT3
2379 1744 M
-108 34 V
1.000 UL
LT3
3106 1098 M
-17 7 V
1.000 UL
LT3
3089 1105 M
-144 25 V
1.000 UL
LT3
2945 1130 M
-26 1 V
LT4
1.000 UL
LT4
1739 1451 M
-92 3 V
1.000 UL
LT4
1739 1451 M
103 4 V
1.000 UL
LT4
1842 1455 M
160 8 V
1.000 UL
LT4
2002 1463 M
69 11 V
1.000 UL
LT4
2071 1474 M
110 16 V
1.000 UL
LT4
2181 1490 M
126 36 V
1.000 UL
LT4
2307 1526 M
83 43 V
1.000 UL
LT4
2390 1569 M
39 51 V
1.000 UL
LT4
2429 1620 M
-12 35 V
1.000 UL
LT4
2417 1655 M
-12 27 V
1.000 UL
LT4
2405 1682 M
-57 37 V
1.000 UL
LT4
2348 1719 M
-105 45 V
LT5
1.000 UL
LT5
1669 1463 M
-3 0 V
1.000 UL
LT5
1669 1463 M
205 9 V
1.000 UL
LT5
1874 1472 M
61 3 V
1.000 UL
LT5
1935 1475 M
173 27 V
1.000 UL
LT5
2108 1502 M
41 13 V
1.000 UL
LT5
2149 1515 M
84 23 V
1.000 UL
LT5
2233 1538 M
80 44 V
1.000 UL
LT5
2313 1582 M
14 26 V
1.000 UL
LT5
2327 1608 M
18 26 V
1.000 UL
LT5
2345 1634 M
-37 64 V
1.000 UL
LT5
2308 1698 M
-1 1 V
1.000 UL
LT5
2307 1699 M
-92 50 V
LT6
1.000 UL
LT6
1688 1475 M
187 10 V
1.000 UL
LT6
1875 1485 M
37 6 V
1.000 UL
LT6
1912 1491 M
140 21 V
1.000 UL
LT6
2052 1512 M
120 37 V
1.000 UL
LT6
2172 1549 M
76 44 V
1.000 UL
LT6
2248 1593 M
27 54 V
1.000 UL
LT6
2275 1647 M
-16 26 V
1.000 UL
LT6
2259 1673 M
-32 40 V
1.000 UL
LT6
2227 1713 M
-40 22 V
LT7
1.000 UL
LT7
1711 1487 M
117 6 V
1.000 UL
LT7
1828 1493 M
132 23 V
1.000 UL
LT7
1960 1516 M
36 6 V
1.000 UL
LT7
1996 1522 M
122 36 V
1.000 UL
LT7
2118 1558 M
72 46 V
1.000 UL
LT7
2190 1604 M
13 39 V
1.000 UL
LT7
2203 1643 M
6 15 V
1.000 UL
LT7
2209 1658 M
-51 61 V
LT8
1.000 UL
LT8
1734 1499 M
47 2 V
1.000 UL
LT8
1781 1501 M
170 29 V
1.000 UL
LT8
1951 1530 M
99 34 V
1.000 UL
LT8
2050 1564 M
14 4 V
1.000 UL
LT8
2064 1568 M
20 13 V
1.000 UL
LT8
2084 1581 M
51 32 V
1.000 UL
LT8
2135 1613 M
20 54 V
1.000 UL
LT8
2155 1667 M
-30 36 V
LT0
1.000 UL
LT0
1761 1513 M
150 23 V
1.000 UL
LT0
1911 1536 M
113 39 V
1.000 UL
LT0
2024 1575 M
67 46 V
1.000 UL
LT0
2091 1621 M
10 56 V
1.000 UL
LT0
2101 1677 M
-8 9 V
LT1
1.000 UL
LT1
1797 1532 M
74 11 V
1.000 UL
LT1
1871 1543 M
114 38 V
1.000 UL
LT1
1985 1581 M
63 47 V
1.000 UL
LT1
2048 1628 M
4 36 V
LT2
1.000 UL
LT2
1835 1552 M
111 36 V
1.000 UL
LT2
1946 1588 M
59 48 V
1.000 UL
LT2
2005 1636 M
0 4 V
1.000 UL
LTb
4284 778 M
1870 974 V
1.000 UL
LTb
4284 778 M
1046 1340 L
1.000 UL
LTb
1046 1340 M
1870 975 V
1.000 UL
LTb
6154 1752 M
2916 2315 L
1.000 UL
LTb
1046 3288 M
0 -1948 V
1.000 UL
LTb
1046 1340 M
52 28 V
1.000 UL
LTb
936 1245 M
gsave 0 setgray
[ [(Times) 220.0 0.0 true true 0 (-2.5)]
] -73.3 MCshow
grestore
1.000 UL
LTb
1.000 UL
LTb
2864 2287 M
52 28 V
1.000 UL
LTb
1406 1278 M
52 27 V
1.000 UL
LTb
1296 1183 M
gsave 0 setgray
[ [(Times) 220.0 0.0 true true 0 (-2)]
] -73.3 MCshow
grestore
1.000 UL
LTb
1.000 UL
LTb
3224 2225 M
52 27 V
1.000 UL
LTb
1766 1215 M
52 28 V
1.000 UL
LTb
1656 1120 M
gsave 0 setgray
[ [(Times) 220.0 0.0 true true 0 (-1.5)]
] -73.3 MCshow
grestore
1.000 UL
LTb
1.000 UL
LTb
3583 2162 M
52 28 V
1.000 UL
LTb
2126 1153 M
52 27 V
1.000 UL
LTb
2016 1058 M
gsave 0 setgray
[ [(Times) 220.0 0.0 true true 0 (-1)]
] -73.3 MCshow
grestore
1.000 UL
LTb
1.000 UL
LTb
3942 2100 M
53 27 V
1.000 UL
LTb
2486 1090 M
52 28 V
1.000 UL
LTb
2376 995 M
gsave 0 setgray
[ [(Times) 220.0 0.0 true true 0 (-0.5)]
] -73.3 MCshow
grestore
1.000 UL
LTb
1.000 UL
LTb
4302 2037 M
53 28 V
1.000 UL
LTb
2845 1028 M
53 27 V
1.000 UL
LTb
2736 933 M
gsave 0 setgray
[ [(Times) 220.0 0.0 true true 0 ( 0)]
] -73.3 MCshow
grestore
1.000 UL
LTb
1.000 UL
LTb
4662 1975 M
52 27 V
1.000 UL
LTb
3205 965 M
53 28 V
1.000 UL
LTb
3096 870 M
gsave 0 setgray
[ [(Times) 220.0 0.0 true true 0 ( 0.5)]
] -73.3 MCshow
grestore
1.000 UL
LTb
1.000 UL
LTb
5022 1912 M
52 28 V
1.000 UL
LTb
3565 903 M
52 27 V
1.000 UL
LTb
3455 808 M
gsave 0 setgray
[ [(Times) 220.0 0.0 true true 0 ( 1)]
] -73.3 MCshow
grestore
1.000 UL
LTb
1.000 UL
LTb
5382 1850 M
52 27 V
1.000 UL
LTb
3924 840 M
52 28 V
1.000 UL
LTb
3814 745 M
gsave 0 setgray
[ [(Times) 220.0 0.0 true true 0 ( 1.5)]
] -73.3 MCshow
grestore
1.000 UL
LTb
1.000 UL
LTb
5742 1787 M
52 28 V
1.000 UL
LTb
4284 778 M
52 27 V
1.000 UL
LTb
4174 683 M
gsave 0 setgray
[ [(Times) 220.0 0.0 true true 0 ( 2)]
] -73.3 MCshow
grestore
1.000 UL
LTb
1.000 UL
LTb
6102 1725 M
52 27 V
LTb
2198 816 M
gsave 0 setgray
[ [(Times) 220.0 0.0 true true 0 (Re\(p\))]
] -73.3 MCshow
grestore
1.000 UL
LTb
4284 778 M
-55 9 V
stroke
4398 745 M
gsave 0 setgray
[ [(Times) 220.0 0.0 true true 0 (-0.5)]
] -73.3 MCshow
grestore
1.000 UL
LTb
1.000 UL
LTb
1101 1331 M
-55 9 V
1.000 UL
LTb
4492 886 M
-55 10 V
stroke
4606 853 M
gsave 0 setgray
[ [(Times) 220.0 0.0 true true 0 ( 0)]
] -73.3 MCshow
grestore
1.000 UL
LTb
1.000 UL
LTb
1308 1439 M
-54 10 V
1.000 UL
LTb
4700 994 M
-55 10 V
stroke
4814 961 M
gsave 0 setgray
[ [(Times) 220.0 0.0 true true 0 ( 0.5)]
] -73.3 MCshow
grestore
1.000 UL
LTb
1.000 UL
LTb
1516 1547 M
-54 10 V
1.000 UL
LTb
4907 1103 M
-54 9 V
stroke
5022 1070 M
gsave 0 setgray
[ [(Times) 220.0 0.0 true true 0 ( 1)]
] -73.3 MCshow
grestore
1.000 UL
LTb
1.000 UL
LTb
1724 1656 M
-55 9 V
1.000 UL
LTb
5115 1211 M
-54 9 V
stroke
5229 1178 M
gsave 0 setgray
[ [(Times) 220.0 0.0 true true 0 ( 1.5)]
] -73.3 MCshow
grestore
1.000 UL
LTb
1.000 UL
LTb
1932 1764 M
-55 9 V
1.000 UL
LTb
5323 1319 M
-55 10 V
stroke
5437 1286 M
gsave 0 setgray
[ [(Times) 220.0 0.0 true true 0 ( 2)]
] -73.3 MCshow
grestore
1.000 UL
LTb
1.000 UL
LTb
2139 1872 M
-54 10 V
1.000 UL
LTb
5531 1427 M
-55 10 V
stroke
5645 1394 M
gsave 0 setgray
[ [(Times) 220.0 0.0 true true 0 ( 2.5)]
] -73.3 MCshow
grestore
1.000 UL
LTb
1.000 UL
LTb
2347 1980 M
-54 10 V
1.000 UL
LTb
5738 1536 M
-54 9 V
stroke
5853 1503 M
gsave 0 setgray
[ [(Times) 220.0 0.0 true true 0 ( 3)]
] -73.3 MCshow
grestore
1.000 UL
LTb
1.000 UL
LTb
2555 2089 M
-55 9 V
1.000 UL
LTb
5946 1644 M
-54 9 V
stroke
6061 1611 M
gsave 0 setgray
[ [(Times) 220.0 0.0 true true 0 ( 3.5)]
] -73.3 MCshow
grestore
1.000 UL
LTb
1.000 UL
LTb
2763 2197 M
-55 9 V
1.000 UL
LTb
6154 1752 M
-55 10 V
stroke
6268 1719 M
gsave 0 setgray
[ [(Times) 220.0 0.0 true true 0 ( 4)]
] -73.3 MCshow
grestore
1.000 UL
LTb
1.000 UL
LTb
2971 2305 M
-55 10 V
LTb
6029 1124 M
gsave 0 setgray
[ [(Times) 220.0 0.0 true true 0 (Im\(p\))]
] -73.3 MCshow
grestore
1.000 UL
LTb
1109 1990 M
-63 0 V
stroke
920 1990 M
gsave 0 setgray
[ [(Times) 220.0 0.0 true true 0 (-30)]
] -73.3 MRshow
grestore
1.000 UL
LTb
1.000 UL
LTb
1109 2134 M
-63 0 V
stroke
920 2134 M
gsave 0 setgray
[ [(Times) 220.0 0.0 true true 0 (-25)]
] -73.3 MRshow
grestore
1.000 UL
LTb
1.000 UL
LTb
1109 2279 M
-63 0 V
stroke
920 2279 M
gsave 0 setgray
[ [(Times) 220.0 0.0 true true 0 (-20)]
] -73.3 MRshow
grestore
1.000 UL
LTb
1.000 UL
LTb
1109 2423 M
-63 0 V
stroke
920 2423 M
gsave 0 setgray
[ [(Times) 220.0 0.0 true true 0 (-15)]
] -73.3 MRshow
grestore
1.000 UL
LTb
1.000 UL
LTb
1109 2566 M
-63 0 V
stroke
920 2566 M
gsave 0 setgray
[ [(Times) 220.0 0.0 true true 0 (-10)]
] -73.3 MRshow
grestore
1.000 UL
LTb
1.000 UL
LTb
1109 2711 M
-63 0 V
stroke
920 2711 M
gsave 0 setgray
[ [(Times) 220.0 0.0 true true 0 (-5)]
] -73.3 MRshow
grestore
1.000 UL
LTb
1.000 UL
LTb
1109 2855 M
-63 0 V
stroke
920 2855 M
gsave 0 setgray
[ [(Times) 220.0 0.0 true true 0 ( 0)]
] -73.3 MRshow
grestore
1.000 UL
LTb
1.000 UL
LTb
1109 2999 M
-63 0 V
stroke
920 2999 M
gsave 0 setgray
[ [(Times) 220.0 0.0 true true 0 ( 5)]
] -73.3 MRshow
grestore
1.000 UL
LTb
1.000 UL
LTb
1109 3144 M
-63 0 V
stroke
920 3144 M
gsave 0 setgray
[ [(Times) 220.0 0.0 true true 0 ( 10)]
] -73.3 MRshow
grestore
1.000 UL
LTb
1.000 UL
LTb
1109 3288 M
-63 0 V
stroke
920 3288 M
gsave 0 setgray
[ [(Times) 220.0 0.0 true true 0 ( 15)]
] -73.3 MRshow
grestore
1.000 UL
LTb
1.000 UP
stroke
grestore
end
showpage
%%Trailer
%%DocumentFonts: Times
