%!PS-Adobe-2.0 EPSF-2.0
%%Title: cos-pot-rangep-better.eps
%%Creator: gnuplot 4.0 patchlevel 0
%%CreationDate: Mon Nov 20 16:08:23 2006
%%DocumentFonts: (atend)
%%BoundingBox: 55 50 395 265
%%Orientation: Portrait
%%EndComments
/gnudict 256 dict def
gnudict begin
/Color true def
/Solid false def
/gnulinewidth 12.500 def
/userlinewidth gnulinewidth def
/vshift -73 def
/dl {10.0 mul} def
/hpt_ 31.5 def
/vpt_ 31.5 def
/hpt hpt_ def
/vpt vpt_ def
/Rounded false def
/M {moveto} bind def
/L {lineto} bind def
/R {rmoveto} bind def
/V {rlineto} bind def
/N {newpath moveto} bind def
/C {setrgbcolor} bind def
/f {rlineto fill} bind def
/vpt2 vpt 2 mul def
/hpt2 hpt 2 mul def
/Lshow { currentpoint stroke M
  0 vshift R show } def
/Rshow { currentpoint stroke M
  dup stringwidth pop neg vshift R show } def
/Cshow { currentpoint stroke M
  dup stringwidth pop -2 div vshift R show } def
/UP { dup vpt_ mul /vpt exch def hpt_ mul /hpt exch def
  /hpt2 hpt 2 mul def /vpt2 vpt 2 mul def } def
/DL { Color {setrgbcolor Solid {pop []} if 0 setdash }
 {pop pop pop 0 setgray Solid {pop []} if 0 setdash} ifelse } def
/BL { stroke userlinewidth 2 mul setlinewidth
      Rounded { 1 setlinejoin 1 setlinecap } if } def
/AL { stroke userlinewidth 2 div setlinewidth
      Rounded { 1 setlinejoin 1 setlinecap } if } def
/UL { dup gnulinewidth mul /userlinewidth exch def
      dup 1 lt {pop 1} if 10 mul /udl exch def } def
/PL { stroke userlinewidth setlinewidth
      Rounded { 1 setlinejoin 1 setlinecap } if } def
/LTw { PL [] 1 setgray } def
/LTb { BL [] 0 0 0 DL } def
/LTa { AL [1 udl mul 2 udl mul] 0 setdash 0 0 0 setrgbcolor } def
/LT0 { PL [] 1 0 0 DL } def
/LT1 { PL [4 dl 2 dl] 0 1 0 DL } def
/LT2 { PL [2 dl 3 dl] 0 0 1 DL } def
/LT3 { PL [1 dl 1.5 dl] 1 0 1 DL } def
/LT4 { PL [5 dl 2 dl 1 dl 2 dl] 0 1 1 DL } def
/LT5 { PL [4 dl 3 dl 1 dl 3 dl] 1 1 0 DL } def
/LT6 { PL [2 dl 2 dl 2 dl 4 dl] 0 0 0 DL } def
/LT7 { PL [2 dl 2 dl 2 dl 2 dl 2 dl 4 dl] 1 0.3 0 DL } def
/LT8 { PL [2 dl 2 dl 2 dl 2 dl 2 dl 2 dl 2 dl 4 dl] 0.5 0.5 0.5 DL } def
/Pnt { stroke [] 0 setdash
   gsave 1 setlinecap M 0 0 V stroke grestore } def
/Dia { stroke [] 0 setdash 2 copy vpt add M
  hpt neg vpt neg V hpt vpt neg V
  hpt vpt V hpt neg vpt V closepath stroke
  Pnt } def
/Pls { stroke [] 0 setdash vpt sub M 0 vpt2 V
  currentpoint stroke M
  hpt neg vpt neg R hpt2 0 V stroke
  } def
/Box { stroke [] 0 setdash 2 copy exch hpt sub exch vpt add M
  0 vpt2 neg V hpt2 0 V 0 vpt2 V
  hpt2 neg 0 V closepath stroke
  Pnt } def
/Crs { stroke [] 0 setdash exch hpt sub exch vpt add M
  hpt2 vpt2 neg V currentpoint stroke M
  hpt2 neg 0 R hpt2 vpt2 V stroke } def
/TriU { stroke [] 0 setdash 2 copy vpt 1.12 mul add M
  hpt neg vpt -1.62 mul V
  hpt 2 mul 0 V
  hpt neg vpt 1.62 mul V closepath stroke
  Pnt  } def
/Star { 2 copy Pls Crs } def
/BoxF { stroke [] 0 setdash exch hpt sub exch vpt add M
  0 vpt2 neg V  hpt2 0 V  0 vpt2 V
  hpt2 neg 0 V  closepath fill } def
/TriUF { stroke [] 0 setdash vpt 1.12 mul add M
  hpt neg vpt -1.62 mul V
  hpt 2 mul 0 V
  hpt neg vpt 1.62 mul V closepath fill } def
/TriD { stroke [] 0 setdash 2 copy vpt 1.12 mul sub M
  hpt neg vpt 1.62 mul V
  hpt 2 mul 0 V
  hpt neg vpt -1.62 mul V closepath stroke
  Pnt  } def
/TriDF { stroke [] 0 setdash vpt 1.12 mul sub M
  hpt neg vpt 1.62 mul V
  hpt 2 mul 0 V
  hpt neg vpt -1.62 mul V closepath fill} def
/DiaF { stroke [] 0 setdash vpt add M
  hpt neg vpt neg V hpt vpt neg V
  hpt vpt V hpt neg vpt V closepath fill } def
/Pent { stroke [] 0 setdash 2 copy gsave
  translate 0 hpt M 4 {72 rotate 0 hpt L} repeat
  closepath stroke grestore Pnt } def
/PentF { stroke [] 0 setdash gsave
  translate 0 hpt M 4 {72 rotate 0 hpt L} repeat
  closepath fill grestore } def
/Circle { stroke [] 0 setdash 2 copy
  hpt 0 360 arc stroke Pnt } def
/CircleF { stroke [] 0 setdash hpt 0 360 arc fill } def
/C0 { BL [] 0 setdash 2 copy moveto vpt 90 450  arc } bind def
/C1 { BL [] 0 setdash 2 copy        moveto
       2 copy  vpt 0 90 arc closepath fill
               vpt 0 360 arc closepath } bind def
/C2 { BL [] 0 setdash 2 copy moveto
       2 copy  vpt 90 180 arc closepath fill
               vpt 0 360 arc closepath } bind def
/C3 { BL [] 0 setdash 2 copy moveto
       2 copy  vpt 0 180 arc closepath fill
               vpt 0 360 arc closepath } bind def
/C4 { BL [] 0 setdash 2 copy moveto
       2 copy  vpt 180 270 arc closepath fill
               vpt 0 360 arc closepath } bind def
/C5 { BL [] 0 setdash 2 copy moveto
       2 copy  vpt 0 90 arc
       2 copy moveto
       2 copy  vpt 180 270 arc closepath fill
               vpt 0 360 arc } bind def
/C6 { BL [] 0 setdash 2 copy moveto
      2 copy  vpt 90 270 arc closepath fill
              vpt 0 360 arc closepath } bind def
/C7 { BL [] 0 setdash 2 copy moveto
      2 copy  vpt 0 270 arc closepath fill
              vpt 0 360 arc closepath } bind def
/C8 { BL [] 0 setdash 2 copy moveto
      2 copy vpt 270 360 arc closepath fill
              vpt 0 360 arc closepath } bind def
/C9 { BL [] 0 setdash 2 copy moveto
      2 copy  vpt 270 450 arc closepath fill
              vpt 0 360 arc closepath } bind def
/C10 { BL [] 0 setdash 2 copy 2 copy moveto vpt 270 360 arc closepath fill
       2 copy moveto
       2 copy vpt 90 180 arc closepath fill
               vpt 0 360 arc closepath } bind def
/C11 { BL [] 0 setdash 2 copy moveto
       2 copy  vpt 0 180 arc closepath fill
       2 copy moveto
       2 copy  vpt 270 360 arc closepath fill
               vpt 0 360 arc closepath } bind def
/C12 { BL [] 0 setdash 2 copy moveto
       2 copy  vpt 180 360 arc closepath fill
               vpt 0 360 arc closepath } bind def
/C13 { BL [] 0 setdash  2 copy moveto
       2 copy  vpt 0 90 arc closepath fill
       2 copy moveto
       2 copy  vpt 180 360 arc closepath fill
               vpt 0 360 arc closepath } bind def
/C14 { BL [] 0 setdash 2 copy moveto
       2 copy  vpt 90 360 arc closepath fill
               vpt 0 360 arc } bind def
/C15 { BL [] 0 setdash 2 copy vpt 0 360 arc closepath fill
               vpt 0 360 arc closepath } bind def
/Rec   { newpath 4 2 roll moveto 1 index 0 rlineto 0 exch rlineto
       neg 0 rlineto closepath } bind def
/Square { dup Rec } bind def
/Bsquare { vpt sub exch vpt sub exch vpt2 Square } bind def
/S0 { BL [] 0 setdash 2 copy moveto 0 vpt rlineto BL Bsquare } bind def
/S1 { BL [] 0 setdash 2 copy vpt Square fill Bsquare } bind def
/S2 { BL [] 0 setdash 2 copy exch vpt sub exch vpt Square fill Bsquare } bind def
/S3 { BL [] 0 setdash 2 copy exch vpt sub exch vpt2 vpt Rec fill Bsquare } bind def
/S4 { BL [] 0 setdash 2 copy exch vpt sub exch vpt sub vpt Square fill Bsquare } bind def
/S5 { BL [] 0 setdash 2 copy 2 copy vpt Square fill
       exch vpt sub exch vpt sub vpt Square fill Bsquare } bind def
/S6 { BL [] 0 setdash 2 copy exch vpt sub exch vpt sub vpt vpt2 Rec fill Bsquare } bind def
/S7 { BL [] 0 setdash 2 copy exch vpt sub exch vpt sub vpt vpt2 Rec fill
       2 copy vpt Square fill
       Bsquare } bind def
/S8 { BL [] 0 setdash 2 copy vpt sub vpt Square fill Bsquare } bind def
/S9 { BL [] 0 setdash 2 copy vpt sub vpt vpt2 Rec fill Bsquare } bind def
/S10 { BL [] 0 setdash 2 copy vpt sub vpt Square fill 2 copy exch vpt sub exch vpt Square fill
       Bsquare } bind def
/S11 { BL [] 0 setdash 2 copy vpt sub vpt Square fill 2 copy exch vpt sub exch vpt2 vpt Rec fill
       Bsquare } bind def
/S12 { BL [] 0 setdash 2 copy exch vpt sub exch vpt sub vpt2 vpt Rec fill Bsquare } bind def
/S13 { BL [] 0 setdash 2 copy exch vpt sub exch vpt sub vpt2 vpt Rec fill
       2 copy vpt Square fill Bsquare } bind def
/S14 { BL [] 0 setdash 2 copy exch vpt sub exch vpt sub vpt2 vpt Rec fill
       2 copy exch vpt sub exch vpt Square fill Bsquare } bind def
/S15 { BL [] 0 setdash 2 copy Bsquare fill Bsquare } bind def
/D0 { gsave translate 45 rotate 0 0 S0 stroke grestore } bind def
/D1 { gsave translate 45 rotate 0 0 S1 stroke grestore } bind def
/D2 { gsave translate 45 rotate 0 0 S2 stroke grestore } bind def
/D3 { gsave translate 45 rotate 0 0 S3 stroke grestore } bind def
/D4 { gsave translate 45 rotate 0 0 S4 stroke grestore } bind def
/D5 { gsave translate 45 rotate 0 0 S5 stroke grestore } bind def
/D6 { gsave translate 45 rotate 0 0 S6 stroke grestore } bind def
/D7 { gsave translate 45 rotate 0 0 S7 stroke grestore } bind def
/D8 { gsave translate 45 rotate 0 0 S8 stroke grestore } bind def
/D9 { gsave translate 45 rotate 0 0 S9 stroke grestore } bind def
/D10 { gsave translate 45 rotate 0 0 S10 stroke grestore } bind def
/D11 { gsave translate 45 rotate 0 0 S11 stroke grestore } bind def
/D12 { gsave translate 45 rotate 0 0 S12 stroke grestore } bind def
/D13 { gsave translate 45 rotate 0 0 S13 stroke grestore } bind def
/D14 { gsave translate 45 rotate 0 0 S14 stroke grestore } bind def
/D15 { gsave translate 45 rotate 0 0 S15 stroke grestore } bind def
/DiaE { stroke [] 0 setdash vpt add M
  hpt neg vpt neg V hpt vpt neg V
  hpt vpt V hpt neg vpt V closepath stroke } def
/BoxE { stroke [] 0 setdash exch hpt sub exch vpt add M
  0 vpt2 neg V hpt2 0 V 0 vpt2 V
  hpt2 neg 0 V closepath stroke } def
/TriUE { stroke [] 0 setdash vpt 1.12 mul add M
  hpt neg vpt -1.62 mul V
  hpt 2 mul 0 V
  hpt neg vpt 1.62 mul V closepath stroke } def
/TriDE { stroke [] 0 setdash vpt 1.12 mul sub M
  hpt neg vpt 1.62 mul V
  hpt 2 mul 0 V
  hpt neg vpt -1.62 mul V closepath stroke } def
/PentE { stroke [] 0 setdash gsave
  translate 0 hpt M 4 {72 rotate 0 hpt L} repeat
  closepath stroke grestore } def
/CircE { stroke [] 0 setdash 
  hpt 0 360 arc stroke } def
/Opaque { gsave closepath 1 setgray fill grestore 0 setgray closepath } def
/DiaW { stroke [] 0 setdash vpt add M
  hpt neg vpt neg V hpt vpt neg V
  hpt vpt V hpt neg vpt V Opaque stroke } def
/BoxW { stroke [] 0 setdash exch hpt sub exch vpt add M
  0 vpt2 neg V hpt2 0 V 0 vpt2 V
  hpt2 neg 0 V Opaque stroke } def
/TriUW { stroke [] 0 setdash vpt 1.12 mul add M
  hpt neg vpt -1.62 mul V
  hpt 2 mul 0 V
  hpt neg vpt 1.62 mul V Opaque stroke } def
/TriDW { stroke [] 0 setdash vpt 1.12 mul sub M
  hpt neg vpt 1.62 mul V
  hpt 2 mul 0 V
  hpt neg vpt -1.62 mul V Opaque stroke } def
/PentW { stroke [] 0 setdash gsave
  translate 0 hpt M 4 {72 rotate 0 hpt L} repeat
  Opaque stroke grestore } def
/CircW { stroke [] 0 setdash 
  hpt 0 360 arc Opaque stroke } def
/BoxFill { gsave Rec 1 setgray fill grestore } def
/BoxColFill {
  gsave Rec
  /Fillden exch def
  currentrgbcolor
  /ColB exch def /ColG exch def /ColR exch def
  /ColR ColR Fillden mul Fillden sub 1 add def
  /ColG ColG Fillden mul Fillden sub 1 add def
  /ColB ColB Fillden mul Fillden sub 1 add def
  ColR ColG ColB setrgbcolor
  fill grestore } def
%
% PostScript Level 1 Pattern Fill routine
% Usage: x y w h s a XX PatternFill
%	x,y = lower left corner of box to be filled
%	w,h = width and height of box
%	  a = angle in degrees between lines and x-axis
%	 XX = 0/1 for no/yes cross-hatch
%
/PatternFill { gsave /PFa [ 9 2 roll ] def
    PFa 0 get PFa 2 get 2 div add PFa 1 get PFa 3 get 2 div add translate
    PFa 2 get -2 div PFa 3 get -2 div PFa 2 get PFa 3 get Rec
    gsave 1 setgray fill grestore clip
    currentlinewidth 0.5 mul setlinewidth
    /PFs PFa 2 get dup mul PFa 3 get dup mul add sqrt def
    0 0 M PFa 5 get rotate PFs -2 div dup translate
	0 1 PFs PFa 4 get div 1 add floor cvi
	{ PFa 4 get mul 0 M 0 PFs V } for
    0 PFa 6 get ne {
	0 1 PFs PFa 4 get div 1 add floor cvi
	{ PFa 4 get mul 0 2 1 roll M PFs 0 V } for
    } if
    stroke grestore } def
%
/Symbol-Oblique /Symbol findfont [1 0 .167 1 0 0] makefont
dup length dict begin {1 index /FID eq {pop pop} {def} ifelse} forall
currentdict end definefont pop
/MFshow {
   { dup 5 get 3 ge
     { 5 get 3 eq {gsave} {grestore} ifelse }
     {dup dup 0 get findfont exch 1 get scalefont setfont
     [ currentpoint ] exch dup 2 get 0 exch R dup 5 get 2 ne {dup dup 6
     get exch 4 get {show} {stringwidth pop 0 R} ifelse }if dup 5 get 0 eq
     {dup 3 get {2 get neg 0 exch R pop} {pop aload pop M} ifelse} {dup 5
     get 1 eq {dup 2 get exch dup 3 get exch 6 get stringwidth pop -2 div
     dup 0 R} {dup 6 get stringwidth pop -2 div 0 R 6 get
     show 2 index {aload pop M neg 3 -1 roll neg R pop pop} {pop pop pop
     pop aload pop M} ifelse }ifelse }ifelse }
     ifelse }
   forall} bind def
/MFwidth {0 exch {dup 3 get{dup dup 0 get findfont exch 1 get scalefont
     setfont 6 get stringwidth pop add} {pop} ifelse} forall} bind def
/MLshow { currentpoint stroke M
  0 exch R MFshow } bind def
/MRshow { currentpoint stroke M
  exch dup MFwidth neg 3 -1 roll R MFshow } def
/MCshow { currentpoint stroke M
  exch dup MFwidth -2 div 3 -1 roll R MFshow } def
end
%%EndProlog
gnudict begin
gsave
50 50 translate
0.050 0.050 scale
0 setgray
newpath
(Times) findfont 220 scalefont setfont
1.000 UL
LTb
1122 660 M
63 0 V
5641 0 R
-63 0 V
stroke
990 660 M
gsave 0 setgray
[ [(Times) 220.0 0.0 true true 0 (-1.5)]
] -73.3 MRshow
grestore
1.000 UL
LTb
1122 1243 M
63 0 V
5641 0 R
-63 0 V
stroke
990 1243 M
gsave 0 setgray
[ [(Times) 220.0 0.0 true true 0 (-1)]
] -73.3 MRshow
grestore
1.000 UL
LTb
1122 1827 M
63 0 V
5641 0 R
-63 0 V
stroke
990 1827 M
gsave 0 setgray
[ [(Times) 220.0 0.0 true true 0 (-0.5)]
] -73.3 MRshow
grestore
1.000 UL
LTb
1122 2410 M
63 0 V
5641 0 R
-63 0 V
stroke
990 2410 M
gsave 0 setgray
[ [(Times) 220.0 0.0 true true 0 ( 0)]
] -73.3 MRshow
grestore
1.000 UL
LTb
1122 2993 M
63 0 V
5641 0 R
-63 0 V
stroke
990 2993 M
gsave 0 setgray
[ [(Times) 220.0 0.0 true true 0 ( 0.5)]
] -73.3 MRshow
grestore
1.000 UL
LTb
1122 3577 M
63 0 V
5641 0 R
-63 0 V
stroke
990 3577 M
gsave 0 setgray
[ [(Times) 220.0 0.0 true true 0 ( 1)]
] -73.3 MRshow
grestore
1.000 UL
LTb
1122 4160 M
63 0 V
5641 0 R
-63 0 V
stroke
990 4160 M
gsave 0 setgray
[ [(Times) 220.0 0.0 true true 0 ( 1.5)]
] -73.3 MRshow
grestore
1.000 UL
LTb
1122 660 M
0 31 V
0 3469 R
0 -31 V
1418 660 M
0 31 V
0 3469 R
0 -31 V
1627 660 M
0 31 V
0 3469 R
0 -31 V
1790 660 M
0 31 V
0 3469 R
0 -31 V
1923 660 M
0 31 V
0 3469 R
0 -31 V
2035 660 M
0 31 V
0 3469 R
0 -31 V
2133 660 M
0 31 V
0 3469 R
0 -31 V
2219 660 M
0 31 V
0 3469 R
0 -31 V
2295 660 M
0 63 V
0 3437 R
0 -63 V
stroke
2295 440 M
gsave 0 setgray
[ [(Times) 220.0 0.0 true true 0 ( 0.01)]
] -73.3 MCshow
grestore
1.000 UL
LTb
2801 660 M
0 31 V
0 3469 R
0 -31 V
3096 660 M
0 31 V
0 3469 R
0 -31 V
3306 660 M
0 31 V
0 3469 R
0 -31 V
3469 660 M
0 31 V
0 3469 R
0 -31 V
3602 660 M
0 31 V
0 3469 R
0 -31 V
3714 660 M
0 31 V
0 3469 R
0 -31 V
3811 660 M
0 31 V
0 3469 R
0 -31 V
3897 660 M
0 31 V
0 3469 R
0 -31 V
3974 660 M
0 63 V
0 3437 R
0 -63 V
stroke
3974 440 M
gsave 0 setgray
[ [(Times) 220.0 0.0 true true 0 ( 0.1)]
] -73.3 MCshow
grestore
1.000 UL
LTb
4479 660 M
0 31 V
0 3469 R
0 -31 V
4775 660 M
0 31 V
0 3469 R
0 -31 V
4985 660 M
0 31 V
0 3469 R
0 -31 V
5147 660 M
0 31 V
0 3469 R
0 -31 V
5280 660 M
0 31 V
0 3469 R
0 -31 V
5393 660 M
0 31 V
0 3469 R
0 -31 V
5490 660 M
0 31 V
0 3469 R
0 -31 V
5576 660 M
0 31 V
0 3469 R
0 -31 V
5653 660 M
0 63 V
0 3437 R
0 -63 V
stroke
5653 440 M
gsave 0 setgray
[ [(Times) 220.0 0.0 true true 0 ( 1)]
] -73.3 MCshow
grestore
1.000 UL
LTb
6158 660 M
0 31 V
0 3469 R
0 -31 V
6454 660 M
0 31 V
0 3469 R
0 -31 V
6663 660 M
0 31 V
0 3469 R
0 -31 V
6826 660 M
0 31 V
0 3469 R
0 -31 V
1.000 UL
LTb
1122 660 M
5704 0 V
0 3500 V
-5704 0 V
0 -3500 V
LTb
220 2410 M
gsave 0 setgray
currentpoint gsave translate 90 rotate 0 0 moveto
[ [(Times) 220.0 0.0 true true 0 (potential)]
] -73.3 MCshow
grestore
grestore
LTb
3974 110 M
gsave 0 setgray
[ [(Times) 220.0 0.0 true true 0 (time)]
] -73.3 MCshow
grestore
LTb
3974 4710 M
gsave 0 setgray
%%[ [(Times) 220.0 0.0 true true 0 (Using same p for all t: Time history of potential at x=1/3)]
%%] -73.3 MCshow
%%grestore
%%3974 4490 M
%%gsave 0 setgray
%%[ [(Times) 220.0 0.0 true true 0 (cos\(4t\) boundary conditions)]
%%] -73.3 MCshow
grestore
1.000 UP
1.000 UP
1.000 UL
LT0
LTb
3158 3985 M
gsave 0 setgray
[ [(Times) 220.0 0.0 true true 0 (Fourier series, M=51)]
] -73.3 MRshow
grestore
LT0
3290 3985 M
591 0 V
1624 2401 M
336 -10 V
335 -30 V
336 -91 V
336 -196 V
336 -236 V
335 -247 V
336 -223 V
336 -137 V
335 76 V
336 559 V
336 1290 V
336 643 V
5988 1028 L
336 2863 V
1624 2401 Pls
1960 2391 Pls
2295 2361 Pls
2631 2270 Pls
2967 2074 Pls
3303 1838 Pls
3638 1591 Pls
3974 1368 Pls
4310 1231 Pls
4645 1307 Pls
4981 1866 Pls
5317 3156 Pls
5653 3799 Pls
5988 1028 Pls
6324 3891 Pls
3585 3985 Pls
1.000 UP
1.000 UL
LT1
LTb
3158 3765 M
gsave 0 setgray
[ [(Times) 220.0 0.0 true true 0 (Talbot, M=51)]
] -73.3 MRshow
grestore
LT1
3290 3765 M
591 0 V
1624 2436 M
336 -5 V
335 -50 V
336 -118 V
336 -188 V
336 -236 V
335 -249 V
336 -222 V
336 -137 V
335 76 V
336 559 V
336 1290 V
336 643 V
5988 1028 L
336 2863 V
1624 2436 Crs
1960 2431 Crs
2295 2381 Crs
2631 2263 Crs
2967 2075 Crs
3303 1839 Crs
3638 1590 Crs
3974 1368 Crs
4310 1231 Crs
4645 1307 Crs
4981 1866 Crs
5317 3156 Crs
5653 3799 Crs
5988 1028 Crs
6324 3891 Crs
3585 3765 Crs
1.000 UP
1.000 UL
LT2
LTb
3158 3545 M
gsave 0 setgray
[ [(Times) 220.0 0.0 true true 0 (Schapery, M=51 + SS)]
] -73.3 MRshow
grestore
LT2
3290 3545 M
591 0 V
1624 2410 M
336 0 V
335 1 V
336 -4 V
336 9 V
336 -19 V
335 43 V
336 -276 V
336 -712 V
335 -368 V
4981 826 L
5317 683 L
104 -23 V
1624 2410 Star
1960 2410 Star
2295 2411 Star
2631 2407 Star
2967 2416 Star
3303 2397 Star
3638 2440 Star
3974 2164 Star
4310 1452 Star
4645 1084 Star
4981 826 Star
5317 683 Star
3585 3545 Star
1.000 UP
1.000 UL
LT3
LTb
3158 3325 M
gsave 0 setgray
[ [(Times) 220.0 0.0 true true 0 (Weeks, M=51)]
] -73.3 MRshow
grestore
LT3
3290 3325 M
591 0 V
1624 2411 M
336 -9 V
335 -41 V
336 -101 V
336 -184 V
336 -237 V
335 -248 V
336 -222 V
336 -138 V
335 76 V
336 559 V
336 1290 V
336 643 V
5988 1028 L
336 2863 V
1624 2411 Box
1960 2402 Box
2295 2361 Box
2631 2260 Box
2967 2076 Box
3303 1839 Box
3638 1591 Box
3974 1369 Box
4310 1231 Box
4645 1307 Box
4981 1866 Box
5317 3156 Box
5653 3799 Box
5988 1028 Box
6324 3891 Box
3585 3325 Box
1.000 UL
LTb
1122 660 M
5704 0 V
0 3500 V
-5704 0 V
0 -3500 V
1.000 UP
stroke
grestore
end
showpage
%%Trailer
%%DocumentFonts: Times
