%!PS-Adobe-2.0 EPSF-2.0
%%Title: pot-time-series-03.eps
%%Creator: gnuplot 4.0 patchlevel 0
%%CreationDate: Mon Nov 13 10:14:58 2006
%%DocumentFonts: (atend)
%%BoundingBox: 50 50 410 302
%%Orientation: Portrait
%%EndComments
/gnudict 256 dict def
gnudict begin
/Color true def
/Solid false def
/gnulinewidth 5.000 def
/userlinewidth gnulinewidth def
/vshift -46 def
/dl {10.0 mul} def
/hpt_ 31.5 def
/vpt_ 31.5 def
/hpt hpt_ def
/vpt vpt_ def
/Rounded false def
/M {moveto} bind def
/L {lineto} bind def
/R {rmoveto} bind def
/V {rlineto} bind def
/N {newpath moveto} bind def
/C {setrgbcolor} bind def
/f {rlineto fill} bind def
/vpt2 vpt 2 mul def
/hpt2 hpt 2 mul def
/Lshow { currentpoint stroke M
  0 vshift R show } def
/Rshow { currentpoint stroke M
  dup stringwidth pop neg vshift R show } def
/Cshow { currentpoint stroke M
  dup stringwidth pop -2 div vshift R show } def
/UP { dup vpt_ mul /vpt exch def hpt_ mul /hpt exch def
  /hpt2 hpt 2 mul def /vpt2 vpt 2 mul def } def
/DL { Color {setrgbcolor Solid {pop []} if 0 setdash }
 {pop pop pop 0 setgray Solid {pop []} if 0 setdash} ifelse } def
/BL { stroke userlinewidth 2 mul setlinewidth
      Rounded { 1 setlinejoin 1 setlinecap } if } def
/AL { stroke userlinewidth 2 div setlinewidth
      Rounded { 1 setlinejoin 1 setlinecap } if } def
/UL { dup gnulinewidth mul /userlinewidth exch def
      dup 1 lt {pop 1} if 10 mul /udl exch def } def
/PL { stroke userlinewidth setlinewidth
      Rounded { 1 setlinejoin 1 setlinecap } if } def
/LTw { PL [] 1 setgray } def
/LTb { BL [] 0 0 0 DL } def
/LTa { AL [1 udl mul 2 udl mul] 0 setdash 0 0 0 setrgbcolor } def
/LT0 { PL [] 1 0 0 DL } def
/LT1 { PL [4 dl 2 dl] 0 1 0 DL } def
/LT2 { PL [2 dl 3 dl] 0 0 1 DL } def
/LT3 { PL [1 dl 1.5 dl] 1 0 1 DL } def
/LT4 { PL [5 dl 2 dl 1 dl 2 dl] 0 1 1 DL } def
/LT5 { PL [4 dl 3 dl 1 dl 3 dl] 1 1 0 DL } def
/LT6 { PL [2 dl 2 dl 2 dl 4 dl] 0 0 0 DL } def
/LT7 { PL [2 dl 2 dl 2 dl 2 dl 2 dl 4 dl] 1 0.3 0 DL } def
/LT8 { PL [2 dl 2 dl 2 dl 2 dl 2 dl 2 dl 2 dl 4 dl] 0.5 0.5 0.5 DL } def
/Pnt { stroke [] 0 setdash
   gsave 1 setlinecap M 0 0 V stroke grestore } def
/Dia { stroke [] 0 setdash 2 copy vpt add M
  hpt neg vpt neg V hpt vpt neg V
  hpt vpt V hpt neg vpt V closepath stroke
  Pnt } def
/Pls { stroke [] 0 setdash vpt sub M 0 vpt2 V
  currentpoint stroke M
  hpt neg vpt neg R hpt2 0 V stroke
  } def
/Box { stroke [] 0 setdash 2 copy exch hpt sub exch vpt add M
  0 vpt2 neg V hpt2 0 V 0 vpt2 V
  hpt2 neg 0 V closepath stroke
  Pnt } def
/Crs { stroke [] 0 setdash exch hpt sub exch vpt add M
  hpt2 vpt2 neg V currentpoint stroke M
  hpt2 neg 0 R hpt2 vpt2 V stroke } def
/TriU { stroke [] 0 setdash 2 copy vpt 1.12 mul add M
  hpt neg vpt -1.62 mul V
  hpt 2 mul 0 V
  hpt neg vpt 1.62 mul V closepath stroke
  Pnt  } def
/Star { 2 copy Pls Crs } def
/BoxF { stroke [] 0 setdash exch hpt sub exch vpt add M
  0 vpt2 neg V  hpt2 0 V  0 vpt2 V
  hpt2 neg 0 V  closepath fill } def
/TriUF { stroke [] 0 setdash vpt 1.12 mul add M
  hpt neg vpt -1.62 mul V
  hpt 2 mul 0 V
  hpt neg vpt 1.62 mul V closepath fill } def
/TriD { stroke [] 0 setdash 2 copy vpt 1.12 mul sub M
  hpt neg vpt 1.62 mul V
  hpt 2 mul 0 V
  hpt neg vpt -1.62 mul V closepath stroke
  Pnt  } def
/TriDF { stroke [] 0 setdash vpt 1.12 mul sub M
  hpt neg vpt 1.62 mul V
  hpt 2 mul 0 V
  hpt neg vpt -1.62 mul V closepath fill} def
/DiaF { stroke [] 0 setdash vpt add M
  hpt neg vpt neg V hpt vpt neg V
  hpt vpt V hpt neg vpt V closepath fill } def
/Pent { stroke [] 0 setdash 2 copy gsave
  translate 0 hpt M 4 {72 rotate 0 hpt L} repeat
  closepath stroke grestore Pnt } def
/PentF { stroke [] 0 setdash gsave
  translate 0 hpt M 4 {72 rotate 0 hpt L} repeat
  closepath fill grestore } def
/Circle { stroke [] 0 setdash 2 copy
  hpt 0 360 arc stroke Pnt } def
/CircleF { stroke [] 0 setdash hpt 0 360 arc fill } def
/C0 { BL [] 0 setdash 2 copy moveto vpt 90 450  arc } bind def
/C1 { BL [] 0 setdash 2 copy        moveto
       2 copy  vpt 0 90 arc closepath fill
               vpt 0 360 arc closepath } bind def
/C2 { BL [] 0 setdash 2 copy moveto
       2 copy  vpt 90 180 arc closepath fill
               vpt 0 360 arc closepath } bind def
/C3 { BL [] 0 setdash 2 copy moveto
       2 copy  vpt 0 180 arc closepath fill
               vpt 0 360 arc closepath } bind def
/C4 { BL [] 0 setdash 2 copy moveto
       2 copy  vpt 180 270 arc closepath fill
               vpt 0 360 arc closepath } bind def
/C5 { BL [] 0 setdash 2 copy moveto
       2 copy  vpt 0 90 arc
       2 copy moveto
       2 copy  vpt 180 270 arc closepath fill
               vpt 0 360 arc } bind def
/C6 { BL [] 0 setdash 2 copy moveto
      2 copy  vpt 90 270 arc closepath fill
              vpt 0 360 arc closepath } bind def
/C7 { BL [] 0 setdash 2 copy moveto
      2 copy  vpt 0 270 arc closepath fill
              vpt 0 360 arc closepath } bind def
/C8 { BL [] 0 setdash 2 copy moveto
      2 copy vpt 270 360 arc closepath fill
              vpt 0 360 arc closepath } bind def
/C9 { BL [] 0 setdash 2 copy moveto
      2 copy  vpt 270 450 arc closepath fill
              vpt 0 360 arc closepath } bind def
/C10 { BL [] 0 setdash 2 copy 2 copy moveto vpt 270 360 arc closepath fill
       2 copy moveto
       2 copy vpt 90 180 arc closepath fill
               vpt 0 360 arc closepath } bind def
/C11 { BL [] 0 setdash 2 copy moveto
       2 copy  vpt 0 180 arc closepath fill
       2 copy moveto
       2 copy  vpt 270 360 arc closepath fill
               vpt 0 360 arc closepath } bind def
/C12 { BL [] 0 setdash 2 copy moveto
       2 copy  vpt 180 360 arc closepath fill
               vpt 0 360 arc closepath } bind def
/C13 { BL [] 0 setdash  2 copy moveto
       2 copy  vpt 0 90 arc closepath fill
       2 copy moveto
       2 copy  vpt 180 360 arc closepath fill
               vpt 0 360 arc closepath } bind def
/C14 { BL [] 0 setdash 2 copy moveto
       2 copy  vpt 90 360 arc closepath fill
               vpt 0 360 arc } bind def
/C15 { BL [] 0 setdash 2 copy vpt 0 360 arc closepath fill
               vpt 0 360 arc closepath } bind def
/Rec   { newpath 4 2 roll moveto 1 index 0 rlineto 0 exch rlineto
       neg 0 rlineto closepath } bind def
/Square { dup Rec } bind def
/Bsquare { vpt sub exch vpt sub exch vpt2 Square } bind def
/S0 { BL [] 0 setdash 2 copy moveto 0 vpt rlineto BL Bsquare } bind def
/S1 { BL [] 0 setdash 2 copy vpt Square fill Bsquare } bind def
/S2 { BL [] 0 setdash 2 copy exch vpt sub exch vpt Square fill Bsquare } bind def
/S3 { BL [] 0 setdash 2 copy exch vpt sub exch vpt2 vpt Rec fill Bsquare } bind def
/S4 { BL [] 0 setdash 2 copy exch vpt sub exch vpt sub vpt Square fill Bsquare } bind def
/S5 { BL [] 0 setdash 2 copy 2 copy vpt Square fill
       exch vpt sub exch vpt sub vpt Square fill Bsquare } bind def
/S6 { BL [] 0 setdash 2 copy exch vpt sub exch vpt sub vpt vpt2 Rec fill Bsquare } bind def
/S7 { BL [] 0 setdash 2 copy exch vpt sub exch vpt sub vpt vpt2 Rec fill
       2 copy vpt Square fill
       Bsquare } bind def
/S8 { BL [] 0 setdash 2 copy vpt sub vpt Square fill Bsquare } bind def
/S9 { BL [] 0 setdash 2 copy vpt sub vpt vpt2 Rec fill Bsquare } bind def
/S10 { BL [] 0 setdash 2 copy vpt sub vpt Square fill 2 copy exch vpt sub exch vpt Square fill
       Bsquare } bind def
/S11 { BL [] 0 setdash 2 copy vpt sub vpt Square fill 2 copy exch vpt sub exch vpt2 vpt Rec fill
       Bsquare } bind def
/S12 { BL [] 0 setdash 2 copy exch vpt sub exch vpt sub vpt2 vpt Rec fill Bsquare } bind def
/S13 { BL [] 0 setdash 2 copy exch vpt sub exch vpt sub vpt2 vpt Rec fill
       2 copy vpt Square fill Bsquare } bind def
/S14 { BL [] 0 setdash 2 copy exch vpt sub exch vpt sub vpt2 vpt Rec fill
       2 copy exch vpt sub exch vpt Square fill Bsquare } bind def
/S15 { BL [] 0 setdash 2 copy Bsquare fill Bsquare } bind def
/D0 { gsave translate 45 rotate 0 0 S0 stroke grestore } bind def
/D1 { gsave translate 45 rotate 0 0 S1 stroke grestore } bind def
/D2 { gsave translate 45 rotate 0 0 S2 stroke grestore } bind def
/D3 { gsave translate 45 rotate 0 0 S3 stroke grestore } bind def
/D4 { gsave translate 45 rotate 0 0 S4 stroke grestore } bind def
/D5 { gsave translate 45 rotate 0 0 S5 stroke grestore } bind def
/D6 { gsave translate 45 rotate 0 0 S6 stroke grestore } bind def
/D7 { gsave translate 45 rotate 0 0 S7 stroke grestore } bind def
/D8 { gsave translate 45 rotate 0 0 S8 stroke grestore } bind def
/D9 { gsave translate 45 rotate 0 0 S9 stroke grestore } bind def
/D10 { gsave translate 45 rotate 0 0 S10 stroke grestore } bind def
/D11 { gsave translate 45 rotate 0 0 S11 stroke grestore } bind def
/D12 { gsave translate 45 rotate 0 0 S12 stroke grestore } bind def
/D13 { gsave translate 45 rotate 0 0 S13 stroke grestore } bind def
/D14 { gsave translate 45 rotate 0 0 S14 stroke grestore } bind def
/D15 { gsave translate 45 rotate 0 0 S15 stroke grestore } bind def
/DiaE { stroke [] 0 setdash vpt add M
  hpt neg vpt neg V hpt vpt neg V
  hpt vpt V hpt neg vpt V closepath stroke } def
/BoxE { stroke [] 0 setdash exch hpt sub exch vpt add M
  0 vpt2 neg V hpt2 0 V 0 vpt2 V
  hpt2 neg 0 V closepath stroke } def
/TriUE { stroke [] 0 setdash vpt 1.12 mul add M
  hpt neg vpt -1.62 mul V
  hpt 2 mul 0 V
  hpt neg vpt 1.62 mul V closepath stroke } def
/TriDE { stroke [] 0 setdash vpt 1.12 mul sub M
  hpt neg vpt 1.62 mul V
  hpt 2 mul 0 V
  hpt neg vpt -1.62 mul V closepath stroke } def
/PentE { stroke [] 0 setdash gsave
  translate 0 hpt M 4 {72 rotate 0 hpt L} repeat
  closepath stroke grestore } def
/CircE { stroke [] 0 setdash 
  hpt 0 360 arc stroke } def
/Opaque { gsave closepath 1 setgray fill grestore 0 setgray closepath } def
/DiaW { stroke [] 0 setdash vpt add M
  hpt neg vpt neg V hpt vpt neg V
  hpt vpt V hpt neg vpt V Opaque stroke } def
/BoxW { stroke [] 0 setdash exch hpt sub exch vpt add M
  0 vpt2 neg V hpt2 0 V 0 vpt2 V
  hpt2 neg 0 V Opaque stroke } def
/TriUW { stroke [] 0 setdash vpt 1.12 mul add M
  hpt neg vpt -1.62 mul V
  hpt 2 mul 0 V
  hpt neg vpt 1.62 mul V Opaque stroke } def
/TriDW { stroke [] 0 setdash vpt 1.12 mul sub M
  hpt neg vpt 1.62 mul V
  hpt 2 mul 0 V
  hpt neg vpt -1.62 mul V Opaque stroke } def
/PentW { stroke [] 0 setdash gsave
  translate 0 hpt M 4 {72 rotate 0 hpt L} repeat
  Opaque stroke grestore } def
/CircW { stroke [] 0 setdash 
  hpt 0 360 arc Opaque stroke } def
/BoxFill { gsave Rec 1 setgray fill grestore } def
/BoxColFill {
  gsave Rec
  /Fillden exch def
  currentrgbcolor
  /ColB exch def /ColG exch def /ColR exch def
  /ColR ColR Fillden mul Fillden sub 1 add def
  /ColG ColG Fillden mul Fillden sub 1 add def
  /ColB ColB Fillden mul Fillden sub 1 add def
  ColR ColG ColB setrgbcolor
  fill grestore } def
%
% PostScript Level 1 Pattern Fill routine
% Usage: x y w h s a XX PatternFill
%	x,y = lower left corner of box to be filled
%	w,h = width and height of box
%	  a = angle in degrees between lines and x-axis
%	 XX = 0/1 for no/yes cross-hatch
%
/PatternFill { gsave /PFa [ 9 2 roll ] def
    PFa 0 get PFa 2 get 2 div add PFa 1 get PFa 3 get 2 div add translate
    PFa 2 get -2 div PFa 3 get -2 div PFa 2 get PFa 3 get Rec
    gsave 1 setgray fill grestore clip
    currentlinewidth 0.5 mul setlinewidth
    /PFs PFa 2 get dup mul PFa 3 get dup mul add sqrt def
    0 0 M PFa 5 get rotate PFs -2 div dup translate
	0 1 PFs PFa 4 get div 1 add floor cvi
	{ PFa 4 get mul 0 M 0 PFs V } for
    0 PFa 6 get ne {
	0 1 PFs PFa 4 get div 1 add floor cvi
	{ PFa 4 get mul 0 2 1 roll M PFs 0 V } for
    } if
    stroke grestore } def
%
/Symbol-Oblique /Symbol findfont [1 0 .167 1 0 0] makefont
dup length dict begin {1 index /FID eq {pop pop} {def} ifelse} forall
currentdict end definefont pop
/MFshow {
   { dup 5 get 3 ge
     { 5 get 3 eq {gsave} {grestore} ifelse }
     {dup dup 0 get findfont exch 1 get scalefont setfont
     [ currentpoint ] exch dup 2 get 0 exch R dup 5 get 2 ne {dup dup 6
     get exch 4 get {show} {stringwidth pop 0 R} ifelse }if dup 5 get 0 eq
     {dup 3 get {2 get neg 0 exch R pop} {pop aload pop M} ifelse} {dup 5
     get 1 eq {dup 2 get exch dup 3 get exch 6 get stringwidth pop -2 div
     dup 0 R} {dup 6 get stringwidth pop -2 div 0 R 6 get
     show 2 index {aload pop M neg 3 -1 roll neg R pop pop} {pop pop pop
     pop aload pop M} ifelse }ifelse }ifelse }
     ifelse }
   forall} bind def
/MFwidth {0 exch {dup 3 get{dup dup 0 get findfont exch 1 get scalefont
     setfont 6 get stringwidth pop add} {pop} ifelse} forall} bind def
/MLshow { currentpoint stroke M
  0 exch R MFshow } bind def
/MRshow { currentpoint stroke M
  exch dup MFwidth neg 3 -1 roll R MFshow } def
/MCshow { currentpoint stroke M
  exch dup MFwidth -2 div 3 -1 roll R MFshow } def
end
%%EndProlog
gnudict begin
gsave
50 50 translate
0.050 0.050 scale
0 setgray
newpath
(Helvetica) findfont 140 scalefont setfont
1.000 UL
LTb
798 420 M
63 0 V
6101 0 R
-63 0 V
stroke
714 420 M
[ [(Helvetica) 140.0 0.0 true true 0 (-0.25)]
] -46.7 MRshow
1.000 UL
LTb
798 789 M
63 0 V
6101 0 R
-63 0 V
stroke
714 789 M
[ [(Helvetica) 140.0 0.0 true true 0 (-0.2)]
] -46.7 MRshow
1.000 UL
LTb
798 1158 M
63 0 V
6101 0 R
-63 0 V
stroke
714 1158 M
[ [(Helvetica) 140.0 0.0 true true 0 (-0.15)]
] -46.7 MRshow
1.000 UL
LTb
798 1527 M
63 0 V
6101 0 R
-63 0 V
stroke
714 1527 M
[ [(Helvetica) 140.0 0.0 true true 0 (-0.1)]
] -46.7 MRshow
1.000 UL
LTb
798 1896 M
63 0 V
6101 0 R
-63 0 V
stroke
714 1896 M
[ [(Helvetica) 140.0 0.0 true true 0 (-0.05)]
] -46.7 MRshow
1.000 UL
LTb
798 2265 M
63 0 V
6101 0 R
-63 0 V
stroke
714 2265 M
[ [(Helvetica) 140.0 0.0 true true 0 ( 0)]
] -46.7 MRshow
1.000 UL
LTb
798 2635 M
63 0 V
6101 0 R
-63 0 V
stroke
714 2635 M
[ [(Helvetica) 140.0 0.0 true true 0 ( 0.05)]
] -46.7 MRshow
1.000 UL
LTb
798 3004 M
63 0 V
6101 0 R
-63 0 V
stroke
714 3004 M
[ [(Helvetica) 140.0 0.0 true true 0 ( 0.1)]
] -46.7 MRshow
1.000 UL
LTb
798 3373 M
63 0 V
6101 0 R
-63 0 V
stroke
714 3373 M
[ [(Helvetica) 140.0 0.0 true true 0 ( 0.15)]
] -46.7 MRshow
1.000 UL
LTb
798 3742 M
63 0 V
6101 0 R
-63 0 V
stroke
714 3742 M
[ [(Helvetica) 140.0 0.0 true true 0 ( 0.2)]
] -46.7 MRshow
1.000 UL
LTb
798 4111 M
63 0 V
6101 0 R
-63 0 V
stroke
714 4111 M
[ [(Helvetica) 140.0 0.0 true true 0 ( 0.25)]
] -46.7 MRshow
1.000 UL
LTb
798 4480 M
63 0 V
6101 0 R
-63 0 V
stroke
714 4480 M
[ [(Helvetica) 140.0 0.0 true true 0 ( 0.3)]
] -46.7 MRshow
1.000 UL
LTb
798 420 M
0 63 V
0 3997 R
0 -63 V
stroke
798 280 M
[ [(Helvetica) 140.0 0.0 true true 0 ( 0.001)]
] -46.7 MCshow
1.000 UL
LTb
1262 420 M
0 31 V
0 4029 R
0 -31 V
1533 420 M
0 31 V
0 4029 R
0 -31 V
1726 420 M
0 31 V
0 4029 R
0 -31 V
1875 420 M
0 31 V
0 4029 R
0 -31 V
1997 420 M
0 31 V
0 4029 R
0 -31 V
2100 420 M
0 31 V
0 4029 R
0 -31 V
2190 420 M
0 31 V
0 4029 R
0 -31 V
2268 420 M
0 31 V
0 4029 R
0 -31 V
2339 420 M
0 63 V
0 3997 R
0 -63 V
stroke
2339 280 M
[ [(Helvetica) 140.0 0.0 true true 0 ( 0.01)]
] -46.7 MCshow
1.000 UL
LTb
2803 420 M
0 31 V
0 4029 R
0 -31 V
3074 420 M
0 31 V
0 4029 R
0 -31 V
3267 420 M
0 31 V
0 4029 R
0 -31 V
3416 420 M
0 31 V
0 4029 R
0 -31 V
3538 420 M
0 31 V
0 4029 R
0 -31 V
3641 420 M
0 31 V
0 4029 R
0 -31 V
3731 420 M
0 31 V
0 4029 R
0 -31 V
3809 420 M
0 31 V
0 4029 R
0 -31 V
3880 420 M
0 63 V
0 3997 R
0 -63 V
stroke
3880 280 M
[ [(Helvetica) 140.0 0.0 true true 0 ( 0.1)]
] -46.7 MCshow
1.000 UL
LTb
4344 420 M
0 31 V
0 4029 R
0 -31 V
4615 420 M
0 31 V
0 4029 R
0 -31 V
4808 420 M
0 31 V
0 4029 R
0 -31 V
4957 420 M
0 31 V
0 4029 R
0 -31 V
5079 420 M
0 31 V
0 4029 R
0 -31 V
5182 420 M
0 31 V
0 4029 R
0 -31 V
5272 420 M
0 31 V
0 4029 R
0 -31 V
5350 420 M
0 31 V
0 4029 R
0 -31 V
5421 420 M
0 63 V
0 3997 R
0 -63 V
stroke
5421 280 M
[ [(Helvetica) 140.0 0.0 true true 0 ( 1)]
] -46.7 MCshow
1.000 UL
LTb
5885 420 M
0 31 V
0 4029 R
0 -31 V
6156 420 M
0 31 V
0 4029 R
0 -31 V
6349 420 M
0 31 V
0 4029 R
0 -31 V
6498 420 M
0 31 V
0 4029 R
0 -31 V
6620 420 M
0 31 V
0 4029 R
0 -31 V
6723 420 M
0 31 V
0 4029 R
0 -31 V
6813 420 M
0 31 V
0 4029 R
0 -31 V
6891 420 M
0 31 V
0 4029 R
0 -31 V
6962 420 M
0 63 V
0 3997 R
0 -63 V
stroke
6962 280 M
[ [(Helvetica) 140.0 0.0 true true 0 ( 10)]
] -46.7 MCshow
1.000 UL
LTb
1.000 UL
LTb
798 420 M
6164 0 V
0 4060 V
-6164 0 V
798 420 L
LTb
140 2450 M
currentpoint gsave translate 90 rotate 0 0 moveto
[ [(Helvetica) 140.0 0.0 true true 0 (potential)]
] -46.7 MCshow
grestore
LTb
3880 70 M
[ [(Helvetica) 140.0 0.0 true true 0 (time)]
] -46.7 MCshow
LTb
3880 4830 M
[ [(Helvetica) 140.0 0.0 true true 0 (potential time history in center of domain at \(4/3, 1\))]
] -46.7 MCshow
3880 4690 M
[ [(Helvetica) 140.0 0.0 true true 0 (steady-state boundary conditions, less accuracy)]
] -46.7 MCshow
1.000 UP
1.000 UP
1.000 UL
LT0
LTb
2058 1113 M
[ [(Helvetica) 140.0 0.0 true true 0 (Fourier series)]
] -46.7 MRshow
LT0
2142 1113 M
399 0 V
1825 2265 M
514 0 V
514 0 V
513 0 V
514 -40 V
514 -424 V
513 -762 V
5421 665 L
514 -40 V
513 0 V
1825 2265 Pls
2339 2265 Pls
2853 2265 Pls
3366 2265 Pls
3880 2225 Pls
4394 1801 Pls
4907 1039 Pls
5421 665 Pls
5935 625 Pls
6448 625 Pls
2341 1113 Pls
1.000 UP
1.000 UL
LT1
LTb
2058 973 M
[ [(Helvetica) 140.0 0.0 true true 0 (Talbot)]
] -46.7 MRshow
LT1
2142 973 M
399 0 V
1825 2265 M
514 0 V
514 0 V
513 0 V
514 -40 V
514 -424 V
513 -762 V
5421 665 L
514 -40 V
513 0 V
1825 2265 Crs
2339 2265 Crs
2853 2265 Crs
3366 2265 Crs
3880 2225 Crs
4394 1801 Crs
4907 1039 Crs
5421 665 Crs
5935 625 Crs
6448 625 Crs
2341 973 Crs
1.000 UP
1.000 UL
LT2
LTb
2058 833 M
[ [(Helvetica) 140.0 0.0 true true 0 (Stehfest)]
] -46.7 MRshow
LT2
2142 833 M
399 0 V
1825 2265 M
514 0 V
514 0 V
513 0 V
514 -39 V
514 -425 V
513 -761 V
5421 664 L
514 -39 V
513 0 V
1825 2265 Star
2339 2265 Star
2853 2265 Star
3366 2265 Star
3880 2226 Star
4394 1801 Star
4907 1040 Star
5421 664 Star
5935 625 Star
6448 625 Star
2341 833 Star
1.000 UP
1.000 UL
LT3
LTb
2058 693 M
[ [(Helvetica) 140.0 0.0 true true 0 (Schapery)]
] -46.7 MRshow
LT3
2142 693 M
399 0 V
1825 2270 M
514 -7 V
514 -4 V
513 8 V
514 -42 V
514 -423 V
513 -763 V
5421 664 L
514 -39 V
513 0 V
1825 2270 Box
2339 2263 Box
2853 2259 Box
3366 2267 Box
3880 2225 Box
4394 1802 Box
4907 1039 Box
5421 664 Box
5935 625 Box
6448 625 Box
2341 693 Box
1.000 UP
1.000 UL
LT4
LTb
2058 553 M
[ [(Helvetica) 140.0 0.0 true true 0 (Weeks)]
] -46.7 MRshow
LT4
2142 553 M
399 0 V
1825 3038 M
514 -765 V
514 9 V
513 16 V
514 -7 V
514 -340 V
513 -574 V
514 33 V
514 836 V
513 1890 V
1825 3038 BoxF
2339 2273 BoxF
2853 2282 BoxF
3366 2298 BoxF
3880 2291 BoxF
4394 1951 BoxF
4907 1377 BoxF
5421 1410 BoxF
5935 2246 BoxF
6448 4136 BoxF
2341 553 BoxF
1.000 UL
LTb
798 420 M
6164 0 V
0 4060 V
-6164 0 V
798 420 L
1.000 UP
stroke
grestore
end
showpage
%%Trailer
%%DocumentFonts: Helvetica
