%!PS-Adobe-2.0 EPSF-2.0
%%Title: xflux-time-series-01.eps
%%Creator: gnuplot 4.0 patchlevel 0
%%CreationDate: Mon Nov 13 10:14:58 2006
%%DocumentFonts: (atend)
%%BoundingBox: 50 50 410 302
%%Orientation: Portrait
%%EndComments
/gnudict 256 dict def
gnudict begin
/Color true def
/Solid false def
/gnulinewidth 5.000 def
/userlinewidth gnulinewidth def
/vshift -46 def
/dl {10.0 mul} def
/hpt_ 31.5 def
/vpt_ 31.5 def
/hpt hpt_ def
/vpt vpt_ def
/Rounded false def
/M {moveto} bind def
/L {lineto} bind def
/R {rmoveto} bind def
/V {rlineto} bind def
/N {newpath moveto} bind def
/C {setrgbcolor} bind def
/f {rlineto fill} bind def
/vpt2 vpt 2 mul def
/hpt2 hpt 2 mul def
/Lshow { currentpoint stroke M
  0 vshift R show } def
/Rshow { currentpoint stroke M
  dup stringwidth pop neg vshift R show } def
/Cshow { currentpoint stroke M
  dup stringwidth pop -2 div vshift R show } def
/UP { dup vpt_ mul /vpt exch def hpt_ mul /hpt exch def
  /hpt2 hpt 2 mul def /vpt2 vpt 2 mul def } def
/DL { Color {setrgbcolor Solid {pop []} if 0 setdash }
 {pop pop pop 0 setgray Solid {pop []} if 0 setdash} ifelse } def
/BL { stroke userlinewidth 2 mul setlinewidth
      Rounded { 1 setlinejoin 1 setlinecap } if } def
/AL { stroke userlinewidth 2 div setlinewidth
      Rounded { 1 setlinejoin 1 setlinecap } if } def
/UL { dup gnulinewidth mul /userlinewidth exch def
      dup 1 lt {pop 1} if 10 mul /udl exch def } def
/PL { stroke userlinewidth setlinewidth
      Rounded { 1 setlinejoin 1 setlinecap } if } def
/LTw { PL [] 1 setgray } def
/LTb { BL [] 0 0 0 DL } def
/LTa { AL [1 udl mul 2 udl mul] 0 setdash 0 0 0 setrgbcolor } def
/LT0 { PL [] 1 0 0 DL } def
/LT1 { PL [4 dl 2 dl] 0 1 0 DL } def
/LT2 { PL [2 dl 3 dl] 0 0 1 DL } def
/LT3 { PL [1 dl 1.5 dl] 1 0 1 DL } def
/LT4 { PL [5 dl 2 dl 1 dl 2 dl] 0 1 1 DL } def
/LT5 { PL [4 dl 3 dl 1 dl 3 dl] 1 1 0 DL } def
/LT6 { PL [2 dl 2 dl 2 dl 4 dl] 0 0 0 DL } def
/LT7 { PL [2 dl 2 dl 2 dl 2 dl 2 dl 4 dl] 1 0.3 0 DL } def
/LT8 { PL [2 dl 2 dl 2 dl 2 dl 2 dl 2 dl 2 dl 4 dl] 0.5 0.5 0.5 DL } def
/Pnt { stroke [] 0 setdash
   gsave 1 setlinecap M 0 0 V stroke grestore } def
/Dia { stroke [] 0 setdash 2 copy vpt add M
  hpt neg vpt neg V hpt vpt neg V
  hpt vpt V hpt neg vpt V closepath stroke
  Pnt } def
/Pls { stroke [] 0 setdash vpt sub M 0 vpt2 V
  currentpoint stroke M
  hpt neg vpt neg R hpt2 0 V stroke
  } def
/Box { stroke [] 0 setdash 2 copy exch hpt sub exch vpt add M
  0 vpt2 neg V hpt2 0 V 0 vpt2 V
  hpt2 neg 0 V closepath stroke
  Pnt } def
/Crs { stroke [] 0 setdash exch hpt sub exch vpt add M
  hpt2 vpt2 neg V currentpoint stroke M
  hpt2 neg 0 R hpt2 vpt2 V stroke } def
/TriU { stroke [] 0 setdash 2 copy vpt 1.12 mul add M
  hpt neg vpt -1.62 mul V
  hpt 2 mul 0 V
  hpt neg vpt 1.62 mul V closepath stroke
  Pnt  } def
/Star { 2 copy Pls Crs } def
/BoxF { stroke [] 0 setdash exch hpt sub exch vpt add M
  0 vpt2 neg V  hpt2 0 V  0 vpt2 V
  hpt2 neg 0 V  closepath fill } def
/TriUF { stroke [] 0 setdash vpt 1.12 mul add M
  hpt neg vpt -1.62 mul V
  hpt 2 mul 0 V
  hpt neg vpt 1.62 mul V closepath fill } def
/TriD { stroke [] 0 setdash 2 copy vpt 1.12 mul sub M
  hpt neg vpt 1.62 mul V
  hpt 2 mul 0 V
  hpt neg vpt -1.62 mul V closepath stroke
  Pnt  } def
/TriDF { stroke [] 0 setdash vpt 1.12 mul sub M
  hpt neg vpt 1.62 mul V
  hpt 2 mul 0 V
  hpt neg vpt -1.62 mul V closepath fill} def
/DiaF { stroke [] 0 setdash vpt add M
  hpt neg vpt neg V hpt vpt neg V
  hpt vpt V hpt neg vpt V closepath fill } def
/Pent { stroke [] 0 setdash 2 copy gsave
  translate 0 hpt M 4 {72 rotate 0 hpt L} repeat
  closepath stroke grestore Pnt } def
/PentF { stroke [] 0 setdash gsave
  translate 0 hpt M 4 {72 rotate 0 hpt L} repeat
  closepath fill grestore } def
/Circle { stroke [] 0 setdash 2 copy
  hpt 0 360 arc stroke Pnt } def
/CircleF { stroke [] 0 setdash hpt 0 360 arc fill } def
/C0 { BL [] 0 setdash 2 copy moveto vpt 90 450  arc } bind def
/C1 { BL [] 0 setdash 2 copy        moveto
       2 copy  vpt 0 90 arc closepath fill
               vpt 0 360 arc closepath } bind def
/C2 { BL [] 0 setdash 2 copy moveto
       2 copy  vpt 90 180 arc closepath fill
               vpt 0 360 arc closepath } bind def
/C3 { BL [] 0 setdash 2 copy moveto
       2 copy  vpt 0 180 arc closepath fill
               vpt 0 360 arc closepath } bind def
/C4 { BL [] 0 setdash 2 copy moveto
       2 copy  vpt 180 270 arc closepath fill
               vpt 0 360 arc closepath } bind def
/C5 { BL [] 0 setdash 2 copy moveto
       2 copy  vpt 0 90 arc
       2 copy moveto
       2 copy  vpt 180 270 arc closepath fill
               vpt 0 360 arc } bind def
/C6 { BL [] 0 setdash 2 copy moveto
      2 copy  vpt 90 270 arc closepath fill
              vpt 0 360 arc closepath } bind def
/C7 { BL [] 0 setdash 2 copy moveto
      2 copy  vpt 0 270 arc closepath fill
              vpt 0 360 arc closepath } bind def
/C8 { BL [] 0 setdash 2 copy moveto
      2 copy vpt 270 360 arc closepath fill
              vpt 0 360 arc closepath } bind def
/C9 { BL [] 0 setdash 2 copy moveto
      2 copy  vpt 270 450 arc closepath fill
              vpt 0 360 arc closepath } bind def
/C10 { BL [] 0 setdash 2 copy 2 copy moveto vpt 270 360 arc closepath fill
       2 copy moveto
       2 copy vpt 90 180 arc closepath fill
               vpt 0 360 arc closepath } bind def
/C11 { BL [] 0 setdash 2 copy moveto
       2 copy  vpt 0 180 arc closepath fill
       2 copy moveto
       2 copy  vpt 270 360 arc closepath fill
               vpt 0 360 arc closepath } bind def
/C12 { BL [] 0 setdash 2 copy moveto
       2 copy  vpt 180 360 arc closepath fill
               vpt 0 360 arc closepath } bind def
/C13 { BL [] 0 setdash  2 copy moveto
       2 copy  vpt 0 90 arc closepath fill
       2 copy moveto
       2 copy  vpt 180 360 arc closepath fill
               vpt 0 360 arc closepath } bind def
/C14 { BL [] 0 setdash 2 copy moveto
       2 copy  vpt 90 360 arc closepath fill
               vpt 0 360 arc } bind def
/C15 { BL [] 0 setdash 2 copy vpt 0 360 arc closepath fill
               vpt 0 360 arc closepath } bind def
/Rec   { newpath 4 2 roll moveto 1 index 0 rlineto 0 exch rlineto
       neg 0 rlineto closepath } bind def
/Square { dup Rec } bind def
/Bsquare { vpt sub exch vpt sub exch vpt2 Square } bind def
/S0 { BL [] 0 setdash 2 copy moveto 0 vpt rlineto BL Bsquare } bind def
/S1 { BL [] 0 setdash 2 copy vpt Square fill Bsquare } bind def
/S2 { BL [] 0 setdash 2 copy exch vpt sub exch vpt Square fill Bsquare } bind def
/S3 { BL [] 0 setdash 2 copy exch vpt sub exch vpt2 vpt Rec fill Bsquare } bind def
/S4 { BL [] 0 setdash 2 copy exch vpt sub exch vpt sub vpt Square fill Bsquare } bind def
/S5 { BL [] 0 setdash 2 copy 2 copy vpt Square fill
       exch vpt sub exch vpt sub vpt Square fill Bsquare } bind def
/S6 { BL [] 0 setdash 2 copy exch vpt sub exch vpt sub vpt vpt2 Rec fill Bsquare } bind def
/S7 { BL [] 0 setdash 2 copy exch vpt sub exch vpt sub vpt vpt2 Rec fill
       2 copy vpt Square fill
       Bsquare } bind def
/S8 { BL [] 0 setdash 2 copy vpt sub vpt Square fill Bsquare } bind def
/S9 { BL [] 0 setdash 2 copy vpt sub vpt vpt2 Rec fill Bsquare } bind def
/S10 { BL [] 0 setdash 2 copy vpt sub vpt Square fill 2 copy exch vpt sub exch vpt Square fill
       Bsquare } bind def
/S11 { BL [] 0 setdash 2 copy vpt sub vpt Square fill 2 copy exch vpt sub exch vpt2 vpt Rec fill
       Bsquare } bind def
/S12 { BL [] 0 setdash 2 copy exch vpt sub exch vpt sub vpt2 vpt Rec fill Bsquare } bind def
/S13 { BL [] 0 setdash 2 copy exch vpt sub exch vpt sub vpt2 vpt Rec fill
       2 copy vpt Square fill Bsquare } bind def
/S14 { BL [] 0 setdash 2 copy exch vpt sub exch vpt sub vpt2 vpt Rec fill
       2 copy exch vpt sub exch vpt Square fill Bsquare } bind def
/S15 { BL [] 0 setdash 2 copy Bsquare fill Bsquare } bind def
/D0 { gsave translate 45 rotate 0 0 S0 stroke grestore } bind def
/D1 { gsave translate 45 rotate 0 0 S1 stroke grestore } bind def
/D2 { gsave translate 45 rotate 0 0 S2 stroke grestore } bind def
/D3 { gsave translate 45 rotate 0 0 S3 stroke grestore } bind def
/D4 { gsave translate 45 rotate 0 0 S4 stroke grestore } bind def
/D5 { gsave translate 45 rotate 0 0 S5 stroke grestore } bind def
/D6 { gsave translate 45 rotate 0 0 S6 stroke grestore } bind def
/D7 { gsave translate 45 rotate 0 0 S7 stroke grestore } bind def
/D8 { gsave translate 45 rotate 0 0 S8 stroke grestore } bind def
/D9 { gsave translate 45 rotate 0 0 S9 stroke grestore } bind def
/D10 { gsave translate 45 rotate 0 0 S10 stroke grestore } bind def
/D11 { gsave translate 45 rotate 0 0 S11 stroke grestore } bind def
/D12 { gsave translate 45 rotate 0 0 S12 stroke grestore } bind def
/D13 { gsave translate 45 rotate 0 0 S13 stroke grestore } bind def
/D14 { gsave translate 45 rotate 0 0 S14 stroke grestore } bind def
/D15 { gsave translate 45 rotate 0 0 S15 stroke grestore } bind def
/DiaE { stroke [] 0 setdash vpt add M
  hpt neg vpt neg V hpt vpt neg V
  hpt vpt V hpt neg vpt V closepath stroke } def
/BoxE { stroke [] 0 setdash exch hpt sub exch vpt add M
  0 vpt2 neg V hpt2 0 V 0 vpt2 V
  hpt2 neg 0 V closepath stroke } def
/TriUE { stroke [] 0 setdash vpt 1.12 mul add M
  hpt neg vpt -1.62 mul V
  hpt 2 mul 0 V
  hpt neg vpt 1.62 mul V closepath stroke } def
/TriDE { stroke [] 0 setdash vpt 1.12 mul sub M
  hpt neg vpt 1.62 mul V
  hpt 2 mul 0 V
  hpt neg vpt -1.62 mul V closepath stroke } def
/PentE { stroke [] 0 setdash gsave
  translate 0 hpt M 4 {72 rotate 0 hpt L} repeat
  closepath stroke grestore } def
/CircE { stroke [] 0 setdash 
  hpt 0 360 arc stroke } def
/Opaque { gsave closepath 1 setgray fill grestore 0 setgray closepath } def
/DiaW { stroke [] 0 setdash vpt add M
  hpt neg vpt neg V hpt vpt neg V
  hpt vpt V hpt neg vpt V Opaque stroke } def
/BoxW { stroke [] 0 setdash exch hpt sub exch vpt add M
  0 vpt2 neg V hpt2 0 V 0 vpt2 V
  hpt2 neg 0 V Opaque stroke } def
/TriUW { stroke [] 0 setdash vpt 1.12 mul add M
  hpt neg vpt -1.62 mul V
  hpt 2 mul 0 V
  hpt neg vpt 1.62 mul V Opaque stroke } def
/TriDW { stroke [] 0 setdash vpt 1.12 mul sub M
  hpt neg vpt 1.62 mul V
  hpt 2 mul 0 V
  hpt neg vpt -1.62 mul V Opaque stroke } def
/PentW { stroke [] 0 setdash gsave
  translate 0 hpt M 4 {72 rotate 0 hpt L} repeat
  Opaque stroke grestore } def
/CircW { stroke [] 0 setdash 
  hpt 0 360 arc Opaque stroke } def
/BoxFill { gsave Rec 1 setgray fill grestore } def
/BoxColFill {
  gsave Rec
  /Fillden exch def
  currentrgbcolor
  /ColB exch def /ColG exch def /ColR exch def
  /ColR ColR Fillden mul Fillden sub 1 add def
  /ColG ColG Fillden mul Fillden sub 1 add def
  /ColB ColB Fillden mul Fillden sub 1 add def
  ColR ColG ColB setrgbcolor
  fill grestore } def
%
% PostScript Level 1 Pattern Fill routine
% Usage: x y w h s a XX PatternFill
%	x,y = lower left corner of box to be filled
%	w,h = width and height of box
%	  a = angle in degrees between lines and x-axis
%	 XX = 0/1 for no/yes cross-hatch
%
/PatternFill { gsave /PFa [ 9 2 roll ] def
    PFa 0 get PFa 2 get 2 div add PFa 1 get PFa 3 get 2 div add translate
    PFa 2 get -2 div PFa 3 get -2 div PFa 2 get PFa 3 get Rec
    gsave 1 setgray fill grestore clip
    currentlinewidth 0.5 mul setlinewidth
    /PFs PFa 2 get dup mul PFa 3 get dup mul add sqrt def
    0 0 M PFa 5 get rotate PFs -2 div dup translate
	0 1 PFs PFa 4 get div 1 add floor cvi
	{ PFa 4 get mul 0 M 0 PFs V } for
    0 PFa 6 get ne {
	0 1 PFs PFa 4 get div 1 add floor cvi
	{ PFa 4 get mul 0 2 1 roll M PFs 0 V } for
    } if
    stroke grestore } def
%
/Symbol-Oblique /Symbol findfont [1 0 .167 1 0 0] makefont
dup length dict begin {1 index /FID eq {pop pop} {def} ifelse} forall
currentdict end definefont pop
/MFshow {
   { dup 5 get 3 ge
     { 5 get 3 eq {gsave} {grestore} ifelse }
     {dup dup 0 get findfont exch 1 get scalefont setfont
     [ currentpoint ] exch dup 2 get 0 exch R dup 5 get 2 ne {dup dup 6
     get exch 4 get {show} {stringwidth pop 0 R} ifelse }if dup 5 get 0 eq
     {dup 3 get {2 get neg 0 exch R pop} {pop aload pop M} ifelse} {dup 5
     get 1 eq {dup 2 get exch dup 3 get exch 6 get stringwidth pop -2 div
     dup 0 R} {dup 6 get stringwidth pop -2 div 0 R 6 get
     show 2 index {aload pop M neg 3 -1 roll neg R pop pop} {pop pop pop
     pop aload pop M} ifelse }ifelse }ifelse }
     ifelse }
   forall} bind def
/MFwidth {0 exch {dup 3 get{dup dup 0 get findfont exch 1 get scalefont
     setfont 6 get stringwidth pop add} {pop} ifelse} forall} bind def
/MLshow { currentpoint stroke M
  0 exch R MFshow } bind def
/MRshow { currentpoint stroke M
  exch dup MFwidth neg 3 -1 roll R MFshow } def
/MCshow { currentpoint stroke M
  exch dup MFwidth -2 div 3 -1 roll R MFshow } def
end
%%EndProlog
gnudict begin
gsave
50 50 translate
0.050 0.050 scale
0 setgray
newpath
(Helvetica) findfont 140 scalefont setfont
1.000 UL
LTb
714 420 M
63 0 V
6185 0 R
-63 0 V
stroke
630 420 M
[ [(Helvetica) 140.0 0.0 true true 0 (-3)]
] -46.7 MRshow
1.000 UL
LTb
714 1000 M
63 0 V
6185 0 R
-63 0 V
stroke
630 1000 M
[ [(Helvetica) 140.0 0.0 true true 0 (-2.5)]
] -46.7 MRshow
1.000 UL
LTb
714 1580 M
63 0 V
6185 0 R
-63 0 V
stroke
630 1580 M
[ [(Helvetica) 140.0 0.0 true true 0 (-2)]
] -46.7 MRshow
1.000 UL
LTb
714 2160 M
63 0 V
6185 0 R
-63 0 V
stroke
630 2160 M
[ [(Helvetica) 140.0 0.0 true true 0 (-1.5)]
] -46.7 MRshow
1.000 UL
LTb
714 2740 M
63 0 V
6185 0 R
-63 0 V
stroke
630 2740 M
[ [(Helvetica) 140.0 0.0 true true 0 (-1)]
] -46.7 MRshow
1.000 UL
LTb
714 3320 M
63 0 V
6185 0 R
-63 0 V
stroke
630 3320 M
[ [(Helvetica) 140.0 0.0 true true 0 (-0.5)]
] -46.7 MRshow
1.000 UL
LTb
714 3900 M
63 0 V
6185 0 R
-63 0 V
stroke
630 3900 M
[ [(Helvetica) 140.0 0.0 true true 0 ( 0)]
] -46.7 MRshow
1.000 UL
LTb
714 4480 M
63 0 V
6185 0 R
-63 0 V
stroke
630 4480 M
[ [(Helvetica) 140.0 0.0 true true 0 ( 0.5)]
] -46.7 MRshow
1.000 UL
LTb
714 420 M
0 63 V
0 3997 R
0 -63 V
stroke
714 280 M
[ [(Helvetica) 140.0 0.0 true true 0 ( 0.001)]
] -46.7 MCshow
1.000 UL
LTb
1184 420 M
0 31 V
0 4029 R
0 -31 V
1459 420 M
0 31 V
0 4029 R
0 -31 V
1654 420 M
0 31 V
0 4029 R
0 -31 V
1806 420 M
0 31 V
0 4029 R
0 -31 V
1929 420 M
0 31 V
0 4029 R
0 -31 V
2034 420 M
0 31 V
0 4029 R
0 -31 V
2125 420 M
0 31 V
0 4029 R
0 -31 V
2205 420 M
0 31 V
0 4029 R
0 -31 V
2276 420 M
0 63 V
0 3997 R
0 -63 V
stroke
2276 280 M
[ [(Helvetica) 140.0 0.0 true true 0 ( 0.01)]
] -46.7 MCshow
1.000 UL
LTb
2746 420 M
0 31 V
0 4029 R
0 -31 V
3021 420 M
0 31 V
0 4029 R
0 -31 V
3216 420 M
0 31 V
0 4029 R
0 -31 V
3368 420 M
0 31 V
0 4029 R
0 -31 V
3491 420 M
0 31 V
0 4029 R
0 -31 V
3596 420 M
0 31 V
0 4029 R
0 -31 V
3687 420 M
0 31 V
0 4029 R
0 -31 V
3767 420 M
0 31 V
0 4029 R
0 -31 V
3838 420 M
0 63 V
0 3997 R
0 -63 V
stroke
3838 280 M
[ [(Helvetica) 140.0 0.0 true true 0 ( 0.1)]
] -46.7 MCshow
1.000 UL
LTb
4308 420 M
0 31 V
0 4029 R
0 -31 V
4583 420 M
0 31 V
0 4029 R
0 -31 V
4778 420 M
0 31 V
0 4029 R
0 -31 V
4930 420 M
0 31 V
0 4029 R
0 -31 V
5053 420 M
0 31 V
0 4029 R
0 -31 V
5158 420 M
0 31 V
0 4029 R
0 -31 V
5249 420 M
0 31 V
0 4029 R
0 -31 V
5329 420 M
0 31 V
0 4029 R
0 -31 V
5400 420 M
0 63 V
0 3997 R
0 -63 V
stroke
5400 280 M
[ [(Helvetica) 140.0 0.0 true true 0 ( 1)]
] -46.7 MCshow
1.000 UL
LTb
5870 420 M
0 31 V
0 4029 R
0 -31 V
6145 420 M
0 31 V
0 4029 R
0 -31 V
6340 420 M
0 31 V
0 4029 R
0 -31 V
6492 420 M
0 31 V
0 4029 R
0 -31 V
6615 420 M
0 31 V
0 4029 R
0 -31 V
6720 420 M
0 31 V
0 4029 R
0 -31 V
6811 420 M
0 31 V
0 4029 R
0 -31 V
6891 420 M
0 31 V
0 4029 R
0 -31 V
6962 420 M
0 63 V
0 3997 R
0 -63 V
stroke
6962 280 M
[ [(Helvetica) 140.0 0.0 true true 0 ( 10)]
] -46.7 MCshow
1.000 UL
LTb
1.000 UL
LTb
714 420 M
6248 0 V
0 4060 V
-6248 0 V
714 420 L
LTb
140 2450 M
currentpoint gsave translate 90 rotate 0 0 moveto
[ [(Helvetica) 140.0 0.0 true true 0 (x-flux)]
] -46.7 MCshow
grestore
LTb
3838 70 M
[ [(Helvetica) 140.0 0.0 true true 0 (time)]
] -46.7 MCshow
LTb
3838 4830 M
[ [(Helvetica) 140.0 0.0 true true 0 (x-flux time history in domain at \(1/3, 1/3\))]
] -46.7 MCshow
3838 4690 M
[ [(Helvetica) 140.0 0.0 true true 0 (steady-state boundary conditions, less accuracy)]
] -46.7 MCshow
1.000 UP
1.000 UP
1.000 UL
LT0
LTb
1974 1113 M
[ [(Helvetica) 140.0 0.0 true true 0 (Fourier series)]
] -46.7 MRshow
LT0
2058 1113 M
399 0 V
1755 3851 M
521 -790 V
2797 1380 L
3317 543 L
521 235 V
521 653 V
520 617 V
521 276 V
521 29 V
520 0 V
1755 3851 Pls
2276 3061 Pls
2797 1380 Pls
3317 543 Pls
3838 778 Pls
4359 1431 Pls
4879 2048 Pls
5400 2324 Pls
5921 2353 Pls
6441 2353 Pls
2257 1113 Pls
1.000 UP
1.000 UL
LT1
LTb
1974 973 M
[ [(Helvetica) 140.0 0.0 true true 0 (Talbot)]
] -46.7 MRshow
LT1
2058 973 M
399 0 V
1755 3851 M
521 -790 V
2797 1380 L
3317 543 L
521 235 V
521 653 V
520 617 V
521 276 V
521 29 V
520 0 V
1755 3851 Crs
2276 3061 Crs
2797 1380 Crs
3317 543 Crs
3838 778 Crs
4359 1431 Crs
4879 2048 Crs
5400 2324 Crs
5921 2353 Crs
6441 2353 Crs
2257 973 Crs
1.000 UP
1.000 UL
LT2
LTb
1974 833 M
[ [(Helvetica) 140.0 0.0 true true 0 (Stehfest)]
] -46.7 MRshow
LT2
2058 833 M
399 0 V
1755 3852 M
521 -793 V
2797 1382 L
3317 542 L
521 236 V
521 653 V
520 617 V
521 276 V
521 29 V
520 0 V
1755 3852 Star
2276 3059 Star
2797 1382 Star
3317 542 Star
3838 778 Star
4359 1431 Star
4879 2048 Star
5400 2324 Star
5921 2353 Star
6441 2353 Star
2257 833 Star
1.000 UP
1.000 UL
LT3
LTb
1974 693 M
[ [(Helvetica) 140.0 0.0 true true 0 (Schapery)]
] -46.7 MRshow
LT3
2058 693 M
399 0 V
1755 3617 M
521 -834 V
2797 1556 L
3317 534 L
521 228 V
521 657 V
520 648 V
521 269 V
521 24 V
520 -8 V
1755 3617 Box
2276 2783 Box
2797 1556 Box
3317 534 Box
3838 762 Box
4359 1419 Box
4879 2067 Box
5400 2336 Box
5921 2360 Box
6441 2352 Box
2257 693 Box
1.000 UP
1.000 UL
LT4
LTb
1974 553 M
[ [(Helvetica) 140.0 0.0 true true 0 (Weeks)]
] -46.7 MRshow
LT4
2058 553 M
399 0 V
1755 3952 M
521 -920 V
2797 1354 L
3317 527 L
521 244 V
521 671 V
520 655 V
521 332 V
521 159 V
520 298 V
1755 3952 BoxF
2276 3032 BoxF
2797 1354 BoxF
3317 527 BoxF
3838 771 BoxF
4359 1442 BoxF
4879 2097 BoxF
5400 2429 BoxF
5921 2588 BoxF
6441 2886 BoxF
2257 553 BoxF
1.000 UL
LTb
714 420 M
6248 0 V
0 4060 V
-6248 0 V
714 420 L
1.000 UP
stroke
grestore
end
showpage
%%Trailer
%%DocumentFonts: Helvetica
